(module QFP48P50_900X900X160L60X22N (layer F.Cu) (tedit 0)
  (descr "Quad Flat Pack (QFP), 0.50 mm pitch; square, 12 pin X 12 pin, 7.00 mm L X 7.00 mm W X 1.60 mm H body")
  (attr smd)
  (fp_text user %R (at 0 0) (layer F.Fab)
    (effects (font (size 2 2) (thickness 0.2)))
  )
  (fp_text value VAL** (at 0 0) (layer F.Fab)
    (effects (font (size 1.2 1.2) (thickness 0.12)))
  )
  (fp_text reference REF** (at 0 0) (layer F.SilkS)
    (effects (font (size 1.2 1.2) (thickness 0.12)))
  )
  (fp_line (start -2.86 3.9) (end -2.64 3.9) (layer Dwgs.User) (width 0.025))
  (fp_line (start -2.64 3.9) (end -2.64 4.5) (layer Dwgs.User) (width 0.025))
  (fp_line (start -2.64 4.5) (end -2.86 4.5) (layer Dwgs.User) (width 0.025))
  (fp_line (start -2.86 4.5) (end -2.86 3.9) (layer Dwgs.User) (width 0.025))
  (fp_line (start -2.36 3.9) (end -2.14 3.9) (layer Dwgs.User) (width 0.025))
  (fp_line (start -2.14 3.9) (end -2.14 4.5) (layer Dwgs.User) (width 0.025))
  (fp_line (start -2.14 4.5) (end -2.36 4.5) (layer Dwgs.User) (width 0.025))
  (fp_line (start -2.36 4.5) (end -2.36 3.9) (layer Dwgs.User) (width 0.025))
  (fp_line (start -1.86 3.9) (end -1.64 3.9) (layer Dwgs.User) (width 0.025))
  (fp_line (start -1.64 3.9) (end -1.64 4.5) (layer Dwgs.User) (width 0.025))
  (fp_line (start -1.64 4.5) (end -1.86 4.5) (layer Dwgs.User) (width 0.025))
  (fp_line (start -1.86 4.5) (end -1.86 3.9) (layer Dwgs.User) (width 0.025))
  (fp_line (start -1.36 3.9) (end -1.14 3.9) (layer Dwgs.User) (width 0.025))
  (fp_line (start -1.14 3.9) (end -1.14 4.5) (layer Dwgs.User) (width 0.025))
  (fp_line (start -1.14 4.5) (end -1.36 4.5) (layer Dwgs.User) (width 0.025))
  (fp_line (start -1.36 4.5) (end -1.36 3.9) (layer Dwgs.User) (width 0.025))
  (fp_line (start -0.86 3.9) (end -0.64 3.9) (layer Dwgs.User) (width 0.025))
  (fp_line (start -0.64 3.9) (end -0.64 4.5) (layer Dwgs.User) (width 0.025))
  (fp_line (start -0.64 4.5) (end -0.86 4.5) (layer Dwgs.User) (width 0.025))
  (fp_line (start -0.86 4.5) (end -0.86 3.9) (layer Dwgs.User) (width 0.025))
  (fp_line (start -0.36 3.9) (end -0.14 3.9) (layer Dwgs.User) (width 0.025))
  (fp_line (start -0.14 3.9) (end -0.14 4.5) (layer Dwgs.User) (width 0.025))
  (fp_line (start -0.14 4.5) (end -0.36 4.5) (layer Dwgs.User) (width 0.025))
  (fp_line (start -0.36 4.5) (end -0.36 3.9) (layer Dwgs.User) (width 0.025))
  (fp_line (start 0.14 3.9) (end 0.36 3.9) (layer Dwgs.User) (width 0.025))
  (fp_line (start 0.36 3.9) (end 0.36 4.5) (layer Dwgs.User) (width 0.025))
  (fp_line (start 0.36 4.5) (end 0.14 4.5) (layer Dwgs.User) (width 0.025))
  (fp_line (start 0.14 4.5) (end 0.14 3.9) (layer Dwgs.User) (width 0.025))
  (fp_line (start 0.64 3.9) (end 0.86 3.9) (layer Dwgs.User) (width 0.025))
  (fp_line (start 0.86 3.9) (end 0.86 4.5) (layer Dwgs.User) (width 0.025))
  (fp_line (start 0.86 4.5) (end 0.64 4.5) (layer Dwgs.User) (width 0.025))
  (fp_line (start 0.64 4.5) (end 0.64 3.9) (layer Dwgs.User) (width 0.025))
  (fp_line (start 1.14 3.9) (end 1.36 3.9) (layer Dwgs.User) (width 0.025))
  (fp_line (start 1.36 3.9) (end 1.36 4.5) (layer Dwgs.User) (width 0.025))
  (fp_line (start 1.36 4.5) (end 1.14 4.5) (layer Dwgs.User) (width 0.025))
  (fp_line (start 1.14 4.5) (end 1.14 3.9) (layer Dwgs.User) (width 0.025))
  (fp_line (start 1.64 3.9) (end 1.86 3.9) (layer Dwgs.User) (width 0.025))
  (fp_line (start 1.86 3.9) (end 1.86 4.5) (layer Dwgs.User) (width 0.025))
  (fp_line (start 1.86 4.5) (end 1.64 4.5) (layer Dwgs.User) (width 0.025))
  (fp_line (start 1.64 4.5) (end 1.64 3.9) (layer Dwgs.User) (width 0.025))
  (fp_line (start 2.14 3.9) (end 2.36 3.9) (layer Dwgs.User) (width 0.025))
  (fp_line (start 2.36 3.9) (end 2.36 4.5) (layer Dwgs.User) (width 0.025))
  (fp_line (start 2.36 4.5) (end 2.14 4.5) (layer Dwgs.User) (width 0.025))
  (fp_line (start 2.14 4.5) (end 2.14 3.9) (layer Dwgs.User) (width 0.025))
  (fp_line (start 2.64 3.9) (end 2.86 3.9) (layer Dwgs.User) (width 0.025))
  (fp_line (start 2.86 3.9) (end 2.86 4.5) (layer Dwgs.User) (width 0.025))
  (fp_line (start 2.86 4.5) (end 2.64 4.5) (layer Dwgs.User) (width 0.025))
  (fp_line (start 2.64 4.5) (end 2.64 3.9) (layer Dwgs.User) (width 0.025))
  (fp_line (start 3.9 2.86) (end 3.9 2.64) (layer Dwgs.User) (width 0.025))
  (fp_line (start 3.9 2.64) (end 4.5 2.64) (layer Dwgs.User) (width 0.025))
  (fp_line (start 4.5 2.64) (end 4.5 2.86) (layer Dwgs.User) (width 0.025))
  (fp_line (start 4.5 2.86) (end 3.9 2.86) (layer Dwgs.User) (width 0.025))
  (fp_line (start 3.9 2.36) (end 3.9 2.14) (layer Dwgs.User) (width 0.025))
  (fp_line (start 3.9 2.14) (end 4.5 2.14) (layer Dwgs.User) (width 0.025))
  (fp_line (start 4.5 2.14) (end 4.5 2.36) (layer Dwgs.User) (width 0.025))
  (fp_line (start 4.5 2.36) (end 3.9 2.36) (layer Dwgs.User) (width 0.025))
  (fp_line (start 3.9 1.86) (end 3.9 1.64) (layer Dwgs.User) (width 0.025))
  (fp_line (start 3.9 1.64) (end 4.5 1.64) (layer Dwgs.User) (width 0.025))
  (fp_line (start 4.5 1.64) (end 4.5 1.86) (layer Dwgs.User) (width 0.025))
  (fp_line (start 4.5 1.86) (end 3.9 1.86) (layer Dwgs.User) (width 0.025))
  (fp_line (start 3.9 1.36) (end 3.9 1.14) (layer Dwgs.User) (width 0.025))
  (fp_line (start 3.9 1.14) (end 4.5 1.14) (layer Dwgs.User) (width 0.025))
  (fp_line (start 4.5 1.14) (end 4.5 1.36) (layer Dwgs.User) (width 0.025))
  (fp_line (start 4.5 1.36) (end 3.9 1.36) (layer Dwgs.User) (width 0.025))
  (fp_line (start 3.9 0.86) (end 3.9 0.64) (layer Dwgs.User) (width 0.025))
  (fp_line (start 3.9 0.64) (end 4.5 0.64) (layer Dwgs.User) (width 0.025))
  (fp_line (start 4.5 0.64) (end 4.5 0.86) (layer Dwgs.User) (width 0.025))
  (fp_line (start 4.5 0.86) (end 3.9 0.86) (layer Dwgs.User) (width 0.025))
  (fp_line (start 3.9 0.36) (end 3.9 0.14) (layer Dwgs.User) (width 0.025))
  (fp_line (start 3.9 0.14) (end 4.5 0.14) (layer Dwgs.User) (width 0.025))
  (fp_line (start 4.5 0.14) (end 4.5 0.36) (layer Dwgs.User) (width 0.025))
  (fp_line (start 4.5 0.36) (end 3.9 0.36) (layer Dwgs.User) (width 0.025))
  (fp_line (start 3.9 -0.14) (end 3.9 -0.36) (layer Dwgs.User) (width 0.025))
  (fp_line (start 3.9 -0.36) (end 4.5 -0.36) (layer Dwgs.User) (width 0.025))
  (fp_line (start 4.5 -0.36) (end 4.5 -0.14) (layer Dwgs.User) (width 0.025))
  (fp_line (start 4.5 -0.14) (end 3.9 -0.14) (layer Dwgs.User) (width 0.025))
  (fp_line (start 3.9 -0.64) (end 3.9 -0.86) (layer Dwgs.User) (width 0.025))
  (fp_line (start 3.9 -0.86) (end 4.5 -0.86) (layer Dwgs.User) (width 0.025))
  (fp_line (start 4.5 -0.86) (end 4.5 -0.64) (layer Dwgs.User) (width 0.025))
  (fp_line (start 4.5 -0.64) (end 3.9 -0.64) (layer Dwgs.User) (width 0.025))
  (fp_line (start 3.9 -1.14) (end 3.9 -1.36) (layer Dwgs.User) (width 0.025))
  (fp_line (start 3.9 -1.36) (end 4.5 -1.36) (layer Dwgs.User) (width 0.025))
  (fp_line (start 4.5 -1.36) (end 4.5 -1.14) (layer Dwgs.User) (width 0.025))
  (fp_line (start 4.5 -1.14) (end 3.9 -1.14) (layer Dwgs.User) (width 0.025))
  (fp_line (start 3.9 -1.64) (end 3.9 -1.86) (layer Dwgs.User) (width 0.025))
  (fp_line (start 3.9 -1.86) (end 4.5 -1.86) (layer Dwgs.User) (width 0.025))
  (fp_line (start 4.5 -1.86) (end 4.5 -1.64) (layer Dwgs.User) (width 0.025))
  (fp_line (start 4.5 -1.64) (end 3.9 -1.64) (layer Dwgs.User) (width 0.025))
  (fp_line (start 3.9 -2.14) (end 3.9 -2.36) (layer Dwgs.User) (width 0.025))
  (fp_line (start 3.9 -2.36) (end 4.5 -2.36) (layer Dwgs.User) (width 0.025))
  (fp_line (start 4.5 -2.36) (end 4.5 -2.14) (layer Dwgs.User) (width 0.025))
  (fp_line (start 4.5 -2.14) (end 3.9 -2.14) (layer Dwgs.User) (width 0.025))
  (fp_line (start 3.9 -2.64) (end 3.9 -2.86) (layer Dwgs.User) (width 0.025))
  (fp_line (start 3.9 -2.86) (end 4.5 -2.86) (layer Dwgs.User) (width 0.025))
  (fp_line (start 4.5 -2.86) (end 4.5 -2.64) (layer Dwgs.User) (width 0.025))
  (fp_line (start 4.5 -2.64) (end 3.9 -2.64) (layer Dwgs.User) (width 0.025))
  (fp_line (start 2.86 -3.9) (end 2.64 -3.9) (layer Dwgs.User) (width 0.025))
  (fp_line (start 2.64 -3.9) (end 2.64 -4.5) (layer Dwgs.User) (width 0.025))
  (fp_line (start 2.64 -4.5) (end 2.86 -4.5) (layer Dwgs.User) (width 0.025))
  (fp_line (start 2.86 -4.5) (end 2.86 -3.9) (layer Dwgs.User) (width 0.025))
  (fp_line (start 2.36 -3.9) (end 2.14 -3.9) (layer Dwgs.User) (width 0.025))
  (fp_line (start 2.14 -3.9) (end 2.14 -4.5) (layer Dwgs.User) (width 0.025))
  (fp_line (start 2.14 -4.5) (end 2.36 -4.5) (layer Dwgs.User) (width 0.025))
  (fp_line (start 2.36 -4.5) (end 2.36 -3.9) (layer Dwgs.User) (width 0.025))
  (fp_line (start 1.86 -3.9) (end 1.64 -3.9) (layer Dwgs.User) (width 0.025))
  (fp_line (start 1.64 -3.9) (end 1.64 -4.5) (layer Dwgs.User) (width 0.025))
  (fp_line (start 1.64 -4.5) (end 1.86 -4.5) (layer Dwgs.User) (width 0.025))
  (fp_line (start 1.86 -4.5) (end 1.86 -3.9) (layer Dwgs.User) (width 0.025))
  (fp_line (start 1.36 -3.9) (end 1.14 -3.9) (layer Dwgs.User) (width 0.025))
  (fp_line (start 1.14 -3.9) (end 1.14 -4.5) (layer Dwgs.User) (width 0.025))
  (fp_line (start 1.14 -4.5) (end 1.36 -4.5) (layer Dwgs.User) (width 0.025))
  (fp_line (start 1.36 -4.5) (end 1.36 -3.9) (layer Dwgs.User) (width 0.025))
  (fp_line (start 0.86 -3.9) (end 0.64 -3.9) (layer Dwgs.User) (width 0.025))
  (fp_line (start 0.64 -3.9) (end 0.64 -4.5) (layer Dwgs.User) (width 0.025))
  (fp_line (start 0.64 -4.5) (end 0.86 -4.5) (layer Dwgs.User) (width 0.025))
  (fp_line (start 0.86 -4.5) (end 0.86 -3.9) (layer Dwgs.User) (width 0.025))
  (fp_line (start 0.36 -3.9) (end 0.14 -3.9) (layer Dwgs.User) (width 0.025))
  (fp_line (start 0.14 -3.9) (end 0.14 -4.5) (layer Dwgs.User) (width 0.025))
  (fp_line (start 0.14 -4.5) (end 0.36 -4.5) (layer Dwgs.User) (width 0.025))
  (fp_line (start 0.36 -4.5) (end 0.36 -3.9) (layer Dwgs.User) (width 0.025))
  (fp_line (start -0.14 -3.9) (end -0.36 -3.9) (layer Dwgs.User) (width 0.025))
  (fp_line (start -0.36 -3.9) (end -0.36 -4.5) (layer Dwgs.User) (width 0.025))
  (fp_line (start -0.36 -4.5) (end -0.14 -4.5) (layer Dwgs.User) (width 0.025))
  (fp_line (start -0.14 -4.5) (end -0.14 -3.9) (layer Dwgs.User) (width 0.025))
  (fp_line (start -0.64 -3.9) (end -0.86 -3.9) (layer Dwgs.User) (width 0.025))
  (fp_line (start -0.86 -3.9) (end -0.86 -4.5) (layer Dwgs.User) (width 0.025))
  (fp_line (start -0.86 -4.5) (end -0.64 -4.5) (layer Dwgs.User) (width 0.025))
  (fp_line (start -0.64 -4.5) (end -0.64 -3.9) (layer Dwgs.User) (width 0.025))
  (fp_line (start -1.14 -3.9) (end -1.36 -3.9) (layer Dwgs.User) (width 0.025))
  (fp_line (start -1.36 -3.9) (end -1.36 -4.5) (layer Dwgs.User) (width 0.025))
  (fp_line (start -1.36 -4.5) (end -1.14 -4.5) (layer Dwgs.User) (width 0.025))
  (fp_line (start -1.14 -4.5) (end -1.14 -3.9) (layer Dwgs.User) (width 0.025))
  (fp_line (start -1.64 -3.9) (end -1.86 -3.9) (layer Dwgs.User) (width 0.025))
  (fp_line (start -1.86 -3.9) (end -1.86 -4.5) (layer Dwgs.User) (width 0.025))
  (fp_line (start -1.86 -4.5) (end -1.64 -4.5) (layer Dwgs.User) (width 0.025))
  (fp_line (start -1.64 -4.5) (end -1.64 -3.9) (layer Dwgs.User) (width 0.025))
  (fp_line (start -2.14 -3.9) (end -2.36 -3.9) (layer Dwgs.User) (width 0.025))
  (fp_line (start -2.36 -3.9) (end -2.36 -4.5) (layer Dwgs.User) (width 0.025))
  (fp_line (start -2.36 -4.5) (end -2.14 -4.5) (layer Dwgs.User) (width 0.025))
  (fp_line (start -2.14 -4.5) (end -2.14 -3.9) (layer Dwgs.User) (width 0.025))
  (fp_line (start -2.64 -3.9) (end -2.86 -3.9) (layer Dwgs.User) (width 0.025))
  (fp_line (start -2.86 -3.9) (end -2.86 -4.5) (layer Dwgs.User) (width 0.025))
  (fp_line (start -2.86 -4.5) (end -2.64 -4.5) (layer Dwgs.User) (width 0.025))
  (fp_line (start -2.64 -4.5) (end -2.64 -3.9) (layer Dwgs.User) (width 0.025))
  (fp_line (start -3.9 -2.86) (end -3.9 -2.64) (layer Dwgs.User) (width 0.025))
  (fp_line (start -3.9 -2.64) (end -4.5 -2.64) (layer Dwgs.User) (width 0.025))
  (fp_line (start -4.5 -2.64) (end -4.5 -2.86) (layer Dwgs.User) (width 0.025))
  (fp_line (start -4.5 -2.86) (end -3.9 -2.86) (layer Dwgs.User) (width 0.025))
  (fp_line (start -3.9 -2.36) (end -3.9 -2.14) (layer Dwgs.User) (width 0.025))
  (fp_line (start -3.9 -2.14) (end -4.5 -2.14) (layer Dwgs.User) (width 0.025))
  (fp_line (start -4.5 -2.14) (end -4.5 -2.36) (layer Dwgs.User) (width 0.025))
  (fp_line (start -4.5 -2.36) (end -3.9 -2.36) (layer Dwgs.User) (width 0.025))
  (fp_line (start -3.9 -1.86) (end -3.9 -1.64) (layer Dwgs.User) (width 0.025))
  (fp_line (start -3.9 -1.64) (end -4.5 -1.64) (layer Dwgs.User) (width 0.025))
  (fp_line (start -4.5 -1.64) (end -4.5 -1.86) (layer Dwgs.User) (width 0.025))
  (fp_line (start -4.5 -1.86) (end -3.9 -1.86) (layer Dwgs.User) (width 0.025))
  (fp_line (start -3.9 -1.36) (end -3.9 -1.14) (layer Dwgs.User) (width 0.025))
  (fp_line (start -3.9 -1.14) (end -4.5 -1.14) (layer Dwgs.User) (width 0.025))
  (fp_line (start -4.5 -1.14) (end -4.5 -1.36) (layer Dwgs.User) (width 0.025))
  (fp_line (start -4.5 -1.36) (end -3.9 -1.36) (layer Dwgs.User) (width 0.025))
  (fp_line (start -3.9 -0.86) (end -3.9 -0.64) (layer Dwgs.User) (width 0.025))
  (fp_line (start -3.9 -0.64) (end -4.5 -0.64) (layer Dwgs.User) (width 0.025))
  (fp_line (start -4.5 -0.64) (end -4.5 -0.86) (layer Dwgs.User) (width 0.025))
  (fp_line (start -4.5 -0.86) (end -3.9 -0.86) (layer Dwgs.User) (width 0.025))
  (fp_line (start -3.9 -0.36) (end -3.9 -0.14) (layer Dwgs.User) (width 0.025))
  (fp_line (start -3.9 -0.14) (end -4.5 -0.14) (layer Dwgs.User) (width 0.025))
  (fp_line (start -4.5 -0.14) (end -4.5 -0.36) (layer Dwgs.User) (width 0.025))
  (fp_line (start -4.5 -0.36) (end -3.9 -0.36) (layer Dwgs.User) (width 0.025))
  (fp_line (start -3.9 0.14) (end -3.9 0.36) (layer Dwgs.User) (width 0.025))
  (fp_line (start -3.9 0.36) (end -4.5 0.36) (layer Dwgs.User) (width 0.025))
  (fp_line (start -4.5 0.36) (end -4.5 0.14) (layer Dwgs.User) (width 0.025))
  (fp_line (start -4.5 0.14) (end -3.9 0.14) (layer Dwgs.User) (width 0.025))
  (fp_line (start -3.9 0.64) (end -3.9 0.86) (layer Dwgs.User) (width 0.025))
  (fp_line (start -3.9 0.86) (end -4.5 0.86) (layer Dwgs.User) (width 0.025))
  (fp_line (start -4.5 0.86) (end -4.5 0.64) (layer Dwgs.User) (width 0.025))
  (fp_line (start -4.5 0.64) (end -3.9 0.64) (layer Dwgs.User) (width 0.025))
  (fp_line (start -3.9 1.14) (end -3.9 1.36) (layer Dwgs.User) (width 0.025))
  (fp_line (start -3.9 1.36) (end -4.5 1.36) (layer Dwgs.User) (width 0.025))
  (fp_line (start -4.5 1.36) (end -4.5 1.14) (layer Dwgs.User) (width 0.025))
  (fp_line (start -4.5 1.14) (end -3.9 1.14) (layer Dwgs.User) (width 0.025))
  (fp_line (start -3.9 1.64) (end -3.9 1.86) (layer Dwgs.User) (width 0.025))
  (fp_line (start -3.9 1.86) (end -4.5 1.86) (layer Dwgs.User) (width 0.025))
  (fp_line (start -4.5 1.86) (end -4.5 1.64) (layer Dwgs.User) (width 0.025))
  (fp_line (start -4.5 1.64) (end -3.9 1.64) (layer Dwgs.User) (width 0.025))
  (fp_line (start -3.9 2.14) (end -3.9 2.36) (layer Dwgs.User) (width 0.025))
  (fp_line (start -3.9 2.36) (end -4.5 2.36) (layer Dwgs.User) (width 0.025))
  (fp_line (start -4.5 2.36) (end -4.5 2.14) (layer Dwgs.User) (width 0.025))
  (fp_line (start -4.5 2.14) (end -3.9 2.14) (layer Dwgs.User) (width 0.025))
  (fp_line (start -3.9 2.64) (end -3.9 2.86) (layer Dwgs.User) (width 0.025))
  (fp_line (start -3.9 2.86) (end -4.5 2.86) (layer Dwgs.User) (width 0.025))
  (fp_line (start -4.5 2.86) (end -4.5 2.64) (layer Dwgs.User) (width 0.025))
  (fp_line (start -4.5 2.64) (end -3.9 2.64) (layer Dwgs.User) (width 0.025))
  (fp_line (start -3.5 3.5) (end -3.5 -3.5) (layer Dwgs.User) (width 0.025))
  (fp_line (start -3.5 -3.5) (end 3.5 -3.5) (layer Dwgs.User) (width 0.025))
  (fp_line (start 3.5 -3.5) (end 3.5 3.5) (layer Dwgs.User) (width 0.025))
  (fp_line (start 3.5 3.5) (end -3.5 3.5) (layer Dwgs.User) (width 0.025))
  (fp_line (start -3.14 3.5) (end -3.14 4.545) (layer F.SilkS) (width 0.16))
  (fp_circle (center 0 0) (end 0 0.25) (layer F.CrtYd) (width 0.05))
  (fp_line (start 0 -0.35) (end 0 0.35) (layer F.CrtYd) (width 0.05))
  (fp_line (start -0.35 0) (end 0.35 0) (layer F.CrtYd) (width 0.05))
  (fp_line (start 3.5 3.5) (end -2.23 3.5) (layer F.Fab) (width 0.16))
  (fp_line (start -2.23 3.5) (end -3.5 2.23) (layer F.Fab) (width 0.16))
  (fp_line (start -3.5 2.23) (end -3.5 -3.5) (layer F.Fab) (width 0.16))
  (fp_line (start -3.5 -3.5) (end 3.5 -3.5) (layer F.Fab) (width 0.16))
  (fp_line (start 3.5 -3.5) (end 3.5 3.5) (layer F.Fab) (width 0.16))
  (fp_line (start -3.14 3.5) (end -3.5 3.5) (layer F.SilkS) (width 0.16))
  (fp_line (start -3.5 3.5) (end -3.5 3.14) (layer F.SilkS) (width 0.16))
  (fp_line (start 3.14 3.5) (end 3.5 3.5) (layer F.SilkS) (width 0.16))
  (fp_line (start 3.5 3.5) (end 3.5 3.14) (layer F.SilkS) (width 0.16))
  (fp_line (start 3.14 -3.5) (end 3.5 -3.5) (layer F.SilkS) (width 0.16))
  (fp_line (start 3.5 -3.5) (end 3.5 -3.14) (layer F.SilkS) (width 0.16))
  (fp_line (start -3.14 -3.5) (end -3.5 -3.5) (layer F.SilkS) (width 0.16))
  (fp_line (start -3.5 -3.5) (end -3.5 -3.14) (layer F.SilkS) (width 0.16))
  (fp_line (start 3.7 3.7) (end 3.7 3.1) (layer F.CrtYd) (width 0.05))
  (fp_line (start 3.7 3.1) (end 4.905 3.1) (layer F.CrtYd) (width 0.05))
  (fp_line (start 4.905 3.1) (end 4.905 -3.1) (layer F.CrtYd) (width 0.05))
  (fp_line (start 4.905 -3.1) (end 3.7 -3.1) (layer F.CrtYd) (width 0.05))
  (fp_line (start 3.7 -3.1) (end 3.7 -3.7) (layer F.CrtYd) (width 0.05))
  (fp_line (start 3.7 -3.7) (end 3.1 -3.7) (layer F.CrtYd) (width 0.05))
  (fp_line (start 3.1 -3.7) (end 3.1 -4.905) (layer F.CrtYd) (width 0.05))
  (fp_line (start 3.1 -4.905) (end -3.1 -4.905) (layer F.CrtYd) (width 0.05))
  (fp_line (start -3.1 -4.905) (end -3.1 -3.7) (layer F.CrtYd) (width 0.05))
  (fp_line (start -3.1 -3.7) (end -3.7 -3.7) (layer F.CrtYd) (width 0.05))
  (fp_line (start -3.7 -3.7) (end -3.7 -3.1) (layer F.CrtYd) (width 0.05))
  (fp_line (start -3.7 -3.1) (end -4.905 -3.1) (layer F.CrtYd) (width 0.05))
  (fp_line (start -4.905 -3.1) (end -4.905 3.1) (layer F.CrtYd) (width 0.05))
  (fp_line (start -4.905 3.1) (end -3.7 3.1) (layer F.CrtYd) (width 0.05))
  (fp_line (start -3.7 3.1) (end -3.7 3.7) (layer F.CrtYd) (width 0.05))
  (fp_line (start -3.7 3.7) (end -3.1 3.7) (layer F.CrtYd) (width 0.05))
  (fp_line (start -3.1 3.7) (end -3.1 4.905) (layer F.CrtYd) (width 0.05))
  (fp_line (start -3.1 4.905) (end 3.1 4.905) (layer F.CrtYd) (width 0.05))
  (fp_line (start 3.1 4.905) (end 3.1 3.7) (layer F.CrtYd) (width 0.05))
  (fp_line (start 3.1 3.7) (end 3.7 3.7) (layer F.CrtYd) (width 0.05))
  (pad 1 smd roundrect (at -2.75 4.12 90) (size 1.17 0.3) (layers F.Cu F.Paste F.Mask) (roundrect_rratio 0.2667))
  (pad 2 smd roundrect (at -2.25 4.12 90) (size 1.17 0.3) (layers F.Cu F.Paste F.Mask) (roundrect_rratio 0.2667))
  (pad 3 smd roundrect (at -1.75 4.12 90) (size 1.17 0.3) (layers F.Cu F.Paste F.Mask) (roundrect_rratio 0.2667))
  (pad 4 smd roundrect (at -1.25 4.12 90) (size 1.17 0.3) (layers F.Cu F.Paste F.Mask) (roundrect_rratio 0.2667))
  (pad 5 smd roundrect (at -0.75 4.12 90) (size 1.17 0.3) (layers F.Cu F.Paste F.Mask) (roundrect_rratio 0.2667))
  (pad 6 smd roundrect (at -0.25 4.12 90) (size 1.17 0.3) (layers F.Cu F.Paste F.Mask) (roundrect_rratio 0.2667))
  (pad 7 smd roundrect (at 0.25 4.12 90) (size 1.17 0.3) (layers F.Cu F.Paste F.Mask) (roundrect_rratio 0.2667))
  (pad 8 smd roundrect (at 0.75 4.12 90) (size 1.17 0.3) (layers F.Cu F.Paste F.Mask) (roundrect_rratio 0.2667))
  (pad 9 smd roundrect (at 1.25 4.12 90) (size 1.17 0.3) (layers F.Cu F.Paste F.Mask) (roundrect_rratio 0.2667))
  (pad 10 smd roundrect (at 1.75 4.12 90) (size 1.17 0.3) (layers F.Cu F.Paste F.Mask) (roundrect_rratio 0.2667))
  (pad 11 smd roundrect (at 2.25 4.12 90) (size 1.17 0.3) (layers F.Cu F.Paste F.Mask) (roundrect_rratio 0.2667))
  (pad 12 smd roundrect (at 2.75 4.12 90) (size 1.17 0.3) (layers F.Cu F.Paste F.Mask) (roundrect_rratio 0.2667))
  (pad 13 smd roundrect (at 4.12 2.75) (size 1.17 0.3) (layers F.Cu F.Paste F.Mask) (roundrect_rratio 0.2667))
  (pad 14 smd roundrect (at 4.12 2.25) (size 1.17 0.3) (layers F.Cu F.Paste F.Mask) (roundrect_rratio 0.2667))
  (pad 15 smd roundrect (at 4.12 1.75) (size 1.17 0.3) (layers F.Cu F.Paste F.Mask) (roundrect_rratio 0.2667))
  (pad 16 smd roundrect (at 4.12 1.25) (size 1.17 0.3) (layers F.Cu F.Paste F.Mask) (roundrect_rratio 0.2667))
  (pad 17 smd roundrect (at 4.12 0.75) (size 1.17 0.3) (layers F.Cu F.Paste F.Mask) (roundrect_rratio 0.2667))
  (pad 18 smd roundrect (at 4.12 0.25) (size 1.17 0.3) (layers F.Cu F.Paste F.Mask) (roundrect_rratio 0.2667))
  (pad 19 smd roundrect (at 4.12 -0.25) (size 1.17 0.3) (layers F.Cu F.Paste F.Mask) (roundrect_rratio 0.2667))
  (pad 20 smd roundrect (at 4.12 -0.75) (size 1.17 0.3) (layers F.Cu F.Paste F.Mask) (roundrect_rratio 0.2667))
  (pad 21 smd roundrect (at 4.12 -1.25) (size 1.17 0.3) (layers F.Cu F.Paste F.Mask) (roundrect_rratio 0.2667))
  (pad 22 smd roundrect (at 4.12 -1.75) (size 1.17 0.3) (layers F.Cu F.Paste F.Mask) (roundrect_rratio 0.2667))
  (pad 23 smd roundrect (at 4.12 -2.25) (size 1.17 0.3) (layers F.Cu F.Paste F.Mask) (roundrect_rratio 0.2667))
  (pad 24 smd roundrect (at 4.12 -2.75) (size 1.17 0.3) (layers F.Cu F.Paste F.Mask) (roundrect_rratio 0.2667))
  (pad 25 smd roundrect (at 2.75 -4.12 90) (size 1.17 0.3) (layers F.Cu F.Paste F.Mask) (roundrect_rratio 0.2667))
  (pad 26 smd roundrect (at 2.25 -4.12 90) (size 1.17 0.3) (layers F.Cu F.Paste F.Mask) (roundrect_rratio 0.2667))
  (pad 27 smd roundrect (at 1.75 -4.12 90) (size 1.17 0.3) (layers F.Cu F.Paste F.Mask) (roundrect_rratio 0.2667))
  (pad 28 smd roundrect (at 1.25 -4.12 90) (size 1.17 0.3) (layers F.Cu F.Paste F.Mask) (roundrect_rratio 0.2667))
  (pad 29 smd roundrect (at 0.75 -4.12 90) (size 1.17 0.3) (layers F.Cu F.Paste F.Mask) (roundrect_rratio 0.2667))
  (pad 30 smd roundrect (at 0.25 -4.12 90) (size 1.17 0.3) (layers F.Cu F.Paste F.Mask) (roundrect_rratio 0.2667))
  (pad 31 smd roundrect (at -0.25 -4.12 90) (size 1.17 0.3) (layers F.Cu F.Paste F.Mask) (roundrect_rratio 0.2667))
  (pad 32 smd roundrect (at -0.75 -4.12 90) (size 1.17 0.3) (layers F.Cu F.Paste F.Mask) (roundrect_rratio 0.2667))
  (pad 33 smd roundrect (at -1.25 -4.12 90) (size 1.17 0.3) (layers F.Cu F.Paste F.Mask) (roundrect_rratio 0.2667))
  (pad 34 smd roundrect (at -1.75 -4.12 90) (size 1.17 0.3) (layers F.Cu F.Paste F.Mask) (roundrect_rratio 0.2667))
  (pad 35 smd roundrect (at -2.25 -4.12 90) (size 1.17 0.3) (layers F.Cu F.Paste F.Mask) (roundrect_rratio 0.2667))
  (pad 36 smd roundrect (at -2.75 -4.12 90) (size 1.17 0.3) (layers F.Cu F.Paste F.Mask) (roundrect_rratio 0.2667))
  (pad 37 smd roundrect (at -4.12 -2.75) (size 1.17 0.3) (layers F.Cu F.Paste F.Mask) (roundrect_rratio 0.2667))
  (pad 38 smd roundrect (at -4.12 -2.25) (size 1.17 0.3) (layers F.Cu F.Paste F.Mask) (roundrect_rratio 0.2667))
  (pad 39 smd roundrect (at -4.12 -1.75) (size 1.17 0.3) (layers F.Cu F.Paste F.Mask) (roundrect_rratio 0.2667))
  (pad 40 smd roundrect (at -4.12 -1.25) (size 1.17 0.3) (layers F.Cu F.Paste F.Mask) (roundrect_rratio 0.2667))
  (pad 41 smd roundrect (at -4.12 -0.75) (size 1.17 0.3) (layers F.Cu F.Paste F.Mask) (roundrect_rratio 0.2667))
  (pad 42 smd roundrect (at -4.12 -0.25) (size 1.17 0.3) (layers F.Cu F.Paste F.Mask) (roundrect_rratio 0.2667))
  (pad 43 smd roundrect (at -4.12 0.25) (size 1.17 0.3) (layers F.Cu F.Paste F.Mask) (roundrect_rratio 0.2667))
  (pad 44 smd roundrect (at -4.12 0.75) (size 1.17 0.3) (layers F.Cu F.Paste F.Mask) (roundrect_rratio 0.2667))
  (pad 45 smd roundrect (at -4.12 1.25) (size 1.17 0.3) (layers F.Cu F.Paste F.Mask) (roundrect_rratio 0.2667))
  (pad 46 smd roundrect (at -4.12 1.75) (size 1.17 0.3) (layers F.Cu F.Paste F.Mask) (roundrect_rratio 0.2667))
  (pad 47 smd roundrect (at -4.12 2.25) (size 1.17 0.3) (layers F.Cu F.Paste F.Mask) (roundrect_rratio 0.2667))
  (pad 48 smd roundrect (at -4.12 2.75) (size 1.17 0.3) (layers F.Cu F.Paste F.Mask) (roundrect_rratio 0.2667))
)
