ISO-10303-21;
HEADER;
FILE_DESCRIPTION (( 'STEP AP214' ), '1' );
FILE_NAME ( 'XTALDFN2_320X150X90L75X150.STEP',
    '2020-10-19T11:48:22',
    ( '' ),
    ( '' ),
    'Part was generated with the free Library Expert Lite available at www.PCBLibraries.com. Removing line will violate the End User License Agreement.',
    '©2017 PCB Libraries, Inc.',
    '' );
FILE_SCHEMA (( 'AUTOMOTIVE_DESIGN' ));
ENDSEC;

DATA;
#1 = APPLICATION_CONTEXT ( 'automotive_design' ) ;
#2 = APPLICATION_PROTOCOL_DEFINITION ( 'draft international standard', '', 0, #1 ) ;
#3 = APPLICATION_CONTEXT ( 'automotive_design' ) ;
#4 = PRODUCT_CONTEXT ( 'NONE', #3, 'mechanical' ) ;
#5 = PRODUCT ( 'XTALDFN2_320X150X90L75X150', 'XTALDFN2_320X150X90L75X150', '', ( #4 ) ) ;
#6 = PRODUCT_RELATED_PRODUCT_CATEGORY ( 'part', '', ( #5 ) ) ;
#7 = APPLICATION_PROTOCOL_DEFINITION ( 'draft international standard', '', 0, #3 ) ;
#8 = COLOUR_RGB ( '',0.75294117647059, 0.75294117647059, 0.75294117647059 ) ;
#9 = FILL_AREA_STYLE_COLOUR ( '', #8 ) ;
#10 = FILL_AREA_STYLE ('',( #9 ) ) ;
#11 = SURFACE_STYLE_FILL_AREA ( #10 ) ;
#12 = SURFACE_SIDE_STYLE ( '',( #11 ) ) ;
#13 = SURFACE_STYLE_USAGE ( .BOTH. , #12 ) ;
#14 = PRESENTATION_STYLE_ASSIGNMENT (( #13 ) ) ;
#15 = CARTESIAN_POINT ( 'NONE',  ( -0.850000000000000, 0.000000000000000, 0.750000000000000 ) ) ;
#16 = VERTEX_POINT ( 'NONE', #15 ) ;
#17 = CARTESIAN_POINT ( 'NONE',  ( -0.850000000000000, 0.000000000000000, -0.750000000000000 ) ) ;
#18 = VERTEX_POINT ( 'NONE', #17 ) ;
#19 = CARTESIAN_POINT ( 'NONE',  ( -0.850000000000000, 0.000000000000000, 0.750000000000000 ) ) ;
#20 = DIRECTION ( 'NONE',  ( 0.000000000000000, 0.000000000000000, -1.000000000000000 ) ) ;
#21 = VECTOR ( 'NONE', #20, 1000.000000000000000 ) ;
#22 = LINE ( 'NONE', #19, #21 ) ;
#23 = EDGE_CURVE ( 'NONE', #16, #18, #22, .T. ) ;
#24 = ORIENTED_EDGE ( 'NONE', *, *, #23, .T. ) ;
#25 = CARTESIAN_POINT ( 'NONE',  ( -0.850000000000000, 0.050000000000000, -0.750000000000000 ) ) ;
#26 = VERTEX_POINT ( 'NONE', #25 ) ;
#27 = CARTESIAN_POINT ( 'NONE',  ( -0.850000000000000, 0.050000000000000, -0.750000000000000 ) ) ;
#28 = DIRECTION ( 'NONE',  ( 0.000000000000000, -1.000000000000000, 0.000000000000000 ) ) ;
#29 = VECTOR ( 'NONE', #28, 1000.000000000000000 ) ;
#30 = LINE ( 'NONE', #27, #29 ) ;
#31 = EDGE_CURVE ( 'NONE', #26, #18, #30, .T. ) ;
#32 = ORIENTED_EDGE ( 'NONE', *, *, #31, .F. ) ;
#33 = CARTESIAN_POINT ( 'NONE',  ( -0.850000000000000, 0.050000000000000, 0.750000000000000 ) ) ;
#34 = VERTEX_POINT ( 'NONE', #33 ) ;
#35 = CARTESIAN_POINT ( 'NONE',  ( -0.850000000000000, 0.050000000000000, 0.750000000000000 ) ) ;
#36 = DIRECTION ( 'NONE',  ( 0.000000000000000, 0.000000000000000, -1.000000000000000 ) ) ;
#37 = VECTOR ( 'NONE', #36, 1000.000000000000000 ) ;
#38 = LINE ( 'NONE', #35, #37 ) ;
#39 = EDGE_CURVE ( 'NONE', #34, #26, #38, .T. ) ;
#40 = ORIENTED_EDGE ( 'NONE', *, *, #39, .F. ) ;
#41 = CARTESIAN_POINT ( 'NONE',  ( -0.850000000000000, 0.050000000000000, 0.750000000000000 ) ) ;
#42 = DIRECTION ( 'NONE',  ( 0.000000000000000, -1.000000000000000, 0.000000000000000 ) ) ;
#43 = VECTOR ( 'NONE', #42, 1000.000000000000000 ) ;
#44 = LINE ( 'NONE', #41, #43 ) ;
#45 = EDGE_CURVE ( 'NONE', #34, #16, #44, .T. ) ;
#46 = ORIENTED_EDGE ( 'NONE', *, *, #45, .T. ) ;
#47 = EDGE_LOOP ( 'NONE', ( #24, #32, #40, #46 ) ) ;
#48 = FACE_OUTER_BOUND ( 'NONE', #47, .T. ) ;
#49 = CARTESIAN_POINT ( 'NONE',  ( -0.850000000000000, 0.050000000000000, 0.750000000000000 ) ) ;
#50 = DIRECTION ( 'NONE',  ( -1.000000000000000, 0.000000000000000, 0.000000000000000 ) ) ;
#51 = DIRECTION ( 'NONE',  ( 0.000000000000000, 0.000000000000000, 1.000000000000000 ) ) ;
#52 = AXIS2_PLACEMENT_3D ( 'NONE', #49, #50, #51 ) ;
#53 = PLANE ( 'NONE', #52 ) ;
#54 = ADVANCED_FACE ( 'NONE', ( #48 ), #53, .F. ) ;
#55 = CARTESIAN_POINT ( 'NONE',  ( -1.600000000000000, 0.000000000000000, -0.750000000000000 ) ) ;
#56 = VERTEX_POINT ( 'NONE', #55 ) ;
#57 = CARTESIAN_POINT ( 'NONE',  ( -1.600000000000000, 0.000000000000000, -0.750000000000000 ) ) ;
#58 = DIRECTION ( 'NONE',  ( -1.000000000000000, 0.000000000000000, 0.000000000000000 ) ) ;
#59 = VECTOR ( 'NONE', #58, 1000.000000000000000 ) ;
#60 = LINE ( 'NONE', #57, #59 ) ;
#61 = EDGE_CURVE ( 'NONE', #18, #56, #60, .T. ) ;
#62 = ORIENTED_EDGE ( 'NONE', *, *, #61, .T. ) ;
#63 = CARTESIAN_POINT ( 'NONE',  ( -1.600000000000000, 0.050000000000000, -0.750000000000000 ) ) ;
#64 = VERTEX_POINT ( 'NONE', #63 ) ;
#65 = CARTESIAN_POINT ( 'NONE',  ( -1.600000000000000, 0.050000000000000, -0.750000000000000 ) ) ;
#66 = DIRECTION ( 'NONE',  ( 0.000000000000000, -1.000000000000000, 0.000000000000000 ) ) ;
#67 = VECTOR ( 'NONE', #66, 1000.000000000000000 ) ;
#68 = LINE ( 'NONE', #65, #67 ) ;
#69 = EDGE_CURVE ( 'NONE', #64, #56, #68, .T. ) ;
#70 = ORIENTED_EDGE ( 'NONE', *, *, #69, .F. ) ;
#71 = CARTESIAN_POINT ( 'NONE',  ( -1.600000000000000, 0.050000000000000, -0.750000000000000 ) ) ;
#72 = DIRECTION ( 'NONE',  ( -1.000000000000000, 0.000000000000000, 0.000000000000000 ) ) ;
#73 = VECTOR ( 'NONE', #72, 1000.000000000000000 ) ;
#74 = LINE ( 'NONE', #71, #73 ) ;
#75 = EDGE_CURVE ( 'NONE', #26, #64, #74, .T. ) ;
#76 = ORIENTED_EDGE ( 'NONE', *, *, #75, .F. ) ;
#77 = ORIENTED_EDGE ( 'NONE', *, *, #31, .T. ) ;
#78 = EDGE_LOOP ( 'NONE', ( #62, #70, #76, #77 ) ) ;
#79 = FACE_OUTER_BOUND ( 'NONE', #78, .T. ) ;
#80 = CARTESIAN_POINT ( 'NONE',  ( -1.600000000000000, 0.050000000000000, -0.750000000000000 ) ) ;
#81 = DIRECTION ( 'NONE',  ( 0.000000000000000, 0.000000000000000, 1.000000000000000 ) ) ;
#82 = DIRECTION ( 'NONE',  ( 1.000000000000000, 0.000000000000000, 0.000000000000000 ) ) ;
#83 = AXIS2_PLACEMENT_3D ( 'NONE', #80, #81, #82 ) ;
#84 = PLANE ( 'NONE', #83 ) ;
#85 = ADVANCED_FACE ( 'NONE', ( #79 ), #84, .F. ) ;
#86 = CARTESIAN_POINT ( 'NONE',  ( -1.600000000000000, 0.000000000000000, 0.750000000000000 ) ) ;
#87 = VERTEX_POINT ( 'NONE', #86 ) ;
#88 = CARTESIAN_POINT ( 'NONE',  ( -1.600000000000000, 0.000000000000000, 0.750000000000000 ) ) ;
#89 = DIRECTION ( 'NONE',  ( 0.000000000000000, 0.000000000000000, 1.000000000000000 ) ) ;
#90 = VECTOR ( 'NONE', #89, 1000.000000000000000 ) ;
#91 = LINE ( 'NONE', #88, #90 ) ;
#92 = EDGE_CURVE ( 'NONE', #56, #87, #91, .T. ) ;
#93 = ORIENTED_EDGE ( 'NONE', *, *, #92, .T. ) ;
#94 = CARTESIAN_POINT ( 'NONE',  ( -1.600000000000000, 0.050000000000000, 0.750000000000000 ) ) ;
#95 = VERTEX_POINT ( 'NONE', #94 ) ;
#96 = CARTESIAN_POINT ( 'NONE',  ( -1.600000000000000, 0.050000000000000, 0.750000000000000 ) ) ;
#97 = DIRECTION ( 'NONE',  ( 0.000000000000000, -1.000000000000000, 0.000000000000000 ) ) ;
#98 = VECTOR ( 'NONE', #97, 1000.000000000000000 ) ;
#99 = LINE ( 'NONE', #96, #98 ) ;
#100 = EDGE_CURVE ( 'NONE', #95, #87, #99, .T. ) ;
#101 = ORIENTED_EDGE ( 'NONE', *, *, #100, .F. ) ;
#102 = CARTESIAN_POINT ( 'NONE',  ( -1.600000000000000, 0.050000000000000, 0.750000000000000 ) ) ;
#103 = DIRECTION ( 'NONE',  ( 0.000000000000000, 0.000000000000000, 1.000000000000000 ) ) ;
#104 = VECTOR ( 'NONE', #103, 1000.000000000000000 ) ;
#105 = LINE ( 'NONE', #102, #104 ) ;
#106 = EDGE_CURVE ( 'NONE', #64, #95, #105, .T. ) ;
#107 = ORIENTED_EDGE ( 'NONE', *, *, #106, .F. ) ;
#108 = ORIENTED_EDGE ( 'NONE', *, *, #69, .T. ) ;
#109 = EDGE_LOOP ( 'NONE', ( #93, #101, #107, #108 ) ) ;
#110 = FACE_OUTER_BOUND ( 'NONE', #109, .T. ) ;
#111 = CARTESIAN_POINT ( 'NONE',  ( -1.600000000000000, 0.050000000000000, 0.750000000000000 ) ) ;
#112 = DIRECTION ( 'NONE',  ( 1.000000000000000, 0.000000000000000, 0.000000000000000 ) ) ;
#113 = DIRECTION ( 'NONE',  ( 0.000000000000000, 0.000000000000000, -1.000000000000000 ) ) ;
#114 = AXIS2_PLACEMENT_3D ( 'NONE', #111, #112, #113 ) ;
#115 = PLANE ( 'NONE', #114 ) ;
#116 = ADVANCED_FACE ( 'NONE', ( #110 ), #115, .F. ) ;
#117 = CARTESIAN_POINT ( 'NONE',  ( -1.600000000000000, 0.000000000000000, 0.750000000000000 ) ) ;
#118 = DIRECTION ( 'NONE',  ( 1.000000000000000, 0.000000000000000, 0.000000000000000 ) ) ;
#119 = VECTOR ( 'NONE', #118, 1000.000000000000000 ) ;
#120 = LINE ( 'NONE', #117, #119 ) ;
#121 = EDGE_CURVE ( 'NONE', #87, #16, #120, .T. ) ;
#122 = ORIENTED_EDGE ( 'NONE', *, *, #121, .T. ) ;
#123 = ORIENTED_EDGE ( 'NONE', *, *, #45, .F. ) ;
#124 = CARTESIAN_POINT ( 'NONE',  ( -1.600000000000000, 0.050000000000000, 0.750000000000000 ) ) ;
#125 = DIRECTION ( 'NONE',  ( 1.000000000000000, 0.000000000000000, 0.000000000000000 ) ) ;
#126 = VECTOR ( 'NONE', #125, 1000.000000000000000 ) ;
#127 = LINE ( 'NONE', #124, #126 ) ;
#128 = EDGE_CURVE ( 'NONE', #95, #34, #127, .T. ) ;
#129 = ORIENTED_EDGE ( 'NONE', *, *, #128, .F. ) ;
#130 = ORIENTED_EDGE ( 'NONE', *, *, #100, .T. ) ;
#131 = EDGE_LOOP ( 'NONE', ( #122, #123, #129, #130 ) ) ;
#132 = FACE_OUTER_BOUND ( 'NONE', #131, .T. ) ;
#133 = CARTESIAN_POINT ( 'NONE',  ( -1.600000000000000, 0.050000000000000, 0.750000000000000 ) ) ;
#134 = DIRECTION ( 'NONE',  ( 0.000000000000000, 0.000000000000000, -1.000000000000000 ) ) ;
#135 = DIRECTION ( 'NONE',  ( -1.000000000000000, 0.000000000000000, 0.000000000000000 ) ) ;
#136 = AXIS2_PLACEMENT_3D ( 'NONE', #133, #134, #135 ) ;
#137 = PLANE ( 'NONE', #136 ) ;
#138 = ADVANCED_FACE ( 'NONE', ( #132 ), #137, .F. ) ;
#139 = ORIENTED_EDGE ( 'NONE', *, *, #39, .T. ) ;
#140 = ORIENTED_EDGE ( 'NONE', *, *, #75, .T. ) ;
#141 = ORIENTED_EDGE ( 'NONE', *, *, #106, .T. ) ;
#142 = ORIENTED_EDGE ( 'NONE', *, *, #128, .T. ) ;
#143 = EDGE_LOOP ( 'NONE', ( #139, #140, #141, #142 ) ) ;
#144 = FACE_OUTER_BOUND ( 'NONE', #143, .T. ) ;
#145 = CARTESIAN_POINT ( 'NONE',  ( -1.225000000000000, 0.050000000000000, 0.000000000000000 ) ) ;
#146 = DIRECTION ( 'NONE',  ( 0.000000000000000, -1.000000000000000, 0.000000000000000 ) ) ;
#147 = DIRECTION ( 'NONE',  ( 0.000000000000000, 0.000000000000000, -1.000000000000000 ) ) ;
#148 = AXIS2_PLACEMENT_3D ( 'NONE', #145, #146, #147 ) ;
#149 = PLANE ( 'NONE', #148 ) ;
#150 = ADVANCED_FACE ( 'NONE', ( #144 ), #149, .F. ) ;
#151 = ORIENTED_EDGE ( 'NONE', *, *, #23, .F. ) ;
#152 = ORIENTED_EDGE ( 'NONE', *, *, #121, .F. ) ;
#153 = ORIENTED_EDGE ( 'NONE', *, *, #92, .F. ) ;
#154 = ORIENTED_EDGE ( 'NONE', *, *, #61, .F. ) ;
#155 = EDGE_LOOP ( 'NONE', ( #151, #152, #153, #154 ) ) ;
#156 = FACE_OUTER_BOUND ( 'NONE', #155, .T. ) ;
#157 = CARTESIAN_POINT ( 'NONE',  ( -1.225000000000000, 0.000000000000000, 0.000000000000000 ) ) ;
#158 = DIRECTION ( 'NONE',  ( 0.000000000000000, -1.000000000000000, 0.000000000000000 ) ) ;
#159 = DIRECTION ( 'NONE',  ( 0.000000000000000, 0.000000000000000, -1.000000000000000 ) ) ;
#160 = AXIS2_PLACEMENT_3D ( 'NONE', #157, #158, #159 ) ;
#161 = PLANE ( 'NONE', #160 ) ;
#162 = ADVANCED_FACE ( 'NONE', ( #156 ), #161, .T. ) ;
#163 = CLOSED_SHELL ( 'NONE', ( #54, #85, #116, #138, #150, #162 ) ) ;
#164 = MANIFOLD_SOLID_BREP ( 'Pin1', #163 ) ;
#165 = STYLED_ITEM ( 'NONE', ( #14 ), #164 ) ;
#166 = PRESENTATION_LAYER_ASSIGNMENT (  '',  '', ( #165 ) ) ;
#167 = ( LENGTH_UNIT ( ) NAMED_UNIT ( * ) SI_UNIT ( .MILLI., .METRE. ) ) ;
#168 = UNCERTAINTY_MEASURE_WITH_UNIT (LENGTH_MEASURE( 1.000000000000000100E-005 ), #167, 'distance_accuracy_value', 'NONE') ;
#169 = ( NAMED_UNIT ( * ) PLANE_ANGLE_UNIT ( ) SI_UNIT ( $, .RADIAN. ) ) ;
#170 = ( NAMED_UNIT ( * ) SI_UNIT ( $, .STERADIAN. ) SOLID_ANGLE_UNIT ( ) ) ;
#171 = ( GEOMETRIC_REPRESENTATION_CONTEXT ( 3 ) GLOBAL_UNCERTAINTY_ASSIGNED_CONTEXT ( ( #168 ) ) GLOBAL_UNIT_ASSIGNED_CONTEXT ( ( #167, #169, #170 ) ) REPRESENTATION_CONTEXT ( 'NONE', 'WORKASPACE' ) ) ;
#172 = MECHANICAL_DESIGN_GEOMETRIC_PRESENTATION_REPRESENTATION (  '', ( #165 ), #171 ) ;
#173 = STYLED_ITEM ( 'NONE', ( #14 ), #54 ) ;
#174 = PRESENTATION_LAYER_ASSIGNMENT (  '',  '', ( #173 ) ) ;
#175 = MECHANICAL_DESIGN_GEOMETRIC_PRESENTATION_REPRESENTATION (  '', ( #173 ), #171 ) ;
#176 = STYLED_ITEM ( 'NONE', ( #14 ), #85 ) ;
#177 = PRESENTATION_LAYER_ASSIGNMENT (  '',  '', ( #176 ) ) ;
#178 = MECHANICAL_DESIGN_GEOMETRIC_PRESENTATION_REPRESENTATION (  '', ( #176 ), #171 ) ;
#179 = STYLED_ITEM ( 'NONE', ( #14 ), #116 ) ;
#180 = PRESENTATION_LAYER_ASSIGNMENT (  '',  '', ( #179 ) ) ;
#181 = MECHANICAL_DESIGN_GEOMETRIC_PRESENTATION_REPRESENTATION (  '', ( #179 ), #171 ) ;
#182 = STYLED_ITEM ( 'NONE', ( #14 ), #138 ) ;
#183 = PRESENTATION_LAYER_ASSIGNMENT (  '',  '', ( #182 ) ) ;
#184 = MECHANICAL_DESIGN_GEOMETRIC_PRESENTATION_REPRESENTATION (  '', ( #182 ), #171 ) ;
#185 = STYLED_ITEM ( 'NONE', ( #14 ), #150 ) ;
#186 = PRESENTATION_LAYER_ASSIGNMENT (  '',  '', ( #185 ) ) ;
#187 = MECHANICAL_DESIGN_GEOMETRIC_PRESENTATION_REPRESENTATION (  '', ( #185 ), #171 ) ;
#188 = STYLED_ITEM ( 'NONE', ( #14 ), #162 ) ;
#189 = PRESENTATION_LAYER_ASSIGNMENT (  '',  '', ( #188 ) ) ;
#190 = MECHANICAL_DESIGN_GEOMETRIC_PRESENTATION_REPRESENTATION (  '', ( #188 ), #171 ) ;
#191 = COLOUR_RGB ( '',0.75294117647059, 0.75294117647059, 0.75294117647059 ) ;
#192 = FILL_AREA_STYLE_COLOUR ( '', #191 ) ;
#193 = FILL_AREA_STYLE ('',( #192 ) ) ;
#194 = SURFACE_STYLE_FILL_AREA ( #193 ) ;
#195 = SURFACE_SIDE_STYLE ( '',( #194 ) ) ;
#196 = SURFACE_STYLE_USAGE ( .BOTH. , #195 ) ;
#197 = PRESENTATION_STYLE_ASSIGNMENT (( #196 ) ) ;
#198 = CARTESIAN_POINT ( 'NONE',  ( 1.600000000000000, 0.000000000000000, 0.750000000000000 ) ) ;
#199 = VERTEX_POINT ( 'NONE', #198 ) ;
#200 = CARTESIAN_POINT ( 'NONE',  ( 1.600000000000000, 0.000000000000000, -0.750000000000000 ) ) ;
#201 = VERTEX_POINT ( 'NONE', #200 ) ;
#202 = CARTESIAN_POINT ( 'NONE',  ( 1.600000000000000, 0.000000000000000, 0.750000000000000 ) ) ;
#203 = DIRECTION ( 'NONE',  ( 0.000000000000000, 0.000000000000000, -1.000000000000000 ) ) ;
#204 = VECTOR ( 'NONE', #203, 1000.000000000000000 ) ;
#205 = LINE ( 'NONE', #202, #204 ) ;
#206 = EDGE_CURVE ( 'NONE', #199, #201, #205, .T. ) ;
#207 = ORIENTED_EDGE ( 'NONE', *, *, #206, .T. ) ;
#208 = CARTESIAN_POINT ( 'NONE',  ( 1.600000000000000, 0.050000000000000, -0.750000000000000 ) ) ;
#209 = VERTEX_POINT ( 'NONE', #208 ) ;
#210 = CARTESIAN_POINT ( 'NONE',  ( 1.600000000000000, 0.050000000000000, -0.750000000000000 ) ) ;
#211 = DIRECTION ( 'NONE',  ( 0.000000000000000, -1.000000000000000, 0.000000000000000 ) ) ;
#212 = VECTOR ( 'NONE', #211, 1000.000000000000000 ) ;
#213 = LINE ( 'NONE', #210, #212 ) ;
#214 = EDGE_CURVE ( 'NONE', #209, #201, #213, .T. ) ;
#215 = ORIENTED_EDGE ( 'NONE', *, *, #214, .F. ) ;
#216 = CARTESIAN_POINT ( 'NONE',  ( 1.600000000000000, 0.050000000000000, 0.750000000000000 ) ) ;
#217 = VERTEX_POINT ( 'NONE', #216 ) ;
#218 = CARTESIAN_POINT ( 'NONE',  ( 1.600000000000000, 0.050000000000000, 0.750000000000000 ) ) ;
#219 = DIRECTION ( 'NONE',  ( 0.000000000000000, 0.000000000000000, -1.000000000000000 ) ) ;
#220 = VECTOR ( 'NONE', #219, 1000.000000000000000 ) ;
#221 = LINE ( 'NONE', #218, #220 ) ;
#222 = EDGE_CURVE ( 'NONE', #217, #209, #221, .T. ) ;
#223 = ORIENTED_EDGE ( 'NONE', *, *, #222, .F. ) ;
#224 = CARTESIAN_POINT ( 'NONE',  ( 1.600000000000000, 0.050000000000000, 0.750000000000000 ) ) ;
#225 = DIRECTION ( 'NONE',  ( 0.000000000000000, -1.000000000000000, 0.000000000000000 ) ) ;
#226 = VECTOR ( 'NONE', #225, 1000.000000000000000 ) ;
#227 = LINE ( 'NONE', #224, #226 ) ;
#228 = EDGE_CURVE ( 'NONE', #217, #199, #227, .T. ) ;
#229 = ORIENTED_EDGE ( 'NONE', *, *, #228, .T. ) ;
#230 = EDGE_LOOP ( 'NONE', ( #207, #215, #223, #229 ) ) ;
#231 = FACE_OUTER_BOUND ( 'NONE', #230, .T. ) ;
#232 = CARTESIAN_POINT ( 'NONE',  ( 1.600000000000000, 0.050000000000000, 0.750000000000000 ) ) ;
#233 = DIRECTION ( 'NONE',  ( -1.000000000000000, 0.000000000000000, 0.000000000000000 ) ) ;
#234 = DIRECTION ( 'NONE',  ( 0.000000000000000, 0.000000000000000, 1.000000000000000 ) ) ;
#235 = AXIS2_PLACEMENT_3D ( 'NONE', #232, #233, #234 ) ;
#236 = PLANE ( 'NONE', #235 ) ;
#237 = ADVANCED_FACE ( 'NONE', ( #231 ), #236, .F. ) ;
#238 = CARTESIAN_POINT ( 'NONE',  ( 0.850000000000000, 0.000000000000000, -0.750000000000000 ) ) ;
#239 = VERTEX_POINT ( 'NONE', #238 ) ;
#240 = CARTESIAN_POINT ( 'NONE',  ( 0.850000000000000, 0.000000000000000, -0.750000000000000 ) ) ;
#241 = DIRECTION ( 'NONE',  ( -1.000000000000000, 0.000000000000000, 0.000000000000000 ) ) ;
#242 = VECTOR ( 'NONE', #241, 1000.000000000000000 ) ;
#243 = LINE ( 'NONE', #240, #242 ) ;
#244 = EDGE_CURVE ( 'NONE', #201, #239, #243, .T. ) ;
#245 = ORIENTED_EDGE ( 'NONE', *, *, #244, .T. ) ;
#246 = CARTESIAN_POINT ( 'NONE',  ( 0.850000000000000, 0.050000000000000, -0.750000000000000 ) ) ;
#247 = VERTEX_POINT ( 'NONE', #246 ) ;
#248 = CARTESIAN_POINT ( 'NONE',  ( 0.850000000000000, 0.050000000000000, -0.750000000000000 ) ) ;
#249 = DIRECTION ( 'NONE',  ( 0.000000000000000, -1.000000000000000, 0.000000000000000 ) ) ;
#250 = VECTOR ( 'NONE', #249, 1000.000000000000000 ) ;
#251 = LINE ( 'NONE', #248, #250 ) ;
#252 = EDGE_CURVE ( 'NONE', #247, #239, #251, .T. ) ;
#253 = ORIENTED_EDGE ( 'NONE', *, *, #252, .F. ) ;
#254 = CARTESIAN_POINT ( 'NONE',  ( 0.850000000000000, 0.050000000000000, -0.750000000000000 ) ) ;
#255 = DIRECTION ( 'NONE',  ( -1.000000000000000, 0.000000000000000, 0.000000000000000 ) ) ;
#256 = VECTOR ( 'NONE', #255, 1000.000000000000000 ) ;
#257 = LINE ( 'NONE', #254, #256 ) ;
#258 = EDGE_CURVE ( 'NONE', #209, #247, #257, .T. ) ;
#259 = ORIENTED_EDGE ( 'NONE', *, *, #258, .F. ) ;
#260 = ORIENTED_EDGE ( 'NONE', *, *, #214, .T. ) ;
#261 = EDGE_LOOP ( 'NONE', ( #245, #253, #259, #260 ) ) ;
#262 = FACE_OUTER_BOUND ( 'NONE', #261, .T. ) ;
#263 = CARTESIAN_POINT ( 'NONE',  ( 0.850000000000000, 0.050000000000000, -0.750000000000000 ) ) ;
#264 = DIRECTION ( 'NONE',  ( 0.000000000000000, 0.000000000000000, 1.000000000000000 ) ) ;
#265 = DIRECTION ( 'NONE',  ( 1.000000000000000, 0.000000000000000, 0.000000000000000 ) ) ;
#266 = AXIS2_PLACEMENT_3D ( 'NONE', #263, #264, #265 ) ;
#267 = PLANE ( 'NONE', #266 ) ;
#268 = ADVANCED_FACE ( 'NONE', ( #262 ), #267, .F. ) ;
#269 = CARTESIAN_POINT ( 'NONE',  ( 0.850000000000000, 0.000000000000000, 0.750000000000000 ) ) ;
#270 = VERTEX_POINT ( 'NONE', #269 ) ;
#271 = CARTESIAN_POINT ( 'NONE',  ( 0.850000000000000, 0.000000000000000, 0.750000000000000 ) ) ;
#272 = DIRECTION ( 'NONE',  ( 0.000000000000000, 0.000000000000000, 1.000000000000000 ) ) ;
#273 = VECTOR ( 'NONE', #272, 1000.000000000000000 ) ;
#274 = LINE ( 'NONE', #271, #273 ) ;
#275 = EDGE_CURVE ( 'NONE', #239, #270, #274, .T. ) ;
#276 = ORIENTED_EDGE ( 'NONE', *, *, #275, .T. ) ;
#277 = CARTESIAN_POINT ( 'NONE',  ( 0.850000000000000, 0.050000000000000, 0.750000000000000 ) ) ;
#278 = VERTEX_POINT ( 'NONE', #277 ) ;
#279 = CARTESIAN_POINT ( 'NONE',  ( 0.850000000000000, 0.050000000000000, 0.750000000000000 ) ) ;
#280 = DIRECTION ( 'NONE',  ( 0.000000000000000, -1.000000000000000, 0.000000000000000 ) ) ;
#281 = VECTOR ( 'NONE', #280, 1000.000000000000000 ) ;
#282 = LINE ( 'NONE', #279, #281 ) ;
#283 = EDGE_CURVE ( 'NONE', #278, #270, #282, .T. ) ;
#284 = ORIENTED_EDGE ( 'NONE', *, *, #283, .F. ) ;
#285 = CARTESIAN_POINT ( 'NONE',  ( 0.850000000000000, 0.050000000000000, 0.750000000000000 ) ) ;
#286 = DIRECTION ( 'NONE',  ( 0.000000000000000, 0.000000000000000, 1.000000000000000 ) ) ;
#287 = VECTOR ( 'NONE', #286, 1000.000000000000000 ) ;
#288 = LINE ( 'NONE', #285, #287 ) ;
#289 = EDGE_CURVE ( 'NONE', #247, #278, #288, .T. ) ;
#290 = ORIENTED_EDGE ( 'NONE', *, *, #289, .F. ) ;
#291 = ORIENTED_EDGE ( 'NONE', *, *, #252, .T. ) ;
#292 = EDGE_LOOP ( 'NONE', ( #276, #284, #290, #291 ) ) ;
#293 = FACE_OUTER_BOUND ( 'NONE', #292, .T. ) ;
#294 = CARTESIAN_POINT ( 'NONE',  ( 0.850000000000000, 0.050000000000000, 0.750000000000000 ) ) ;
#295 = DIRECTION ( 'NONE',  ( 1.000000000000000, 0.000000000000000, 0.000000000000000 ) ) ;
#296 = DIRECTION ( 'NONE',  ( 0.000000000000000, 0.000000000000000, -1.000000000000000 ) ) ;
#297 = AXIS2_PLACEMENT_3D ( 'NONE', #294, #295, #296 ) ;
#298 = PLANE ( 'NONE', #297 ) ;
#299 = ADVANCED_FACE ( 'NONE', ( #293 ), #298, .F. ) ;
#300 = CARTESIAN_POINT ( 'NONE',  ( 0.850000000000000, 0.000000000000000, 0.750000000000000 ) ) ;
#301 = DIRECTION ( 'NONE',  ( 1.000000000000000, 0.000000000000000, 0.000000000000000 ) ) ;
#302 = VECTOR ( 'NONE', #301, 1000.000000000000000 ) ;
#303 = LINE ( 'NONE', #300, #302 ) ;
#304 = EDGE_CURVE ( 'NONE', #270, #199, #303, .T. ) ;
#305 = ORIENTED_EDGE ( 'NONE', *, *, #304, .T. ) ;
#306 = ORIENTED_EDGE ( 'NONE', *, *, #228, .F. ) ;
#307 = CARTESIAN_POINT ( 'NONE',  ( 0.850000000000000, 0.050000000000000, 0.750000000000000 ) ) ;
#308 = DIRECTION ( 'NONE',  ( 1.000000000000000, 0.000000000000000, 0.000000000000000 ) ) ;
#309 = VECTOR ( 'NONE', #308, 1000.000000000000000 ) ;
#310 = LINE ( 'NONE', #307, #309 ) ;
#311 = EDGE_CURVE ( 'NONE', #278, #217, #310, .T. ) ;
#312 = ORIENTED_EDGE ( 'NONE', *, *, #311, .F. ) ;
#313 = ORIENTED_EDGE ( 'NONE', *, *, #283, .T. ) ;
#314 = EDGE_LOOP ( 'NONE', ( #305, #306, #312, #313 ) ) ;
#315 = FACE_OUTER_BOUND ( 'NONE', #314, .T. ) ;
#316 = CARTESIAN_POINT ( 'NONE',  ( 0.850000000000000, 0.050000000000000, 0.750000000000000 ) ) ;
#317 = DIRECTION ( 'NONE',  ( 0.000000000000000, 0.000000000000000, -1.000000000000000 ) ) ;
#318 = DIRECTION ( 'NONE',  ( -1.000000000000000, 0.000000000000000, 0.000000000000000 ) ) ;
#319 = AXIS2_PLACEMENT_3D ( 'NONE', #316, #317, #318 ) ;
#320 = PLANE ( 'NONE', #319 ) ;
#321 = ADVANCED_FACE ( 'NONE', ( #315 ), #320, .F. ) ;
#322 = ORIENTED_EDGE ( 'NONE', *, *, #222, .T. ) ;
#323 = ORIENTED_EDGE ( 'NONE', *, *, #258, .T. ) ;
#324 = ORIENTED_EDGE ( 'NONE', *, *, #289, .T. ) ;
#325 = ORIENTED_EDGE ( 'NONE', *, *, #311, .T. ) ;
#326 = EDGE_LOOP ( 'NONE', ( #322, #323, #324, #325 ) ) ;
#327 = FACE_OUTER_BOUND ( 'NONE', #326, .T. ) ;
#328 = CARTESIAN_POINT ( 'NONE',  ( 1.225000000000000, 0.050000000000000, 0.000000000000000 ) ) ;
#329 = DIRECTION ( 'NONE',  ( 0.000000000000000, -1.000000000000000, 0.000000000000000 ) ) ;
#330 = DIRECTION ( 'NONE',  ( 0.000000000000000, 0.000000000000000, -1.000000000000000 ) ) ;
#331 = AXIS2_PLACEMENT_3D ( 'NONE', #328, #329, #330 ) ;
#332 = PLANE ( 'NONE', #331 ) ;
#333 = ADVANCED_FACE ( 'NONE', ( #327 ), #332, .F. ) ;
#334 = ORIENTED_EDGE ( 'NONE', *, *, #206, .F. ) ;
#335 = ORIENTED_EDGE ( 'NONE', *, *, #304, .F. ) ;
#336 = ORIENTED_EDGE ( 'NONE', *, *, #275, .F. ) ;
#337 = ORIENTED_EDGE ( 'NONE', *, *, #244, .F. ) ;
#338 = EDGE_LOOP ( 'NONE', ( #334, #335, #336, #337 ) ) ;
#339 = FACE_OUTER_BOUND ( 'NONE', #338, .T. ) ;
#340 = CARTESIAN_POINT ( 'NONE',  ( 1.225000000000000, 0.000000000000000, 0.000000000000000 ) ) ;
#341 = DIRECTION ( 'NONE',  ( 0.000000000000000, -1.000000000000000, 0.000000000000000 ) ) ;
#342 = DIRECTION ( 'NONE',  ( 0.000000000000000, 0.000000000000000, -1.000000000000000 ) ) ;
#343 = AXIS2_PLACEMENT_3D ( 'NONE', #340, #341, #342 ) ;
#344 = PLANE ( 'NONE', #343 ) ;
#345 = ADVANCED_FACE ( 'NONE', ( #339 ), #344, .T. ) ;
#346 = CLOSED_SHELL ( 'NONE', ( #237, #268, #299, #321, #333, #345 ) ) ;
#347 = MANIFOLD_SOLID_BREP ( 'Pin2', #346 ) ;
#348 = STYLED_ITEM ( 'NONE', ( #197 ), #347 ) ;
#349 = PRESENTATION_LAYER_ASSIGNMENT (  '',  '', ( #348 ) ) ;
#350 = MECHANICAL_DESIGN_GEOMETRIC_PRESENTATION_REPRESENTATION (  '', ( #348 ), #171 ) ;
#351 = STYLED_ITEM ( 'NONE', ( #197 ), #237 ) ;
#352 = PRESENTATION_LAYER_ASSIGNMENT (  '',  '', ( #351 ) ) ;
#353 = MECHANICAL_DESIGN_GEOMETRIC_PRESENTATION_REPRESENTATION (  '', ( #351 ), #171 ) ;
#354 = STYLED_ITEM ( 'NONE', ( #197 ), #268 ) ;
#355 = PRESENTATION_LAYER_ASSIGNMENT (  '',  '', ( #354 ) ) ;
#356 = MECHANICAL_DESIGN_GEOMETRIC_PRESENTATION_REPRESENTATION (  '', ( #354 ), #171 ) ;
#357 = STYLED_ITEM ( 'NONE', ( #197 ), #299 ) ;
#358 = PRESENTATION_LAYER_ASSIGNMENT (  '',  '', ( #357 ) ) ;
#359 = MECHANICAL_DESIGN_GEOMETRIC_PRESENTATION_REPRESENTATION (  '', ( #357 ), #171 ) ;
#360 = STYLED_ITEM ( 'NONE', ( #197 ), #321 ) ;
#361 = PRESENTATION_LAYER_ASSIGNMENT (  '',  '', ( #360 ) ) ;
#362 = MECHANICAL_DESIGN_GEOMETRIC_PRESENTATION_REPRESENTATION (  '', ( #360 ), #171 ) ;
#363 = STYLED_ITEM ( 'NONE', ( #197 ), #333 ) ;
#364 = PRESENTATION_LAYER_ASSIGNMENT (  '',  '', ( #363 ) ) ;
#365 = MECHANICAL_DESIGN_GEOMETRIC_PRESENTATION_REPRESENTATION (  '', ( #363 ), #171 ) ;
#366 = STYLED_ITEM ( 'NONE', ( #197 ), #345 ) ;
#367 = PRESENTATION_LAYER_ASSIGNMENT (  '',  '', ( #366 ) ) ;
#368 = MECHANICAL_DESIGN_GEOMETRIC_PRESENTATION_REPRESENTATION (  '', ( #366 ), #171 ) ;
#369 = COLOUR_RGB ( '',0.00000000000000, 0.00000000000000, 0.00000000000000 ) ;
#370 = FILL_AREA_STYLE_COLOUR ( '', #369 ) ;
#371 = FILL_AREA_STYLE ('',( #370 ) ) ;
#372 = SURFACE_STYLE_FILL_AREA ( #371 ) ;
#373 = SURFACE_SIDE_STYLE ( '',( #372 ) ) ;
#374 = SURFACE_STYLE_USAGE ( .BOTH. , #373 ) ;
#375 = PRESENTATION_STYLE_ASSIGNMENT (( #374 ) ) ;
#376 = CARTESIAN_POINT ( 'NONE',  ( -1.330000000000000, 0.350000000000000, -0.590000000000000 ) ) ;
#377 = VERTEX_POINT ( 'NONE', #376 ) ;
#378 = CARTESIAN_POINT ( 'NONE',  ( -1.330000000000000, 0.800000000000000, -0.590000000000000 ) ) ;
#379 = VERTEX_POINT ( 'NONE', #378 ) ;
#380 = CARTESIAN_POINT ( 'NONE',  ( -1.330000000000000, 0.900000000000000, -0.590000000000000 ) ) ;
#381 = DIRECTION ( 'NONE',  ( 0.000000000000000, 1.000000000000000, 0.000000000000000 ) ) ;
#382 = VECTOR ( 'NONE', #381, 1000.000000000000000 ) ;
#383 = LINE ( 'NONE', #380, #382 ) ;
#384 = EDGE_CURVE ( 'NONE', #377, #379, #383, .T. ) ;
#385 = ORIENTED_EDGE ( 'NONE', *, *, #384, .T. ) ;
#386 = CARTESIAN_POINT ( 'NONE',  ( 1.330000000000000, 0.800000000000000, -0.590000000000000 ) ) ;
#387 = VERTEX_POINT ( 'NONE', #386 ) ;
#388 = CARTESIAN_POINT ( 'NONE',  ( -1.440000000000000, 0.800000000000000, -0.590000000000000 ) ) ;
#389 = DIRECTION ( 'NONE',  ( 1.000000000000000, 0.000000000000000, 0.000000000000000 ) ) ;
#390 = VECTOR ( 'NONE', #389, 1000.000000000000000 ) ;
#391 = LINE ( 'NONE', #388, #390 ) ;
#392 = EDGE_CURVE ( 'NONE', #379, #387, #391, .T. ) ;
#393 = ORIENTED_EDGE ( 'NONE', *, *, #392, .T. ) ;
#394 = CARTESIAN_POINT ( 'NONE',  ( 1.330000000000000, 0.350000000000000, -0.590000000000000 ) ) ;
#395 = VERTEX_POINT ( 'NONE', #394 ) ;
#396 = CARTESIAN_POINT ( 'NONE',  ( 1.330000000000000, 0.900000000000000, -0.590000000000000 ) ) ;
#397 = DIRECTION ( 'NONE',  ( 0.000000000000000, -1.000000000000000, 0.000000000000000 ) ) ;
#398 = VECTOR ( 'NONE', #397, 1000.000000000000000 ) ;
#399 = LINE ( 'NONE', #396, #398 ) ;
#400 = EDGE_CURVE ( 'NONE', #387, #395, #399, .T. ) ;
#401 = ORIENTED_EDGE ( 'NONE', *, *, #400, .T. ) ;
#402 = CARTESIAN_POINT ( 'NONE',  ( -1.440000000000000, 0.350000000000000, -0.590000000000000 ) ) ;
#403 = DIRECTION ( 'NONE',  ( -1.000000000000000, 0.000000000000000, 0.000000000000000 ) ) ;
#404 = VECTOR ( 'NONE', #403, 1000.000000000000000 ) ;
#405 = LINE ( 'NONE', #402, #404 ) ;
#406 = EDGE_CURVE ( 'NONE', #395, #377, #405, .T. ) ;
#407 = ORIENTED_EDGE ( 'NONE', *, *, #406, .T. ) ;
#408 = EDGE_LOOP ( 'NONE', ( #385, #393, #401, #407 ) ) ;
#409 = FACE_OUTER_BOUND ( 'NONE', #408, .T. ) ;
#410 = CARTESIAN_POINT ( 'NONE',  ( -1.440000000000000, 0.900000000000000, -0.590000000000000 ) ) ;
#411 = DIRECTION ( 'NONE',  ( 0.000000000000000, 0.000000000000000, 1.000000000000000 ) ) ;
#412 = DIRECTION ( 'NONE',  ( 1.000000000000000, 0.000000000000000, 0.000000000000000 ) ) ;
#413 = AXIS2_PLACEMENT_3D ( 'NONE', #410, #411, #412 ) ;
#414 = PLANE ( 'NONE', #413 ) ;
#415 = ADVANCED_FACE ( 'NONE', ( #409 ), #414, .F. ) ;
#416 = CARTESIAN_POINT ( 'NONE',  ( 1.440000000000000, 0.800000000000000, 0.480000000000000 ) ) ;
#417 = VERTEX_POINT ( 'NONE', #416 ) ;
#418 = CARTESIAN_POINT ( 'NONE',  ( 1.440000000000000, 0.350000000000000, 0.480000000000000 ) ) ;
#419 = VERTEX_POINT ( 'NONE', #418 ) ;
#420 = CARTESIAN_POINT ( 'NONE',  ( 1.440000000000000, 0.900000000000000, 0.480000000000000 ) ) ;
#421 = DIRECTION ( 'NONE',  ( 0.000000000000000, -1.000000000000000, 0.000000000000000 ) ) ;
#422 = VECTOR ( 'NONE', #421, 1000.000000000000000 ) ;
#423 = LINE ( 'NONE', #420, #422 ) ;
#424 = EDGE_CURVE ( 'NONE', #417, #419, #423, .T. ) ;
#425 = ORIENTED_EDGE ( 'NONE', *, *, #424, .F. ) ;
#426 = CARTESIAN_POINT ( 'NONE',  ( 1.330000000000000, 0.800000000000000, 0.590000000000000 ) ) ;
#427 = VERTEX_POINT ( 'NONE', #426 ) ;
#428 = CARTESIAN_POINT ( 'NONE',  ( 1.330000000000000, 0.800000000000000, 0.480000000000000 ) ) ;
#429 = DIRECTION ( 'NONE',  ( 0.000000000000000, -1.000000000000000, 0.000000000000000 ) ) ;
#430 = DIRECTION ( 'NONE',  ( 0.000000000000000, 0.000000000000000, -1.000000000000000 ) ) ;
#431 = AXIS2_PLACEMENT_3D ( 'NONE', #428, #429, #430 ) ;
#432 = CIRCLE ( 'NONE', #431, 0.11) ;
#433 = EDGE_CURVE ( 'NONE', #417, #427, #432, .T. ) ;
#434 = ORIENTED_EDGE ( 'NONE', *, *, #433, .T. ) ;
#435 = CARTESIAN_POINT ( 'NONE',  ( 1.330000000000000, 0.350000000000000, 0.590000000000000 ) ) ;
#436 = VERTEX_POINT ( 'NONE', #435 ) ;
#437 = CARTESIAN_POINT ( 'NONE',  ( 1.330000000000000, 0.900000000000000, 0.590000000000000 ) ) ;
#438 = DIRECTION ( 'NONE',  ( 0.000000000000000, 1.000000000000000, 0.000000000000000 ) ) ;
#439 = VECTOR ( 'NONE', #438, 1000.000000000000000 ) ;
#440 = LINE ( 'NONE', #437, #439 ) ;
#441 = EDGE_CURVE ( 'NONE', #436, #427, #440, .T. ) ;
#442 = ORIENTED_EDGE ( 'NONE', *, *, #441, .F. ) ;
#443 = CARTESIAN_POINT ( 'NONE',  ( 1.330000000000000, 0.350000000000000, 0.480000000000000 ) ) ;
#444 = DIRECTION ( 'NONE',  ( 0.000000000000000, -1.000000000000000, 0.000000000000000 ) ) ;
#445 = DIRECTION ( 'NONE',  ( 0.000000000000000, 0.000000000000000, -1.000000000000000 ) ) ;
#446 = AXIS2_PLACEMENT_3D ( 'NONE', #443, #444, #445 ) ;
#447 = CIRCLE ( 'NONE', #446, 0.11) ;
#448 = EDGE_CURVE ( 'NONE', #419, #436, #447, .T. ) ;
#449 = ORIENTED_EDGE ( 'NONE', *, *, #448, .F. ) ;
#450 = EDGE_LOOP ( 'NONE', ( #425, #434, #442, #449 ) ) ;
#451 = FACE_OUTER_BOUND ( 'NONE', #450, .T. ) ;
#452 = CARTESIAN_POINT ( 'NONE',  ( 1.330000000000000, 0.900000000000000, 0.480000000000000 ) ) ;
#453 = DIRECTION ( 'NONE',  ( 0.000000000000000, -1.000000000000000, 0.000000000000000 ) ) ;
#454 = DIRECTION ( 'NONE',  ( 0.000000000000000, 0.000000000000000, -1.000000000000000 ) ) ;
#455 = AXIS2_PLACEMENT_3D ( 'NONE', #452, #453, #454 ) ;
#456 = CYLINDRICAL_SURFACE ( 'NONE', #455, 0.11) ;
#457 = ADVANCED_FACE ( 'NONE', ( #451 ), #456, .T. ) ;
#458 = CARTESIAN_POINT ( 'NONE',  ( 1.440000000000000, 0.350000000000000, -0.480000000000000 ) ) ;
#459 = VERTEX_POINT ( 'NONE', #458 ) ;
#460 = CARTESIAN_POINT ( 'NONE',  ( 1.440000000000000, 0.800000000000000, -0.480000000000000 ) ) ;
#461 = VERTEX_POINT ( 'NONE', #460 ) ;
#462 = CARTESIAN_POINT ( 'NONE',  ( 1.440000000000000, 0.900000000000000, -0.480000000000000 ) ) ;
#463 = DIRECTION ( 'NONE',  ( 0.000000000000000, 1.000000000000000, 0.000000000000000 ) ) ;
#464 = VECTOR ( 'NONE', #463, 1000.000000000000000 ) ;
#465 = LINE ( 'NONE', #462, #464 ) ;
#466 = EDGE_CURVE ( 'NONE', #459, #461, #465, .T. ) ;
#467 = ORIENTED_EDGE ( 'NONE', *, *, #466, .T. ) ;
#468 = CARTESIAN_POINT ( 'NONE',  ( 1.440000000000000, 0.800000000000000, 0.590000000000000 ) ) ;
#469 = DIRECTION ( 'NONE',  ( 0.000000000000000, 0.000000000000000, 1.000000000000000 ) ) ;
#470 = VECTOR ( 'NONE', #469, 1000.000000000000000 ) ;
#471 = LINE ( 'NONE', #468, #470 ) ;
#472 = EDGE_CURVE ( 'NONE', #461, #417, #471, .T. ) ;
#473 = ORIENTED_EDGE ( 'NONE', *, *, #472, .T. ) ;
#474 = ORIENTED_EDGE ( 'NONE', *, *, #424, .T. ) ;
#475 = CARTESIAN_POINT ( 'NONE',  ( 1.440000000000000, 0.350000000000000, 0.590000000000000 ) ) ;
#476 = DIRECTION ( 'NONE',  ( 0.000000000000000, 0.000000000000000, -1.000000000000000 ) ) ;
#477 = VECTOR ( 'NONE', #476, 1000.000000000000000 ) ;
#478 = LINE ( 'NONE', #475, #477 ) ;
#479 = EDGE_CURVE ( 'NONE', #419, #459, #478, .T. ) ;
#480 = ORIENTED_EDGE ( 'NONE', *, *, #479, .T. ) ;
#481 = EDGE_LOOP ( 'NONE', ( #467, #473, #474, #480 ) ) ;
#482 = FACE_OUTER_BOUND ( 'NONE', #481, .T. ) ;
#483 = CARTESIAN_POINT ( 'NONE',  ( 1.440000000000000, 0.900000000000000, 0.590000000000000 ) ) ;
#484 = DIRECTION ( 'NONE',  ( -1.000000000000000, 0.000000000000000, 0.000000000000000 ) ) ;
#485 = DIRECTION ( 'NONE',  ( 0.000000000000000, 0.000000000000000, 1.000000000000000 ) ) ;
#486 = AXIS2_PLACEMENT_3D ( 'NONE', #483, #484, #485 ) ;
#487 = PLANE ( 'NONE', #486 ) ;
#488 = ADVANCED_FACE ( 'NONE', ( #482 ), #487, .F. ) ;
#489 = CARTESIAN_POINT ( 'NONE',  ( 1.330000000000000, 0.900000000000000, 0.490000000000000 ) ) ;
#490 = VERTEX_POINT ( 'NONE', #489 ) ;
#491 = CARTESIAN_POINT ( 'NONE',  ( 1.330000000000000, 0.800000000000000, 0.490000000000000 ) ) ;
#492 = DIRECTION ( 'NONE',  ( 1.000000000000000, 0.000000000000000, 0.000000000000000 ) ) ;
#493 = DIRECTION ( 'NONE',  ( 0.000000000000000, 0.000000000000000, -1.000000000000000 ) ) ;
#494 = AXIS2_PLACEMENT_3D ( 'NONE', #491, #492, #493 ) ;
#495 = CIRCLE ( 'NONE', #494, 0.1) ;
#496 = EDGE_CURVE ( 'NONE', #490, #427, #495, .T. ) ;
#497 = ORIENTED_EDGE ( 'NONE', *, *, #496, .T. ) ;
#498 = ORIENTED_EDGE ( 'NONE', *, *, #433, .F. ) ;
#499 = CARTESIAN_POINT ( 'NONE',  ( 1.340000000000000, 0.900000000000000, 0.480000000000000 ) ) ;
#500 = VERTEX_POINT ( 'NONE', #499 ) ;
#501 = CARTESIAN_POINT ( 'NONE',  ( 1.340000000000000, 0.800000000000000, 0.480000000000000 ) ) ;
#502 = DIRECTION ( 'NONE',  ( 0.000000000000000, 0.000000000000000, 1.000000000000000 ) ) ;
#503 = DIRECTION ( 'NONE',  ( 1.000000000000000, 0.000000000000000, 0.000000000000000 ) ) ;
#504 = AXIS2_PLACEMENT_3D ( 'NONE', #501, #502, #503 ) ;
#505 = CIRCLE ( 'NONE', #504, 0.1) ;
#506 = EDGE_CURVE ( 'NONE', #417, #500, #505, .T. ) ;
#507 = ORIENTED_EDGE ( 'NONE', *, *, #506, .T. ) ;
#508 = CARTESIAN_POINT ( 'NONE',  ( 1.330000000000000, 0.900000000000000, 0.480000000000000 ) ) ;
#509 = DIRECTION ( 'NONE',  ( 0.000000000000000, 1.000000000000000, 0.000000000000000 ) ) ;
#510 = DIRECTION ( 'NONE',  ( 0.000000000000000, 0.000000000000000, -1.000000000000000 ) ) ;
#511 = AXIS2_PLACEMENT_3D ( 'NONE', #508, #509, #510 ) ;
#512 = CIRCLE ( 'NONE', #511, 0.01) ;
#513 = EDGE_CURVE ( 'NONE', #490, #500, #512, .T. ) ;
#514 = ORIENTED_EDGE ( 'NONE', *, *, #513, .F. ) ;
#515 = EDGE_LOOP ( 'NONE', ( #497, #498, #507, #514 ) ) ;
#516 = FACE_OUTER_BOUND ( 'NONE', #515, .T. ) ;
#517 = CARTESIAN_POINT ( 'NONE',  ( 1.330000000000000, 0.800000000000000, 0.480000000000000 ) ) ;
#518 = DIRECTION ( 'NONE',  ( 0.000000000000000, -1.000000000000000, 0.000000000000000 ) ) ;
#519 = DIRECTION ( 'NONE',  ( 0.000000000000000, 0.000000000000000, -1.000000000000000 ) ) ;
#520 = AXIS2_PLACEMENT_3D ( 'NONE', #517, #518, #519 ) ;
#521 = TOROIDAL_SURFACE ( 'NONE', #520, 0.01, 0.1 ) ;
#522 = ADVANCED_FACE ( 'NONE', ( #516 ), #521, .T. ) ;
#523 = CARTESIAN_POINT ( 'NONE',  ( -1.330000000000000, 0.900000000000000, -0.490000000000000 ) ) ;
#524 = VERTEX_POINT ( 'NONE', #523 ) ;
#525 = CARTESIAN_POINT ( 'NONE',  ( -1.330000000000000, 0.800000000000000, -0.490000000000000 ) ) ;
#526 = DIRECTION ( 'NONE',  ( 1.000000000000000, 0.000000000000000, 0.000000000000000 ) ) ;
#527 = DIRECTION ( 'NONE',  ( 0.000000000000000, 0.000000000000000, -1.000000000000000 ) ) ;
#528 = AXIS2_PLACEMENT_3D ( 'NONE', #525, #526, #527 ) ;
#529 = CIRCLE ( 'NONE', #528, 0.1) ;
#530 = EDGE_CURVE ( 'NONE', #379, #524, #529, .T. ) ;
#531 = ORIENTED_EDGE ( 'NONE', *, *, #530, .F. ) ;
#532 = CARTESIAN_POINT ( 'NONE',  ( -1.440000000000000, 0.800000000000000, -0.480000000000000 ) ) ;
#533 = VERTEX_POINT ( 'NONE', #532 ) ;
#534 = CARTESIAN_POINT ( 'NONE',  ( -1.330000000000000, 0.800000000000000, -0.480000000000000 ) ) ;
#535 = DIRECTION ( 'NONE',  ( 0.000000000000000, -1.000000000000000, 0.000000000000000 ) ) ;
#536 = DIRECTION ( 'NONE',  ( 0.000000000000000, 0.000000000000000, -1.000000000000000 ) ) ;
#537 = AXIS2_PLACEMENT_3D ( 'NONE', #534, #535, #536 ) ;
#538 = CIRCLE ( 'NONE', #537, 0.11) ;
#539 = EDGE_CURVE ( 'NONE', #533, #379, #538, .T. ) ;
#540 = ORIENTED_EDGE ( 'NONE', *, *, #539, .F. ) ;
#541 = CARTESIAN_POINT ( 'NONE',  ( -1.340000000000000, 0.900000000000000, -0.480000000000000 ) ) ;
#542 = VERTEX_POINT ( 'NONE', #541 ) ;
#543 = CARTESIAN_POINT ( 'NONE',  ( -1.340000000000000, 0.800000000000000, -0.480000000000000 ) ) ;
#544 = DIRECTION ( 'NONE',  ( 0.000000000000000, 0.000000000000000, 1.000000000000000 ) ) ;
#545 = DIRECTION ( 'NONE',  ( 1.000000000000000, 0.000000000000000, 0.000000000000000 ) ) ;
#546 = AXIS2_PLACEMENT_3D ( 'NONE', #543, #544, #545 ) ;
#547 = CIRCLE ( 'NONE', #546, 0.1) ;
#548 = EDGE_CURVE ( 'NONE', #542, #533, #547, .T. ) ;
#549 = ORIENTED_EDGE ( 'NONE', *, *, #548, .F. ) ;
#550 = CARTESIAN_POINT ( 'NONE',  ( -1.330000000000000, 0.900000000000000, -0.480000000000000 ) ) ;
#551 = DIRECTION ( 'NONE',  ( 0.000000000000000, 1.000000000000000, 0.000000000000000 ) ) ;
#552 = DIRECTION ( 'NONE',  ( 0.000000000000000, 0.000000000000000, -1.000000000000000 ) ) ;
#553 = AXIS2_PLACEMENT_3D ( 'NONE', #550, #551, #552 ) ;
#554 = CIRCLE ( 'NONE', #553, 0.01) ;
#555 = EDGE_CURVE ( 'NONE', #524, #542, #554, .T. ) ;
#556 = ORIENTED_EDGE ( 'NONE', *, *, #555, .F. ) ;
#557 = EDGE_LOOP ( 'NONE', ( #531, #540, #549, #556 ) ) ;
#558 = FACE_OUTER_BOUND ( 'NONE', #557, .T. ) ;
#559 = CARTESIAN_POINT ( 'NONE',  ( -1.330000000000000, 0.800000000000000, -0.480000000000000 ) ) ;
#560 = DIRECTION ( 'NONE',  ( 0.000000000000000, -1.000000000000000, 0.000000000000000 ) ) ;
#561 = DIRECTION ( 'NONE',  ( 0.000000000000000, 0.000000000000000, -1.000000000000000 ) ) ;
#562 = AXIS2_PLACEMENT_3D ( 'NONE', #559, #560, #561 ) ;
#563 = TOROIDAL_SURFACE ( 'NONE', #562, 0.01, 0.1 ) ;
#564 = ADVANCED_FACE ( 'NONE', ( #558 ), #563, .T. ) ;
#565 = CARTESIAN_POINT ( 'NONE',  ( 1.330000000000000, 0.900000000000000, -0.490000000000000 ) ) ;
#566 = VERTEX_POINT ( 'NONE', #565 ) ;
#567 = CARTESIAN_POINT ( 'NONE',  ( 1.330000000000000, 0.800000000000000, -0.490000000000000 ) ) ;
#568 = DIRECTION ( 'NONE',  ( 1.000000000000000, 0.000000000000000, 0.000000000000000 ) ) ;
#569 = DIRECTION ( 'NONE',  ( 0.000000000000000, 0.000000000000000, -1.000000000000000 ) ) ;
#570 = AXIS2_PLACEMENT_3D ( 'NONE', #567, #568, #569 ) ;
#571 = CIRCLE ( 'NONE', #570, 0.1) ;
#572 = EDGE_CURVE ( 'NONE', #387, #566, #571, .T. ) ;
#573 = ORIENTED_EDGE ( 'NONE', *, *, #572, .T. ) ;
#574 = CARTESIAN_POINT ( 'NONE',  ( 1.340000000000000, 0.900000000000000, -0.480000000000000 ) ) ;
#575 = VERTEX_POINT ( 'NONE', #574 ) ;
#576 = CARTESIAN_POINT ( 'NONE',  ( 1.330000000000000, 0.900000000000000, -0.480000000000000 ) ) ;
#577 = DIRECTION ( 'NONE',  ( 0.000000000000000, 1.000000000000000, 0.000000000000000 ) ) ;
#578 = DIRECTION ( 'NONE',  ( 0.000000000000000, 0.000000000000000, -1.000000000000000 ) ) ;
#579 = AXIS2_PLACEMENT_3D ( 'NONE', #576, #577, #578 ) ;
#580 = CIRCLE ( 'NONE', #579, 0.01) ;
#581 = EDGE_CURVE ( 'NONE', #575, #566, #580, .T. ) ;
#582 = ORIENTED_EDGE ( 'NONE', *, *, #581, .F. ) ;
#583 = CARTESIAN_POINT ( 'NONE',  ( 1.340000000000000, 0.800000000000000, -0.480000000000000 ) ) ;
#584 = DIRECTION ( 'NONE',  ( 0.000000000000000, 0.000000000000000, 1.000000000000000 ) ) ;
#585 = DIRECTION ( 'NONE',  ( 1.000000000000000, 0.000000000000000, 0.000000000000000 ) ) ;
#586 = AXIS2_PLACEMENT_3D ( 'NONE', #583, #584, #585 ) ;
#587 = CIRCLE ( 'NONE', #586, 0.1) ;
#588 = EDGE_CURVE ( 'NONE', #461, #575, #587, .T. ) ;
#589 = ORIENTED_EDGE ( 'NONE', *, *, #588, .F. ) ;
#590 = CARTESIAN_POINT ( 'NONE',  ( 1.330000000000000, 0.800000000000000, -0.480000000000000 ) ) ;
#591 = DIRECTION ( 'NONE',  ( 0.000000000000000, -1.000000000000000, 0.000000000000000 ) ) ;
#592 = DIRECTION ( 'NONE',  ( 0.000000000000000, 0.000000000000000, -1.000000000000000 ) ) ;
#593 = AXIS2_PLACEMENT_3D ( 'NONE', #590, #591, #592 ) ;
#594 = CIRCLE ( 'NONE', #593, 0.11) ;
#595 = EDGE_CURVE ( 'NONE', #387, #461, #594, .T. ) ;
#596 = ORIENTED_EDGE ( 'NONE', *, *, #595, .F. ) ;
#597 = EDGE_LOOP ( 'NONE', ( #573, #582, #589, #596 ) ) ;
#598 = FACE_OUTER_BOUND ( 'NONE', #597, .T. ) ;
#599 = CARTESIAN_POINT ( 'NONE',  ( 1.330000000000000, 0.800000000000000, -0.480000000000000 ) ) ;
#600 = DIRECTION ( 'NONE',  ( 0.000000000000000, -1.000000000000000, 0.000000000000000 ) ) ;
#601 = DIRECTION ( 'NONE',  ( 0.000000000000000, 0.000000000000000, -1.000000000000000 ) ) ;
#602 = AXIS2_PLACEMENT_3D ( 'NONE', #599, #600, #601 ) ;
#603 = TOROIDAL_SURFACE ( 'NONE', #602, 0.01, 0.1 ) ;
#604 = ADVANCED_FACE ( 'NONE', ( #598 ), #603, .T. ) ;
#605 = CARTESIAN_POINT ( 'NONE',  ( -1.330000000000000, 0.800000000000000, 0.590000000000000 ) ) ;
#606 = VERTEX_POINT ( 'NONE', #605 ) ;
#607 = CARTESIAN_POINT ( 'NONE',  ( -1.330000000000000, 0.350000000000000, 0.590000000000000 ) ) ;
#608 = VERTEX_POINT ( 'NONE', #607 ) ;
#609 = CARTESIAN_POINT ( 'NONE',  ( -1.330000000000000, 0.900000000000000, 0.590000000000000 ) ) ;
#610 = DIRECTION ( 'NONE',  ( 0.000000000000000, -1.000000000000000, 0.000000000000000 ) ) ;
#611 = VECTOR ( 'NONE', #610, 1000.000000000000000 ) ;
#612 = LINE ( 'NONE', #609, #611 ) ;
#613 = EDGE_CURVE ( 'NONE', #606, #608, #612, .T. ) ;
#614 = ORIENTED_EDGE ( 'NONE', *, *, #613, .F. ) ;
#615 = CARTESIAN_POINT ( 'NONE',  ( -1.440000000000000, 0.800000000000000, 0.480000000000000 ) ) ;
#616 = VERTEX_POINT ( 'NONE', #615 ) ;
#617 = CARTESIAN_POINT ( 'NONE',  ( -1.330000000000000, 0.800000000000000, 0.480000000000000 ) ) ;
#618 = DIRECTION ( 'NONE',  ( 0.000000000000000, -1.000000000000000, 0.000000000000000 ) ) ;
#619 = DIRECTION ( 'NONE',  ( 0.000000000000000, 0.000000000000000, -1.000000000000000 ) ) ;
#620 = AXIS2_PLACEMENT_3D ( 'NONE', #617, #618, #619 ) ;
#621 = CIRCLE ( 'NONE', #620, 0.11) ;
#622 = EDGE_CURVE ( 'NONE', #606, #616, #621, .T. ) ;
#623 = ORIENTED_EDGE ( 'NONE', *, *, #622, .T. ) ;
#624 = CARTESIAN_POINT ( 'NONE',  ( -1.440000000000000, 0.350000000000000, 0.480000000000000 ) ) ;
#625 = VERTEX_POINT ( 'NONE', #624 ) ;
#626 = CARTESIAN_POINT ( 'NONE',  ( -1.440000000000000, 0.900000000000000, 0.480000000000000 ) ) ;
#627 = DIRECTION ( 'NONE',  ( 0.000000000000000, 1.000000000000000, 0.000000000000000 ) ) ;
#628 = VECTOR ( 'NONE', #627, 1000.000000000000000 ) ;
#629 = LINE ( 'NONE', #626, #628 ) ;
#630 = EDGE_CURVE ( 'NONE', #625, #616, #629, .T. ) ;
#631 = ORIENTED_EDGE ( 'NONE', *, *, #630, .F. ) ;
#632 = CARTESIAN_POINT ( 'NONE',  ( -1.330000000000000, 0.350000000000000, 0.480000000000000 ) ) ;
#633 = DIRECTION ( 'NONE',  ( 0.000000000000000, -1.000000000000000, 0.000000000000000 ) ) ;
#634 = DIRECTION ( 'NONE',  ( 0.000000000000000, 0.000000000000000, -1.000000000000000 ) ) ;
#635 = AXIS2_PLACEMENT_3D ( 'NONE', #632, #633, #634 ) ;
#636 = CIRCLE ( 'NONE', #635, 0.11) ;
#637 = EDGE_CURVE ( 'NONE', #608, #625, #636, .T. ) ;
#638 = ORIENTED_EDGE ( 'NONE', *, *, #637, .F. ) ;
#639 = EDGE_LOOP ( 'NONE', ( #614, #623, #631, #638 ) ) ;
#640 = FACE_OUTER_BOUND ( 'NONE', #639, .T. ) ;
#641 = CARTESIAN_POINT ( 'NONE',  ( -1.330000000000000, 0.900000000000000, 0.480000000000000 ) ) ;
#642 = DIRECTION ( 'NONE',  ( 0.000000000000000, -1.000000000000000, 0.000000000000000 ) ) ;
#643 = DIRECTION ( 'NONE',  ( 0.000000000000000, 0.000000000000000, -1.000000000000000 ) ) ;
#644 = AXIS2_PLACEMENT_3D ( 'NONE', #641, #642, #643 ) ;
#645 = CYLINDRICAL_SURFACE ( 'NONE', #644, 0.11) ;
#646 = ADVANCED_FACE ( 'NONE', ( #640 ), #645, .T. ) ;
#647 = CARTESIAN_POINT ( 'NONE',  ( 1.600000000000000, 0.350000000000000, 0.750000000000000 ) ) ;
#648 = VERTEX_POINT ( 'NONE', #647 ) ;
#649 = CARTESIAN_POINT ( 'NONE',  ( 1.600000000000000, 0.350000000000000, -0.750000000000000 ) ) ;
#650 = VERTEX_POINT ( 'NONE', #649 ) ;
#651 = CARTESIAN_POINT ( 'NONE',  ( 1.600000000000000, 0.350000000000000, 0.750000000000000 ) ) ;
#652 = DIRECTION ( 'NONE',  ( 0.000000000000000, 0.000000000000000, -1.000000000000000 ) ) ;
#653 = VECTOR ( 'NONE', #652, 1000.000000000000000 ) ;
#654 = LINE ( 'NONE', #651, #653 ) ;
#655 = EDGE_CURVE ( 'NONE', #648, #650, #654, .T. ) ;
#656 = ORIENTED_EDGE ( 'NONE', *, *, #655, .T. ) ;
#657 = CARTESIAN_POINT ( 'NONE',  ( -1.600000000000000, 0.350000000000000, -0.750000000000000 ) ) ;
#658 = VERTEX_POINT ( 'NONE', #657 ) ;
#659 = CARTESIAN_POINT ( 'NONE',  ( -1.600000000000000, 0.350000000000000, -0.750000000000000 ) ) ;
#660 = DIRECTION ( 'NONE',  ( -1.000000000000000, 0.000000000000000, 0.000000000000000 ) ) ;
#661 = VECTOR ( 'NONE', #660, 1000.000000000000000 ) ;
#662 = LINE ( 'NONE', #659, #661 ) ;
#663 = EDGE_CURVE ( 'NONE', #650, #658, #662, .T. ) ;
#664 = ORIENTED_EDGE ( 'NONE', *, *, #663, .T. ) ;
#665 = CARTESIAN_POINT ( 'NONE',  ( -1.600000000000000, 0.350000000000000, 0.750000000000000 ) ) ;
#666 = VERTEX_POINT ( 'NONE', #665 ) ;
#667 = CARTESIAN_POINT ( 'NONE',  ( -1.600000000000000, 0.350000000000000, 0.750000000000000 ) ) ;
#668 = DIRECTION ( 'NONE',  ( 0.000000000000000, 0.000000000000000, 1.000000000000000 ) ) ;
#669 = VECTOR ( 'NONE', #668, 1000.000000000000000 ) ;
#670 = LINE ( 'NONE', #667, #669 ) ;
#671 = EDGE_CURVE ( 'NONE', #658, #666, #670, .T. ) ;
#672 = ORIENTED_EDGE ( 'NONE', *, *, #671, .T. ) ;
#673 = CARTESIAN_POINT ( 'NONE',  ( -1.600000000000000, 0.350000000000000, 0.750000000000000 ) ) ;
#674 = DIRECTION ( 'NONE',  ( 1.000000000000000, 0.000000000000000, 0.000000000000000 ) ) ;
#675 = VECTOR ( 'NONE', #674, 1000.000000000000000 ) ;
#676 = LINE ( 'NONE', #673, #675 ) ;
#677 = EDGE_CURVE ( 'NONE', #666, #648, #676, .T. ) ;
#678 = ORIENTED_EDGE ( 'NONE', *, *, #677, .T. ) ;
#679 = EDGE_LOOP ( 'NONE', ( #656, #664, #672, #678 ) ) ;
#680 = FACE_OUTER_BOUND ( 'NONE', #679, .T. ) ;
#681 = ORIENTED_EDGE ( 'NONE', *, *, #479, .F. ) ;
#682 = ORIENTED_EDGE ( 'NONE', *, *, #448, .T. ) ;
#683 = CARTESIAN_POINT ( 'NONE',  ( -1.440000000000000, 0.350000000000000, 0.590000000000000 ) ) ;
#684 = DIRECTION ( 'NONE',  ( 1.000000000000000, 0.000000000000000, 0.000000000000000 ) ) ;
#685 = VECTOR ( 'NONE', #684, 1000.000000000000000 ) ;
#686 = LINE ( 'NONE', #683, #685 ) ;
#687 = EDGE_CURVE ( 'NONE', #608, #436, #686, .T. ) ;
#688 = ORIENTED_EDGE ( 'NONE', *, *, #687, .F. ) ;
#689 = ORIENTED_EDGE ( 'NONE', *, *, #637, .T. ) ;
#690 = CARTESIAN_POINT ( 'NONE',  ( -1.440000000000000, 0.350000000000000, -0.480000000000000 ) ) ;
#691 = VERTEX_POINT ( 'NONE', #690 ) ;
#692 = CARTESIAN_POINT ( 'NONE',  ( -1.440000000000000, 0.350000000000000, 0.590000000000000 ) ) ;
#693 = DIRECTION ( 'NONE',  ( 0.000000000000000, 0.000000000000000, 1.000000000000000 ) ) ;
#694 = VECTOR ( 'NONE', #693, 1000.000000000000000 ) ;
#695 = LINE ( 'NONE', #692, #694 ) ;
#696 = EDGE_CURVE ( 'NONE', #691, #625, #695, .T. ) ;
#697 = ORIENTED_EDGE ( 'NONE', *, *, #696, .F. ) ;
#698 = CARTESIAN_POINT ( 'NONE',  ( -1.330000000000000, 0.350000000000000, -0.480000000000000 ) ) ;
#699 = DIRECTION ( 'NONE',  ( 0.000000000000000, -1.000000000000000, 0.000000000000000 ) ) ;
#700 = DIRECTION ( 'NONE',  ( 0.000000000000000, 0.000000000000000, -1.000000000000000 ) ) ;
#701 = AXIS2_PLACEMENT_3D ( 'NONE', #698, #699, #700 ) ;
#702 = CIRCLE ( 'NONE', #701, 0.11) ;
#703 = EDGE_CURVE ( 'NONE', #691, #377, #702, .T. ) ;
#704 = ORIENTED_EDGE ( 'NONE', *, *, #703, .T. ) ;
#705 = ORIENTED_EDGE ( 'NONE', *, *, #406, .F. ) ;
#706 = CARTESIAN_POINT ( 'NONE',  ( 1.330000000000000, 0.350000000000000, -0.480000000000000 ) ) ;
#707 = DIRECTION ( 'NONE',  ( 0.000000000000000, -1.000000000000000, 0.000000000000000 ) ) ;
#708 = DIRECTION ( 'NONE',  ( 0.000000000000000, 0.000000000000000, -1.000000000000000 ) ) ;
#709 = AXIS2_PLACEMENT_3D ( 'NONE', #706, #707, #708 ) ;
#710 = CIRCLE ( 'NONE', #709, 0.11) ;
#711 = EDGE_CURVE ( 'NONE', #395, #459, #710, .T. ) ;
#712 = ORIENTED_EDGE ( 'NONE', *, *, #711, .T. ) ;
#713 = EDGE_LOOP ( 'NONE', ( #681, #682, #688, #689, #697, #704, #705, #712 ) ) ;
#714 = FACE_BOUND ( 'NONE', #713, .T. ) ;
#715 = CARTESIAN_POINT ( 'NONE',  ( 0.000000000000000, 0.350000000000000, 0.000000000000000 ) ) ;
#716 = DIRECTION ( 'NONE',  ( 0.000000000000000, -1.000000000000000, 0.000000000000000 ) ) ;
#717 = DIRECTION ( 'NONE',  ( 0.000000000000000, 0.000000000000000, -1.000000000000000 ) ) ;
#718 = AXIS2_PLACEMENT_3D ( 'NONE', #715, #716, #717 ) ;
#719 = PLANE ( 'NONE', #718 ) ;
#720 = ADVANCED_FACE ( 'NONE', ( #680, #714 ), #719, .F. ) ;
#721 = CARTESIAN_POINT ( 'NONE',  ( 1.600000000000000, 0.050000000000000, 0.750000000000000 ) ) ;
#722 = VERTEX_POINT ( 'NONE', #721 ) ;
#723 = CARTESIAN_POINT ( 'NONE',  ( 1.600000000000000, 0.050000000000000, -0.750000000000000 ) ) ;
#724 = VERTEX_POINT ( 'NONE', #723 ) ;
#725 = CARTESIAN_POINT ( 'NONE',  ( 1.600000000000000, 0.050000000000000, 0.750000000000000 ) ) ;
#726 = DIRECTION ( 'NONE',  ( 0.000000000000000, 0.000000000000000, -1.000000000000000 ) ) ;
#727 = VECTOR ( 'NONE', #726, 1000.000000000000000 ) ;
#728 = LINE ( 'NONE', #725, #727 ) ;
#729 = EDGE_CURVE ( 'NONE', #722, #724, #728, .T. ) ;
#730 = ORIENTED_EDGE ( 'NONE', *, *, #729, .T. ) ;
#731 = CARTESIAN_POINT ( 'NONE',  ( 1.600000000000000, 0.350000000000000, -0.750000000000000 ) ) ;
#732 = DIRECTION ( 'NONE',  ( 0.000000000000000, -1.000000000000000, 0.000000000000000 ) ) ;
#733 = VECTOR ( 'NONE', #732, 1000.000000000000000 ) ;
#734 = LINE ( 'NONE', #731, #733 ) ;
#735 = EDGE_CURVE ( 'NONE', #650, #724, #734, .T. ) ;
#736 = ORIENTED_EDGE ( 'NONE', *, *, #735, .F. ) ;
#737 = ORIENTED_EDGE ( 'NONE', *, *, #655, .F. ) ;
#738 = CARTESIAN_POINT ( 'NONE',  ( 1.600000000000000, 0.350000000000000, 0.750000000000000 ) ) ;
#739 = DIRECTION ( 'NONE',  ( 0.000000000000000, -1.000000000000000, 0.000000000000000 ) ) ;
#740 = VECTOR ( 'NONE', #739, 1000.000000000000000 ) ;
#741 = LINE ( 'NONE', #738, #740 ) ;
#742 = EDGE_CURVE ( 'NONE', #648, #722, #741, .T. ) ;
#743 = ORIENTED_EDGE ( 'NONE', *, *, #742, .T. ) ;
#744 = EDGE_LOOP ( 'NONE', ( #730, #736, #737, #743 ) ) ;
#745 = FACE_OUTER_BOUND ( 'NONE', #744, .T. ) ;
#746 = CARTESIAN_POINT ( 'NONE',  ( 1.600000000000000, 0.350000000000000, 0.750000000000000 ) ) ;
#747 = DIRECTION ( 'NONE',  ( -1.000000000000000, 0.000000000000000, 0.000000000000000 ) ) ;
#748 = DIRECTION ( 'NONE',  ( 0.000000000000000, 0.000000000000000, 1.000000000000000 ) ) ;
#749 = AXIS2_PLACEMENT_3D ( 'NONE', #746, #747, #748 ) ;
#750 = PLANE ( 'NONE', #749 ) ;
#751 = ADVANCED_FACE ( 'NONE', ( #745 ), #750, .F. ) ;
#752 = CARTESIAN_POINT ( 'NONE',  ( -1.600000000000000, 0.050000000000000, -0.750000000000000 ) ) ;
#753 = VERTEX_POINT ( 'NONE', #752 ) ;
#754 = CARTESIAN_POINT ( 'NONE',  ( -1.600000000000000, 0.050000000000000, -0.750000000000000 ) ) ;
#755 = DIRECTION ( 'NONE',  ( -1.000000000000000, 0.000000000000000, 0.000000000000000 ) ) ;
#756 = VECTOR ( 'NONE', #755, 1000.000000000000000 ) ;
#757 = LINE ( 'NONE', #754, #756 ) ;
#758 = EDGE_CURVE ( 'NONE', #724, #753, #757, .T. ) ;
#759 = ORIENTED_EDGE ( 'NONE', *, *, #758, .T. ) ;
#760 = CARTESIAN_POINT ( 'NONE',  ( -1.600000000000000, 0.350000000000000, -0.750000000000000 ) ) ;
#761 = DIRECTION ( 'NONE',  ( 0.000000000000000, -1.000000000000000, 0.000000000000000 ) ) ;
#762 = VECTOR ( 'NONE', #761, 1000.000000000000000 ) ;
#763 = LINE ( 'NONE', #760, #762 ) ;
#764 = EDGE_CURVE ( 'NONE', #658, #753, #763, .T. ) ;
#765 = ORIENTED_EDGE ( 'NONE', *, *, #764, .F. ) ;
#766 = ORIENTED_EDGE ( 'NONE', *, *, #663, .F. ) ;
#767 = ORIENTED_EDGE ( 'NONE', *, *, #735, .T. ) ;
#768 = EDGE_LOOP ( 'NONE', ( #759, #765, #766, #767 ) ) ;
#769 = FACE_OUTER_BOUND ( 'NONE', #768, .T. ) ;
#770 = CARTESIAN_POINT ( 'NONE',  ( -1.600000000000000, 0.350000000000000, -0.750000000000000 ) ) ;
#771 = DIRECTION ( 'NONE',  ( 0.000000000000000, 0.000000000000000, 1.000000000000000 ) ) ;
#772 = DIRECTION ( 'NONE',  ( 1.000000000000000, 0.000000000000000, 0.000000000000000 ) ) ;
#773 = AXIS2_PLACEMENT_3D ( 'NONE', #770, #771, #772 ) ;
#774 = PLANE ( 'NONE', #773 ) ;
#775 = ADVANCED_FACE ( 'NONE', ( #769 ), #774, .F. ) ;
#776 = CARTESIAN_POINT ( 'NONE',  ( -1.600000000000000, 0.050000000000000, 0.750000000000000 ) ) ;
#777 = VERTEX_POINT ( 'NONE', #776 ) ;
#778 = CARTESIAN_POINT ( 'NONE',  ( -1.600000000000000, 0.050000000000000, 0.750000000000000 ) ) ;
#779 = DIRECTION ( 'NONE',  ( 0.000000000000000, 0.000000000000000, 1.000000000000000 ) ) ;
#780 = VECTOR ( 'NONE', #779, 1000.000000000000000 ) ;
#781 = LINE ( 'NONE', #778, #780 ) ;
#782 = EDGE_CURVE ( 'NONE', #753, #777, #781, .T. ) ;
#783 = ORIENTED_EDGE ( 'NONE', *, *, #782, .T. ) ;
#784 = CARTESIAN_POINT ( 'NONE',  ( -1.600000000000000, 0.350000000000000, 0.750000000000000 ) ) ;
#785 = DIRECTION ( 'NONE',  ( 0.000000000000000, -1.000000000000000, 0.000000000000000 ) ) ;
#786 = VECTOR ( 'NONE', #785, 1000.000000000000000 ) ;
#787 = LINE ( 'NONE', #784, #786 ) ;
#788 = EDGE_CURVE ( 'NONE', #666, #777, #787, .T. ) ;
#789 = ORIENTED_EDGE ( 'NONE', *, *, #788, .F. ) ;
#790 = ORIENTED_EDGE ( 'NONE', *, *, #671, .F. ) ;
#791 = ORIENTED_EDGE ( 'NONE', *, *, #764, .T. ) ;
#792 = EDGE_LOOP ( 'NONE', ( #783, #789, #790, #791 ) ) ;
#793 = FACE_OUTER_BOUND ( 'NONE', #792, .T. ) ;
#794 = CARTESIAN_POINT ( 'NONE',  ( -1.600000000000000, 0.350000000000000, 0.750000000000000 ) ) ;
#795 = DIRECTION ( 'NONE',  ( 1.000000000000000, 0.000000000000000, 0.000000000000000 ) ) ;
#796 = DIRECTION ( 'NONE',  ( 0.000000000000000, 0.000000000000000, -1.000000000000000 ) ) ;
#797 = AXIS2_PLACEMENT_3D ( 'NONE', #794, #795, #796 ) ;
#798 = PLANE ( 'NONE', #797 ) ;
#799 = ADVANCED_FACE ( 'NONE', ( #793 ), #798, .F. ) ;
#800 = CARTESIAN_POINT ( 'NONE',  ( -1.600000000000000, 0.050000000000000, 0.750000000000000 ) ) ;
#801 = DIRECTION ( 'NONE',  ( 1.000000000000000, 0.000000000000000, 0.000000000000000 ) ) ;
#802 = VECTOR ( 'NONE', #801, 1000.000000000000000 ) ;
#803 = LINE ( 'NONE', #800, #802 ) ;
#804 = EDGE_CURVE ( 'NONE', #777, #722, #803, .T. ) ;
#805 = ORIENTED_EDGE ( 'NONE', *, *, #804, .T. ) ;
#806 = ORIENTED_EDGE ( 'NONE', *, *, #742, .F. ) ;
#807 = ORIENTED_EDGE ( 'NONE', *, *, #677, .F. ) ;
#808 = ORIENTED_EDGE ( 'NONE', *, *, #788, .T. ) ;
#809 = EDGE_LOOP ( 'NONE', ( #805, #806, #807, #808 ) ) ;
#810 = FACE_OUTER_BOUND ( 'NONE', #809, .T. ) ;
#811 = CARTESIAN_POINT ( 'NONE',  ( -1.600000000000000, 0.350000000000000, 0.750000000000000 ) ) ;
#812 = DIRECTION ( 'NONE',  ( 0.000000000000000, 0.000000000000000, -1.000000000000000 ) ) ;
#813 = DIRECTION ( 'NONE',  ( -1.000000000000000, 0.000000000000000, 0.000000000000000 ) ) ;
#814 = AXIS2_PLACEMENT_3D ( 'NONE', #811, #812, #813 ) ;
#815 = PLANE ( 'NONE', #814 ) ;
#816 = ADVANCED_FACE ( 'NONE', ( #810 ), #815, .F. ) ;
#817 = ORIENTED_EDGE ( 'NONE', *, *, #729, .F. ) ;
#818 = ORIENTED_EDGE ( 'NONE', *, *, #804, .F. ) ;
#819 = ORIENTED_EDGE ( 'NONE', *, *, #782, .F. ) ;
#820 = ORIENTED_EDGE ( 'NONE', *, *, #758, .F. ) ;
#821 = EDGE_LOOP ( 'NONE', ( #817, #818, #819, #820 ) ) ;
#822 = FACE_OUTER_BOUND ( 'NONE', #821, .T. ) ;
#823 = CARTESIAN_POINT ( 'NONE',  ( 0.000000000000000, 0.050000000000000, 0.000000000000000 ) ) ;
#824 = DIRECTION ( 'NONE',  ( 0.000000000000000, -1.000000000000000, 0.000000000000000 ) ) ;
#825 = DIRECTION ( 'NONE',  ( 0.000000000000000, 0.000000000000000, -1.000000000000000 ) ) ;
#826 = AXIS2_PLACEMENT_3D ( 'NONE', #823, #824, #825 ) ;
#827 = PLANE ( 'NONE', #826 ) ;
#828 = ADVANCED_FACE ( 'NONE', ( #822 ), #827, .T. ) ;
#829 = ORIENTED_EDGE ( 'NONE', *, *, #630, .T. ) ;
#830 = CARTESIAN_POINT ( 'NONE',  ( -1.440000000000000, 0.800000000000000, 0.590000000000000 ) ) ;
#831 = DIRECTION ( 'NONE',  ( 0.000000000000000, 0.000000000000000, -1.000000000000000 ) ) ;
#832 = VECTOR ( 'NONE', #831, 1000.000000000000000 ) ;
#833 = LINE ( 'NONE', #830, #832 ) ;
#834 = EDGE_CURVE ( 'NONE', #616, #533, #833, .T. ) ;
#835 = ORIENTED_EDGE ( 'NONE', *, *, #834, .T. ) ;
#836 = CARTESIAN_POINT ( 'NONE',  ( -1.440000000000000, 0.900000000000000, -0.480000000000000 ) ) ;
#837 = DIRECTION ( 'NONE',  ( 0.000000000000000, -1.000000000000000, 0.000000000000000 ) ) ;
#838 = VECTOR ( 'NONE', #837, 1000.000000000000000 ) ;
#839 = LINE ( 'NONE', #836, #838 ) ;
#840 = EDGE_CURVE ( 'NONE', #533, #691, #839, .T. ) ;
#841 = ORIENTED_EDGE ( 'NONE', *, *, #840, .T. ) ;
#842 = ORIENTED_EDGE ( 'NONE', *, *, #696, .T. ) ;
#843 = EDGE_LOOP ( 'NONE', ( #829, #835, #841, #842 ) ) ;
#844 = FACE_OUTER_BOUND ( 'NONE', #843, .T. ) ;
#845 = CARTESIAN_POINT ( 'NONE',  ( -1.440000000000000, 0.900000000000000, 0.590000000000000 ) ) ;
#846 = DIRECTION ( 'NONE',  ( 1.000000000000000, 0.000000000000000, 0.000000000000000 ) ) ;
#847 = DIRECTION ( 'NONE',  ( 0.000000000000000, 0.000000000000000, -1.000000000000000 ) ) ;
#848 = AXIS2_PLACEMENT_3D ( 'NONE', #845, #846, #847 ) ;
#849 = PLANE ( 'NONE', #848 ) ;
#850 = ADVANCED_FACE ( 'NONE', ( #844 ), #849, .F. ) ;
#851 = ORIENTED_EDGE ( 'NONE', *, *, #441, .T. ) ;
#852 = CARTESIAN_POINT ( 'NONE',  ( -1.440000000000000, 0.800000000000000, 0.590000000000000 ) ) ;
#853 = DIRECTION ( 'NONE',  ( -1.000000000000000, 0.000000000000000, 0.000000000000000 ) ) ;
#854 = VECTOR ( 'NONE', #853, 1000.000000000000000 ) ;
#855 = LINE ( 'NONE', #852, #854 ) ;
#856 = EDGE_CURVE ( 'NONE', #427, #606, #855, .T. ) ;
#857 = ORIENTED_EDGE ( 'NONE', *, *, #856, .T. ) ;
#858 = ORIENTED_EDGE ( 'NONE', *, *, #613, .T. ) ;
#859 = ORIENTED_EDGE ( 'NONE', *, *, #687, .T. ) ;
#860 = EDGE_LOOP ( 'NONE', ( #851, #857, #858, #859 ) ) ;
#861 = FACE_OUTER_BOUND ( 'NONE', #860, .T. ) ;
#862 = CARTESIAN_POINT ( 'NONE',  ( -1.440000000000000, 0.900000000000000, 0.590000000000000 ) ) ;
#863 = DIRECTION ( 'NONE',  ( 0.000000000000000, 0.000000000000000, -1.000000000000000 ) ) ;
#864 = DIRECTION ( 'NONE',  ( -1.000000000000000, 0.000000000000000, 0.000000000000000 ) ) ;
#865 = AXIS2_PLACEMENT_3D ( 'NONE', #862, #863, #864 ) ;
#866 = PLANE ( 'NONE', #865 ) ;
#867 = ADVANCED_FACE ( 'NONE', ( #861 ), #866, .F. ) ;
#868 = CARTESIAN_POINT ( 'NONE',  ( -1.330000000000000, 0.900000000000000, 0.490000000000000 ) ) ;
#869 = VERTEX_POINT ( 'NONE', #868 ) ;
#870 = CARTESIAN_POINT ( 'NONE',  ( 0.000000000000000, 0.900000000000000, 0.490000000000000 ) ) ;
#871 = DIRECTION ( 'NONE',  ( 1.000000000000000, 0.000000000000000, 0.000000000000000 ) ) ;
#872 = VECTOR ( 'NONE', #871, 1000.000000000000000 ) ;
#873 = LINE ( 'NONE', #870, #872 ) ;
#874 = EDGE_CURVE ( 'NONE', #869, #490, #873, .T. ) ;
#875 = ORIENTED_EDGE ( 'NONE', *, *, #874, .T. ) ;
#876 = ORIENTED_EDGE ( 'NONE', *, *, #513, .T. ) ;
#877 = CARTESIAN_POINT ( 'NONE',  ( 1.340000000000000, 0.900000000000000, 0.000000000000000 ) ) ;
#878 = DIRECTION ( 'NONE',  ( 0.000000000000000, 0.000000000000000, -1.000000000000000 ) ) ;
#879 = VECTOR ( 'NONE', #878, 1000.000000000000000 ) ;
#880 = LINE ( 'NONE', #877, #879 ) ;
#881 = EDGE_CURVE ( 'NONE', #500, #575, #880, .T. ) ;
#882 = ORIENTED_EDGE ( 'NONE', *, *, #881, .T. ) ;
#883 = ORIENTED_EDGE ( 'NONE', *, *, #581, .T. ) ;
#884 = CARTESIAN_POINT ( 'NONE',  ( 0.000000000000000, 0.900000000000000, -0.490000000000000 ) ) ;
#885 = DIRECTION ( 'NONE',  ( -1.000000000000000, 0.000000000000000, 0.000000000000000 ) ) ;
#886 = VECTOR ( 'NONE', #885, 1000.000000000000000 ) ;
#887 = LINE ( 'NONE', #884, #886 ) ;
#888 = EDGE_CURVE ( 'NONE', #566, #524, #887, .T. ) ;
#889 = ORIENTED_EDGE ( 'NONE', *, *, #888, .T. ) ;
#890 = ORIENTED_EDGE ( 'NONE', *, *, #555, .T. ) ;
#891 = CARTESIAN_POINT ( 'NONE',  ( -1.340000000000000, 0.900000000000000, 0.480000000000000 ) ) ;
#892 = VERTEX_POINT ( 'NONE', #891 ) ;
#893 = CARTESIAN_POINT ( 'NONE',  ( -1.340000000000000, 0.900000000000000, 0.000000000000000 ) ) ;
#894 = DIRECTION ( 'NONE',  ( 0.000000000000000, 0.000000000000000, 1.000000000000000 ) ) ;
#895 = VECTOR ( 'NONE', #894, 1000.000000000000000 ) ;
#896 = LINE ( 'NONE', #893, #895 ) ;
#897 = EDGE_CURVE ( 'NONE', #542, #892, #896, .T. ) ;
#898 = ORIENTED_EDGE ( 'NONE', *, *, #897, .T. ) ;
#899 = CARTESIAN_POINT ( 'NONE',  ( -1.330000000000000, 0.900000000000000, 0.480000000000000 ) ) ;
#900 = DIRECTION ( 'NONE',  ( 0.000000000000000, 1.000000000000000, 0.000000000000000 ) ) ;
#901 = DIRECTION ( 'NONE',  ( 0.000000000000000, 0.000000000000000, -1.000000000000000 ) ) ;
#902 = AXIS2_PLACEMENT_3D ( 'NONE', #899, #900, #901 ) ;
#903 = CIRCLE ( 'NONE', #902, 0.01) ;
#904 = EDGE_CURVE ( 'NONE', #892, #869, #903, .T. ) ;
#905 = ORIENTED_EDGE ( 'NONE', *, *, #904, .T. ) ;
#906 = EDGE_LOOP ( 'NONE', ( #875, #876, #882, #883, #889, #890, #898, #905 ) ) ;
#907 = FACE_OUTER_BOUND ( 'NONE', #906, .T. ) ;
#908 = CARTESIAN_POINT ( 'NONE',  ( 0.000000000000000, 0.900000000000000, 0.000000000000000 ) ) ;
#909 = DIRECTION ( 'NONE',  ( 0.000000000000000, -1.000000000000000, 0.000000000000000 ) ) ;
#910 = DIRECTION ( 'NONE',  ( 0.000000000000000, 0.000000000000000, -1.000000000000000 ) ) ;
#911 = AXIS2_PLACEMENT_3D ( 'NONE', #908, #909, #910 ) ;
#912 = PLANE ( 'NONE', #911 ) ;
#913 = ADVANCED_FACE ( 'NONE', ( #907 ), #912, .F. ) ;
#914 = ORIENTED_EDGE ( 'NONE', *, *, #400, .F. ) ;
#915 = ORIENTED_EDGE ( 'NONE', *, *, #595, .T. ) ;
#916 = ORIENTED_EDGE ( 'NONE', *, *, #466, .F. ) ;
#917 = ORIENTED_EDGE ( 'NONE', *, *, #711, .F. ) ;
#918 = EDGE_LOOP ( 'NONE', ( #914, #915, #916, #917 ) ) ;
#919 = FACE_OUTER_BOUND ( 'NONE', #918, .T. ) ;
#920 = CARTESIAN_POINT ( 'NONE',  ( 1.330000000000000, 0.900000000000000, -0.480000000000000 ) ) ;
#921 = DIRECTION ( 'NONE',  ( 0.000000000000000, -1.000000000000000, 0.000000000000000 ) ) ;
#922 = DIRECTION ( 'NONE',  ( 0.000000000000000, 0.000000000000000, -1.000000000000000 ) ) ;
#923 = AXIS2_PLACEMENT_3D ( 'NONE', #920, #921, #922 ) ;
#924 = CYLINDRICAL_SURFACE ( 'NONE', #923, 0.11) ;
#925 = ADVANCED_FACE ( 'NONE', ( #919 ), #924, .T. ) ;
#926 = ORIENTED_EDGE ( 'NONE', *, *, #840, .F. ) ;
#927 = ORIENTED_EDGE ( 'NONE', *, *, #539, .T. ) ;
#928 = ORIENTED_EDGE ( 'NONE', *, *, #384, .F. ) ;
#929 = ORIENTED_EDGE ( 'NONE', *, *, #703, .F. ) ;
#930 = EDGE_LOOP ( 'NONE', ( #926, #927, #928, #929 ) ) ;
#931 = FACE_OUTER_BOUND ( 'NONE', #930, .T. ) ;
#932 = CARTESIAN_POINT ( 'NONE',  ( -1.330000000000000, 0.900000000000000, -0.480000000000000 ) ) ;
#933 = DIRECTION ( 'NONE',  ( 0.000000000000000, -1.000000000000000, 0.000000000000000 ) ) ;
#934 = DIRECTION ( 'NONE',  ( 0.000000000000000, 0.000000000000000, -1.000000000000000 ) ) ;
#935 = AXIS2_PLACEMENT_3D ( 'NONE', #932, #933, #934 ) ;
#936 = CYLINDRICAL_SURFACE ( 'NONE', #935, 0.11) ;
#937 = ADVANCED_FACE ( 'NONE', ( #931 ), #936, .T. ) ;
#938 = ORIENTED_EDGE ( 'NONE', *, *, #548, .T. ) ;
#939 = ORIENTED_EDGE ( 'NONE', *, *, #834, .F. ) ;
#940 = CARTESIAN_POINT ( 'NONE',  ( -1.340000000000000, 0.800000000000000, 0.480000000000000 ) ) ;
#941 = DIRECTION ( 'NONE',  ( 0.000000000000000, 0.000000000000000, 1.000000000000000 ) ) ;
#942 = DIRECTION ( 'NONE',  ( 1.000000000000000, 0.000000000000000, 0.000000000000000 ) ) ;
#943 = AXIS2_PLACEMENT_3D ( 'NONE', #940, #941, #942 ) ;
#944 = CIRCLE ( 'NONE', #943, 0.1) ;
#945 = EDGE_CURVE ( 'NONE', #892, #616, #944, .T. ) ;
#946 = ORIENTED_EDGE ( 'NONE', *, *, #945, .F. ) ;
#947 = ORIENTED_EDGE ( 'NONE', *, *, #897, .F. ) ;
#948 = EDGE_LOOP ( 'NONE', ( #938, #939, #946, #947 ) ) ;
#949 = FACE_OUTER_BOUND ( 'NONE', #948, .T. ) ;
#950 = CARTESIAN_POINT ( 'NONE',  ( -1.340000000000000, 0.800000000000000, 0.000000000000000 ) ) ;
#951 = DIRECTION ( 'NONE',  ( 0.000000000000000, 0.000000000000000, 1.000000000000000 ) ) ;
#952 = DIRECTION ( 'NONE',  ( 1.000000000000000, 0.000000000000000, 0.000000000000000 ) ) ;
#953 = AXIS2_PLACEMENT_3D ( 'NONE', #950, #951, #952 ) ;
#954 = CYLINDRICAL_SURFACE ( 'NONE', #953, 0.1) ;
#955 = ADVANCED_FACE ( 'NONE', ( #949 ), #954, .T. ) ;
#956 = ORIENTED_EDGE ( 'NONE', *, *, #530, .T. ) ;
#957 = ORIENTED_EDGE ( 'NONE', *, *, #888, .F. ) ;
#958 = ORIENTED_EDGE ( 'NONE', *, *, #572, .F. ) ;
#959 = ORIENTED_EDGE ( 'NONE', *, *, #392, .F. ) ;
#960 = EDGE_LOOP ( 'NONE', ( #956, #957, #958, #959 ) ) ;
#961 = FACE_OUTER_BOUND ( 'NONE', #960, .T. ) ;
#962 = CARTESIAN_POINT ( 'NONE',  ( 0.000000000000000, 0.800000000000000, -0.490000000000000 ) ) ;
#963 = DIRECTION ( 'NONE',  ( -1.000000000000000, 0.000000000000000, 0.000000000000000 ) ) ;
#964 = DIRECTION ( 'NONE',  ( 0.000000000000000, 0.000000000000000, 1.000000000000000 ) ) ;
#965 = AXIS2_PLACEMENT_3D ( 'NONE', #962, #963, #964 ) ;
#966 = CYLINDRICAL_SURFACE ( 'NONE', #965, 0.1) ;
#967 = ADVANCED_FACE ( 'NONE', ( #961 ), #966, .T. ) ;
#968 = ORIENTED_EDGE ( 'NONE', *, *, #945, .T. ) ;
#969 = ORIENTED_EDGE ( 'NONE', *, *, #622, .F. ) ;
#970 = CARTESIAN_POINT ( 'NONE',  ( -1.330000000000000, 0.800000000000000, 0.490000000000000 ) ) ;
#971 = DIRECTION ( 'NONE',  ( 1.000000000000000, 0.000000000000000, 0.000000000000000 ) ) ;
#972 = DIRECTION ( 'NONE',  ( 0.000000000000000, 0.000000000000000, -1.000000000000000 ) ) ;
#973 = AXIS2_PLACEMENT_3D ( 'NONE', #970, #971, #972 ) ;
#974 = CIRCLE ( 'NONE', #973, 0.1) ;
#975 = EDGE_CURVE ( 'NONE', #869, #606, #974, .T. ) ;
#976 = ORIENTED_EDGE ( 'NONE', *, *, #975, .F. ) ;
#977 = ORIENTED_EDGE ( 'NONE', *, *, #904, .F. ) ;
#978 = EDGE_LOOP ( 'NONE', ( #968, #969, #976, #977 ) ) ;
#979 = FACE_OUTER_BOUND ( 'NONE', #978, .T. ) ;
#980 = CARTESIAN_POINT ( 'NONE',  ( -1.330000000000000, 0.800000000000000, 0.480000000000000 ) ) ;
#981 = DIRECTION ( 'NONE',  ( 0.000000000000000, -1.000000000000000, 0.000000000000000 ) ) ;
#982 = DIRECTION ( 'NONE',  ( 0.000000000000000, 0.000000000000000, -1.000000000000000 ) ) ;
#983 = AXIS2_PLACEMENT_3D ( 'NONE', #980, #981, #982 ) ;
#984 = TOROIDAL_SURFACE ( 'NONE', #983, 0.01, 0.1 ) ;
#985 = ADVANCED_FACE ( 'NONE', ( #979 ), #984, .T. ) ;
#986 = ORIENTED_EDGE ( 'NONE', *, *, #975, .T. ) ;
#987 = ORIENTED_EDGE ( 'NONE', *, *, #856, .F. ) ;
#988 = ORIENTED_EDGE ( 'NONE', *, *, #496, .F. ) ;
#989 = ORIENTED_EDGE ( 'NONE', *, *, #874, .F. ) ;
#990 = EDGE_LOOP ( 'NONE', ( #986, #987, #988, #989 ) ) ;
#991 = FACE_OUTER_BOUND ( 'NONE', #990, .T. ) ;
#992 = CARTESIAN_POINT ( 'NONE',  ( 0.000000000000000, 0.800000000000000, 0.490000000000000 ) ) ;
#993 = DIRECTION ( 'NONE',  ( 1.000000000000000, 0.000000000000000, 0.000000000000000 ) ) ;
#994 = DIRECTION ( 'NONE',  ( 0.000000000000000, 0.000000000000000, -1.000000000000000 ) ) ;
#995 = AXIS2_PLACEMENT_3D ( 'NONE', #992, #993, #994 ) ;
#996 = CYLINDRICAL_SURFACE ( 'NONE', #995, 0.1) ;
#997 = ADVANCED_FACE ( 'NONE', ( #991 ), #996, .T. ) ;
#998 = ORIENTED_EDGE ( 'NONE', *, *, #588, .T. ) ;
#999 = ORIENTED_EDGE ( 'NONE', *, *, #881, .F. ) ;
#1000 = ORIENTED_EDGE ( 'NONE', *, *, #506, .F. ) ;
#1001 = ORIENTED_EDGE ( 'NONE', *, *, #472, .F. ) ;
#1002 = EDGE_LOOP ( 'NONE', ( #998, #999, #1000, #1001 ) ) ;
#1003 = FACE_OUTER_BOUND ( 'NONE', #1002, .T. ) ;
#1004 = CARTESIAN_POINT ( 'NONE',  ( 1.340000000000000, 0.800000000000000, 0.000000000000000 ) ) ;
#1005 = DIRECTION ( 'NONE',  ( 0.000000000000000, 0.000000000000000, -1.000000000000000 ) ) ;
#1006 = DIRECTION ( 'NONE',  ( -1.000000000000000, 0.000000000000000, 0.000000000000000 ) ) ;
#1007 = AXIS2_PLACEMENT_3D ( 'NONE', #1004, #1005, #1006 ) ;
#1008 = CYLINDRICAL_SURFACE ( 'NONE', #1007, 0.1) ;
#1009 = ADVANCED_FACE ( 'NONE', ( #1003 ), #1008, .T. ) ;
#1010 = CLOSED_SHELL ( 'NONE', ( #415, #457, #488, #522, #564, #604, #646, #720, #751, #775, #799, #816, #828, #850, #867, #913, #925, #937, #955, #967, #985, #997, #1009 ) ) ;
#1011 = MANIFOLD_SOLID_BREP ( 'Chip', #1010 ) ;
#1012 = STYLED_ITEM ( 'NONE', ( #375 ), #1011 ) ;
#1013 = PRESENTATION_LAYER_ASSIGNMENT (  '',  '', ( #1012 ) ) ;
#1014 = MECHANICAL_DESIGN_GEOMETRIC_PRESENTATION_REPRESENTATION (  '', ( #1012 ), #171 ) ;
#1015 = COLOUR_RGB ( '',0.75294117647059, 0.75294117647059, 0.75294117647059 ) ;
#1016 = FILL_AREA_STYLE_COLOUR ( '', #1015 ) ;
#1017 = FILL_AREA_STYLE ('',( #1016 ) ) ;
#1018 = SURFACE_STYLE_FILL_AREA ( #1017 ) ;
#1019 = SURFACE_SIDE_STYLE ( '',( #1018 ) ) ;
#1020 = SURFACE_STYLE_USAGE ( .BOTH. , #1019 ) ;
#1021 = PRESENTATION_STYLE_ASSIGNMENT (( #1020 ) ) ;
#1022 = STYLED_ITEM ( 'NONE', ( #1021 ), #415 ) ;
#1023 = PRESENTATION_LAYER_ASSIGNMENT (  '',  '', ( #1022 ) ) ;
#1024 = MECHANICAL_DESIGN_GEOMETRIC_PRESENTATION_REPRESENTATION (  '', ( #1022 ), #171 ) ;
#1025 = STYLED_ITEM ( 'NONE', ( #1021 ), #457 ) ;
#1026 = PRESENTATION_LAYER_ASSIGNMENT (  '',  '', ( #1025 ) ) ;
#1027 = MECHANICAL_DESIGN_GEOMETRIC_PRESENTATION_REPRESENTATION (  '', ( #1025 ), #171 ) ;
#1028 = STYLED_ITEM ( 'NONE', ( #1021 ), #488 ) ;
#1029 = PRESENTATION_LAYER_ASSIGNMENT (  '',  '', ( #1028 ) ) ;
#1030 = MECHANICAL_DESIGN_GEOMETRIC_PRESENTATION_REPRESENTATION (  '', ( #1028 ), #171 ) ;
#1031 = STYLED_ITEM ( 'NONE', ( #1021 ), #522 ) ;
#1032 = PRESENTATION_LAYER_ASSIGNMENT (  '',  '', ( #1031 ) ) ;
#1033 = MECHANICAL_DESIGN_GEOMETRIC_PRESENTATION_REPRESENTATION (  '', ( #1031 ), #171 ) ;
#1034 = STYLED_ITEM ( 'NONE', ( #1021 ), #564 ) ;
#1035 = PRESENTATION_LAYER_ASSIGNMENT (  '',  '', ( #1034 ) ) ;
#1036 = MECHANICAL_DESIGN_GEOMETRIC_PRESENTATION_REPRESENTATION (  '', ( #1034 ), #171 ) ;
#1037 = STYLED_ITEM ( 'NONE', ( #1021 ), #604 ) ;
#1038 = PRESENTATION_LAYER_ASSIGNMENT (  '',  '', ( #1037 ) ) ;
#1039 = MECHANICAL_DESIGN_GEOMETRIC_PRESENTATION_REPRESENTATION (  '', ( #1037 ), #171 ) ;
#1040 = STYLED_ITEM ( 'NONE', ( #1021 ), #646 ) ;
#1041 = PRESENTATION_LAYER_ASSIGNMENT (  '',  '', ( #1040 ) ) ;
#1042 = MECHANICAL_DESIGN_GEOMETRIC_PRESENTATION_REPRESENTATION (  '', ( #1040 ), #171 ) ;
#1043 = STYLED_ITEM ( 'NONE', ( #375 ), #720 ) ;
#1044 = PRESENTATION_LAYER_ASSIGNMENT (  '',  '', ( #1043 ) ) ;
#1045 = MECHANICAL_DESIGN_GEOMETRIC_PRESENTATION_REPRESENTATION (  '', ( #1043 ), #171 ) ;
#1046 = STYLED_ITEM ( 'NONE', ( #375 ), #751 ) ;
#1047 = PRESENTATION_LAYER_ASSIGNMENT (  '',  '', ( #1046 ) ) ;
#1048 = MECHANICAL_DESIGN_GEOMETRIC_PRESENTATION_REPRESENTATION (  '', ( #1046 ), #171 ) ;
#1049 = STYLED_ITEM ( 'NONE', ( #375 ), #775 ) ;
#1050 = PRESENTATION_LAYER_ASSIGNMENT (  '',  '', ( #1049 ) ) ;
#1051 = MECHANICAL_DESIGN_GEOMETRIC_PRESENTATION_REPRESENTATION (  '', ( #1049 ), #171 ) ;
#1052 = STYLED_ITEM ( 'NONE', ( #375 ), #799 ) ;
#1053 = PRESENTATION_LAYER_ASSIGNMENT (  '',  '', ( #1052 ) ) ;
#1054 = MECHANICAL_DESIGN_GEOMETRIC_PRESENTATION_REPRESENTATION (  '', ( #1052 ), #171 ) ;
#1055 = STYLED_ITEM ( 'NONE', ( #375 ), #816 ) ;
#1056 = PRESENTATION_LAYER_ASSIGNMENT (  '',  '', ( #1055 ) ) ;
#1057 = MECHANICAL_DESIGN_GEOMETRIC_PRESENTATION_REPRESENTATION (  '', ( #1055 ), #171 ) ;
#1058 = STYLED_ITEM ( 'NONE', ( #375 ), #828 ) ;
#1059 = PRESENTATION_LAYER_ASSIGNMENT (  '',  '', ( #1058 ) ) ;
#1060 = MECHANICAL_DESIGN_GEOMETRIC_PRESENTATION_REPRESENTATION (  '', ( #1058 ), #171 ) ;
#1061 = STYLED_ITEM ( 'NONE', ( #1021 ), #850 ) ;
#1062 = PRESENTATION_LAYER_ASSIGNMENT (  '',  '', ( #1061 ) ) ;
#1063 = MECHANICAL_DESIGN_GEOMETRIC_PRESENTATION_REPRESENTATION (  '', ( #1061 ), #171 ) ;
#1064 = STYLED_ITEM ( 'NONE', ( #1021 ), #867 ) ;
#1065 = PRESENTATION_LAYER_ASSIGNMENT (  '',  '', ( #1064 ) ) ;
#1066 = MECHANICAL_DESIGN_GEOMETRIC_PRESENTATION_REPRESENTATION (  '', ( #1064 ), #171 ) ;
#1067 = STYLED_ITEM ( 'NONE', ( #1021 ), #913 ) ;
#1068 = PRESENTATION_LAYER_ASSIGNMENT (  '',  '', ( #1067 ) ) ;
#1069 = MECHANICAL_DESIGN_GEOMETRIC_PRESENTATION_REPRESENTATION (  '', ( #1067 ), #171 ) ;
#1070 = STYLED_ITEM ( 'NONE', ( #1021 ), #925 ) ;
#1071 = PRESENTATION_LAYER_ASSIGNMENT (  '',  '', ( #1070 ) ) ;
#1072 = MECHANICAL_DESIGN_GEOMETRIC_PRESENTATION_REPRESENTATION (  '', ( #1070 ), #171 ) ;
#1073 = STYLED_ITEM ( 'NONE', ( #1021 ), #937 ) ;
#1074 = PRESENTATION_LAYER_ASSIGNMENT (  '',  '', ( #1073 ) ) ;
#1075 = MECHANICAL_DESIGN_GEOMETRIC_PRESENTATION_REPRESENTATION (  '', ( #1073 ), #171 ) ;
#1076 = STYLED_ITEM ( 'NONE', ( #1021 ), #955 ) ;
#1077 = PRESENTATION_LAYER_ASSIGNMENT (  '',  '', ( #1076 ) ) ;
#1078 = MECHANICAL_DESIGN_GEOMETRIC_PRESENTATION_REPRESENTATION (  '', ( #1076 ), #171 ) ;
#1079 = STYLED_ITEM ( 'NONE', ( #1021 ), #967 ) ;
#1080 = PRESENTATION_LAYER_ASSIGNMENT (  '',  '', ( #1079 ) ) ;
#1081 = MECHANICAL_DESIGN_GEOMETRIC_PRESENTATION_REPRESENTATION (  '', ( #1079 ), #171 ) ;
#1082 = STYLED_ITEM ( 'NONE', ( #1021 ), #985 ) ;
#1083 = PRESENTATION_LAYER_ASSIGNMENT (  '',  '', ( #1082 ) ) ;
#1084 = MECHANICAL_DESIGN_GEOMETRIC_PRESENTATION_REPRESENTATION (  '', ( #1082 ), #171 ) ;
#1085 = STYLED_ITEM ( 'NONE', ( #1021 ), #997 ) ;
#1086 = PRESENTATION_LAYER_ASSIGNMENT (  '',  '', ( #1085 ) ) ;
#1087 = MECHANICAL_DESIGN_GEOMETRIC_PRESENTATION_REPRESENTATION (  '', ( #1085 ), #171 ) ;
#1088 = STYLED_ITEM ( 'NONE', ( #1021 ), #1009 ) ;
#1089 = PRESENTATION_LAYER_ASSIGNMENT (  '',  '', ( #1088 ) ) ;
#1090 = MECHANICAL_DESIGN_GEOMETRIC_PRESENTATION_REPRESENTATION (  '', ( #1088 ), #171 ) ;
#1091 = COLOUR_RGB ( '',0.00000000000000, 0.00000000000000, 0.00000000000000 ) ;
#1092 = FILL_AREA_STYLE_COLOUR ( '', #1091 ) ;
#1093 = FILL_AREA_STYLE ('',( #1092 ) ) ;
#1094 = SURFACE_STYLE_FILL_AREA ( #1093 ) ;
#1095 = SURFACE_SIDE_STYLE ( '',( #1094 ) ) ;
#1096 = SURFACE_STYLE_USAGE ( .BOTH. , #1095 ) ;
#1097 = PRESENTATION_STYLE_ASSIGNMENT (( #1096 ) ) ;
#1098 = CARTESIAN_POINT ( 'NONE',  ( 0.000000000000000, 0.000000000000000, 0.000000000000000 ) ) ;
#1099 = DIRECTION ( 'NONE',  ( 0.000000000000000, 0.000000000000000, 1.000000000000000 ) ) ;
#1100 = DIRECTION ( 'NONE',  ( 1.000000000000000, 0.000000000000000, 0.000000000000000 ) ) ;
#1101 = AXIS2_PLACEMENT_3D ( 'NONE', #1098, #1099, #1100 ) ;
#1102 = ADVANCED_BREP_SHAPE_REPRESENTATION ( 'XTALDFN2_320X150X90L75X150', ( #164, #347, #1011, #1101 ), #171 ) ;
#1103 = STYLED_ITEM ( 'NONE', ( #1097 ), #1102 ) ;
#1104 = PRESENTATION_LAYER_ASSIGNMENT (  '',  '', ( #1103 ) ) ;
#1105 = MECHANICAL_DESIGN_GEOMETRIC_PRESENTATION_REPRESENTATION (  '', ( #1103 ), #171 ) ;
#1106 = PRODUCT_DEFINITION_FORMATION_WITH_SPECIFIED_SOURCE ( 'ANY', '', #5, .NOT_KNOWN. ) ;
#1107 = PRODUCT_DEFINITION_CONTEXT ( 'detailed design', #3, 'design' ) ;
#1108 = PRODUCT_DEFINITION ( 'UNKNOWN', '', #1106, #1107 ) ;
#1109 = PRODUCT_DEFINITION_SHAPE ( 'NONE', 'NONE', #1108 ) ;
#1110 = SHAPE_DEFINITION_REPRESENTATION ( #1109, #1102 ) ;
ENDSEC;
END-ISO-10303-21;
