(module "tp-th-128-50" (layer "F.Cu") (tedit 5F8DBCD1)
  (fp_text reference "REF**" (at 0 -0.5 unlocked) (layer "F.SilkS")
    (effects (font (size 1 1) (thickness 0.15)))
    (tstamp bb498408-07eb-4ff4-9fea-032ebee30d2a)
  )
  (fp_text value "tp-th-128-50" (at 0 1 unlocked) (layer "F.Fab")
    (effects (font (size 1 1) (thickness 0.15)))
    (tstamp d3c31c62-2c33-460c-ad92-beac479d1290)
  )
  (fp_text user "${REFERENCE}" (at 0 2.5 unlocked) (layer "F.Fab")
    (effects (font (size 1 1) (thickness 0.15)))
    (tstamp 5573511e-4dd3-4b9d-acbc-837be175edd0)
  )
  (pad "1" thru_hole circle (at 0 0) (size 1.28 1.28) (drill 0.5) (layers *.Cu *.Mask) (tstamp 0c92c829-e042-4d3f-b17d-498b5956b158))
)
