(module SON10P50_250X250X80L100X24N (layer F.Cu) (tedit 0)
  (descr "Small Outline No-Lead (SON), 0.50 mm pitch; 10 pin, 2.50 mm L X 2.50 mm W X 0.80 mm H body")
  (attr smd)
  (fp_text user %R (at 0 0) (layer F.Fab)
    (effects (font (size 1.96 1.96) (thickness 0.2)))
  )
  (fp_text value VAL** (at 0 0) (layer F.Fab)
    (effects (font (size 1.2 1.2) (thickness 0.12)))
  )
  (fp_text reference REF** (at 0 0) (layer F.SilkS)
    (effects (font (size 1.2 1.2) (thickness 0.12)))
  )
  (fp_line (start -1.12 0.25) (end -0.88 0.25) (layer Dwgs.User) (width 0.025))
  (fp_line (start -0.88 0.25) (end -0.88 1.25) (layer Dwgs.User) (width 0.025))
  (fp_line (start -0.88 1.25) (end -1.12 1.25) (layer Dwgs.User) (width 0.025))
  (fp_line (start -1.12 1.25) (end -1.12 0.25) (layer Dwgs.User) (width 0.025))
  (fp_line (start -0.62 0.25) (end -0.38 0.25) (layer Dwgs.User) (width 0.025))
  (fp_line (start -0.38 0.25) (end -0.38 1.25) (layer Dwgs.User) (width 0.025))
  (fp_line (start -0.38 1.25) (end -0.62 1.25) (layer Dwgs.User) (width 0.025))
  (fp_line (start -0.62 1.25) (end -0.62 0.25) (layer Dwgs.User) (width 0.025))
  (fp_line (start -0.12 0.25) (end 0.12 0.25) (layer Dwgs.User) (width 0.025))
  (fp_line (start 0.12 0.25) (end 0.12 1.25) (layer Dwgs.User) (width 0.025))
  (fp_line (start 0.12 1.25) (end -0.12 1.25) (layer Dwgs.User) (width 0.025))
  (fp_line (start -0.12 1.25) (end -0.12 0.25) (layer Dwgs.User) (width 0.025))
  (fp_line (start 0.38 0.25) (end 0.62 0.25) (layer Dwgs.User) (width 0.025))
  (fp_line (start 0.62 0.25) (end 0.62 1.25) (layer Dwgs.User) (width 0.025))
  (fp_line (start 0.62 1.25) (end 0.38 1.25) (layer Dwgs.User) (width 0.025))
  (fp_line (start 0.38 1.25) (end 0.38 0.25) (layer Dwgs.User) (width 0.025))
  (fp_line (start 0.88 0.25) (end 1.12 0.25) (layer Dwgs.User) (width 0.025))
  (fp_line (start 1.12 0.25) (end 1.12 1.25) (layer Dwgs.User) (width 0.025))
  (fp_line (start 1.12 1.25) (end 0.88 1.25) (layer Dwgs.User) (width 0.025))
  (fp_line (start 0.88 1.25) (end 0.88 0.25) (layer Dwgs.User) (width 0.025))
  (fp_line (start 1.12 -0.25) (end 0.88 -0.25) (layer Dwgs.User) (width 0.025))
  (fp_line (start 0.88 -0.25) (end 0.88 -1.25) (layer Dwgs.User) (width 0.025))
  (fp_line (start 0.88 -1.25) (end 1.12 -1.25) (layer Dwgs.User) (width 0.025))
  (fp_line (start 1.12 -1.25) (end 1.12 -0.25) (layer Dwgs.User) (width 0.025))
  (fp_line (start 0.62 -0.25) (end 0.38 -0.25) (layer Dwgs.User) (width 0.025))
  (fp_line (start 0.38 -0.25) (end 0.38 -1.25) (layer Dwgs.User) (width 0.025))
  (fp_line (start 0.38 -1.25) (end 0.62 -1.25) (layer Dwgs.User) (width 0.025))
  (fp_line (start 0.62 -1.25) (end 0.62 -0.25) (layer Dwgs.User) (width 0.025))
  (fp_line (start 0.12 -0.25) (end -0.12 -0.25) (layer Dwgs.User) (width 0.025))
  (fp_line (start -0.12 -0.25) (end -0.12 -1.25) (layer Dwgs.User) (width 0.025))
  (fp_line (start -0.12 -1.25) (end 0.12 -1.25) (layer Dwgs.User) (width 0.025))
  (fp_line (start 0.12 -1.25) (end 0.12 -0.25) (layer Dwgs.User) (width 0.025))
  (fp_line (start -0.38 -0.25) (end -0.62 -0.25) (layer Dwgs.User) (width 0.025))
  (fp_line (start -0.62 -0.25) (end -0.62 -1.25) (layer Dwgs.User) (width 0.025))
  (fp_line (start -0.62 -1.25) (end -0.38 -1.25) (layer Dwgs.User) (width 0.025))
  (fp_line (start -0.38 -1.25) (end -0.38 -0.25) (layer Dwgs.User) (width 0.025))
  (fp_line (start -0.88 -0.25) (end -1.12 -0.25) (layer Dwgs.User) (width 0.025))
  (fp_line (start -1.12 -0.25) (end -1.12 -1.25) (layer Dwgs.User) (width 0.025))
  (fp_line (start -1.12 -1.25) (end -0.88 -1.25) (layer Dwgs.User) (width 0.025))
  (fp_line (start -0.88 -1.25) (end -0.88 -0.25) (layer Dwgs.User) (width 0.025))
  (fp_line (start -1.25 1.25) (end -1.25 -1.25) (layer Dwgs.User) (width 0.025))
  (fp_line (start -1.25 -1.25) (end 1.25 -1.25) (layer Dwgs.User) (width 0.025))
  (fp_line (start 1.25 -1.25) (end 1.25 1.25) (layer Dwgs.User) (width 0.025))
  (fp_line (start 1.25 1.25) (end -1.25 1.25) (layer Dwgs.User) (width 0.025))
  (fp_circle (center 0 0) (end 0 0.25) (layer F.CrtYd) (width 0.05))
  (fp_line (start 0 -0.35) (end 0 0.35) (layer F.CrtYd) (width 0.05))
  (fp_line (start -0.35 0) (end 0.35 0) (layer F.CrtYd) (width 0.05))
  (fp_line (start 1.3 1.3) (end -0.43333 1.3) (layer F.Fab) (width 0.16))
  (fp_line (start -0.43333 1.3) (end -1.3 0.43333) (layer F.Fab) (width 0.16))
  (fp_line (start -1.3 0.43333) (end -1.3 -1.3) (layer F.Fab) (width 0.16))
  (fp_line (start -1.3 -1.3) (end 1.3 -1.3) (layer F.Fab) (width 0.16))
  (fp_line (start 1.3 -1.3) (end 1.3 1.3) (layer F.Fab) (width 0.16))
  (fp_line (start -1.37 1.3) (end -1.37 -1.3) (layer F.SilkS) (width 0.16))
  (fp_line (start 1.37 1.3) (end 1.37 -1.3) (layer F.SilkS) (width 0.16))
  (fp_line (start -1.37 1.3) (end -1.37 1.435) (layer F.SilkS) (width 0.16))
  (fp_line (start 1.5 1.5) (end 1.5 -1.5) (layer F.CrtYd) (width 0.05))
  (fp_line (start 1.5 -1.5) (end 1.33 -1.5) (layer F.CrtYd) (width 0.05))
  (fp_line (start 1.33 -1.5) (end 1.33 -1.715) (layer F.CrtYd) (width 0.05))
  (fp_line (start 1.33 -1.715) (end -1.33 -1.715) (layer F.CrtYd) (width 0.05))
  (fp_line (start -1.33 -1.715) (end -1.33 -1.5) (layer F.CrtYd) (width 0.05))
  (fp_line (start -1.33 -1.5) (end -1.5 -1.5) (layer F.CrtYd) (width 0.05))
  (fp_line (start -1.5 -1.5) (end -1.5 1.5) (layer F.CrtYd) (width 0.05))
  (fp_line (start -1.5 1.5) (end -1.33 1.5) (layer F.CrtYd) (width 0.05))
  (fp_line (start -1.33 1.5) (end -1.33 1.715) (layer F.CrtYd) (width 0.05))
  (fp_line (start -1.33 1.715) (end 1.33 1.715) (layer F.CrtYd) (width 0.05))
  (fp_line (start 1.33 1.715) (end 1.33 1.5) (layer F.CrtYd) (width 0.05))
  (fp_line (start 1.33 1.5) (end 1.5 1.5) (layer F.CrtYd) (width 0.05))
  (pad 1 smd roundrect (at -1 0.835 90) (size 1.36 0.26) (layers F.Cu F.Paste F.Mask) (roundrect_rratio 0.2692))
  (pad 2 smd roundrect (at -0.5 0.835 90) (size 1.36 0.26) (layers F.Cu F.Paste F.Mask) (roundrect_rratio 0.2692))
  (pad 3 smd roundrect (at 0 0.835 90) (size 1.36 0.26) (layers F.Cu F.Paste F.Mask) (roundrect_rratio 0.2692))
  (pad 4 smd roundrect (at 0.5 0.835 90) (size 1.36 0.26) (layers F.Cu F.Paste F.Mask) (roundrect_rratio 0.2692))
  (pad 5 smd roundrect (at 1 0.835 90) (size 1.36 0.26) (layers F.Cu F.Paste F.Mask) (roundrect_rratio 0.2692))
  (pad 6 smd roundrect (at 1 -0.835 90) (size 1.36 0.26) (layers F.Cu F.Paste F.Mask) (roundrect_rratio 0.2692))
  (pad 7 smd roundrect (at 0.5 -0.835 90) (size 1.36 0.26) (layers F.Cu F.Paste F.Mask) (roundrect_rratio 0.2692))
  (pad 8 smd roundrect (at 0 -0.835 90) (size 1.36 0.26) (layers F.Cu F.Paste F.Mask) (roundrect_rratio 0.2692))
  (pad 9 smd roundrect (at -0.5 -0.835 90) (size 1.36 0.26) (layers F.Cu F.Paste F.Mask) (roundrect_rratio 0.2692))
  (pad 10 smd roundrect (at -1 -0.835 90) (size 1.36 0.26) (layers F.Cu F.Paste F.Mask) (roundrect_rratio 0.2692))
)
