(module SOP14P65_500X640X120L62X24N (layer F.Cu) (tedit 0)
  (descr "Small Outline Pkg (SOP), 0.65 mm pitch; 14 pin, 5.00 mm L X 4.40 mm W X 1.20 mm H body")
  (attr smd)
  (fp_text user %R (at 0 0) (layer F.Fab)
    (effects (font (size 2 2) (thickness 0.2)))
  )
  (fp_text value VAL** (at 0 0) (layer F.Fab)
    (effects (font (size 1.2 1.2) (thickness 0.12)))
  )
  (fp_text reference REF** (at 0 0) (layer F.SilkS)
    (effects (font (size 1.2 1.2) (thickness 0.12)))
  )
  (fp_line (start -2.0725 2.575) (end -1.8275 2.575) (layer Dwgs.User) (width 0.025))
  (fp_line (start -1.8275 2.575) (end -1.8275 3.2) (layer Dwgs.User) (width 0.025))
  (fp_line (start -1.8275 3.2) (end -2.0725 3.2) (layer Dwgs.User) (width 0.025))
  (fp_line (start -2.0725 3.2) (end -2.0725 2.575) (layer Dwgs.User) (width 0.025))
  (fp_line (start -1.4225 2.575) (end -1.1775 2.575) (layer Dwgs.User) (width 0.025))
  (fp_line (start -1.1775 2.575) (end -1.1775 3.2) (layer Dwgs.User) (width 0.025))
  (fp_line (start -1.1775 3.2) (end -1.4225 3.2) (layer Dwgs.User) (width 0.025))
  (fp_line (start -1.4225 3.2) (end -1.4225 2.575) (layer Dwgs.User) (width 0.025))
  (fp_line (start -0.7725 2.575) (end -0.5275 2.575) (layer Dwgs.User) (width 0.025))
  (fp_line (start -0.5275 2.575) (end -0.5275 3.2) (layer Dwgs.User) (width 0.025))
  (fp_line (start -0.5275 3.2) (end -0.7725 3.2) (layer Dwgs.User) (width 0.025))
  (fp_line (start -0.7725 3.2) (end -0.7725 2.575) (layer Dwgs.User) (width 0.025))
  (fp_line (start -0.1225 2.575) (end 0.1225 2.575) (layer Dwgs.User) (width 0.025))
  (fp_line (start 0.1225 2.575) (end 0.1225 3.2) (layer Dwgs.User) (width 0.025))
  (fp_line (start 0.1225 3.2) (end -0.1225 3.2) (layer Dwgs.User) (width 0.025))
  (fp_line (start -0.1225 3.2) (end -0.1225 2.575) (layer Dwgs.User) (width 0.025))
  (fp_line (start 0.5275 2.575) (end 0.7725 2.575) (layer Dwgs.User) (width 0.025))
  (fp_line (start 0.7725 2.575) (end 0.7725 3.2) (layer Dwgs.User) (width 0.025))
  (fp_line (start 0.7725 3.2) (end 0.5275 3.2) (layer Dwgs.User) (width 0.025))
  (fp_line (start 0.5275 3.2) (end 0.5275 2.575) (layer Dwgs.User) (width 0.025))
  (fp_line (start 1.1775 2.575) (end 1.4225 2.575) (layer Dwgs.User) (width 0.025))
  (fp_line (start 1.4225 2.575) (end 1.4225 3.2) (layer Dwgs.User) (width 0.025))
  (fp_line (start 1.4225 3.2) (end 1.1775 3.2) (layer Dwgs.User) (width 0.025))
  (fp_line (start 1.1775 3.2) (end 1.1775 2.575) (layer Dwgs.User) (width 0.025))
  (fp_line (start 1.8275 2.575) (end 2.0725 2.575) (layer Dwgs.User) (width 0.025))
  (fp_line (start 2.0725 2.575) (end 2.0725 3.2) (layer Dwgs.User) (width 0.025))
  (fp_line (start 2.0725 3.2) (end 1.8275 3.2) (layer Dwgs.User) (width 0.025))
  (fp_line (start 1.8275 3.2) (end 1.8275 2.575) (layer Dwgs.User) (width 0.025))
  (fp_line (start 2.0725 -2.575) (end 1.8275 -2.575) (layer Dwgs.User) (width 0.025))
  (fp_line (start 1.8275 -2.575) (end 1.8275 -3.2) (layer Dwgs.User) (width 0.025))
  (fp_line (start 1.8275 -3.2) (end 2.0725 -3.2) (layer Dwgs.User) (width 0.025))
  (fp_line (start 2.0725 -3.2) (end 2.0725 -2.575) (layer Dwgs.User) (width 0.025))
  (fp_line (start 1.4225 -2.575) (end 1.1775 -2.575) (layer Dwgs.User) (width 0.025))
  (fp_line (start 1.1775 -2.575) (end 1.1775 -3.2) (layer Dwgs.User) (width 0.025))
  (fp_line (start 1.1775 -3.2) (end 1.4225 -3.2) (layer Dwgs.User) (width 0.025))
  (fp_line (start 1.4225 -3.2) (end 1.4225 -2.575) (layer Dwgs.User) (width 0.025))
  (fp_line (start 0.7725 -2.575) (end 0.5275 -2.575) (layer Dwgs.User) (width 0.025))
  (fp_line (start 0.5275 -2.575) (end 0.5275 -3.2) (layer Dwgs.User) (width 0.025))
  (fp_line (start 0.5275 -3.2) (end 0.7725 -3.2) (layer Dwgs.User) (width 0.025))
  (fp_line (start 0.7725 -3.2) (end 0.7725 -2.575) (layer Dwgs.User) (width 0.025))
  (fp_line (start 0.1225 -2.575) (end -0.1225 -2.575) (layer Dwgs.User) (width 0.025))
  (fp_line (start -0.1225 -2.575) (end -0.1225 -3.2) (layer Dwgs.User) (width 0.025))
  (fp_line (start -0.1225 -3.2) (end 0.1225 -3.2) (layer Dwgs.User) (width 0.025))
  (fp_line (start 0.1225 -3.2) (end 0.1225 -2.575) (layer Dwgs.User) (width 0.025))
  (fp_line (start -0.5275 -2.575) (end -0.7725 -2.575) (layer Dwgs.User) (width 0.025))
  (fp_line (start -0.7725 -2.575) (end -0.7725 -3.2) (layer Dwgs.User) (width 0.025))
  (fp_line (start -0.7725 -3.2) (end -0.5275 -3.2) (layer Dwgs.User) (width 0.025))
  (fp_line (start -0.5275 -3.2) (end -0.5275 -2.575) (layer Dwgs.User) (width 0.025))
  (fp_line (start -1.1775 -2.575) (end -1.4225 -2.575) (layer Dwgs.User) (width 0.025))
  (fp_line (start -1.4225 -2.575) (end -1.4225 -3.2) (layer Dwgs.User) (width 0.025))
  (fp_line (start -1.4225 -3.2) (end -1.1775 -3.2) (layer Dwgs.User) (width 0.025))
  (fp_line (start -1.1775 -3.2) (end -1.1775 -2.575) (layer Dwgs.User) (width 0.025))
  (fp_line (start -1.8275 -2.575) (end -2.0725 -2.575) (layer Dwgs.User) (width 0.025))
  (fp_line (start -2.0725 -2.575) (end -2.0725 -3.2) (layer Dwgs.User) (width 0.025))
  (fp_line (start -2.0725 -3.2) (end -1.8275 -3.2) (layer Dwgs.User) (width 0.025))
  (fp_line (start -1.8275 -3.2) (end -1.8275 -2.575) (layer Dwgs.User) (width 0.025))
  (fp_line (start -2.5 2.2) (end -2.5 -2.2) (layer Dwgs.User) (width 0.025))
  (fp_line (start -2.5 -2.2) (end 2.5 -2.2) (layer Dwgs.User) (width 0.025))
  (fp_line (start 2.5 -2.2) (end 2.5 2.2) (layer Dwgs.User) (width 0.025))
  (fp_line (start 2.5 2.2) (end -2.5 2.2) (layer Dwgs.User) (width 0.025))
  (fp_circle (center 0 0) (end 0 0.25) (layer F.CrtYd) (width 0.05))
  (fp_line (start 0 -0.35) (end 0 0.35) (layer F.CrtYd) (width 0.05))
  (fp_line (start -0.35 0) (end 0.35 0) (layer F.CrtYd) (width 0.05))
  (fp_line (start 2.55 2.25) (end -1.28 2.25) (layer F.Fab) (width 0.16))
  (fp_line (start -1.28 2.25) (end -2.55 0.98) (layer F.Fab) (width 0.16))
  (fp_line (start -2.55 0.98) (end -2.55 -2.25) (layer F.Fab) (width 0.16))
  (fp_line (start -2.55 -2.25) (end 2.55 -2.25) (layer F.Fab) (width 0.16))
  (fp_line (start 2.55 -2.25) (end 2.55 2.25) (layer F.Fab) (width 0.16))
  (fp_line (start 2.385 2.25) (end 2.55 2.25) (layer F.SilkS) (width 0.16))
  (fp_line (start 2.55 2.25) (end 2.55 -2.25) (layer F.SilkS) (width 0.16))
  (fp_line (start 2.55 -2.25) (end 2.385 -2.25) (layer F.SilkS) (width 0.16))
  (fp_line (start -2.385 2.25) (end -2.55 2.25) (layer F.SilkS) (width 0.16))
  (fp_line (start -2.55 2.25) (end -2.55 -2.25) (layer F.SilkS) (width 0.16))
  (fp_line (start -2.55 -2.25) (end -2.385 -2.25) (layer F.SilkS) (width 0.16))
  (fp_line (start -2.385 2.25) (end -2.385 3.425) (layer F.SilkS) (width 0.16))
  (fp_line (start 2.75 2.45) (end 2.75 -2.45) (layer F.CrtYd) (width 0.05))
  (fp_line (start 2.75 -2.45) (end 2.345 -2.45) (layer F.CrtYd) (width 0.05))
  (fp_line (start 2.345 -2.45) (end 2.345 -3.705) (layer F.CrtYd) (width 0.05))
  (fp_line (start 2.345 -3.705) (end -2.345 -3.705) (layer F.CrtYd) (width 0.05))
  (fp_line (start -2.345 -3.705) (end -2.345 -2.45) (layer F.CrtYd) (width 0.05))
  (fp_line (start -2.345 -2.45) (end -2.75 -2.45) (layer F.CrtYd) (width 0.05))
  (fp_line (start -2.75 -2.45) (end -2.75 2.45) (layer F.CrtYd) (width 0.05))
  (fp_line (start -2.75 2.45) (end -2.345 2.45) (layer F.CrtYd) (width 0.05))
  (fp_line (start -2.345 2.45) (end -2.345 3.705) (layer F.CrtYd) (width 0.05))
  (fp_line (start -2.345 3.705) (end 2.345 3.705) (layer F.CrtYd) (width 0.05))
  (fp_line (start 2.345 3.705) (end 2.345 2.45) (layer F.CrtYd) (width 0.05))
  (fp_line (start 2.345 2.45) (end 2.75 2.45) (layer F.CrtYd) (width 0.05))
  (pad 1 smd roundrect (at -1.95 2.82 90) (size 1.37 0.39) (layers F.Cu F.Paste F.Mask) (roundrect_rratio 0.2564))
  (pad 2 smd roundrect (at -1.3 2.82 90) (size 1.37 0.39) (layers F.Cu F.Paste F.Mask) (roundrect_rratio 0.2564))
  (pad 3 smd roundrect (at -0.65 2.82 90) (size 1.37 0.39) (layers F.Cu F.Paste F.Mask) (roundrect_rratio 0.2564))
  (pad 4 smd roundrect (at 0 2.82 90) (size 1.37 0.39) (layers F.Cu F.Paste F.Mask) (roundrect_rratio 0.2564))
  (pad 5 smd roundrect (at 0.65 2.82 90) (size 1.37 0.39) (layers F.Cu F.Paste F.Mask) (roundrect_rratio 0.2564))
  (pad 6 smd roundrect (at 1.3 2.82 90) (size 1.37 0.39) (layers F.Cu F.Paste F.Mask) (roundrect_rratio 0.2564))
  (pad 7 smd roundrect (at 1.95 2.82 90) (size 1.37 0.39) (layers F.Cu F.Paste F.Mask) (roundrect_rratio 0.2564))
  (pad 8 smd roundrect (at 1.95 -2.82 90) (size 1.37 0.39) (layers F.Cu F.Paste F.Mask) (roundrect_rratio 0.2564))
  (pad 9 smd roundrect (at 1.3 -2.82 90) (size 1.37 0.39) (layers F.Cu F.Paste F.Mask) (roundrect_rratio 0.2564))
  (pad 10 smd roundrect (at 0.65 -2.82 90) (size 1.37 0.39) (layers F.Cu F.Paste F.Mask) (roundrect_rratio 0.2564))
  (pad 11 smd roundrect (at 0 -2.82 90) (size 1.37 0.39) (layers F.Cu F.Paste F.Mask) (roundrect_rratio 0.2564))
  (pad 12 smd roundrect (at -0.65 -2.82 90) (size 1.37 0.39) (layers F.Cu F.Paste F.Mask) (roundrect_rratio 0.2564))
  (pad 13 smd roundrect (at -1.3 -2.82 90) (size 1.37 0.39) (layers F.Cu F.Paste F.Mask) (roundrect_rratio 0.2564))
  (pad 14 smd roundrect (at -1.95 -2.82 90) (size 1.37 0.39) (layers F.Cu F.Paste F.Mask) (roundrect_rratio 0.2564))
)
