ISO-10303-21;
HEADER;
FILE_DESCRIPTION (( 'STEP AP214' ), '1' );
FILE_NAME ( 'INDC250X180X200L50.STEP',
    '2020-11-05T02:10:47',
    ( '' ),
    ( '' ),
    'Part was generated with the free Library Expert Lite available at www.PCBLibraries.com. Removing line will violate the End User License Agreement.',
    '©2017 PCB Libraries, Inc.',
    '' );
FILE_SCHEMA (( 'AUTOMOTIVE_DESIGN' ));
ENDSEC;

DATA;
#1 = APPLICATION_CONTEXT ( 'automotive_design' ) ;
#2 = APPLICATION_PROTOCOL_DEFINITION ( 'draft international standard', '', 0, #1 ) ;
#3 = APPLICATION_CONTEXT ( 'automotive_design' ) ;
#4 = PRODUCT_CONTEXT ( 'NONE', #3, 'mechanical' ) ;
#5 = PRODUCT ( 'INDC250X180X200L50', 'INDC250X180X200L50', '', ( #4 ) ) ;
#6 = PRODUCT_RELATED_PRODUCT_CATEGORY ( 'part', '', ( #5 ) ) ;
#7 = APPLICATION_PROTOCOL_DEFINITION ( 'draft international standard', '', 0, #3 ) ;
#8 = COLOUR_RGB ( '',0.75294117647059, 0.75294117647059, 0.75294117647059 ) ;
#9 = FILL_AREA_STYLE_COLOUR ( '', #8 ) ;
#10 = FILL_AREA_STYLE ('',( #9 ) ) ;
#11 = SURFACE_STYLE_FILL_AREA ( #10 ) ;
#12 = SURFACE_SIDE_STYLE ( '',( #11 ) ) ;
#13 = SURFACE_STYLE_USAGE ( .BOTH. , #12 ) ;
#14 = PRESENTATION_STYLE_ASSIGNMENT (( #13 ) ) ;
#15 = CARTESIAN_POINT ( 'NONE',  ( -0.750000000000000, 0.000000000000000, -0.850000000000000 ) ) ;
#16 = VERTEX_POINT ( 'NONE', #15 ) ;
#17 = CARTESIAN_POINT ( 'NONE',  ( -0.750000000000000, 0.000000000000000, 0.850000000000000 ) ) ;
#18 = VERTEX_POINT ( 'NONE', #17 ) ;
#19 = CARTESIAN_POINT ( 'NONE',  ( -0.750000000000000, 0.000000000000000, -0.900000000000000 ) ) ;
#20 = DIRECTION ( 'NONE',  ( 0.000000000000000, 0.000000000000000, 1.000000000000000 ) ) ;
#21 = VECTOR ( 'NONE', #20, 1000.000000000000000 ) ;
#22 = LINE ( 'NONE', #19, #21 ) ;
#23 = EDGE_CURVE ( 'NONE', #16, #18, #22, .T. ) ;
#24 = ORIENTED_EDGE ( 'NONE', *, *, #23, .F. ) ;
#25 = CARTESIAN_POINT ( 'NONE',  ( -0.750000000000000, 0.050000000000000, -0.900000000000000 ) ) ;
#26 = VERTEX_POINT ( 'NONE', #25 ) ;
#27 = CARTESIAN_POINT ( 'NONE',  ( -0.750000000000000, 0.050000000000000, -0.850000000000000 ) ) ;
#28 = DIRECTION ( 'NONE',  ( 1.000000000000000, 0.000000000000000, 0.000000000000000 ) ) ;
#29 = DIRECTION ( 'NONE',  ( 0.000000000000000, 0.000000000000000, -1.000000000000000 ) ) ;
#30 = AXIS2_PLACEMENT_3D ( 'NONE', #27, #28, #29 ) ;
#31 = CIRCLE ( 'NONE', #30, 0.05) ;
#32 = EDGE_CURVE ( 'NONE', #16, #26, #31, .T. ) ;
#33 = ORIENTED_EDGE ( 'NONE', *, *, #32, .T. ) ;
#34 = CARTESIAN_POINT ( 'NONE',  ( -0.750000000000000, 1.950000000000000, -0.900000000000000 ) ) ;
#35 = VERTEX_POINT ( 'NONE', #34 ) ;
#36 = CARTESIAN_POINT ( 'NONE',  ( -0.750000000000000, 0.000000000000000, -0.900000000000000 ) ) ;
#37 = DIRECTION ( 'NONE',  ( 0.000000000000000, -1.000000000000000, 0.000000000000000 ) ) ;
#38 = VECTOR ( 'NONE', #37, 1000.000000000000000 ) ;
#39 = LINE ( 'NONE', #36, #38 ) ;
#40 = EDGE_CURVE ( 'NONE', #35, #26, #39, .T. ) ;
#41 = ORIENTED_EDGE ( 'NONE', *, *, #40, .F. ) ;
#42 = CARTESIAN_POINT ( 'NONE',  ( -0.750000000000000, 2.000000000000000, -0.850000000000000 ) ) ;
#43 = VERTEX_POINT ( 'NONE', #42 ) ;
#44 = CARTESIAN_POINT ( 'NONE',  ( -0.750000000000000, 1.950000000000000, -0.850000000000000 ) ) ;
#45 = DIRECTION ( 'NONE',  ( 1.000000000000000, 0.000000000000000, 0.000000000000000 ) ) ;
#46 = DIRECTION ( 'NONE',  ( 0.000000000000000, 0.000000000000000, -1.000000000000000 ) ) ;
#47 = AXIS2_PLACEMENT_3D ( 'NONE', #44, #45, #46 ) ;
#48 = CIRCLE ( 'NONE', #47, 0.05) ;
#49 = EDGE_CURVE ( 'NONE', #35, #43, #48, .T. ) ;
#50 = ORIENTED_EDGE ( 'NONE', *, *, #49, .T. ) ;
#51 = CARTESIAN_POINT ( 'NONE',  ( -0.750000000000000, 2.000000000000000, 0.850000000000000 ) ) ;
#52 = VERTEX_POINT ( 'NONE', #51 ) ;
#53 = CARTESIAN_POINT ( 'NONE',  ( -0.750000000000000, 2.000000000000000, -0.900000000000000 ) ) ;
#54 = DIRECTION ( 'NONE',  ( 0.000000000000000, 0.000000000000000, -1.000000000000000 ) ) ;
#55 = VECTOR ( 'NONE', #54, 1000.000000000000000 ) ;
#56 = LINE ( 'NONE', #53, #55 ) ;
#57 = EDGE_CURVE ( 'NONE', #52, #43, #56, .T. ) ;
#58 = ORIENTED_EDGE ( 'NONE', *, *, #57, .F. ) ;
#59 = CARTESIAN_POINT ( 'NONE',  ( -0.750000000000000, 1.950000000000000, 0.900000000000000 ) ) ;
#60 = VERTEX_POINT ( 'NONE', #59 ) ;
#61 = CARTESIAN_POINT ( 'NONE',  ( -0.750000000000000, 1.950000000000000, 0.850000000000000 ) ) ;
#62 = DIRECTION ( 'NONE',  ( 1.000000000000000, 0.000000000000000, 0.000000000000000 ) ) ;
#63 = DIRECTION ( 'NONE',  ( 0.000000000000000, 0.000000000000000, -1.000000000000000 ) ) ;
#64 = AXIS2_PLACEMENT_3D ( 'NONE', #61, #62, #63 ) ;
#65 = CIRCLE ( 'NONE', #64, 0.05) ;
#66 = EDGE_CURVE ( 'NONE', #52, #60, #65, .T. ) ;
#67 = ORIENTED_EDGE ( 'NONE', *, *, #66, .T. ) ;
#68 = CARTESIAN_POINT ( 'NONE',  ( -0.750000000000000, 0.050000000000000, 0.900000000000000 ) ) ;
#69 = VERTEX_POINT ( 'NONE', #68 ) ;
#70 = CARTESIAN_POINT ( 'NONE',  ( -0.750000000000000, 0.000000000000000, 0.900000000000000 ) ) ;
#71 = DIRECTION ( 'NONE',  ( 0.000000000000000, 1.000000000000000, 0.000000000000000 ) ) ;
#72 = VECTOR ( 'NONE', #71, 1000.000000000000000 ) ;
#73 = LINE ( 'NONE', #70, #72 ) ;
#74 = EDGE_CURVE ( 'NONE', #69, #60, #73, .T. ) ;
#75 = ORIENTED_EDGE ( 'NONE', *, *, #74, .F. ) ;
#76 = CARTESIAN_POINT ( 'NONE',  ( -0.750000000000000, 0.050000000000000, 0.850000000000000 ) ) ;
#77 = DIRECTION ( 'NONE',  ( 1.000000000000000, 0.000000000000000, 0.000000000000000 ) ) ;
#78 = DIRECTION ( 'NONE',  ( 0.000000000000000, 0.000000000000000, -1.000000000000000 ) ) ;
#79 = AXIS2_PLACEMENT_3D ( 'NONE', #76, #77, #78 ) ;
#80 = CIRCLE ( 'NONE', #79, 0.05) ;
#81 = EDGE_CURVE ( 'NONE', #69, #18, #80, .T. ) ;
#82 = ORIENTED_EDGE ( 'NONE', *, *, #81, .T. ) ;
#83 = EDGE_LOOP ( 'NONE', ( #24, #33, #41, #50, #58, #67, #75, #82 ) ) ;
#84 = FACE_OUTER_BOUND ( 'NONE', #83, .T. ) ;
#85 = CARTESIAN_POINT ( 'NONE',  ( -0.750000000000000, 0.000000000000000, 0.000000000000000 ) ) ;
#86 = DIRECTION ( 'NONE',  ( 1.000000000000000, 0.000000000000000, 0.000000000000000 ) ) ;
#87 = DIRECTION ( 'NONE',  ( 0.000000000000000, 0.000000000000000, -1.000000000000000 ) ) ;
#88 = AXIS2_PLACEMENT_3D ( 'NONE', #85, #86, #87 ) ;
#89 = PLANE ( 'NONE', #88 ) ;
#90 = ADVANCED_FACE ( 'NONE', ( #84 ), #89, .T. ) ;
#91 = CARTESIAN_POINT ( 'NONE',  ( -1.200000000000000, 1.950000000000000, 0.900000000000000 ) ) ;
#92 = VERTEX_POINT ( 'NONE', #91 ) ;
#93 = CARTESIAN_POINT ( 'NONE',  ( -1.200000000000000, 0.050000000000000, 0.900000000000000 ) ) ;
#94 = VERTEX_POINT ( 'NONE', #93 ) ;
#95 = CARTESIAN_POINT ( 'NONE',  ( -1.200000000000000, 0.000000000000000, 0.900000000000000 ) ) ;
#96 = DIRECTION ( 'NONE',  ( 0.000000000000000, -1.000000000000000, 0.000000000000000 ) ) ;
#97 = VECTOR ( 'NONE', #96, 1000.000000000000000 ) ;
#98 = LINE ( 'NONE', #95, #97 ) ;
#99 = EDGE_CURVE ( 'NONE', #92, #94, #98, .T. ) ;
#100 = ORIENTED_EDGE ( 'NONE', *, *, #99, .T. ) ;
#101 = CARTESIAN_POINT ( 'NONE',  ( -1.250000000000000, 0.050000000000000, 0.900000000000000 ) ) ;
#102 = DIRECTION ( 'NONE',  ( 1.000000000000000, 0.000000000000000, 0.000000000000000 ) ) ;
#103 = VECTOR ( 'NONE', #102, 1000.000000000000000 ) ;
#104 = LINE ( 'NONE', #101, #103 ) ;
#105 = EDGE_CURVE ( 'NONE', #94, #69, #104, .T. ) ;
#106 = ORIENTED_EDGE ( 'NONE', *, *, #105, .T. ) ;
#107 = ORIENTED_EDGE ( 'NONE', *, *, #74, .T. ) ;
#108 = CARTESIAN_POINT ( 'NONE',  ( -1.250000000000000, 1.950000000000000, 0.900000000000000 ) ) ;
#109 = DIRECTION ( 'NONE',  ( -1.000000000000000, 0.000000000000000, 0.000000000000000 ) ) ;
#110 = VECTOR ( 'NONE', #109, 1000.000000000000000 ) ;
#111 = LINE ( 'NONE', #108, #110 ) ;
#112 = EDGE_CURVE ( 'NONE', #60, #92, #111, .T. ) ;
#113 = ORIENTED_EDGE ( 'NONE', *, *, #112, .T. ) ;
#114 = EDGE_LOOP ( 'NONE', ( #100, #106, #107, #113 ) ) ;
#115 = FACE_OUTER_BOUND ( 'NONE', #114, .T. ) ;
#116 = CARTESIAN_POINT ( 'NONE',  ( -1.250000000000000, 0.000000000000000, 0.900000000000000 ) ) ;
#117 = DIRECTION ( 'NONE',  ( 0.000000000000000, 0.000000000000000, -1.000000000000000 ) ) ;
#118 = DIRECTION ( 'NONE',  ( -1.000000000000000, 0.000000000000000, 0.000000000000000 ) ) ;
#119 = AXIS2_PLACEMENT_3D ( 'NONE', #116, #117, #118 ) ;
#120 = PLANE ( 'NONE', #119 ) ;
#121 = ADVANCED_FACE ( 'NONE', ( #115 ), #120, .F. ) ;
#122 = ORIENTED_EDGE ( 'NONE', *, *, #57, .T. ) ;
#123 = CARTESIAN_POINT ( 'NONE',  ( -1.200000000000000, 2.000000000000000, -0.850000000000000 ) ) ;
#124 = VERTEX_POINT ( 'NONE', #123 ) ;
#125 = CARTESIAN_POINT ( 'NONE',  ( -1.250000000000000, 2.000000000000000, -0.850000000000000 ) ) ;
#126 = DIRECTION ( 'NONE',  ( -1.000000000000000, 0.000000000000000, 0.000000000000000 ) ) ;
#127 = VECTOR ( 'NONE', #126, 1000.000000000000000 ) ;
#128 = LINE ( 'NONE', #125, #127 ) ;
#129 = EDGE_CURVE ( 'NONE', #43, #124, #128, .T. ) ;
#130 = ORIENTED_EDGE ( 'NONE', *, *, #129, .T. ) ;
#131 = CARTESIAN_POINT ( 'NONE',  ( -1.200000000000000, 2.000000000000000, 0.850000000000000 ) ) ;
#132 = VERTEX_POINT ( 'NONE', #131 ) ;
#133 = CARTESIAN_POINT ( 'NONE',  ( -1.200000000000000, 2.000000000000000, -0.900000000000000 ) ) ;
#134 = DIRECTION ( 'NONE',  ( 0.000000000000000, 0.000000000000000, 1.000000000000000 ) ) ;
#135 = VECTOR ( 'NONE', #134, 1000.000000000000000 ) ;
#136 = LINE ( 'NONE', #133, #135 ) ;
#137 = EDGE_CURVE ( 'NONE', #124, #132, #136, .T. ) ;
#138 = ORIENTED_EDGE ( 'NONE', *, *, #137, .T. ) ;
#139 = CARTESIAN_POINT ( 'NONE',  ( -1.250000000000000, 2.000000000000000, 0.850000000000000 ) ) ;
#140 = DIRECTION ( 'NONE',  ( 1.000000000000000, 0.000000000000000, 0.000000000000000 ) ) ;
#141 = VECTOR ( 'NONE', #140, 1000.000000000000000 ) ;
#142 = LINE ( 'NONE', #139, #141 ) ;
#143 = EDGE_CURVE ( 'NONE', #132, #52, #142, .T. ) ;
#144 = ORIENTED_EDGE ( 'NONE', *, *, #143, .T. ) ;
#145 = EDGE_LOOP ( 'NONE', ( #122, #130, #138, #144 ) ) ;
#146 = FACE_OUTER_BOUND ( 'NONE', #145, .T. ) ;
#147 = CARTESIAN_POINT ( 'NONE',  ( -1.250000000000000, 2.000000000000000, -0.900000000000000 ) ) ;
#148 = DIRECTION ( 'NONE',  ( 0.000000000000000, -1.000000000000000, 0.000000000000000 ) ) ;
#149 = DIRECTION ( 'NONE',  ( 0.000000000000000, 0.000000000000000, -1.000000000000000 ) ) ;
#150 = AXIS2_PLACEMENT_3D ( 'NONE', #147, #148, #149 ) ;
#151 = PLANE ( 'NONE', #150 ) ;
#152 = ADVANCED_FACE ( 'NONE', ( #146 ), #151, .F. ) ;
#153 = ORIENTED_EDGE ( 'NONE', *, *, #40, .T. ) ;
#154 = CARTESIAN_POINT ( 'NONE',  ( -1.200000000000000, 0.050000000000000, -0.900000000000000 ) ) ;
#155 = VERTEX_POINT ( 'NONE', #154 ) ;
#156 = CARTESIAN_POINT ( 'NONE',  ( -1.250000000000000, 0.050000000000000, -0.900000000000000 ) ) ;
#157 = DIRECTION ( 'NONE',  ( -1.000000000000000, 0.000000000000000, 0.000000000000000 ) ) ;
#158 = VECTOR ( 'NONE', #157, 1000.000000000000000 ) ;
#159 = LINE ( 'NONE', #156, #158 ) ;
#160 = EDGE_CURVE ( 'NONE', #26, #155, #159, .T. ) ;
#161 = ORIENTED_EDGE ( 'NONE', *, *, #160, .T. ) ;
#162 = CARTESIAN_POINT ( 'NONE',  ( -1.200000000000000, 1.950000000000000, -0.900000000000000 ) ) ;
#163 = VERTEX_POINT ( 'NONE', #162 ) ;
#164 = CARTESIAN_POINT ( 'NONE',  ( -1.200000000000000, 0.000000000000000, -0.900000000000000 ) ) ;
#165 = DIRECTION ( 'NONE',  ( 0.000000000000000, 1.000000000000000, 0.000000000000000 ) ) ;
#166 = VECTOR ( 'NONE', #165, 1000.000000000000000 ) ;
#167 = LINE ( 'NONE', #164, #166 ) ;
#168 = EDGE_CURVE ( 'NONE', #155, #163, #167, .T. ) ;
#169 = ORIENTED_EDGE ( 'NONE', *, *, #168, .T. ) ;
#170 = CARTESIAN_POINT ( 'NONE',  ( -1.250000000000000, 1.950000000000000, -0.900000000000000 ) ) ;
#171 = DIRECTION ( 'NONE',  ( 1.000000000000000, 0.000000000000000, 0.000000000000000 ) ) ;
#172 = VECTOR ( 'NONE', #171, 1000.000000000000000 ) ;
#173 = LINE ( 'NONE', #170, #172 ) ;
#174 = EDGE_CURVE ( 'NONE', #163, #35, #173, .T. ) ;
#175 = ORIENTED_EDGE ( 'NONE', *, *, #174, .T. ) ;
#176 = EDGE_LOOP ( 'NONE', ( #153, #161, #169, #175 ) ) ;
#177 = FACE_OUTER_BOUND ( 'NONE', #176, .T. ) ;
#178 = CARTESIAN_POINT ( 'NONE',  ( -1.250000000000000, 0.000000000000000, -0.900000000000000 ) ) ;
#179 = DIRECTION ( 'NONE',  ( 0.000000000000000, 0.000000000000000, 1.000000000000000 ) ) ;
#180 = DIRECTION ( 'NONE',  ( 1.000000000000000, 0.000000000000000, 0.000000000000000 ) ) ;
#181 = AXIS2_PLACEMENT_3D ( 'NONE', #178, #179, #180 ) ;
#182 = PLANE ( 'NONE', #181 ) ;
#183 = ADVANCED_FACE ( 'NONE', ( #177 ), #182, .F. ) ;
#184 = CARTESIAN_POINT ( 'NONE',  ( -1.200000000000000, 0.000000000000000, 0.850000000000000 ) ) ;
#185 = VERTEX_POINT ( 'NONE', #184 ) ;
#186 = CARTESIAN_POINT ( 'NONE',  ( -1.200000000000000, 0.000000000000000, -0.850000000000000 ) ) ;
#187 = VERTEX_POINT ( 'NONE', #186 ) ;
#188 = CARTESIAN_POINT ( 'NONE',  ( -1.200000000000000, 0.000000000000000, -0.900000000000000 ) ) ;
#189 = DIRECTION ( 'NONE',  ( 0.000000000000000, 0.000000000000000, -1.000000000000000 ) ) ;
#190 = VECTOR ( 'NONE', #189, 1000.000000000000000 ) ;
#191 = LINE ( 'NONE', #188, #190 ) ;
#192 = EDGE_CURVE ( 'NONE', #185, #187, #191, .T. ) ;
#193 = ORIENTED_EDGE ( 'NONE', *, *, #192, .T. ) ;
#194 = CARTESIAN_POINT ( 'NONE',  ( -1.250000000000000, 0.000000000000000, -0.850000000000000 ) ) ;
#195 = DIRECTION ( 'NONE',  ( 1.000000000000000, 0.000000000000000, 0.000000000000000 ) ) ;
#196 = VECTOR ( 'NONE', #195, 1000.000000000000000 ) ;
#197 = LINE ( 'NONE', #194, #196 ) ;
#198 = EDGE_CURVE ( 'NONE', #187, #16, #197, .T. ) ;
#199 = ORIENTED_EDGE ( 'NONE', *, *, #198, .T. ) ;
#200 = ORIENTED_EDGE ( 'NONE', *, *, #23, .T. ) ;
#201 = CARTESIAN_POINT ( 'NONE',  ( -1.250000000000000, 0.000000000000000, 0.850000000000000 ) ) ;
#202 = DIRECTION ( 'NONE',  ( -1.000000000000000, 0.000000000000000, 0.000000000000000 ) ) ;
#203 = VECTOR ( 'NONE', #202, 1000.000000000000000 ) ;
#204 = LINE ( 'NONE', #201, #203 ) ;
#205 = EDGE_CURVE ( 'NONE', #18, #185, #204, .T. ) ;
#206 = ORIENTED_EDGE ( 'NONE', *, *, #205, .T. ) ;
#207 = EDGE_LOOP ( 'NONE', ( #193, #199, #200, #206 ) ) ;
#208 = FACE_OUTER_BOUND ( 'NONE', #207, .T. ) ;
#209 = CARTESIAN_POINT ( 'NONE',  ( -1.250000000000000, 0.000000000000000, -0.900000000000000 ) ) ;
#210 = DIRECTION ( 'NONE',  ( 0.000000000000000, 1.000000000000000, 0.000000000000000 ) ) ;
#211 = DIRECTION ( 'NONE',  ( 0.000000000000000, 0.000000000000000, 1.000000000000000 ) ) ;
#212 = AXIS2_PLACEMENT_3D ( 'NONE', #209, #210, #211 ) ;
#213 = PLANE ( 'NONE', #212 ) ;
#214 = ADVANCED_FACE ( 'NONE', ( #208 ), #213, .F. ) ;
#215 = CARTESIAN_POINT ( 'NONE',  ( -1.250000000000000, 1.950000000000000, -0.850000000000000 ) ) ;
#216 = VERTEX_POINT ( 'NONE', #215 ) ;
#217 = CARTESIAN_POINT ( 'NONE',  ( -1.250000000000000, 0.050000000000000, -0.850000000000000 ) ) ;
#218 = VERTEX_POINT ( 'NONE', #217 ) ;
#219 = CARTESIAN_POINT ( 'NONE',  ( -1.250000000000000, 0.000000000000000, -0.850000000000000 ) ) ;
#220 = DIRECTION ( 'NONE',  ( 0.000000000000000, -1.000000000000000, 0.000000000000000 ) ) ;
#221 = VECTOR ( 'NONE', #220, 1000.000000000000000 ) ;
#222 = LINE ( 'NONE', #219, #221 ) ;
#223 = EDGE_CURVE ( 'NONE', #216, #218, #222, .T. ) ;
#224 = ORIENTED_EDGE ( 'NONE', *, *, #223, .T. ) ;
#225 = CARTESIAN_POINT ( 'NONE',  ( -1.250000000000000, 0.050000000000000, 0.850000000000000 ) ) ;
#226 = VERTEX_POINT ( 'NONE', #225 ) ;
#227 = CARTESIAN_POINT ( 'NONE',  ( -1.250000000000000, 0.050000000000000, 0.000000000000000 ) ) ;
#228 = DIRECTION ( 'NONE',  ( 0.000000000000000, 0.000000000000000, 1.000000000000000 ) ) ;
#229 = VECTOR ( 'NONE', #228, 1000.000000000000000 ) ;
#230 = LINE ( 'NONE', #227, #229 ) ;
#231 = EDGE_CURVE ( 'NONE', #218, #226, #230, .T. ) ;
#232 = ORIENTED_EDGE ( 'NONE', *, *, #231, .T. ) ;
#233 = CARTESIAN_POINT ( 'NONE',  ( -1.250000000000000, 1.950000000000000, 0.850000000000000 ) ) ;
#234 = VERTEX_POINT ( 'NONE', #233 ) ;
#235 = CARTESIAN_POINT ( 'NONE',  ( -1.250000000000000, 0.000000000000000, 0.850000000000000 ) ) ;
#236 = DIRECTION ( 'NONE',  ( 0.000000000000000, 1.000000000000000, 0.000000000000000 ) ) ;
#237 = VECTOR ( 'NONE', #236, 1000.000000000000000 ) ;
#238 = LINE ( 'NONE', #235, #237 ) ;
#239 = EDGE_CURVE ( 'NONE', #226, #234, #238, .T. ) ;
#240 = ORIENTED_EDGE ( 'NONE', *, *, #239, .T. ) ;
#241 = CARTESIAN_POINT ( 'NONE',  ( -1.250000000000000, 1.950000000000000, 0.000000000000000 ) ) ;
#242 = DIRECTION ( 'NONE',  ( 0.000000000000000, 0.000000000000000, -1.000000000000000 ) ) ;
#243 = VECTOR ( 'NONE', #242, 1000.000000000000000 ) ;
#244 = LINE ( 'NONE', #241, #243 ) ;
#245 = EDGE_CURVE ( 'NONE', #234, #216, #244, .T. ) ;
#246 = ORIENTED_EDGE ( 'NONE', *, *, #245, .T. ) ;
#247 = EDGE_LOOP ( 'NONE', ( #224, #232, #240, #246 ) ) ;
#248 = FACE_OUTER_BOUND ( 'NONE', #247, .T. ) ;
#249 = CARTESIAN_POINT ( 'NONE',  ( -1.250000000000000, 0.000000000000000, 0.000000000000000 ) ) ;
#250 = DIRECTION ( 'NONE',  ( 1.000000000000000, 0.000000000000000, 0.000000000000000 ) ) ;
#251 = DIRECTION ( 'NONE',  ( 0.000000000000000, 0.000000000000000, -1.000000000000000 ) ) ;
#252 = AXIS2_PLACEMENT_3D ( 'NONE', #249, #250, #251 ) ;
#253 = PLANE ( 'NONE', #252 ) ;
#254 = ADVANCED_FACE ( 'NONE', ( #248 ), #253, .F. ) ;
#255 = ORIENTED_EDGE ( 'NONE', *, *, #49, .F. ) ;
#256 = ORIENTED_EDGE ( 'NONE', *, *, #174, .F. ) ;
#257 = CARTESIAN_POINT ( 'NONE',  ( -1.200000000000000, 1.950000000000000, -0.850000000000000 ) ) ;
#258 = DIRECTION ( 'NONE',  ( -1.000000000000000, 0.000000000000000, 0.000000000000000 ) ) ;
#259 = DIRECTION ( 'NONE',  ( 0.000000000000000, 0.000000000000000, 1.000000000000000 ) ) ;
#260 = AXIS2_PLACEMENT_3D ( 'NONE', #257, #258, #259 ) ;
#261 = CIRCLE ( 'NONE', #260, 0.05) ;
#262 = EDGE_CURVE ( 'NONE', #124, #163, #261, .T. ) ;
#263 = ORIENTED_EDGE ( 'NONE', *, *, #262, .F. ) ;
#264 = ORIENTED_EDGE ( 'NONE', *, *, #129, .F. ) ;
#265 = EDGE_LOOP ( 'NONE', ( #255, #256, #263, #264 ) ) ;
#266 = FACE_OUTER_BOUND ( 'NONE', #265, .T. ) ;
#267 = CARTESIAN_POINT ( 'NONE',  ( -1.250000000000000, 1.950000000000000, -0.850000000000000 ) ) ;
#268 = DIRECTION ( 'NONE',  ( 1.000000000000000, 0.000000000000000, 0.000000000000000 ) ) ;
#269 = DIRECTION ( 'NONE',  ( 0.000000000000000, 0.000000000000000, -1.000000000000000 ) ) ;
#270 = AXIS2_PLACEMENT_3D ( 'NONE', #267, #268, #269 ) ;
#271 = CYLINDRICAL_SURFACE ( 'NONE', #270, 0.05) ;
#272 = ADVANCED_FACE ( 'NONE', ( #266 ), #271, .T. ) ;
#273 = CARTESIAN_POINT ( 'NONE',  ( -1.200000000000000, 1.950000000000000, 0.850000000000000 ) ) ;
#274 = DIRECTION ( 'NONE',  ( 0.000000000000000, 0.000000000000000, 1.000000000000000 ) ) ;
#275 = DIRECTION ( 'NONE',  ( 1.000000000000000, 0.000000000000000, 0.000000000000000 ) ) ;
#276 = AXIS2_PLACEMENT_3D ( 'NONE', #273, #274, #275 ) ;
#277 = CIRCLE ( 'NONE', #276, 0.05) ;
#278 = EDGE_CURVE ( 'NONE', #132, #234, #277, .T. ) ;
#279 = ORIENTED_EDGE ( 'NONE', *, *, #278, .F. ) ;
#280 = ORIENTED_EDGE ( 'NONE', *, *, #137, .F. ) ;
#281 = CARTESIAN_POINT ( 'NONE',  ( -1.200000000000000, 1.950000000000000, -0.850000000000000 ) ) ;
#282 = DIRECTION ( 'NONE',  ( 0.000000000000000, 0.000000000000000, -1.000000000000000 ) ) ;
#283 = DIRECTION ( 'NONE',  ( -1.000000000000000, 0.000000000000000, 0.000000000000000 ) ) ;
#284 = AXIS2_PLACEMENT_3D ( 'NONE', #281, #282, #283 ) ;
#285 = CIRCLE ( 'NONE', #284, 0.05) ;
#286 = EDGE_CURVE ( 'NONE', #216, #124, #285, .T. ) ;
#287 = ORIENTED_EDGE ( 'NONE', *, *, #286, .F. ) ;
#288 = ORIENTED_EDGE ( 'NONE', *, *, #245, .F. ) ;
#289 = EDGE_LOOP ( 'NONE', ( #279, #280, #287, #288 ) ) ;
#290 = FACE_OUTER_BOUND ( 'NONE', #289, .T. ) ;
#291 = CARTESIAN_POINT ( 'NONE',  ( -1.200000000000000, 1.950000000000000, 0.000000000000000 ) ) ;
#292 = DIRECTION ( 'NONE',  ( 0.000000000000000, 0.000000000000000, -1.000000000000000 ) ) ;
#293 = DIRECTION ( 'NONE',  ( -1.000000000000000, 0.000000000000000, 0.000000000000000 ) ) ;
#294 = AXIS2_PLACEMENT_3D ( 'NONE', #291, #292, #293 ) ;
#295 = CYLINDRICAL_SURFACE ( 'NONE', #294, 0.05) ;
#296 = ADVANCED_FACE ( 'NONE', ( #290 ), #295, .T. ) ;
#297 = ORIENTED_EDGE ( 'NONE', *, *, #66, .F. ) ;
#298 = ORIENTED_EDGE ( 'NONE', *, *, #143, .F. ) ;
#299 = CARTESIAN_POINT ( 'NONE',  ( -1.200000000000000, 1.950000000000000, 0.850000000000000 ) ) ;
#300 = DIRECTION ( 'NONE',  ( -1.000000000000000, 0.000000000000000, 0.000000000000000 ) ) ;
#301 = DIRECTION ( 'NONE',  ( 0.000000000000000, 0.000000000000000, 1.000000000000000 ) ) ;
#302 = AXIS2_PLACEMENT_3D ( 'NONE', #299, #300, #301 ) ;
#303 = CIRCLE ( 'NONE', #302, 0.05) ;
#304 = EDGE_CURVE ( 'NONE', #92, #132, #303, .T. ) ;
#305 = ORIENTED_EDGE ( 'NONE', *, *, #304, .F. ) ;
#306 = ORIENTED_EDGE ( 'NONE', *, *, #112, .F. ) ;
#307 = EDGE_LOOP ( 'NONE', ( #297, #298, #305, #306 ) ) ;
#308 = FACE_OUTER_BOUND ( 'NONE', #307, .T. ) ;
#309 = CARTESIAN_POINT ( 'NONE',  ( -1.250000000000000, 1.950000000000000, 0.850000000000000 ) ) ;
#310 = DIRECTION ( 'NONE',  ( 1.000000000000000, 0.000000000000000, 0.000000000000000 ) ) ;
#311 = DIRECTION ( 'NONE',  ( 0.000000000000000, 0.000000000000000, -1.000000000000000 ) ) ;
#312 = AXIS2_PLACEMENT_3D ( 'NONE', #309, #310, #311 ) ;
#313 = CYLINDRICAL_SURFACE ( 'NONE', #312, 0.05) ;
#314 = ADVANCED_FACE ( 'NONE', ( #308 ), #313, .T. ) ;
#315 = ORIENTED_EDGE ( 'NONE', *, *, #286, .T. ) ;
#316 = ORIENTED_EDGE ( 'NONE', *, *, #262, .T. ) ;
#317 = CARTESIAN_POINT ( 'NONE',  ( -1.200000000000000, 1.950000000000000, -0.850000000000000 ) ) ;
#318 = DIRECTION ( 'NONE',  ( 0.000000000000000, -1.000000000000000, 0.000000000000000 ) ) ;
#319 = DIRECTION ( 'NONE',  ( 0.000000000000000, 0.000000000000000, 1.000000000000000 ) ) ;
#320 = AXIS2_PLACEMENT_3D ( 'NONE', #317, #318, #319 ) ;
#321 = CIRCLE ( 'NONE', #320, 0.05) ;
#322 = EDGE_CURVE ( 'NONE', #216, #163, #321, .T. ) ;
#323 = ORIENTED_EDGE ( 'NONE', *, *, #322, .F. ) ;
#324 = EDGE_LOOP ( 'NONE', ( #315, #316, #323 ) ) ;
#325 = FACE_OUTER_BOUND ( 'NONE', #324, .T. ) ;
#326 = CARTESIAN_POINT ( 'NONE',  ( -1.200000000000000, 1.950000000000000, -0.850000000000000 ) ) ;
#327 = DIRECTION ( 'NONE',  ( 0.000000000000000, 1.000000000000000, 0.000000000000000 ) ) ;
#328 = DIRECTION ( 'NONE',  ( 1.000000000000000, 0.000000000000000, 0.000000000000000 ) ) ;
#329 = AXIS2_PLACEMENT_3D ( 'NONE', #326, #327, #328 ) ;
#330 = SPHERICAL_SURFACE ( 'NONE', #329, 0.05) ;
#331 = ADVANCED_FACE ( 'NONE', ( #325 ), #330, .T. ) ;
#332 = ORIENTED_EDGE ( 'NONE', *, *, #304, .T. ) ;
#333 = ORIENTED_EDGE ( 'NONE', *, *, #278, .T. ) ;
#334 = CARTESIAN_POINT ( 'NONE',  ( -1.200000000000000, 1.950000000000000, 0.850000000000000 ) ) ;
#335 = DIRECTION ( 'NONE',  ( 0.000000000000000, -1.000000000000000, 0.000000000000000 ) ) ;
#336 = DIRECTION ( 'NONE',  ( 0.000000000000000, 0.000000000000000, 1.000000000000000 ) ) ;
#337 = AXIS2_PLACEMENT_3D ( 'NONE', #334, #335, #336 ) ;
#338 = CIRCLE ( 'NONE', #337, 0.05) ;
#339 = EDGE_CURVE ( 'NONE', #92, #234, #338, .T. ) ;
#340 = ORIENTED_EDGE ( 'NONE', *, *, #339, .F. ) ;
#341 = EDGE_LOOP ( 'NONE', ( #332, #333, #340 ) ) ;
#342 = FACE_OUTER_BOUND ( 'NONE', #341, .T. ) ;
#343 = CARTESIAN_POINT ( 'NONE',  ( -1.200000000000000, 1.950000000000000, 0.850000000000000 ) ) ;
#344 = DIRECTION ( 'NONE',  ( 0.000000000000000, 1.000000000000000, 0.000000000000000 ) ) ;
#345 = DIRECTION ( 'NONE',  ( 1.000000000000000, 0.000000000000000, 0.000000000000000 ) ) ;
#346 = AXIS2_PLACEMENT_3D ( 'NONE', #343, #344, #345 ) ;
#347 = SPHERICAL_SURFACE ( 'NONE', #346, 0.05) ;
#348 = ADVANCED_FACE ( 'NONE', ( #342 ), #347, .T. ) ;
#349 = ORIENTED_EDGE ( 'NONE', *, *, #32, .F. ) ;
#350 = ORIENTED_EDGE ( 'NONE', *, *, #198, .F. ) ;
#351 = CARTESIAN_POINT ( 'NONE',  ( -1.200000000000000, 0.050000000000000, -0.850000000000000 ) ) ;
#352 = DIRECTION ( 'NONE',  ( -1.000000000000000, 0.000000000000000, 0.000000000000000 ) ) ;
#353 = DIRECTION ( 'NONE',  ( 0.000000000000000, 0.000000000000000, 1.000000000000000 ) ) ;
#354 = AXIS2_PLACEMENT_3D ( 'NONE', #351, #352, #353 ) ;
#355 = CIRCLE ( 'NONE', #354, 0.05) ;
#356 = EDGE_CURVE ( 'NONE', #155, #187, #355, .T. ) ;
#357 = ORIENTED_EDGE ( 'NONE', *, *, #356, .F. ) ;
#358 = ORIENTED_EDGE ( 'NONE', *, *, #160, .F. ) ;
#359 = EDGE_LOOP ( 'NONE', ( #349, #350, #357, #358 ) ) ;
#360 = FACE_OUTER_BOUND ( 'NONE', #359, .T. ) ;
#361 = CARTESIAN_POINT ( 'NONE',  ( -1.250000000000000, 0.050000000000000, -0.850000000000000 ) ) ;
#362 = DIRECTION ( 'NONE',  ( 1.000000000000000, 0.000000000000000, 0.000000000000000 ) ) ;
#363 = DIRECTION ( 'NONE',  ( 0.000000000000000, 0.000000000000000, -1.000000000000000 ) ) ;
#364 = AXIS2_PLACEMENT_3D ( 'NONE', #361, #362, #363 ) ;
#365 = CYLINDRICAL_SURFACE ( 'NONE', #364, 0.05) ;
#366 = ADVANCED_FACE ( 'NONE', ( #360 ), #365, .T. ) ;
#367 = ORIENTED_EDGE ( 'NONE', *, *, #322, .T. ) ;
#368 = ORIENTED_EDGE ( 'NONE', *, *, #168, .F. ) ;
#369 = CARTESIAN_POINT ( 'NONE',  ( -1.200000000000000, 0.050000000000000, -0.850000000000000 ) ) ;
#370 = DIRECTION ( 'NONE',  ( 0.000000000000000, -1.000000000000000, 0.000000000000000 ) ) ;
#371 = DIRECTION ( 'NONE',  ( 0.000000000000000, 0.000000000000000, -1.000000000000000 ) ) ;
#372 = AXIS2_PLACEMENT_3D ( 'NONE', #369, #370, #371 ) ;
#373 = CIRCLE ( 'NONE', #372, 0.05) ;
#374 = EDGE_CURVE ( 'NONE', #218, #155, #373, .T. ) ;
#375 = ORIENTED_EDGE ( 'NONE', *, *, #374, .F. ) ;
#376 = ORIENTED_EDGE ( 'NONE', *, *, #223, .F. ) ;
#377 = EDGE_LOOP ( 'NONE', ( #367, #368, #375, #376 ) ) ;
#378 = FACE_OUTER_BOUND ( 'NONE', #377, .T. ) ;
#379 = CARTESIAN_POINT ( 'NONE',  ( -1.200000000000000, 0.000000000000000, -0.850000000000000 ) ) ;
#380 = DIRECTION ( 'NONE',  ( 0.000000000000000, -1.000000000000000, 0.000000000000000 ) ) ;
#381 = DIRECTION ( 'NONE',  ( 0.000000000000000, 0.000000000000000, -1.000000000000000 ) ) ;
#382 = AXIS2_PLACEMENT_3D ( 'NONE', #379, #380, #381 ) ;
#383 = CYLINDRICAL_SURFACE ( 'NONE', #382, 0.05) ;
#384 = ADVANCED_FACE ( 'NONE', ( #378 ), #383, .T. ) ;
#385 = ORIENTED_EDGE ( 'NONE', *, *, #339, .T. ) ;
#386 = ORIENTED_EDGE ( 'NONE', *, *, #239, .F. ) ;
#387 = CARTESIAN_POINT ( 'NONE',  ( -1.200000000000000, 0.050000000000000, 0.850000000000000 ) ) ;
#388 = DIRECTION ( 'NONE',  ( 0.000000000000000, -1.000000000000000, 0.000000000000000 ) ) ;
#389 = DIRECTION ( 'NONE',  ( 0.000000000000000, 0.000000000000000, -1.000000000000000 ) ) ;
#390 = AXIS2_PLACEMENT_3D ( 'NONE', #387, #388, #389 ) ;
#391 = CIRCLE ( 'NONE', #390, 0.05) ;
#392 = EDGE_CURVE ( 'NONE', #94, #226, #391, .T. ) ;
#393 = ORIENTED_EDGE ( 'NONE', *, *, #392, .F. ) ;
#394 = ORIENTED_EDGE ( 'NONE', *, *, #99, .F. ) ;
#395 = EDGE_LOOP ( 'NONE', ( #385, #386, #393, #394 ) ) ;
#396 = FACE_OUTER_BOUND ( 'NONE', #395, .T. ) ;
#397 = CARTESIAN_POINT ( 'NONE',  ( -1.200000000000000, 0.000000000000000, 0.850000000000000 ) ) ;
#398 = DIRECTION ( 'NONE',  ( 0.000000000000000, 1.000000000000000, 0.000000000000000 ) ) ;
#399 = DIRECTION ( 'NONE',  ( 0.000000000000000, 0.000000000000000, 1.000000000000000 ) ) ;
#400 = AXIS2_PLACEMENT_3D ( 'NONE', #397, #398, #399 ) ;
#401 = CYLINDRICAL_SURFACE ( 'NONE', #400, 0.05) ;
#402 = ADVANCED_FACE ( 'NONE', ( #396 ), #401, .T. ) ;
#403 = ORIENTED_EDGE ( 'NONE', *, *, #81, .F. ) ;
#404 = ORIENTED_EDGE ( 'NONE', *, *, #105, .F. ) ;
#405 = CARTESIAN_POINT ( 'NONE',  ( -1.200000000000000, 0.050000000000000, 0.850000000000000 ) ) ;
#406 = DIRECTION ( 'NONE',  ( -1.000000000000000, 0.000000000000000, 0.000000000000000 ) ) ;
#407 = DIRECTION ( 'NONE',  ( 0.000000000000000, 0.000000000000000, 1.000000000000000 ) ) ;
#408 = AXIS2_PLACEMENT_3D ( 'NONE', #405, #406, #407 ) ;
#409 = CIRCLE ( 'NONE', #408, 0.05) ;
#410 = EDGE_CURVE ( 'NONE', #185, #94, #409, .T. ) ;
#411 = ORIENTED_EDGE ( 'NONE', *, *, #410, .F. ) ;
#412 = ORIENTED_EDGE ( 'NONE', *, *, #205, .F. ) ;
#413 = EDGE_LOOP ( 'NONE', ( #403, #404, #411, #412 ) ) ;
#414 = FACE_OUTER_BOUND ( 'NONE', #413, .T. ) ;
#415 = CARTESIAN_POINT ( 'NONE',  ( -1.250000000000000, 0.050000000000000, 0.850000000000000 ) ) ;
#416 = DIRECTION ( 'NONE',  ( 1.000000000000000, 0.000000000000000, 0.000000000000000 ) ) ;
#417 = DIRECTION ( 'NONE',  ( 0.000000000000000, 0.000000000000000, -1.000000000000000 ) ) ;
#418 = AXIS2_PLACEMENT_3D ( 'NONE', #415, #416, #417 ) ;
#419 = CYLINDRICAL_SURFACE ( 'NONE', #418, 0.05) ;
#420 = ADVANCED_FACE ( 'NONE', ( #414 ), #419, .T. ) ;
#421 = ORIENTED_EDGE ( 'NONE', *, *, #374, .T. ) ;
#422 = ORIENTED_EDGE ( 'NONE', *, *, #356, .T. ) ;
#423 = CARTESIAN_POINT ( 'NONE',  ( -1.200000000000000, 0.050000000000000, -0.850000000000000 ) ) ;
#424 = DIRECTION ( 'NONE',  ( 0.000000000000000, 0.000000000000000, 1.000000000000000 ) ) ;
#425 = DIRECTION ( 'NONE',  ( -1.000000000000000, 0.000000000000000, 0.000000000000000 ) ) ;
#426 = AXIS2_PLACEMENT_3D ( 'NONE', #423, #424, #425 ) ;
#427 = CIRCLE ( 'NONE', #426, 0.05) ;
#428 = EDGE_CURVE ( 'NONE', #218, #187, #427, .T. ) ;
#429 = ORIENTED_EDGE ( 'NONE', *, *, #428, .F. ) ;
#430 = EDGE_LOOP ( 'NONE', ( #421, #422, #429 ) ) ;
#431 = FACE_OUTER_BOUND ( 'NONE', #430, .T. ) ;
#432 = CARTESIAN_POINT ( 'NONE',  ( -1.200000000000000, 0.050000000000000, -0.850000000000000 ) ) ;
#433 = DIRECTION ( 'NONE',  ( 0.000000000000000, 1.000000000000000, 0.000000000000000 ) ) ;
#434 = DIRECTION ( 'NONE',  ( 1.000000000000000, 0.000000000000000, 0.000000000000000 ) ) ;
#435 = AXIS2_PLACEMENT_3D ( 'NONE', #432, #433, #434 ) ;
#436 = SPHERICAL_SURFACE ( 'NONE', #435, 0.05) ;
#437 = ADVANCED_FACE ( 'NONE', ( #431 ), #436, .T. ) ;
#438 = ORIENTED_EDGE ( 'NONE', *, *, #410, .T. ) ;
#439 = ORIENTED_EDGE ( 'NONE', *, *, #392, .T. ) ;
#440 = CARTESIAN_POINT ( 'NONE',  ( -1.200000000000000, 0.050000000000000, 0.850000000000000 ) ) ;
#441 = DIRECTION ( 'NONE',  ( 0.000000000000000, 0.000000000000000, -1.000000000000000 ) ) ;
#442 = DIRECTION ( 'NONE',  ( 1.000000000000000, 0.000000000000000, 0.000000000000000 ) ) ;
#443 = AXIS2_PLACEMENT_3D ( 'NONE', #440, #441, #442 ) ;
#444 = CIRCLE ( 'NONE', #443, 0.05) ;
#445 = EDGE_CURVE ( 'NONE', #185, #226, #444, .T. ) ;
#446 = ORIENTED_EDGE ( 'NONE', *, *, #445, .F. ) ;
#447 = EDGE_LOOP ( 'NONE', ( #438, #439, #446 ) ) ;
#448 = FACE_OUTER_BOUND ( 'NONE', #447, .T. ) ;
#449 = CARTESIAN_POINT ( 'NONE',  ( -1.200000000000000, 0.050000000000000, 0.850000000000000 ) ) ;
#450 = DIRECTION ( 'NONE',  ( 0.000000000000000, 1.000000000000000, 0.000000000000000 ) ) ;
#451 = DIRECTION ( 'NONE',  ( 1.000000000000000, 0.000000000000000, 0.000000000000000 ) ) ;
#452 = AXIS2_PLACEMENT_3D ( 'NONE', #449, #450, #451 ) ;
#453 = SPHERICAL_SURFACE ( 'NONE', #452, 0.05) ;
#454 = ADVANCED_FACE ( 'NONE', ( #448 ), #453, .T. ) ;
#455 = ORIENTED_EDGE ( 'NONE', *, *, #428, .T. ) ;
#456 = ORIENTED_EDGE ( 'NONE', *, *, #192, .F. ) ;
#457 = ORIENTED_EDGE ( 'NONE', *, *, #445, .T. ) ;
#458 = ORIENTED_EDGE ( 'NONE', *, *, #231, .F. ) ;
#459 = EDGE_LOOP ( 'NONE', ( #455, #456, #457, #458 ) ) ;
#460 = FACE_OUTER_BOUND ( 'NONE', #459, .T. ) ;
#461 = CARTESIAN_POINT ( 'NONE',  ( -1.200000000000000, 0.050000000000000, 0.000000000000000 ) ) ;
#462 = DIRECTION ( 'NONE',  ( 0.000000000000000, 0.000000000000000, 1.000000000000000 ) ) ;
#463 = DIRECTION ( 'NONE',  ( 1.000000000000000, 0.000000000000000, 0.000000000000000 ) ) ;
#464 = AXIS2_PLACEMENT_3D ( 'NONE', #461, #462, #463 ) ;
#465 = CYLINDRICAL_SURFACE ( 'NONE', #464, 0.05) ;
#466 = ADVANCED_FACE ( 'NONE', ( #460 ), #465, .T. ) ;
#467 = CLOSED_SHELL ( 'NONE', ( #90, #121, #152, #183, #214, #254, #272, #296, #314, #331, #348, #366, #384, #402, #420, #437, #454, #466 ) ) ;
#468 = MANIFOLD_SOLID_BREP ( 'Pin1', #467 ) ;
#469 = STYLED_ITEM ( 'NONE', ( #14 ), #468 ) ;
#470 = PRESENTATION_LAYER_ASSIGNMENT (  '',  '', ( #469 ) ) ;
#471 = ( LENGTH_UNIT ( ) NAMED_UNIT ( * ) SI_UNIT ( .MILLI., .METRE. ) ) ;
#472 = UNCERTAINTY_MEASURE_WITH_UNIT (LENGTH_MEASURE( 1.000000000000000100E-005 ), #471, 'distance_accuracy_value', 'NONE') ;
#473 = ( NAMED_UNIT ( * ) PLANE_ANGLE_UNIT ( ) SI_UNIT ( $, .RADIAN. ) ) ;
#474 = ( NAMED_UNIT ( * ) SI_UNIT ( $, .STERADIAN. ) SOLID_ANGLE_UNIT ( ) ) ;
#475 = ( GEOMETRIC_REPRESENTATION_CONTEXT ( 3 ) GLOBAL_UNCERTAINTY_ASSIGNED_CONTEXT ( ( #472 ) ) GLOBAL_UNIT_ASSIGNED_CONTEXT ( ( #471, #473, #474 ) ) REPRESENTATION_CONTEXT ( 'NONE', 'WORKASPACE' ) ) ;
#476 = MECHANICAL_DESIGN_GEOMETRIC_PRESENTATION_REPRESENTATION (  '', ( #469 ), #475 ) ;
#477 = STYLED_ITEM ( 'NONE', ( #14 ), #90 ) ;
#478 = PRESENTATION_LAYER_ASSIGNMENT (  '',  '', ( #477 ) ) ;
#479 = MECHANICAL_DESIGN_GEOMETRIC_PRESENTATION_REPRESENTATION (  '', ( #477 ), #475 ) ;
#480 = STYLED_ITEM ( 'NONE', ( #14 ), #121 ) ;
#481 = PRESENTATION_LAYER_ASSIGNMENT (  '',  '', ( #480 ) ) ;
#482 = MECHANICAL_DESIGN_GEOMETRIC_PRESENTATION_REPRESENTATION (  '', ( #480 ), #475 ) ;
#483 = STYLED_ITEM ( 'NONE', ( #14 ), #152 ) ;
#484 = PRESENTATION_LAYER_ASSIGNMENT (  '',  '', ( #483 ) ) ;
#485 = MECHANICAL_DESIGN_GEOMETRIC_PRESENTATION_REPRESENTATION (  '', ( #483 ), #475 ) ;
#486 = STYLED_ITEM ( 'NONE', ( #14 ), #183 ) ;
#487 = PRESENTATION_LAYER_ASSIGNMENT (  '',  '', ( #486 ) ) ;
#488 = MECHANICAL_DESIGN_GEOMETRIC_PRESENTATION_REPRESENTATION (  '', ( #486 ), #475 ) ;
#489 = STYLED_ITEM ( 'NONE', ( #14 ), #214 ) ;
#490 = PRESENTATION_LAYER_ASSIGNMENT (  '',  '', ( #489 ) ) ;
#491 = MECHANICAL_DESIGN_GEOMETRIC_PRESENTATION_REPRESENTATION (  '', ( #489 ), #475 ) ;
#492 = STYLED_ITEM ( 'NONE', ( #14 ), #254 ) ;
#493 = PRESENTATION_LAYER_ASSIGNMENT (  '',  '', ( #492 ) ) ;
#494 = MECHANICAL_DESIGN_GEOMETRIC_PRESENTATION_REPRESENTATION (  '', ( #492 ), #475 ) ;
#495 = STYLED_ITEM ( 'NONE', ( #14 ), #272 ) ;
#496 = PRESENTATION_LAYER_ASSIGNMENT (  '',  '', ( #495 ) ) ;
#497 = MECHANICAL_DESIGN_GEOMETRIC_PRESENTATION_REPRESENTATION (  '', ( #495 ), #475 ) ;
#498 = STYLED_ITEM ( 'NONE', ( #14 ), #296 ) ;
#499 = PRESENTATION_LAYER_ASSIGNMENT (  '',  '', ( #498 ) ) ;
#500 = MECHANICAL_DESIGN_GEOMETRIC_PRESENTATION_REPRESENTATION (  '', ( #498 ), #475 ) ;
#501 = STYLED_ITEM ( 'NONE', ( #14 ), #314 ) ;
#502 = PRESENTATION_LAYER_ASSIGNMENT (  '',  '', ( #501 ) ) ;
#503 = MECHANICAL_DESIGN_GEOMETRIC_PRESENTATION_REPRESENTATION (  '', ( #501 ), #475 ) ;
#504 = STYLED_ITEM ( 'NONE', ( #14 ), #331 ) ;
#505 = PRESENTATION_LAYER_ASSIGNMENT (  '',  '', ( #504 ) ) ;
#506 = MECHANICAL_DESIGN_GEOMETRIC_PRESENTATION_REPRESENTATION (  '', ( #504 ), #475 ) ;
#507 = STYLED_ITEM ( 'NONE', ( #14 ), #348 ) ;
#508 = PRESENTATION_LAYER_ASSIGNMENT (  '',  '', ( #507 ) ) ;
#509 = MECHANICAL_DESIGN_GEOMETRIC_PRESENTATION_REPRESENTATION (  '', ( #507 ), #475 ) ;
#510 = STYLED_ITEM ( 'NONE', ( #14 ), #366 ) ;
#511 = PRESENTATION_LAYER_ASSIGNMENT (  '',  '', ( #510 ) ) ;
#512 = MECHANICAL_DESIGN_GEOMETRIC_PRESENTATION_REPRESENTATION (  '', ( #510 ), #475 ) ;
#513 = STYLED_ITEM ( 'NONE', ( #14 ), #384 ) ;
#514 = PRESENTATION_LAYER_ASSIGNMENT (  '',  '', ( #513 ) ) ;
#515 = MECHANICAL_DESIGN_GEOMETRIC_PRESENTATION_REPRESENTATION (  '', ( #513 ), #475 ) ;
#516 = STYLED_ITEM ( 'NONE', ( #14 ), #402 ) ;
#517 = PRESENTATION_LAYER_ASSIGNMENT (  '',  '', ( #516 ) ) ;
#518 = MECHANICAL_DESIGN_GEOMETRIC_PRESENTATION_REPRESENTATION (  '', ( #516 ), #475 ) ;
#519 = STYLED_ITEM ( 'NONE', ( #14 ), #420 ) ;
#520 = PRESENTATION_LAYER_ASSIGNMENT (  '',  '', ( #519 ) ) ;
#521 = MECHANICAL_DESIGN_GEOMETRIC_PRESENTATION_REPRESENTATION (  '', ( #519 ), #475 ) ;
#522 = STYLED_ITEM ( 'NONE', ( #14 ), #437 ) ;
#523 = PRESENTATION_LAYER_ASSIGNMENT (  '',  '', ( #522 ) ) ;
#524 = MECHANICAL_DESIGN_GEOMETRIC_PRESENTATION_REPRESENTATION (  '', ( #522 ), #475 ) ;
#525 = STYLED_ITEM ( 'NONE', ( #14 ), #454 ) ;
#526 = PRESENTATION_LAYER_ASSIGNMENT (  '',  '', ( #525 ) ) ;
#527 = MECHANICAL_DESIGN_GEOMETRIC_PRESENTATION_REPRESENTATION (  '', ( #525 ), #475 ) ;
#528 = STYLED_ITEM ( 'NONE', ( #14 ), #466 ) ;
#529 = PRESENTATION_LAYER_ASSIGNMENT (  '',  '', ( #528 ) ) ;
#530 = MECHANICAL_DESIGN_GEOMETRIC_PRESENTATION_REPRESENTATION (  '', ( #528 ), #475 ) ;
#531 = COLOUR_RGB ( '',0.75294117647059, 0.75294117647059, 0.75294117647059 ) ;
#532 = FILL_AREA_STYLE_COLOUR ( '', #531 ) ;
#533 = FILL_AREA_STYLE ('',( #532 ) ) ;
#534 = SURFACE_STYLE_FILL_AREA ( #533 ) ;
#535 = SURFACE_SIDE_STYLE ( '',( #534 ) ) ;
#536 = SURFACE_STYLE_USAGE ( .BOTH. , #535 ) ;
#537 = PRESENTATION_STYLE_ASSIGNMENT (( #536 ) ) ;
#538 = CARTESIAN_POINT ( 'NONE',  ( 1.200000000000000, 1.950000000000000, 0.900000000000000 ) ) ;
#539 = VERTEX_POINT ( 'NONE', #538 ) ;
#540 = CARTESIAN_POINT ( 'NONE',  ( 1.200000000000000, 0.050000000000000, 0.900000000000000 ) ) ;
#541 = VERTEX_POINT ( 'NONE', #540 ) ;
#542 = CARTESIAN_POINT ( 'NONE',  ( 1.200000000000000, 0.000000000000000, 0.900000000000000 ) ) ;
#543 = DIRECTION ( 'NONE',  ( 0.000000000000000, -1.000000000000000, 0.000000000000000 ) ) ;
#544 = VECTOR ( 'NONE', #543, 1000.000000000000000 ) ;
#545 = LINE ( 'NONE', #542, #544 ) ;
#546 = EDGE_CURVE ( 'NONE', #539, #541, #545, .T. ) ;
#547 = ORIENTED_EDGE ( 'NONE', *, *, #546, .F. ) ;
#548 = CARTESIAN_POINT ( 'NONE',  ( 0.750000000000000, 1.950000000000000, 0.900000000000000 ) ) ;
#549 = VERTEX_POINT ( 'NONE', #548 ) ;
#550 = CARTESIAN_POINT ( 'NONE',  ( 1.250000000000000, 1.950000000000000, 0.900000000000000 ) ) ;
#551 = DIRECTION ( 'NONE',  ( 1.000000000000000, 0.000000000000000, 0.000000000000000 ) ) ;
#552 = VECTOR ( 'NONE', #551, 1000.000000000000000 ) ;
#553 = LINE ( 'NONE', #550, #552 ) ;
#554 = EDGE_CURVE ( 'NONE', #549, #539, #553, .T. ) ;
#555 = ORIENTED_EDGE ( 'NONE', *, *, #554, .F. ) ;
#556 = CARTESIAN_POINT ( 'NONE',  ( 0.750000000000000, 0.050000000000000, 0.900000000000000 ) ) ;
#557 = VERTEX_POINT ( 'NONE', #556 ) ;
#558 = CARTESIAN_POINT ( 'NONE',  ( 0.750000000000000, 0.000000000000000, 0.900000000000000 ) ) ;
#559 = DIRECTION ( 'NONE',  ( 0.000000000000000, 1.000000000000000, 0.000000000000000 ) ) ;
#560 = VECTOR ( 'NONE', #559, 1000.000000000000000 ) ;
#561 = LINE ( 'NONE', #558, #560 ) ;
#562 = EDGE_CURVE ( 'NONE', #557, #549, #561, .T. ) ;
#563 = ORIENTED_EDGE ( 'NONE', *, *, #562, .F. ) ;
#564 = CARTESIAN_POINT ( 'NONE',  ( 1.250000000000000, 0.050000000000000, 0.900000000000000 ) ) ;
#565 = DIRECTION ( 'NONE',  ( -1.000000000000000, 0.000000000000000, 0.000000000000000 ) ) ;
#566 = VECTOR ( 'NONE', #565, 1000.000000000000000 ) ;
#567 = LINE ( 'NONE', #564, #566 ) ;
#568 = EDGE_CURVE ( 'NONE', #541, #557, #567, .T. ) ;
#569 = ORIENTED_EDGE ( 'NONE', *, *, #568, .F. ) ;
#570 = EDGE_LOOP ( 'NONE', ( #547, #555, #563, #569 ) ) ;
#571 = FACE_OUTER_BOUND ( 'NONE', #570, .T. ) ;
#572 = CARTESIAN_POINT ( 'NONE',  ( 1.250000000000000, 0.000000000000000, 0.900000000000000 ) ) ;
#573 = DIRECTION ( 'NONE',  ( 0.000000000000000, 0.000000000000000, -1.000000000000000 ) ) ;
#574 = DIRECTION ( 'NONE',  ( 1.000000000000000, 0.000000000000000, 0.000000000000000 ) ) ;
#575 = AXIS2_PLACEMENT_3D ( 'NONE', #572, #573, #574 ) ;
#576 = PLANE ( 'NONE', #575 ) ;
#577 = ADVANCED_FACE ( 'NONE', ( #571 ), #576, .F. ) ;
#578 = CARTESIAN_POINT ( 'NONE',  ( 0.750000000000000, 2.000000000000000, 0.850000000000000 ) ) ;
#579 = VERTEX_POINT ( 'NONE', #578 ) ;
#580 = CARTESIAN_POINT ( 'NONE',  ( 0.750000000000000, 2.000000000000000, -0.850000000000000 ) ) ;
#581 = VERTEX_POINT ( 'NONE', #580 ) ;
#582 = CARTESIAN_POINT ( 'NONE',  ( 0.750000000000000, 2.000000000000000, -0.900000000000000 ) ) ;
#583 = DIRECTION ( 'NONE',  ( 0.000000000000000, 0.000000000000000, -1.000000000000000 ) ) ;
#584 = VECTOR ( 'NONE', #583, 1000.000000000000000 ) ;
#585 = LINE ( 'NONE', #582, #584 ) ;
#586 = EDGE_CURVE ( 'NONE', #579, #581, #585, .T. ) ;
#587 = ORIENTED_EDGE ( 'NONE', *, *, #586, .F. ) ;
#588 = CARTESIAN_POINT ( 'NONE',  ( 1.200000000000000, 2.000000000000000, 0.850000000000000 ) ) ;
#589 = VERTEX_POINT ( 'NONE', #588 ) ;
#590 = CARTESIAN_POINT ( 'NONE',  ( 1.250000000000000, 2.000000000000000, 0.850000000000000 ) ) ;
#591 = DIRECTION ( 'NONE',  ( -1.000000000000000, 0.000000000000000, 0.000000000000000 ) ) ;
#592 = VECTOR ( 'NONE', #591, 1000.000000000000000 ) ;
#593 = LINE ( 'NONE', #590, #592 ) ;
#594 = EDGE_CURVE ( 'NONE', #589, #579, #593, .T. ) ;
#595 = ORIENTED_EDGE ( 'NONE', *, *, #594, .F. ) ;
#596 = CARTESIAN_POINT ( 'NONE',  ( 1.200000000000000, 2.000000000000000, -0.850000000000000 ) ) ;
#597 = VERTEX_POINT ( 'NONE', #596 ) ;
#598 = CARTESIAN_POINT ( 'NONE',  ( 1.200000000000000, 2.000000000000000, -0.900000000000000 ) ) ;
#599 = DIRECTION ( 'NONE',  ( 0.000000000000000, 0.000000000000000, 1.000000000000000 ) ) ;
#600 = VECTOR ( 'NONE', #599, 1000.000000000000000 ) ;
#601 = LINE ( 'NONE', #598, #600 ) ;
#602 = EDGE_CURVE ( 'NONE', #597, #589, #601, .T. ) ;
#603 = ORIENTED_EDGE ( 'NONE', *, *, #602, .F. ) ;
#604 = CARTESIAN_POINT ( 'NONE',  ( 1.250000000000000, 2.000000000000000, -0.850000000000000 ) ) ;
#605 = DIRECTION ( 'NONE',  ( 1.000000000000000, 0.000000000000000, 0.000000000000000 ) ) ;
#606 = VECTOR ( 'NONE', #605, 1000.000000000000000 ) ;
#607 = LINE ( 'NONE', #604, #606 ) ;
#608 = EDGE_CURVE ( 'NONE', #581, #597, #607, .T. ) ;
#609 = ORIENTED_EDGE ( 'NONE', *, *, #608, .F. ) ;
#610 = EDGE_LOOP ( 'NONE', ( #587, #595, #603, #609 ) ) ;
#611 = FACE_OUTER_BOUND ( 'NONE', #610, .T. ) ;
#612 = CARTESIAN_POINT ( 'NONE',  ( 1.250000000000000, 2.000000000000000, -0.900000000000000 ) ) ;
#613 = DIRECTION ( 'NONE',  ( 0.000000000000000, -1.000000000000000, 0.000000000000000 ) ) ;
#614 = DIRECTION ( 'NONE',  ( 0.000000000000000, 0.000000000000000, -1.000000000000000 ) ) ;
#615 = AXIS2_PLACEMENT_3D ( 'NONE', #612, #613, #614 ) ;
#616 = PLANE ( 'NONE', #615 ) ;
#617 = ADVANCED_FACE ( 'NONE', ( #611 ), #616, .F. ) ;
#618 = CARTESIAN_POINT ( 'NONE',  ( 0.750000000000000, 1.950000000000000, -0.900000000000000 ) ) ;
#619 = VERTEX_POINT ( 'NONE', #618 ) ;
#620 = CARTESIAN_POINT ( 'NONE',  ( 0.750000000000000, 0.050000000000000, -0.900000000000000 ) ) ;
#621 = VERTEX_POINT ( 'NONE', #620 ) ;
#622 = CARTESIAN_POINT ( 'NONE',  ( 0.750000000000000, 0.000000000000000, -0.900000000000000 ) ) ;
#623 = DIRECTION ( 'NONE',  ( 0.000000000000000, -1.000000000000000, 0.000000000000000 ) ) ;
#624 = VECTOR ( 'NONE', #623, 1000.000000000000000 ) ;
#625 = LINE ( 'NONE', #622, #624 ) ;
#626 = EDGE_CURVE ( 'NONE', #619, #621, #625, .T. ) ;
#627 = ORIENTED_EDGE ( 'NONE', *, *, #626, .F. ) ;
#628 = CARTESIAN_POINT ( 'NONE',  ( 1.200000000000000, 1.950000000000000, -0.900000000000000 ) ) ;
#629 = VERTEX_POINT ( 'NONE', #628 ) ;
#630 = CARTESIAN_POINT ( 'NONE',  ( 1.250000000000000, 1.950000000000000, -0.900000000000000 ) ) ;
#631 = DIRECTION ( 'NONE',  ( -1.000000000000000, 0.000000000000000, 0.000000000000000 ) ) ;
#632 = VECTOR ( 'NONE', #631, 1000.000000000000000 ) ;
#633 = LINE ( 'NONE', #630, #632 ) ;
#634 = EDGE_CURVE ( 'NONE', #629, #619, #633, .T. ) ;
#635 = ORIENTED_EDGE ( 'NONE', *, *, #634, .F. ) ;
#636 = CARTESIAN_POINT ( 'NONE',  ( 1.200000000000000, 0.050000000000000, -0.900000000000000 ) ) ;
#637 = VERTEX_POINT ( 'NONE', #636 ) ;
#638 = CARTESIAN_POINT ( 'NONE',  ( 1.200000000000000, 0.000000000000000, -0.900000000000000 ) ) ;
#639 = DIRECTION ( 'NONE',  ( 0.000000000000000, 1.000000000000000, 0.000000000000000 ) ) ;
#640 = VECTOR ( 'NONE', #639, 1000.000000000000000 ) ;
#641 = LINE ( 'NONE', #638, #640 ) ;
#642 = EDGE_CURVE ( 'NONE', #637, #629, #641, .T. ) ;
#643 = ORIENTED_EDGE ( 'NONE', *, *, #642, .F. ) ;
#644 = CARTESIAN_POINT ( 'NONE',  ( 1.250000000000000, 0.050000000000000, -0.900000000000000 ) ) ;
#645 = DIRECTION ( 'NONE',  ( 1.000000000000000, 0.000000000000000, 0.000000000000000 ) ) ;
#646 = VECTOR ( 'NONE', #645, 1000.000000000000000 ) ;
#647 = LINE ( 'NONE', #644, #646 ) ;
#648 = EDGE_CURVE ( 'NONE', #621, #637, #647, .T. ) ;
#649 = ORIENTED_EDGE ( 'NONE', *, *, #648, .F. ) ;
#650 = EDGE_LOOP ( 'NONE', ( #627, #635, #643, #649 ) ) ;
#651 = FACE_OUTER_BOUND ( 'NONE', #650, .T. ) ;
#652 = CARTESIAN_POINT ( 'NONE',  ( 1.250000000000000, 0.000000000000000, -0.900000000000000 ) ) ;
#653 = DIRECTION ( 'NONE',  ( 0.000000000000000, 0.000000000000000, 1.000000000000000 ) ) ;
#654 = DIRECTION ( 'NONE',  ( -1.000000000000000, 0.000000000000000, 0.000000000000000 ) ) ;
#655 = AXIS2_PLACEMENT_3D ( 'NONE', #652, #653, #654 ) ;
#656 = PLANE ( 'NONE', #655 ) ;
#657 = ADVANCED_FACE ( 'NONE', ( #651 ), #656, .F. ) ;
#658 = CARTESIAN_POINT ( 'NONE',  ( 1.200000000000000, 0.000000000000000, 0.850000000000000 ) ) ;
#659 = VERTEX_POINT ( 'NONE', #658 ) ;
#660 = CARTESIAN_POINT ( 'NONE',  ( 1.200000000000000, 0.000000000000000, -0.850000000000000 ) ) ;
#661 = VERTEX_POINT ( 'NONE', #660 ) ;
#662 = CARTESIAN_POINT ( 'NONE',  ( 1.200000000000000, 0.000000000000000, -0.900000000000000 ) ) ;
#663 = DIRECTION ( 'NONE',  ( 0.000000000000000, 0.000000000000000, -1.000000000000000 ) ) ;
#664 = VECTOR ( 'NONE', #663, 1000.000000000000000 ) ;
#665 = LINE ( 'NONE', #662, #664 ) ;
#666 = EDGE_CURVE ( 'NONE', #659, #661, #665, .T. ) ;
#667 = ORIENTED_EDGE ( 'NONE', *, *, #666, .F. ) ;
#668 = CARTESIAN_POINT ( 'NONE',  ( 0.750000000000000, 0.000000000000000, 0.850000000000000 ) ) ;
#669 = VERTEX_POINT ( 'NONE', #668 ) ;
#670 = CARTESIAN_POINT ( 'NONE',  ( 1.250000000000000, 0.000000000000000, 0.850000000000000 ) ) ;
#671 = DIRECTION ( 'NONE',  ( 1.000000000000000, 0.000000000000000, 0.000000000000000 ) ) ;
#672 = VECTOR ( 'NONE', #671, 1000.000000000000000 ) ;
#673 = LINE ( 'NONE', #670, #672 ) ;
#674 = EDGE_CURVE ( 'NONE', #669, #659, #673, .T. ) ;
#675 = ORIENTED_EDGE ( 'NONE', *, *, #674, .F. ) ;
#676 = CARTESIAN_POINT ( 'NONE',  ( 0.750000000000000, 0.000000000000000, -0.850000000000000 ) ) ;
#677 = VERTEX_POINT ( 'NONE', #676 ) ;
#678 = CARTESIAN_POINT ( 'NONE',  ( 0.750000000000000, 0.000000000000000, -0.900000000000000 ) ) ;
#679 = DIRECTION ( 'NONE',  ( 0.000000000000000, 0.000000000000000, 1.000000000000000 ) ) ;
#680 = VECTOR ( 'NONE', #679, 1000.000000000000000 ) ;
#681 = LINE ( 'NONE', #678, #680 ) ;
#682 = EDGE_CURVE ( 'NONE', #677, #669, #681, .T. ) ;
#683 = ORIENTED_EDGE ( 'NONE', *, *, #682, .F. ) ;
#684 = CARTESIAN_POINT ( 'NONE',  ( 1.250000000000000, 0.000000000000000, -0.850000000000000 ) ) ;
#685 = DIRECTION ( 'NONE',  ( -1.000000000000000, 0.000000000000000, 0.000000000000000 ) ) ;
#686 = VECTOR ( 'NONE', #685, 1000.000000000000000 ) ;
#687 = LINE ( 'NONE', #684, #686 ) ;
#688 = EDGE_CURVE ( 'NONE', #661, #677, #687, .T. ) ;
#689 = ORIENTED_EDGE ( 'NONE', *, *, #688, .F. ) ;
#690 = EDGE_LOOP ( 'NONE', ( #667, #675, #683, #689 ) ) ;
#691 = FACE_OUTER_BOUND ( 'NONE', #690, .T. ) ;
#692 = CARTESIAN_POINT ( 'NONE',  ( 1.250000000000000, 0.000000000000000, -0.900000000000000 ) ) ;
#693 = DIRECTION ( 'NONE',  ( 0.000000000000000, 1.000000000000000, 0.000000000000000 ) ) ;
#694 = DIRECTION ( 'NONE',  ( 0.000000000000000, 0.000000000000000, 1.000000000000000 ) ) ;
#695 = AXIS2_PLACEMENT_3D ( 'NONE', #692, #693, #694 ) ;
#696 = PLANE ( 'NONE', #695 ) ;
#697 = ADVANCED_FACE ( 'NONE', ( #691 ), #696, .F. ) ;
#698 = CARTESIAN_POINT ( 'NONE',  ( 1.250000000000000, 1.950000000000000, -0.850000000000000 ) ) ;
#699 = VERTEX_POINT ( 'NONE', #698 ) ;
#700 = CARTESIAN_POINT ( 'NONE',  ( 1.250000000000000, 0.050000000000000, -0.850000000000000 ) ) ;
#701 = VERTEX_POINT ( 'NONE', #700 ) ;
#702 = CARTESIAN_POINT ( 'NONE',  ( 1.250000000000000, 0.000000000000000, -0.850000000000000 ) ) ;
#703 = DIRECTION ( 'NONE',  ( 0.000000000000000, -1.000000000000000, 0.000000000000000 ) ) ;
#704 = VECTOR ( 'NONE', #703, 1000.000000000000000 ) ;
#705 = LINE ( 'NONE', #702, #704 ) ;
#706 = EDGE_CURVE ( 'NONE', #699, #701, #705, .T. ) ;
#707 = ORIENTED_EDGE ( 'NONE', *, *, #706, .F. ) ;
#708 = CARTESIAN_POINT ( 'NONE',  ( 1.250000000000000, 1.950000000000000, 0.850000000000000 ) ) ;
#709 = VERTEX_POINT ( 'NONE', #708 ) ;
#710 = CARTESIAN_POINT ( 'NONE',  ( 1.250000000000000, 1.950000000000000, 0.000000000000000 ) ) ;
#711 = DIRECTION ( 'NONE',  ( 0.000000000000000, 0.000000000000000, -1.000000000000000 ) ) ;
#712 = VECTOR ( 'NONE', #711, 1000.000000000000000 ) ;
#713 = LINE ( 'NONE', #710, #712 ) ;
#714 = EDGE_CURVE ( 'NONE', #709, #699, #713, .T. ) ;
#715 = ORIENTED_EDGE ( 'NONE', *, *, #714, .F. ) ;
#716 = CARTESIAN_POINT ( 'NONE',  ( 1.250000000000000, 0.050000000000000, 0.850000000000000 ) ) ;
#717 = VERTEX_POINT ( 'NONE', #716 ) ;
#718 = CARTESIAN_POINT ( 'NONE',  ( 1.250000000000000, 0.000000000000000, 0.850000000000000 ) ) ;
#719 = DIRECTION ( 'NONE',  ( 0.000000000000000, 1.000000000000000, 0.000000000000000 ) ) ;
#720 = VECTOR ( 'NONE', #719, 1000.000000000000000 ) ;
#721 = LINE ( 'NONE', #718, #720 ) ;
#722 = EDGE_CURVE ( 'NONE', #717, #709, #721, .T. ) ;
#723 = ORIENTED_EDGE ( 'NONE', *, *, #722, .F. ) ;
#724 = CARTESIAN_POINT ( 'NONE',  ( 1.250000000000000, 0.050000000000000, 0.000000000000000 ) ) ;
#725 = DIRECTION ( 'NONE',  ( 0.000000000000000, 0.000000000000000, 1.000000000000000 ) ) ;
#726 = VECTOR ( 'NONE', #725, 1000.000000000000000 ) ;
#727 = LINE ( 'NONE', #724, #726 ) ;
#728 = EDGE_CURVE ( 'NONE', #701, #717, #727, .T. ) ;
#729 = ORIENTED_EDGE ( 'NONE', *, *, #728, .F. ) ;
#730 = EDGE_LOOP ( 'NONE', ( #707, #715, #723, #729 ) ) ;
#731 = FACE_OUTER_BOUND ( 'NONE', #730, .T. ) ;
#732 = CARTESIAN_POINT ( 'NONE',  ( 1.250000000000000, 0.000000000000000, 0.000000000000000 ) ) ;
#733 = DIRECTION ( 'NONE',  ( -1.000000000000000, 0.000000000000000, 0.000000000000000 ) ) ;
#734 = DIRECTION ( 'NONE',  ( 0.000000000000000, 0.000000000000000, -1.000000000000000 ) ) ;
#735 = AXIS2_PLACEMENT_3D ( 'NONE', #732, #733, #734 ) ;
#736 = PLANE ( 'NONE', #735 ) ;
#737 = ADVANCED_FACE ( 'NONE', ( #731 ), #736, .F. ) ;
#738 = ORIENTED_EDGE ( 'NONE', *, *, #682, .T. ) ;
#739 = CARTESIAN_POINT ( 'NONE',  ( 0.750000000000000, 0.050000000000000, 0.850000000000000 ) ) ;
#740 = DIRECTION ( 'NONE',  ( 1.000000000000000, 0.000000000000000, 0.000000000000000 ) ) ;
#741 = DIRECTION ( 'NONE',  ( 0.000000000000000, 0.000000000000000, -1.000000000000000 ) ) ;
#742 = AXIS2_PLACEMENT_3D ( 'NONE', #739, #740, #741 ) ;
#743 = CIRCLE ( 'NONE', #742, 0.05) ;
#744 = EDGE_CURVE ( 'NONE', #557, #669, #743, .T. ) ;
#745 = ORIENTED_EDGE ( 'NONE', *, *, #744, .F. ) ;
#746 = ORIENTED_EDGE ( 'NONE', *, *, #562, .T. ) ;
#747 = CARTESIAN_POINT ( 'NONE',  ( 0.750000000000000, 1.950000000000000, 0.850000000000000 ) ) ;
#748 = DIRECTION ( 'NONE',  ( 1.000000000000000, 0.000000000000000, 0.000000000000000 ) ) ;
#749 = DIRECTION ( 'NONE',  ( 0.000000000000000, 0.000000000000000, -1.000000000000000 ) ) ;
#750 = AXIS2_PLACEMENT_3D ( 'NONE', #747, #748, #749 ) ;
#751 = CIRCLE ( 'NONE', #750, 0.05) ;
#752 = EDGE_CURVE ( 'NONE', #579, #549, #751, .T. ) ;
#753 = ORIENTED_EDGE ( 'NONE', *, *, #752, .F. ) ;
#754 = ORIENTED_EDGE ( 'NONE', *, *, #586, .T. ) ;
#755 = CARTESIAN_POINT ( 'NONE',  ( 0.750000000000000, 1.950000000000000, -0.850000000000000 ) ) ;
#756 = DIRECTION ( 'NONE',  ( 1.000000000000000, 0.000000000000000, 0.000000000000000 ) ) ;
#757 = DIRECTION ( 'NONE',  ( 0.000000000000000, 0.000000000000000, -1.000000000000000 ) ) ;
#758 = AXIS2_PLACEMENT_3D ( 'NONE', #755, #756, #757 ) ;
#759 = CIRCLE ( 'NONE', #758, 0.05) ;
#760 = EDGE_CURVE ( 'NONE', #619, #581, #759, .T. ) ;
#761 = ORIENTED_EDGE ( 'NONE', *, *, #760, .F. ) ;
#762 = ORIENTED_EDGE ( 'NONE', *, *, #626, .T. ) ;
#763 = CARTESIAN_POINT ( 'NONE',  ( 0.750000000000000, 0.050000000000000, -0.850000000000000 ) ) ;
#764 = DIRECTION ( 'NONE',  ( 1.000000000000000, 0.000000000000000, 0.000000000000000 ) ) ;
#765 = DIRECTION ( 'NONE',  ( 0.000000000000000, 0.000000000000000, -1.000000000000000 ) ) ;
#766 = AXIS2_PLACEMENT_3D ( 'NONE', #763, #764, #765 ) ;
#767 = CIRCLE ( 'NONE', #766, 0.05) ;
#768 = EDGE_CURVE ( 'NONE', #677, #621, #767, .T. ) ;
#769 = ORIENTED_EDGE ( 'NONE', *, *, #768, .F. ) ;
#770 = EDGE_LOOP ( 'NONE', ( #738, #745, #746, #753, #754, #761, #762, #769 ) ) ;
#771 = FACE_OUTER_BOUND ( 'NONE', #770, .T. ) ;
#772 = CARTESIAN_POINT ( 'NONE',  ( 0.750000000000000, 0.000000000000000, 0.000000000000000 ) ) ;
#773 = DIRECTION ( 'NONE',  ( -1.000000000000000, 0.000000000000000, 0.000000000000000 ) ) ;
#774 = DIRECTION ( 'NONE',  ( 0.000000000000000, 0.000000000000000, -1.000000000000000 ) ) ;
#775 = AXIS2_PLACEMENT_3D ( 'NONE', #772, #773, #774 ) ;
#776 = PLANE ( 'NONE', #775 ) ;
#777 = ADVANCED_FACE ( 'NONE', ( #771 ), #776, .T. ) ;
#778 = ORIENTED_EDGE ( 'NONE', *, *, #760, .T. ) ;
#779 = ORIENTED_EDGE ( 'NONE', *, *, #608, .T. ) ;
#780 = CARTESIAN_POINT ( 'NONE',  ( 1.200000000000000, 1.950000000000000, -0.850000000000000 ) ) ;
#781 = DIRECTION ( 'NONE',  ( -1.000000000000000, 0.000000000000000, 0.000000000000000 ) ) ;
#782 = DIRECTION ( 'NONE',  ( 0.000000000000000, 0.000000000000000, 1.000000000000000 ) ) ;
#783 = AXIS2_PLACEMENT_3D ( 'NONE', #780, #781, #782 ) ;
#784 = CIRCLE ( 'NONE', #783, 0.05) ;
#785 = EDGE_CURVE ( 'NONE', #597, #629, #784, .T. ) ;
#786 = ORIENTED_EDGE ( 'NONE', *, *, #785, .T. ) ;
#787 = ORIENTED_EDGE ( 'NONE', *, *, #634, .T. ) ;
#788 = EDGE_LOOP ( 'NONE', ( #778, #779, #786, #787 ) ) ;
#789 = FACE_OUTER_BOUND ( 'NONE', #788, .T. ) ;
#790 = CARTESIAN_POINT ( 'NONE',  ( 1.250000000000000, 1.950000000000000, -0.850000000000000 ) ) ;
#791 = DIRECTION ( 'NONE',  ( -1.000000000000000, 0.000000000000000, 0.000000000000000 ) ) ;
#792 = DIRECTION ( 'NONE',  ( 0.000000000000000, 0.000000000000000, -1.000000000000000 ) ) ;
#793 = AXIS2_PLACEMENT_3D ( 'NONE', #790, #791, #792 ) ;
#794 = CYLINDRICAL_SURFACE ( 'NONE', #793, 0.05) ;
#795 = ADVANCED_FACE ( 'NONE', ( #789 ), #794, .T. ) ;
#796 = CARTESIAN_POINT ( 'NONE',  ( 1.200000000000000, 1.950000000000000, 0.850000000000000 ) ) ;
#797 = DIRECTION ( 'NONE',  ( 0.000000000000000, 0.000000000000000, -1.000000000000000 ) ) ;
#798 = DIRECTION ( 'NONE',  ( -1.000000000000000, 0.000000000000000, 0.000000000000000 ) ) ;
#799 = AXIS2_PLACEMENT_3D ( 'NONE', #796, #797, #798 ) ;
#800 = CIRCLE ( 'NONE', #799, 0.05) ;
#801 = EDGE_CURVE ( 'NONE', #589, #709, #800, .T. ) ;
#802 = ORIENTED_EDGE ( 'NONE', *, *, #801, .T. ) ;
#803 = ORIENTED_EDGE ( 'NONE', *, *, #714, .T. ) ;
#804 = CARTESIAN_POINT ( 'NONE',  ( 1.200000000000000, 1.950000000000000, -0.850000000000000 ) ) ;
#805 = DIRECTION ( 'NONE',  ( 0.000000000000000, 0.000000000000000, 1.000000000000000 ) ) ;
#806 = DIRECTION ( 'NONE',  ( 1.000000000000000, 0.000000000000000, 0.000000000000000 ) ) ;
#807 = AXIS2_PLACEMENT_3D ( 'NONE', #804, #805, #806 ) ;
#808 = CIRCLE ( 'NONE', #807, 0.05) ;
#809 = EDGE_CURVE ( 'NONE', #699, #597, #808, .T. ) ;
#810 = ORIENTED_EDGE ( 'NONE', *, *, #809, .T. ) ;
#811 = ORIENTED_EDGE ( 'NONE', *, *, #602, .T. ) ;
#812 = EDGE_LOOP ( 'NONE', ( #802, #803, #810, #811 ) ) ;
#813 = FACE_OUTER_BOUND ( 'NONE', #812, .T. ) ;
#814 = CARTESIAN_POINT ( 'NONE',  ( 1.200000000000000, 1.950000000000000, 0.000000000000000 ) ) ;
#815 = DIRECTION ( 'NONE',  ( 0.000000000000000, 0.000000000000000, -1.000000000000000 ) ) ;
#816 = DIRECTION ( 'NONE',  ( 1.000000000000000, 0.000000000000000, 0.000000000000000 ) ) ;
#817 = AXIS2_PLACEMENT_3D ( 'NONE', #814, #815, #816 ) ;
#818 = CYLINDRICAL_SURFACE ( 'NONE', #817, 0.05) ;
#819 = ADVANCED_FACE ( 'NONE', ( #813 ), #818, .T. ) ;
#820 = ORIENTED_EDGE ( 'NONE', *, *, #752, .T. ) ;
#821 = ORIENTED_EDGE ( 'NONE', *, *, #554, .T. ) ;
#822 = CARTESIAN_POINT ( 'NONE',  ( 1.200000000000000, 1.950000000000000, 0.850000000000000 ) ) ;
#823 = DIRECTION ( 'NONE',  ( -1.000000000000000, 0.000000000000000, 0.000000000000000 ) ) ;
#824 = DIRECTION ( 'NONE',  ( 0.000000000000000, 0.000000000000000, 1.000000000000000 ) ) ;
#825 = AXIS2_PLACEMENT_3D ( 'NONE', #822, #823, #824 ) ;
#826 = CIRCLE ( 'NONE', #825, 0.05) ;
#827 = EDGE_CURVE ( 'NONE', #539, #589, #826, .T. ) ;
#828 = ORIENTED_EDGE ( 'NONE', *, *, #827, .T. ) ;
#829 = ORIENTED_EDGE ( 'NONE', *, *, #594, .T. ) ;
#830 = EDGE_LOOP ( 'NONE', ( #820, #821, #828, #829 ) ) ;
#831 = FACE_OUTER_BOUND ( 'NONE', #830, .T. ) ;
#832 = CARTESIAN_POINT ( 'NONE',  ( 1.250000000000000, 1.950000000000000, 0.850000000000000 ) ) ;
#833 = DIRECTION ( 'NONE',  ( -1.000000000000000, 0.000000000000000, 0.000000000000000 ) ) ;
#834 = DIRECTION ( 'NONE',  ( 0.000000000000000, 0.000000000000000, -1.000000000000000 ) ) ;
#835 = AXIS2_PLACEMENT_3D ( 'NONE', #832, #833, #834 ) ;
#836 = CYLINDRICAL_SURFACE ( 'NONE', #835, 0.05) ;
#837 = ADVANCED_FACE ( 'NONE', ( #831 ), #836, .T. ) ;
#838 = ORIENTED_EDGE ( 'NONE', *, *, #809, .F. ) ;
#839 = CARTESIAN_POINT ( 'NONE',  ( 1.200000000000000, 1.950000000000000, -0.850000000000000 ) ) ;
#840 = DIRECTION ( 'NONE',  ( 0.000000000000000, 1.000000000000000, 0.000000000000000 ) ) ;
#841 = DIRECTION ( 'NONE',  ( 0.000000000000000, 0.000000000000000, 1.000000000000000 ) ) ;
#842 = AXIS2_PLACEMENT_3D ( 'NONE', #839, #840, #841 ) ;
#843 = CIRCLE ( 'NONE', #842, 0.05) ;
#844 = EDGE_CURVE ( 'NONE', #699, #629, #843, .T. ) ;
#845 = ORIENTED_EDGE ( 'NONE', *, *, #844, .T. ) ;
#846 = ORIENTED_EDGE ( 'NONE', *, *, #785, .F. ) ;
#847 = EDGE_LOOP ( 'NONE', ( #838, #845, #846 ) ) ;
#848 = FACE_OUTER_BOUND ( 'NONE', #847, .T. ) ;
#849 = CARTESIAN_POINT ( 'NONE',  ( 1.200000000000000, 1.950000000000000, -0.850000000000000 ) ) ;
#850 = DIRECTION ( 'NONE',  ( 0.000000000000000, -1.000000000000000, 0.000000000000000 ) ) ;
#851 = DIRECTION ( 'NONE',  ( -1.000000000000000, 0.000000000000000, 0.000000000000000 ) ) ;
#852 = AXIS2_PLACEMENT_3D ( 'NONE', #849, #850, #851 ) ;
#853 = SPHERICAL_SURFACE ( 'NONE', #852, 0.05) ;
#854 = ADVANCED_FACE ( 'NONE', ( #848 ), #853, .T. ) ;
#855 = ORIENTED_EDGE ( 'NONE', *, *, #827, .F. ) ;
#856 = CARTESIAN_POINT ( 'NONE',  ( 1.200000000000000, 1.950000000000000, 0.850000000000000 ) ) ;
#857 = DIRECTION ( 'NONE',  ( 0.000000000000000, 1.000000000000000, 0.000000000000000 ) ) ;
#858 = DIRECTION ( 'NONE',  ( 0.000000000000000, 0.000000000000000, 1.000000000000000 ) ) ;
#859 = AXIS2_PLACEMENT_3D ( 'NONE', #856, #857, #858 ) ;
#860 = CIRCLE ( 'NONE', #859, 0.05) ;
#861 = EDGE_CURVE ( 'NONE', #539, #709, #860, .T. ) ;
#862 = ORIENTED_EDGE ( 'NONE', *, *, #861, .T. ) ;
#863 = ORIENTED_EDGE ( 'NONE', *, *, #801, .F. ) ;
#864 = EDGE_LOOP ( 'NONE', ( #855, #862, #863 ) ) ;
#865 = FACE_OUTER_BOUND ( 'NONE', #864, .T. ) ;
#866 = CARTESIAN_POINT ( 'NONE',  ( 1.200000000000000, 1.950000000000000, 0.850000000000000 ) ) ;
#867 = DIRECTION ( 'NONE',  ( 0.000000000000000, -1.000000000000000, 0.000000000000000 ) ) ;
#868 = DIRECTION ( 'NONE',  ( -1.000000000000000, 0.000000000000000, 0.000000000000000 ) ) ;
#869 = AXIS2_PLACEMENT_3D ( 'NONE', #866, #867, #868 ) ;
#870 = SPHERICAL_SURFACE ( 'NONE', #869, 0.05) ;
#871 = ADVANCED_FACE ( 'NONE', ( #865 ), #870, .T. ) ;
#872 = ORIENTED_EDGE ( 'NONE', *, *, #768, .T. ) ;
#873 = ORIENTED_EDGE ( 'NONE', *, *, #648, .T. ) ;
#874 = CARTESIAN_POINT ( 'NONE',  ( 1.200000000000000, 0.050000000000000, -0.850000000000000 ) ) ;
#875 = DIRECTION ( 'NONE',  ( -1.000000000000000, 0.000000000000000, 0.000000000000000 ) ) ;
#876 = DIRECTION ( 'NONE',  ( 0.000000000000000, 0.000000000000000, 1.000000000000000 ) ) ;
#877 = AXIS2_PLACEMENT_3D ( 'NONE', #874, #875, #876 ) ;
#878 = CIRCLE ( 'NONE', #877, 0.05) ;
#879 = EDGE_CURVE ( 'NONE', #637, #661, #878, .T. ) ;
#880 = ORIENTED_EDGE ( 'NONE', *, *, #879, .T. ) ;
#881 = ORIENTED_EDGE ( 'NONE', *, *, #688, .T. ) ;
#882 = EDGE_LOOP ( 'NONE', ( #872, #873, #880, #881 ) ) ;
#883 = FACE_OUTER_BOUND ( 'NONE', #882, .T. ) ;
#884 = CARTESIAN_POINT ( 'NONE',  ( 1.250000000000000, 0.050000000000000, -0.850000000000000 ) ) ;
#885 = DIRECTION ( 'NONE',  ( -1.000000000000000, 0.000000000000000, 0.000000000000000 ) ) ;
#886 = DIRECTION ( 'NONE',  ( 0.000000000000000, 0.000000000000000, -1.000000000000000 ) ) ;
#887 = AXIS2_PLACEMENT_3D ( 'NONE', #884, #885, #886 ) ;
#888 = CYLINDRICAL_SURFACE ( 'NONE', #887, 0.05) ;
#889 = ADVANCED_FACE ( 'NONE', ( #883 ), #888, .T. ) ;
#890 = ORIENTED_EDGE ( 'NONE', *, *, #844, .F. ) ;
#891 = ORIENTED_EDGE ( 'NONE', *, *, #706, .T. ) ;
#892 = CARTESIAN_POINT ( 'NONE',  ( 1.200000000000000, 0.050000000000000, -0.850000000000000 ) ) ;
#893 = DIRECTION ( 'NONE',  ( 0.000000000000000, 1.000000000000000, 0.000000000000000 ) ) ;
#894 = DIRECTION ( 'NONE',  ( 0.000000000000000, 0.000000000000000, -1.000000000000000 ) ) ;
#895 = AXIS2_PLACEMENT_3D ( 'NONE', #892, #893, #894 ) ;
#896 = CIRCLE ( 'NONE', #895, 0.05) ;
#897 = EDGE_CURVE ( 'NONE', #701, #637, #896, .T. ) ;
#898 = ORIENTED_EDGE ( 'NONE', *, *, #897, .T. ) ;
#899 = ORIENTED_EDGE ( 'NONE', *, *, #642, .T. ) ;
#900 = EDGE_LOOP ( 'NONE', ( #890, #891, #898, #899 ) ) ;
#901 = FACE_OUTER_BOUND ( 'NONE', #900, .T. ) ;
#902 = CARTESIAN_POINT ( 'NONE',  ( 1.200000000000000, 0.000000000000000, -0.850000000000000 ) ) ;
#903 = DIRECTION ( 'NONE',  ( 0.000000000000000, -1.000000000000000, 0.000000000000000 ) ) ;
#904 = DIRECTION ( 'NONE',  ( 0.000000000000000, 0.000000000000000, -1.000000000000000 ) ) ;
#905 = AXIS2_PLACEMENT_3D ( 'NONE', #902, #903, #904 ) ;
#906 = CYLINDRICAL_SURFACE ( 'NONE', #905, 0.05) ;
#907 = ADVANCED_FACE ( 'NONE', ( #901 ), #906, .T. ) ;
#908 = ORIENTED_EDGE ( 'NONE', *, *, #861, .F. ) ;
#909 = ORIENTED_EDGE ( 'NONE', *, *, #546, .T. ) ;
#910 = CARTESIAN_POINT ( 'NONE',  ( 1.200000000000000, 0.050000000000000, 0.850000000000000 ) ) ;
#911 = DIRECTION ( 'NONE',  ( 0.000000000000000, 1.000000000000000, 0.000000000000000 ) ) ;
#912 = DIRECTION ( 'NONE',  ( 0.000000000000000, 0.000000000000000, -1.000000000000000 ) ) ;
#913 = AXIS2_PLACEMENT_3D ( 'NONE', #910, #911, #912 ) ;
#914 = CIRCLE ( 'NONE', #913, 0.05) ;
#915 = EDGE_CURVE ( 'NONE', #541, #717, #914, .T. ) ;
#916 = ORIENTED_EDGE ( 'NONE', *, *, #915, .T. ) ;
#917 = ORIENTED_EDGE ( 'NONE', *, *, #722, .T. ) ;
#918 = EDGE_LOOP ( 'NONE', ( #908, #909, #916, #917 ) ) ;
#919 = FACE_OUTER_BOUND ( 'NONE', #918, .T. ) ;
#920 = CARTESIAN_POINT ( 'NONE',  ( 1.200000000000000, 0.000000000000000, 0.850000000000000 ) ) ;
#921 = DIRECTION ( 'NONE',  ( 0.000000000000000, 1.000000000000000, 0.000000000000000 ) ) ;
#922 = DIRECTION ( 'NONE',  ( 0.000000000000000, 0.000000000000000, 1.000000000000000 ) ) ;
#923 = AXIS2_PLACEMENT_3D ( 'NONE', #920, #921, #922 ) ;
#924 = CYLINDRICAL_SURFACE ( 'NONE', #923, 0.05) ;
#925 = ADVANCED_FACE ( 'NONE', ( #919 ), #924, .T. ) ;
#926 = ORIENTED_EDGE ( 'NONE', *, *, #744, .T. ) ;
#927 = ORIENTED_EDGE ( 'NONE', *, *, #674, .T. ) ;
#928 = CARTESIAN_POINT ( 'NONE',  ( 1.200000000000000, 0.050000000000000, 0.850000000000000 ) ) ;
#929 = DIRECTION ( 'NONE',  ( -1.000000000000000, 0.000000000000000, 0.000000000000000 ) ) ;
#930 = DIRECTION ( 'NONE',  ( 0.000000000000000, 0.000000000000000, 1.000000000000000 ) ) ;
#931 = AXIS2_PLACEMENT_3D ( 'NONE', #928, #929, #930 ) ;
#932 = CIRCLE ( 'NONE', #931, 0.05) ;
#933 = EDGE_CURVE ( 'NONE', #659, #541, #932, .T. ) ;
#934 = ORIENTED_EDGE ( 'NONE', *, *, #933, .T. ) ;
#935 = ORIENTED_EDGE ( 'NONE', *, *, #568, .T. ) ;
#936 = EDGE_LOOP ( 'NONE', ( #926, #927, #934, #935 ) ) ;
#937 = FACE_OUTER_BOUND ( 'NONE', #936, .T. ) ;
#938 = CARTESIAN_POINT ( 'NONE',  ( 1.250000000000000, 0.050000000000000, 0.850000000000000 ) ) ;
#939 = DIRECTION ( 'NONE',  ( -1.000000000000000, 0.000000000000000, 0.000000000000000 ) ) ;
#940 = DIRECTION ( 'NONE',  ( 0.000000000000000, 0.000000000000000, -1.000000000000000 ) ) ;
#941 = AXIS2_PLACEMENT_3D ( 'NONE', #938, #939, #940 ) ;
#942 = CYLINDRICAL_SURFACE ( 'NONE', #941, 0.05) ;
#943 = ADVANCED_FACE ( 'NONE', ( #937 ), #942, .T. ) ;
#944 = ORIENTED_EDGE ( 'NONE', *, *, #897, .F. ) ;
#945 = CARTESIAN_POINT ( 'NONE',  ( 1.200000000000000, 0.050000000000000, -0.850000000000000 ) ) ;
#946 = DIRECTION ( 'NONE',  ( 0.000000000000000, 0.000000000000000, -1.000000000000000 ) ) ;
#947 = DIRECTION ( 'NONE',  ( 1.000000000000000, 0.000000000000000, 0.000000000000000 ) ) ;
#948 = AXIS2_PLACEMENT_3D ( 'NONE', #945, #946, #947 ) ;
#949 = CIRCLE ( 'NONE', #948, 0.05) ;
#950 = EDGE_CURVE ( 'NONE', #701, #661, #949, .T. ) ;
#951 = ORIENTED_EDGE ( 'NONE', *, *, #950, .T. ) ;
#952 = ORIENTED_EDGE ( 'NONE', *, *, #879, .F. ) ;
#953 = EDGE_LOOP ( 'NONE', ( #944, #951, #952 ) ) ;
#954 = FACE_OUTER_BOUND ( 'NONE', #953, .T. ) ;
#955 = CARTESIAN_POINT ( 'NONE',  ( 1.200000000000000, 0.050000000000000, -0.850000000000000 ) ) ;
#956 = DIRECTION ( 'NONE',  ( 0.000000000000000, -1.000000000000000, 0.000000000000000 ) ) ;
#957 = DIRECTION ( 'NONE',  ( -1.000000000000000, 0.000000000000000, 0.000000000000000 ) ) ;
#958 = AXIS2_PLACEMENT_3D ( 'NONE', #955, #956, #957 ) ;
#959 = SPHERICAL_SURFACE ( 'NONE', #958, 0.05) ;
#960 = ADVANCED_FACE ( 'NONE', ( #954 ), #959, .T. ) ;
#961 = ORIENTED_EDGE ( 'NONE', *, *, #933, .F. ) ;
#962 = CARTESIAN_POINT ( 'NONE',  ( 1.200000000000000, 0.050000000000000, 0.850000000000000 ) ) ;
#963 = DIRECTION ( 'NONE',  ( 0.000000000000000, 0.000000000000000, 1.000000000000000 ) ) ;
#964 = DIRECTION ( 'NONE',  ( -1.000000000000000, 0.000000000000000, 0.000000000000000 ) ) ;
#965 = AXIS2_PLACEMENT_3D ( 'NONE', #962, #963, #964 ) ;
#966 = CIRCLE ( 'NONE', #965, 0.05) ;
#967 = EDGE_CURVE ( 'NONE', #659, #717, #966, .T. ) ;
#968 = ORIENTED_EDGE ( 'NONE', *, *, #967, .T. ) ;
#969 = ORIENTED_EDGE ( 'NONE', *, *, #915, .F. ) ;
#970 = EDGE_LOOP ( 'NONE', ( #961, #968, #969 ) ) ;
#971 = FACE_OUTER_BOUND ( 'NONE', #970, .T. ) ;
#972 = CARTESIAN_POINT ( 'NONE',  ( 1.200000000000000, 0.050000000000000, 0.850000000000000 ) ) ;
#973 = DIRECTION ( 'NONE',  ( 0.000000000000000, -1.000000000000000, 0.000000000000000 ) ) ;
#974 = DIRECTION ( 'NONE',  ( -1.000000000000000, 0.000000000000000, 0.000000000000000 ) ) ;
#975 = AXIS2_PLACEMENT_3D ( 'NONE', #972, #973, #974 ) ;
#976 = SPHERICAL_SURFACE ( 'NONE', #975, 0.05) ;
#977 = ADVANCED_FACE ( 'NONE', ( #971 ), #976, .T. ) ;
#978 = ORIENTED_EDGE ( 'NONE', *, *, #950, .F. ) ;
#979 = ORIENTED_EDGE ( 'NONE', *, *, #728, .T. ) ;
#980 = ORIENTED_EDGE ( 'NONE', *, *, #967, .F. ) ;
#981 = ORIENTED_EDGE ( 'NONE', *, *, #666, .T. ) ;
#982 = EDGE_LOOP ( 'NONE', ( #978, #979, #980, #981 ) ) ;
#983 = FACE_OUTER_BOUND ( 'NONE', #982, .T. ) ;
#984 = CARTESIAN_POINT ( 'NONE',  ( 1.200000000000000, 0.050000000000000, 0.000000000000000 ) ) ;
#985 = DIRECTION ( 'NONE',  ( 0.000000000000000, 0.000000000000000, 1.000000000000000 ) ) ;
#986 = DIRECTION ( 'NONE',  ( -1.000000000000000, 0.000000000000000, 0.000000000000000 ) ) ;
#987 = AXIS2_PLACEMENT_3D ( 'NONE', #984, #985, #986 ) ;
#988 = CYLINDRICAL_SURFACE ( 'NONE', #987, 0.05) ;
#989 = ADVANCED_FACE ( 'NONE', ( #983 ), #988, .T. ) ;
#990 = CLOSED_SHELL ( 'NONE', ( #577, #617, #657, #697, #737, #777, #795, #819, #837, #854, #871, #889, #907, #925, #943, #960, #977, #989 ) ) ;
#991 = MANIFOLD_SOLID_BREP ( 'Pin2', #990 ) ;
#992 = STYLED_ITEM ( 'NONE', ( #537 ), #991 ) ;
#993 = PRESENTATION_LAYER_ASSIGNMENT (  '',  '', ( #992 ) ) ;
#994 = MECHANICAL_DESIGN_GEOMETRIC_PRESENTATION_REPRESENTATION (  '', ( #992 ), #475 ) ;
#995 = STYLED_ITEM ( 'NONE', ( #537 ), #577 ) ;
#996 = PRESENTATION_LAYER_ASSIGNMENT (  '',  '', ( #995 ) ) ;
#997 = MECHANICAL_DESIGN_GEOMETRIC_PRESENTATION_REPRESENTATION (  '', ( #995 ), #475 ) ;
#998 = STYLED_ITEM ( 'NONE', ( #537 ), #617 ) ;
#999 = PRESENTATION_LAYER_ASSIGNMENT (  '',  '', ( #998 ) ) ;
#1000 = MECHANICAL_DESIGN_GEOMETRIC_PRESENTATION_REPRESENTATION (  '', ( #998 ), #475 ) ;
#1001 = STYLED_ITEM ( 'NONE', ( #537 ), #657 ) ;
#1002 = PRESENTATION_LAYER_ASSIGNMENT (  '',  '', ( #1001 ) ) ;
#1003 = MECHANICAL_DESIGN_GEOMETRIC_PRESENTATION_REPRESENTATION (  '', ( #1001 ), #475 ) ;
#1004 = STYLED_ITEM ( 'NONE', ( #537 ), #697 ) ;
#1005 = PRESENTATION_LAYER_ASSIGNMENT (  '',  '', ( #1004 ) ) ;
#1006 = MECHANICAL_DESIGN_GEOMETRIC_PRESENTATION_REPRESENTATION (  '', ( #1004 ), #475 ) ;
#1007 = STYLED_ITEM ( 'NONE', ( #537 ), #737 ) ;
#1008 = PRESENTATION_LAYER_ASSIGNMENT (  '',  '', ( #1007 ) ) ;
#1009 = MECHANICAL_DESIGN_GEOMETRIC_PRESENTATION_REPRESENTATION (  '', ( #1007 ), #475 ) ;
#1010 = STYLED_ITEM ( 'NONE', ( #537 ), #777 ) ;
#1011 = PRESENTATION_LAYER_ASSIGNMENT (  '',  '', ( #1010 ) ) ;
#1012 = MECHANICAL_DESIGN_GEOMETRIC_PRESENTATION_REPRESENTATION (  '', ( #1010 ), #475 ) ;
#1013 = STYLED_ITEM ( 'NONE', ( #537 ), #795 ) ;
#1014 = PRESENTATION_LAYER_ASSIGNMENT (  '',  '', ( #1013 ) ) ;
#1015 = MECHANICAL_DESIGN_GEOMETRIC_PRESENTATION_REPRESENTATION (  '', ( #1013 ), #475 ) ;
#1016 = STYLED_ITEM ( 'NONE', ( #537 ), #819 ) ;
#1017 = PRESENTATION_LAYER_ASSIGNMENT (  '',  '', ( #1016 ) ) ;
#1018 = MECHANICAL_DESIGN_GEOMETRIC_PRESENTATION_REPRESENTATION (  '', ( #1016 ), #475 ) ;
#1019 = STYLED_ITEM ( 'NONE', ( #537 ), #837 ) ;
#1020 = PRESENTATION_LAYER_ASSIGNMENT (  '',  '', ( #1019 ) ) ;
#1021 = MECHANICAL_DESIGN_GEOMETRIC_PRESENTATION_REPRESENTATION (  '', ( #1019 ), #475 ) ;
#1022 = STYLED_ITEM ( 'NONE', ( #537 ), #854 ) ;
#1023 = PRESENTATION_LAYER_ASSIGNMENT (  '',  '', ( #1022 ) ) ;
#1024 = MECHANICAL_DESIGN_GEOMETRIC_PRESENTATION_REPRESENTATION (  '', ( #1022 ), #475 ) ;
#1025 = STYLED_ITEM ( 'NONE', ( #537 ), #871 ) ;
#1026 = PRESENTATION_LAYER_ASSIGNMENT (  '',  '', ( #1025 ) ) ;
#1027 = MECHANICAL_DESIGN_GEOMETRIC_PRESENTATION_REPRESENTATION (  '', ( #1025 ), #475 ) ;
#1028 = STYLED_ITEM ( 'NONE', ( #537 ), #889 ) ;
#1029 = PRESENTATION_LAYER_ASSIGNMENT (  '',  '', ( #1028 ) ) ;
#1030 = MECHANICAL_DESIGN_GEOMETRIC_PRESENTATION_REPRESENTATION (  '', ( #1028 ), #475 ) ;
#1031 = STYLED_ITEM ( 'NONE', ( #537 ), #907 ) ;
#1032 = PRESENTATION_LAYER_ASSIGNMENT (  '',  '', ( #1031 ) ) ;
#1033 = MECHANICAL_DESIGN_GEOMETRIC_PRESENTATION_REPRESENTATION (  '', ( #1031 ), #475 ) ;
#1034 = STYLED_ITEM ( 'NONE', ( #537 ), #925 ) ;
#1035 = PRESENTATION_LAYER_ASSIGNMENT (  '',  '', ( #1034 ) ) ;
#1036 = MECHANICAL_DESIGN_GEOMETRIC_PRESENTATION_REPRESENTATION (  '', ( #1034 ), #475 ) ;
#1037 = STYLED_ITEM ( 'NONE', ( #537 ), #943 ) ;
#1038 = PRESENTATION_LAYER_ASSIGNMENT (  '',  '', ( #1037 ) ) ;
#1039 = MECHANICAL_DESIGN_GEOMETRIC_PRESENTATION_REPRESENTATION (  '', ( #1037 ), #475 ) ;
#1040 = STYLED_ITEM ( 'NONE', ( #537 ), #960 ) ;
#1041 = PRESENTATION_LAYER_ASSIGNMENT (  '',  '', ( #1040 ) ) ;
#1042 = MECHANICAL_DESIGN_GEOMETRIC_PRESENTATION_REPRESENTATION (  '', ( #1040 ), #475 ) ;
#1043 = STYLED_ITEM ( 'NONE', ( #537 ), #977 ) ;
#1044 = PRESENTATION_LAYER_ASSIGNMENT (  '',  '', ( #1043 ) ) ;
#1045 = MECHANICAL_DESIGN_GEOMETRIC_PRESENTATION_REPRESENTATION (  '', ( #1043 ), #475 ) ;
#1046 = STYLED_ITEM ( 'NONE', ( #537 ), #989 ) ;
#1047 = PRESENTATION_LAYER_ASSIGNMENT (  '',  '', ( #1046 ) ) ;
#1048 = MECHANICAL_DESIGN_GEOMETRIC_PRESENTATION_REPRESENTATION (  '', ( #1046 ), #475 ) ;
#1049 = COLOUR_RGB ( '',0.00000000000000, 0.00000000000000, 1.00000000000000 ) ;
#1050 = FILL_AREA_STYLE_COLOUR ( '', #1049 ) ;
#1051 = FILL_AREA_STYLE ('',( #1050 ) ) ;
#1052 = SURFACE_STYLE_FILL_AREA ( #1051 ) ;
#1053 = SURFACE_SIDE_STYLE ( '',( #1052 ) ) ;
#1054 = SURFACE_STYLE_USAGE ( .BOTH. , #1053 ) ;
#1055 = PRESENTATION_STYLE_ASSIGNMENT (( #1054 ) ) ;
#1056 = CARTESIAN_POINT ( 'NONE',  ( 0.750000000000000, 1.900000000000000, -0.850000000000000 ) ) ;
#1057 = VERTEX_POINT ( 'NONE', #1056 ) ;
#1058 = CARTESIAN_POINT ( 'NONE',  ( 0.750000000000000, 0.100000000000000, -0.850000000000000 ) ) ;
#1059 = VERTEX_POINT ( 'NONE', #1058 ) ;
#1060 = CARTESIAN_POINT ( 'NONE',  ( 0.750000000000000, 1.950000000000000, -0.850000000000000 ) ) ;
#1061 = DIRECTION ( 'NONE',  ( 0.000000000000000, -1.000000000000000, 0.000000000000000 ) ) ;
#1062 = VECTOR ( 'NONE', #1061, 1000.000000000000000 ) ;
#1063 = LINE ( 'NONE', #1060, #1062 ) ;
#1064 = EDGE_CURVE ( 'NONE', #1057, #1059, #1063, .T. ) ;
#1065 = ORIENTED_EDGE ( 'NONE', *, *, #1064, .F. ) ;
#1066 = CARTESIAN_POINT ( 'NONE',  ( 0.750000000000000, 1.950000000000000, -0.800000000000000 ) ) ;
#1067 = VERTEX_POINT ( 'NONE', #1066 ) ;
#1068 = CARTESIAN_POINT ( 'NONE',  ( 0.750000000000000, 1.900000000000000, -0.800000000000000 ) ) ;
#1069 = DIRECTION ( 'NONE',  ( 1.000000000000000, 0.000000000000000, 0.000000000000000 ) ) ;
#1070 = DIRECTION ( 'NONE',  ( 0.000000000000000, 0.000000000000000, 1.000000000000000 ) ) ;
#1071 = AXIS2_PLACEMENT_3D ( 'NONE', #1068, #1069, #1070 ) ;
#1072 = CIRCLE ( 'NONE', #1071, 0.05) ;
#1073 = EDGE_CURVE ( 'NONE', #1057, #1067, #1072, .T. ) ;
#1074 = ORIENTED_EDGE ( 'NONE', *, *, #1073, .T. ) ;
#1075 = CARTESIAN_POINT ( 'NONE',  ( 0.750000000000000, 1.950000000000000, 0.800000000000000 ) ) ;
#1076 = VERTEX_POINT ( 'NONE', #1075 ) ;
#1077 = CARTESIAN_POINT ( 'NONE',  ( 0.750000000000000, 1.950000000000000, 0.850000000000000 ) ) ;
#1078 = DIRECTION ( 'NONE',  ( 0.000000000000000, 0.000000000000000, -1.000000000000000 ) ) ;
#1079 = VECTOR ( 'NONE', #1078, 1000.000000000000000 ) ;
#1080 = LINE ( 'NONE', #1077, #1079 ) ;
#1081 = EDGE_CURVE ( 'NONE', #1076, #1067, #1080, .T. ) ;
#1082 = ORIENTED_EDGE ( 'NONE', *, *, #1081, .F. ) ;
#1083 = CARTESIAN_POINT ( 'NONE',  ( 0.750000000000000, 1.900000000000000, 0.850000000000000 ) ) ;
#1084 = VERTEX_POINT ( 'NONE', #1083 ) ;
#1085 = CARTESIAN_POINT ( 'NONE',  ( 0.750000000000000, 1.900000000000000, 0.800000000000000 ) ) ;
#1086 = DIRECTION ( 'NONE',  ( 1.000000000000000, 0.000000000000000, 0.000000000000000 ) ) ;
#1087 = DIRECTION ( 'NONE',  ( 0.000000000000000, 0.000000000000000, 1.000000000000000 ) ) ;
#1088 = AXIS2_PLACEMENT_3D ( 'NONE', #1085, #1086, #1087 ) ;
#1089 = CIRCLE ( 'NONE', #1088, 0.05) ;
#1090 = EDGE_CURVE ( 'NONE', #1076, #1084, #1089, .T. ) ;
#1091 = ORIENTED_EDGE ( 'NONE', *, *, #1090, .T. ) ;
#1092 = CARTESIAN_POINT ( 'NONE',  ( 0.750000000000000, 0.100000000000000, 0.850000000000000 ) ) ;
#1093 = VERTEX_POINT ( 'NONE', #1092 ) ;
#1094 = CARTESIAN_POINT ( 'NONE',  ( 0.750000000000000, 1.950000000000000, 0.850000000000000 ) ) ;
#1095 = DIRECTION ( 'NONE',  ( 0.000000000000000, -1.000000000000000, 0.000000000000000 ) ) ;
#1096 = VECTOR ( 'NONE', #1095, 1000.000000000000000 ) ;
#1097 = LINE ( 'NONE', #1094, #1096 ) ;
#1098 = EDGE_CURVE ( 'NONE', #1084, #1093, #1097, .T. ) ;
#1099 = ORIENTED_EDGE ( 'NONE', *, *, #1098, .T. ) ;
#1100 = CARTESIAN_POINT ( 'NONE',  ( 0.750000000000000, 0.050000000000000, 0.800000000000000 ) ) ;
#1101 = VERTEX_POINT ( 'NONE', #1100 ) ;
#1102 = CARTESIAN_POINT ( 'NONE',  ( 0.750000000000000, 0.100000000000000, 0.800000000000000 ) ) ;
#1103 = DIRECTION ( 'NONE',  ( 1.000000000000000, 0.000000000000000, 0.000000000000000 ) ) ;
#1104 = DIRECTION ( 'NONE',  ( 0.000000000000000, 0.000000000000000, 1.000000000000000 ) ) ;
#1105 = AXIS2_PLACEMENT_3D ( 'NONE', #1102, #1103, #1104 ) ;
#1106 = CIRCLE ( 'NONE', #1105, 0.05) ;
#1107 = EDGE_CURVE ( 'NONE', #1093, #1101, #1106, .T. ) ;
#1108 = ORIENTED_EDGE ( 'NONE', *, *, #1107, .T. ) ;
#1109 = CARTESIAN_POINT ( 'NONE',  ( 0.750000000000000, 0.050000000000000, -0.800000000000000 ) ) ;
#1110 = VERTEX_POINT ( 'NONE', #1109 ) ;
#1111 = CARTESIAN_POINT ( 'NONE',  ( 0.750000000000000, 0.050000000000000, 0.850000000000000 ) ) ;
#1112 = DIRECTION ( 'NONE',  ( 0.000000000000000, 0.000000000000000, -1.000000000000000 ) ) ;
#1113 = VECTOR ( 'NONE', #1112, 1000.000000000000000 ) ;
#1114 = LINE ( 'NONE', #1111, #1113 ) ;
#1115 = EDGE_CURVE ( 'NONE', #1101, #1110, #1114, .T. ) ;
#1116 = ORIENTED_EDGE ( 'NONE', *, *, #1115, .T. ) ;
#1117 = CARTESIAN_POINT ( 'NONE',  ( 0.750000000000000, 0.100000000000000, -0.800000000000000 ) ) ;
#1118 = DIRECTION ( 'NONE',  ( 1.000000000000000, 0.000000000000000, 0.000000000000000 ) ) ;
#1119 = DIRECTION ( 'NONE',  ( 0.000000000000000, 0.000000000000000, 1.000000000000000 ) ) ;
#1120 = AXIS2_PLACEMENT_3D ( 'NONE', #1117, #1118, #1119 ) ;
#1121 = CIRCLE ( 'NONE', #1120, 0.05) ;
#1122 = EDGE_CURVE ( 'NONE', #1110, #1059, #1121, .T. ) ;
#1123 = ORIENTED_EDGE ( 'NONE', *, *, #1122, .T. ) ;
#1124 = EDGE_LOOP ( 'NONE', ( #1065, #1074, #1082, #1091, #1099, #1108, #1116, #1123 ) ) ;
#1125 = FACE_OUTER_BOUND ( 'NONE', #1124, .T. ) ;
#1126 = CARTESIAN_POINT ( 'NONE',  ( 0.750000000000000, 1.950000000000000, 0.850000000000000 ) ) ;
#1127 = DIRECTION ( 'NONE',  ( -1.000000000000000, 0.000000000000000, 0.000000000000000 ) ) ;
#1128 = DIRECTION ( 'NONE',  ( 0.000000000000000, 0.000000000000000, 1.000000000000000 ) ) ;
#1129 = AXIS2_PLACEMENT_3D ( 'NONE', #1126, #1127, #1128 ) ;
#1130 = PLANE ( 'NONE', #1129 ) ;
#1131 = ADVANCED_FACE ( 'NONE', ( #1125 ), #1130, .F. ) ;
#1132 = CARTESIAN_POINT ( 'NONE',  ( -0.750000000000000, 1.900000000000000, -0.850000000000000 ) ) ;
#1133 = VERTEX_POINT ( 'NONE', #1132 ) ;
#1134 = CARTESIAN_POINT ( 'NONE',  ( -0.750000000000000, 0.100000000000000, -0.850000000000000 ) ) ;
#1135 = VERTEX_POINT ( 'NONE', #1134 ) ;
#1136 = CARTESIAN_POINT ( 'NONE',  ( -0.750000000000000, 1.950000000000000, -0.850000000000000 ) ) ;
#1137 = DIRECTION ( 'NONE',  ( 0.000000000000000, -1.000000000000000, 0.000000000000000 ) ) ;
#1138 = VECTOR ( 'NONE', #1137, 1000.000000000000000 ) ;
#1139 = LINE ( 'NONE', #1136, #1138 ) ;
#1140 = EDGE_CURVE ( 'NONE', #1133, #1135, #1139, .T. ) ;
#1141 = ORIENTED_EDGE ( 'NONE', *, *, #1140, .F. ) ;
#1142 = CARTESIAN_POINT ( 'NONE',  ( -0.750000000000000, 1.900000000000000, -0.850000000000000 ) ) ;
#1143 = DIRECTION ( 'NONE',  ( 1.000000000000000, 0.000000000000000, 0.000000000000000 ) ) ;
#1144 = VECTOR ( 'NONE', #1143, 1000.000000000000000 ) ;
#1145 = LINE ( 'NONE', #1142, #1144 ) ;
#1146 = EDGE_CURVE ( 'NONE', #1133, #1057, #1145, .T. ) ;
#1147 = ORIENTED_EDGE ( 'NONE', *, *, #1146, .T. ) ;
#1148 = ORIENTED_EDGE ( 'NONE', *, *, #1064, .T. ) ;
#1149 = CARTESIAN_POINT ( 'NONE',  ( -0.750000000000000, 0.100000000000000, -0.850000000000000 ) ) ;
#1150 = DIRECTION ( 'NONE',  ( -1.000000000000000, 0.000000000000000, 0.000000000000000 ) ) ;
#1151 = VECTOR ( 'NONE', #1150, 1000.000000000000000 ) ;
#1152 = LINE ( 'NONE', #1149, #1151 ) ;
#1153 = EDGE_CURVE ( 'NONE', #1059, #1135, #1152, .T. ) ;
#1154 = ORIENTED_EDGE ( 'NONE', *, *, #1153, .T. ) ;
#1155 = EDGE_LOOP ( 'NONE', ( #1141, #1147, #1148, #1154 ) ) ;
#1156 = FACE_OUTER_BOUND ( 'NONE', #1155, .T. ) ;
#1157 = CARTESIAN_POINT ( 'NONE',  ( -0.750000000000000, 1.950000000000000, -0.850000000000000 ) ) ;
#1158 = DIRECTION ( 'NONE',  ( 0.000000000000000, 0.000000000000000, 1.000000000000000 ) ) ;
#1159 = DIRECTION ( 'NONE',  ( 1.000000000000000, 0.000000000000000, 0.000000000000000 ) ) ;
#1160 = AXIS2_PLACEMENT_3D ( 'NONE', #1157, #1158, #1159 ) ;
#1161 = PLANE ( 'NONE', #1160 ) ;
#1162 = ADVANCED_FACE ( 'NONE', ( #1156 ), #1161, .F. ) ;
#1163 = CARTESIAN_POINT ( 'NONE',  ( -0.750000000000000, 1.950000000000000, -0.800000000000000 ) ) ;
#1164 = VERTEX_POINT ( 'NONE', #1163 ) ;
#1165 = CARTESIAN_POINT ( 'NONE',  ( -0.750000000000000, 1.950000000000000, 0.800000000000000 ) ) ;
#1166 = VERTEX_POINT ( 'NONE', #1165 ) ;
#1167 = CARTESIAN_POINT ( 'NONE',  ( -0.750000000000000, 1.950000000000000, 0.850000000000000 ) ) ;
#1168 = DIRECTION ( 'NONE',  ( 0.000000000000000, 0.000000000000000, 1.000000000000000 ) ) ;
#1169 = VECTOR ( 'NONE', #1168, 1000.000000000000000 ) ;
#1170 = LINE ( 'NONE', #1167, #1169 ) ;
#1171 = EDGE_CURVE ( 'NONE', #1164, #1166, #1170, .T. ) ;
#1172 = ORIENTED_EDGE ( 'NONE', *, *, #1171, .F. ) ;
#1173 = CARTESIAN_POINT ( 'NONE',  ( -0.750000000000000, 1.900000000000000, -0.800000000000000 ) ) ;
#1174 = DIRECTION ( 'NONE',  ( -1.000000000000000, 0.000000000000000, 0.000000000000000 ) ) ;
#1175 = DIRECTION ( 'NONE',  ( 0.000000000000000, 0.000000000000000, -1.000000000000000 ) ) ;
#1176 = AXIS2_PLACEMENT_3D ( 'NONE', #1173, #1174, #1175 ) ;
#1177 = CIRCLE ( 'NONE', #1176, 0.05) ;
#1178 = EDGE_CURVE ( 'NONE', #1164, #1133, #1177, .T. ) ;
#1179 = ORIENTED_EDGE ( 'NONE', *, *, #1178, .T. ) ;
#1180 = ORIENTED_EDGE ( 'NONE', *, *, #1140, .T. ) ;
#1181 = CARTESIAN_POINT ( 'NONE',  ( -0.750000000000000, 0.050000000000000, -0.800000000000000 ) ) ;
#1182 = VERTEX_POINT ( 'NONE', #1181 ) ;
#1183 = CARTESIAN_POINT ( 'NONE',  ( -0.750000000000000, 0.100000000000000, -0.800000000000000 ) ) ;
#1184 = DIRECTION ( 'NONE',  ( -1.000000000000000, 0.000000000000000, 0.000000000000000 ) ) ;
#1185 = DIRECTION ( 'NONE',  ( 0.000000000000000, 0.000000000000000, -1.000000000000000 ) ) ;
#1186 = AXIS2_PLACEMENT_3D ( 'NONE', #1183, #1184, #1185 ) ;
#1187 = CIRCLE ( 'NONE', #1186, 0.05) ;
#1188 = EDGE_CURVE ( 'NONE', #1135, #1182, #1187, .T. ) ;
#1189 = ORIENTED_EDGE ( 'NONE', *, *, #1188, .T. ) ;
#1190 = CARTESIAN_POINT ( 'NONE',  ( -0.750000000000000, 0.050000000000000, 0.800000000000000 ) ) ;
#1191 = VERTEX_POINT ( 'NONE', #1190 ) ;
#1192 = CARTESIAN_POINT ( 'NONE',  ( -0.750000000000000, 0.050000000000000, 0.850000000000000 ) ) ;
#1193 = DIRECTION ( 'NONE',  ( 0.000000000000000, 0.000000000000000, 1.000000000000000 ) ) ;
#1194 = VECTOR ( 'NONE', #1193, 1000.000000000000000 ) ;
#1195 = LINE ( 'NONE', #1192, #1194 ) ;
#1196 = EDGE_CURVE ( 'NONE', #1182, #1191, #1195, .T. ) ;
#1197 = ORIENTED_EDGE ( 'NONE', *, *, #1196, .T. ) ;
#1198 = CARTESIAN_POINT ( 'NONE',  ( -0.750000000000000, 0.100000000000000, 0.850000000000000 ) ) ;
#1199 = VERTEX_POINT ( 'NONE', #1198 ) ;
#1200 = CARTESIAN_POINT ( 'NONE',  ( -0.750000000000000, 0.100000000000000, 0.800000000000000 ) ) ;
#1201 = DIRECTION ( 'NONE',  ( -1.000000000000000, 0.000000000000000, 0.000000000000000 ) ) ;
#1202 = DIRECTION ( 'NONE',  ( 0.000000000000000, 0.000000000000000, -1.000000000000000 ) ) ;
#1203 = AXIS2_PLACEMENT_3D ( 'NONE', #1200, #1201, #1202 ) ;
#1204 = CIRCLE ( 'NONE', #1203, 0.05) ;
#1205 = EDGE_CURVE ( 'NONE', #1191, #1199, #1204, .T. ) ;
#1206 = ORIENTED_EDGE ( 'NONE', *, *, #1205, .T. ) ;
#1207 = CARTESIAN_POINT ( 'NONE',  ( -0.750000000000000, 1.900000000000000, 0.850000000000000 ) ) ;
#1208 = VERTEX_POINT ( 'NONE', #1207 ) ;
#1209 = CARTESIAN_POINT ( 'NONE',  ( -0.750000000000000, 1.950000000000000, 0.850000000000000 ) ) ;
#1210 = DIRECTION ( 'NONE',  ( 0.000000000000000, -1.000000000000000, 0.000000000000000 ) ) ;
#1211 = VECTOR ( 'NONE', #1210, 1000.000000000000000 ) ;
#1212 = LINE ( 'NONE', #1209, #1211 ) ;
#1213 = EDGE_CURVE ( 'NONE', #1208, #1199, #1212, .T. ) ;
#1214 = ORIENTED_EDGE ( 'NONE', *, *, #1213, .F. ) ;
#1215 = CARTESIAN_POINT ( 'NONE',  ( -0.750000000000000, 1.900000000000000, 0.800000000000000 ) ) ;
#1216 = DIRECTION ( 'NONE',  ( -1.000000000000000, 0.000000000000000, 0.000000000000000 ) ) ;
#1217 = DIRECTION ( 'NONE',  ( 0.000000000000000, 0.000000000000000, -1.000000000000000 ) ) ;
#1218 = AXIS2_PLACEMENT_3D ( 'NONE', #1215, #1216, #1217 ) ;
#1219 = CIRCLE ( 'NONE', #1218, 0.05) ;
#1220 = EDGE_CURVE ( 'NONE', #1208, #1166, #1219, .T. ) ;
#1221 = ORIENTED_EDGE ( 'NONE', *, *, #1220, .T. ) ;
#1222 = EDGE_LOOP ( 'NONE', ( #1172, #1179, #1180, #1189, #1197, #1206, #1214, #1221 ) ) ;
#1223 = FACE_OUTER_BOUND ( 'NONE', #1222, .T. ) ;
#1224 = CARTESIAN_POINT ( 'NONE',  ( -0.750000000000000, 1.950000000000000, 0.850000000000000 ) ) ;
#1225 = DIRECTION ( 'NONE',  ( 1.000000000000000, 0.000000000000000, 0.000000000000000 ) ) ;
#1226 = DIRECTION ( 'NONE',  ( 0.000000000000000, 0.000000000000000, -1.000000000000000 ) ) ;
#1227 = AXIS2_PLACEMENT_3D ( 'NONE', #1224, #1225, #1226 ) ;
#1228 = PLANE ( 'NONE', #1227 ) ;
#1229 = ADVANCED_FACE ( 'NONE', ( #1223 ), #1228, .F. ) ;
#1230 = ORIENTED_EDGE ( 'NONE', *, *, #1213, .T. ) ;
#1231 = CARTESIAN_POINT ( 'NONE',  ( 0.750000000000000, 0.100000000000000, 0.850000000000000 ) ) ;
#1232 = DIRECTION ( 'NONE',  ( 1.000000000000000, 0.000000000000000, 0.000000000000000 ) ) ;
#1233 = VECTOR ( 'NONE', #1232, 1000.000000000000000 ) ;
#1234 = LINE ( 'NONE', #1231, #1233 ) ;
#1235 = EDGE_CURVE ( 'NONE', #1199, #1093, #1234, .T. ) ;
#1236 = ORIENTED_EDGE ( 'NONE', *, *, #1235, .T. ) ;
#1237 = ORIENTED_EDGE ( 'NONE', *, *, #1098, .F. ) ;
#1238 = CARTESIAN_POINT ( 'NONE',  ( -0.750000000000000, 1.900000000000000, 0.850000000000000 ) ) ;
#1239 = DIRECTION ( 'NONE',  ( -1.000000000000000, 0.000000000000000, 0.000000000000000 ) ) ;
#1240 = VECTOR ( 'NONE', #1239, 1000.000000000000000 ) ;
#1241 = LINE ( 'NONE', #1238, #1240 ) ;
#1242 = EDGE_CURVE ( 'NONE', #1084, #1208, #1241, .T. ) ;
#1243 = ORIENTED_EDGE ( 'NONE', *, *, #1242, .T. ) ;
#1244 = EDGE_LOOP ( 'NONE', ( #1230, #1236, #1237, #1243 ) ) ;
#1245 = FACE_OUTER_BOUND ( 'NONE', #1244, .T. ) ;
#1246 = CARTESIAN_POINT ( 'NONE',  ( -0.750000000000000, 1.950000000000000, 0.850000000000000 ) ) ;
#1247 = DIRECTION ( 'NONE',  ( 0.000000000000000, 0.000000000000000, -1.000000000000000 ) ) ;
#1248 = DIRECTION ( 'NONE',  ( -1.000000000000000, 0.000000000000000, 0.000000000000000 ) ) ;
#1249 = AXIS2_PLACEMENT_3D ( 'NONE', #1246, #1247, #1248 ) ;
#1250 = PLANE ( 'NONE', #1249 ) ;
#1251 = ADVANCED_FACE ( 'NONE', ( #1245 ), #1250, .F. ) ;
#1252 = ORIENTED_EDGE ( 'NONE', *, *, #1081, .T. ) ;
#1253 = CARTESIAN_POINT ( 'NONE',  ( 0.000000000000000, 1.950000000000000, -0.800000000000000 ) ) ;
#1254 = DIRECTION ( 'NONE',  ( -1.000000000000000, 0.000000000000000, 0.000000000000000 ) ) ;
#1255 = VECTOR ( 'NONE', #1254, 1000.000000000000000 ) ;
#1256 = LINE ( 'NONE', #1253, #1255 ) ;
#1257 = EDGE_CURVE ( 'NONE', #1067, #1164, #1256, .T. ) ;
#1258 = ORIENTED_EDGE ( 'NONE', *, *, #1257, .T. ) ;
#1259 = ORIENTED_EDGE ( 'NONE', *, *, #1171, .T. ) ;
#1260 = CARTESIAN_POINT ( 'NONE',  ( 0.000000000000000, 1.950000000000000, 0.800000000000000 ) ) ;
#1261 = DIRECTION ( 'NONE',  ( 1.000000000000000, 0.000000000000000, 0.000000000000000 ) ) ;
#1262 = VECTOR ( 'NONE', #1261, 1000.000000000000000 ) ;
#1263 = LINE ( 'NONE', #1260, #1262 ) ;
#1264 = EDGE_CURVE ( 'NONE', #1166, #1076, #1263, .T. ) ;
#1265 = ORIENTED_EDGE ( 'NONE', *, *, #1264, .T. ) ;
#1266 = EDGE_LOOP ( 'NONE', ( #1252, #1258, #1259, #1265 ) ) ;
#1267 = FACE_OUTER_BOUND ( 'NONE', #1266, .T. ) ;
#1268 = CARTESIAN_POINT ( 'NONE',  ( 0.000000000000000, 1.950000000000000, 0.000000000000000 ) ) ;
#1269 = DIRECTION ( 'NONE',  ( 0.000000000000000, -1.000000000000000, 0.000000000000000 ) ) ;
#1270 = DIRECTION ( 'NONE',  ( 0.000000000000000, 0.000000000000000, -1.000000000000000 ) ) ;
#1271 = AXIS2_PLACEMENT_3D ( 'NONE', #1268, #1269, #1270 ) ;
#1272 = PLANE ( 'NONE', #1271 ) ;
#1273 = ADVANCED_FACE ( 'NONE', ( #1267 ), #1272, .F. ) ;
#1274 = ORIENTED_EDGE ( 'NONE', *, *, #1196, .F. ) ;
#1275 = CARTESIAN_POINT ( 'NONE',  ( 0.750000000000000, 0.050000000000000, -0.800000000000000 ) ) ;
#1276 = DIRECTION ( 'NONE',  ( 1.000000000000000, 0.000000000000000, 0.000000000000000 ) ) ;
#1277 = VECTOR ( 'NONE', #1276, 1000.000000000000000 ) ;
#1278 = LINE ( 'NONE', #1275, #1277 ) ;
#1279 = EDGE_CURVE ( 'NONE', #1182, #1110, #1278, .T. ) ;
#1280 = ORIENTED_EDGE ( 'NONE', *, *, #1279, .T. ) ;
#1281 = ORIENTED_EDGE ( 'NONE', *, *, #1115, .F. ) ;
#1282 = CARTESIAN_POINT ( 'NONE',  ( -0.750000000000000, 0.050000000000000, 0.800000000000000 ) ) ;
#1283 = DIRECTION ( 'NONE',  ( -1.000000000000000, 0.000000000000000, 0.000000000000000 ) ) ;
#1284 = VECTOR ( 'NONE', #1283, 1000.000000000000000 ) ;
#1285 = LINE ( 'NONE', #1282, #1284 ) ;
#1286 = EDGE_CURVE ( 'NONE', #1101, #1191, #1285, .T. ) ;
#1287 = ORIENTED_EDGE ( 'NONE', *, *, #1286, .T. ) ;
#1288 = EDGE_LOOP ( 'NONE', ( #1274, #1280, #1281, #1287 ) ) ;
#1289 = FACE_OUTER_BOUND ( 'NONE', #1288, .T. ) ;
#1290 = CARTESIAN_POINT ( 'NONE',  ( 0.000000000000000, 0.050000000000000, 0.000000000000000 ) ) ;
#1291 = DIRECTION ( 'NONE',  ( 0.000000000000000, -1.000000000000000, 0.000000000000000 ) ) ;
#1292 = DIRECTION ( 'NONE',  ( 0.000000000000000, 0.000000000000000, -1.000000000000000 ) ) ;
#1293 = AXIS2_PLACEMENT_3D ( 'NONE', #1290, #1291, #1292 ) ;
#1294 = PLANE ( 'NONE', #1293 ) ;
#1295 = ADVANCED_FACE ( 'NONE', ( #1289 ), #1294, .T. ) ;
#1296 = ORIENTED_EDGE ( 'NONE', *, *, #1073, .F. ) ;
#1297 = ORIENTED_EDGE ( 'NONE', *, *, #1146, .F. ) ;
#1298 = ORIENTED_EDGE ( 'NONE', *, *, #1178, .F. ) ;
#1299 = ORIENTED_EDGE ( 'NONE', *, *, #1257, .F. ) ;
#1300 = EDGE_LOOP ( 'NONE', ( #1296, #1297, #1298, #1299 ) ) ;
#1301 = FACE_OUTER_BOUND ( 'NONE', #1300, .T. ) ;
#1302 = CARTESIAN_POINT ( 'NONE',  ( 0.000000000000000, 1.900000000000000, -0.800000000000000 ) ) ;
#1303 = DIRECTION ( 'NONE',  ( -1.000000000000000, 0.000000000000000, 0.000000000000000 ) ) ;
#1304 = DIRECTION ( 'NONE',  ( 0.000000000000000, 0.000000000000000, 1.000000000000000 ) ) ;
#1305 = AXIS2_PLACEMENT_3D ( 'NONE', #1302, #1303, #1304 ) ;
#1306 = CYLINDRICAL_SURFACE ( 'NONE', #1305, 0.05) ;
#1307 = ADVANCED_FACE ( 'NONE', ( #1301 ), #1306, .T. ) ;
#1308 = ORIENTED_EDGE ( 'NONE', *, *, #1122, .F. ) ;
#1309 = ORIENTED_EDGE ( 'NONE', *, *, #1279, .F. ) ;
#1310 = ORIENTED_EDGE ( 'NONE', *, *, #1188, .F. ) ;
#1311 = ORIENTED_EDGE ( 'NONE', *, *, #1153, .F. ) ;
#1312 = EDGE_LOOP ( 'NONE', ( #1308, #1309, #1310, #1311 ) ) ;
#1313 = FACE_OUTER_BOUND ( 'NONE', #1312, .T. ) ;
#1314 = CARTESIAN_POINT ( 'NONE',  ( -0.750000000000000, 0.100000000000000, -0.800000000000000 ) ) ;
#1315 = DIRECTION ( 'NONE',  ( 1.000000000000000, 0.000000000000000, 0.000000000000000 ) ) ;
#1316 = DIRECTION ( 'NONE',  ( 0.000000000000000, 0.000000000000000, -1.000000000000000 ) ) ;
#1317 = AXIS2_PLACEMENT_3D ( 'NONE', #1314, #1315, #1316 ) ;
#1318 = CYLINDRICAL_SURFACE ( 'NONE', #1317, 0.05) ;
#1319 = ADVANCED_FACE ( 'NONE', ( #1313 ), #1318, .T. ) ;
#1320 = ORIENTED_EDGE ( 'NONE', *, *, #1205, .F. ) ;
#1321 = ORIENTED_EDGE ( 'NONE', *, *, #1286, .F. ) ;
#1322 = ORIENTED_EDGE ( 'NONE', *, *, #1107, .F. ) ;
#1323 = ORIENTED_EDGE ( 'NONE', *, *, #1235, .F. ) ;
#1324 = EDGE_LOOP ( 'NONE', ( #1320, #1321, #1322, #1323 ) ) ;
#1325 = FACE_OUTER_BOUND ( 'NONE', #1324, .T. ) ;
#1326 = CARTESIAN_POINT ( 'NONE',  ( -0.750000000000000, 0.100000000000000, 0.800000000000000 ) ) ;
#1327 = DIRECTION ( 'NONE',  ( -1.000000000000000, 0.000000000000000, 0.000000000000000 ) ) ;
#1328 = DIRECTION ( 'NONE',  ( 0.000000000000000, 0.000000000000000, 1.000000000000000 ) ) ;
#1329 = AXIS2_PLACEMENT_3D ( 'NONE', #1326, #1327, #1328 ) ;
#1330 = CYLINDRICAL_SURFACE ( 'NONE', #1329, 0.05) ;
#1331 = ADVANCED_FACE ( 'NONE', ( #1325 ), #1330, .T. ) ;
#1332 = ORIENTED_EDGE ( 'NONE', *, *, #1220, .F. ) ;
#1333 = ORIENTED_EDGE ( 'NONE', *, *, #1242, .F. ) ;
#1334 = ORIENTED_EDGE ( 'NONE', *, *, #1090, .F. ) ;
#1335 = ORIENTED_EDGE ( 'NONE', *, *, #1264, .F. ) ;
#1336 = EDGE_LOOP ( 'NONE', ( #1332, #1333, #1334, #1335 ) ) ;
#1337 = FACE_OUTER_BOUND ( 'NONE', #1336, .T. ) ;
#1338 = CARTESIAN_POINT ( 'NONE',  ( 0.000000000000000, 1.900000000000000, 0.800000000000000 ) ) ;
#1339 = DIRECTION ( 'NONE',  ( 1.000000000000000, 0.000000000000000, 0.000000000000000 ) ) ;
#1340 = DIRECTION ( 'NONE',  ( 0.000000000000000, 0.000000000000000, -1.000000000000000 ) ) ;
#1341 = AXIS2_PLACEMENT_3D ( 'NONE', #1338, #1339, #1340 ) ;
#1342 = CYLINDRICAL_SURFACE ( 'NONE', #1341, 0.05) ;
#1343 = ADVANCED_FACE ( 'NONE', ( #1337 ), #1342, .T. ) ;
#1344 = CLOSED_SHELL ( 'NONE', ( #1131, #1162, #1229, #1251, #1273, #1295, #1307, #1319, #1331, #1343 ) ) ;
#1345 = MANIFOLD_SOLID_BREP ( 'Chip', #1344 ) ;
#1346 = STYLED_ITEM ( 'NONE', ( #1055 ), #1345 ) ;
#1347 = PRESENTATION_LAYER_ASSIGNMENT (  '',  '', ( #1346 ) ) ;
#1348 = MECHANICAL_DESIGN_GEOMETRIC_PRESENTATION_REPRESENTATION (  '', ( #1346 ), #475 ) ;
#1349 = STYLED_ITEM ( 'NONE', ( #1055 ), #1131 ) ;
#1350 = PRESENTATION_LAYER_ASSIGNMENT (  '',  '', ( #1349 ) ) ;
#1351 = MECHANICAL_DESIGN_GEOMETRIC_PRESENTATION_REPRESENTATION (  '', ( #1349 ), #475 ) ;
#1352 = STYLED_ITEM ( 'NONE', ( #1055 ), #1162 ) ;
#1353 = PRESENTATION_LAYER_ASSIGNMENT (  '',  '', ( #1352 ) ) ;
#1354 = MECHANICAL_DESIGN_GEOMETRIC_PRESENTATION_REPRESENTATION (  '', ( #1352 ), #475 ) ;
#1355 = STYLED_ITEM ( 'NONE', ( #1055 ), #1229 ) ;
#1356 = PRESENTATION_LAYER_ASSIGNMENT (  '',  '', ( #1355 ) ) ;
#1357 = MECHANICAL_DESIGN_GEOMETRIC_PRESENTATION_REPRESENTATION (  '', ( #1355 ), #475 ) ;
#1358 = STYLED_ITEM ( 'NONE', ( #1055 ), #1251 ) ;
#1359 = PRESENTATION_LAYER_ASSIGNMENT (  '',  '', ( #1358 ) ) ;
#1360 = MECHANICAL_DESIGN_GEOMETRIC_PRESENTATION_REPRESENTATION (  '', ( #1358 ), #475 ) ;
#1361 = STYLED_ITEM ( 'NONE', ( #1055 ), #1273 ) ;
#1362 = PRESENTATION_LAYER_ASSIGNMENT (  '',  '', ( #1361 ) ) ;
#1363 = MECHANICAL_DESIGN_GEOMETRIC_PRESENTATION_REPRESENTATION (  '', ( #1361 ), #475 ) ;
#1364 = STYLED_ITEM ( 'NONE', ( #1055 ), #1295 ) ;
#1365 = PRESENTATION_LAYER_ASSIGNMENT (  '',  '', ( #1364 ) ) ;
#1366 = MECHANICAL_DESIGN_GEOMETRIC_PRESENTATION_REPRESENTATION (  '', ( #1364 ), #475 ) ;
#1367 = STYLED_ITEM ( 'NONE', ( #1055 ), #1307 ) ;
#1368 = PRESENTATION_LAYER_ASSIGNMENT (  '',  '', ( #1367 ) ) ;
#1369 = MECHANICAL_DESIGN_GEOMETRIC_PRESENTATION_REPRESENTATION (  '', ( #1367 ), #475 ) ;
#1370 = STYLED_ITEM ( 'NONE', ( #1055 ), #1319 ) ;
#1371 = PRESENTATION_LAYER_ASSIGNMENT (  '',  '', ( #1370 ) ) ;
#1372 = MECHANICAL_DESIGN_GEOMETRIC_PRESENTATION_REPRESENTATION (  '', ( #1370 ), #475 ) ;
#1373 = STYLED_ITEM ( 'NONE', ( #1055 ), #1331 ) ;
#1374 = PRESENTATION_LAYER_ASSIGNMENT (  '',  '', ( #1373 ) ) ;
#1375 = MECHANICAL_DESIGN_GEOMETRIC_PRESENTATION_REPRESENTATION (  '', ( #1373 ), #475 ) ;
#1376 = STYLED_ITEM ( 'NONE', ( #1055 ), #1343 ) ;
#1377 = PRESENTATION_LAYER_ASSIGNMENT (  '',  '', ( #1376 ) ) ;
#1378 = MECHANICAL_DESIGN_GEOMETRIC_PRESENTATION_REPRESENTATION (  '', ( #1376 ), #475 ) ;
#1379 = COLOUR_RGB ( '',0.00000000000000, 0.00000000000000, 1.00000000000000 ) ;
#1380 = FILL_AREA_STYLE_COLOUR ( '', #1379 ) ;
#1381 = FILL_AREA_STYLE ('',( #1380 ) ) ;
#1382 = SURFACE_STYLE_FILL_AREA ( #1381 ) ;
#1383 = SURFACE_SIDE_STYLE ( '',( #1382 ) ) ;
#1384 = SURFACE_STYLE_USAGE ( .BOTH. , #1383 ) ;
#1385 = PRESENTATION_STYLE_ASSIGNMENT (( #1384 ) ) ;
#1386 = CARTESIAN_POINT ( 'NONE',  ( 0.000000000000000, 0.000000000000000, 0.000000000000000 ) ) ;
#1387 = DIRECTION ( 'NONE',  ( 0.000000000000000, 0.000000000000000, 1.000000000000000 ) ) ;
#1388 = DIRECTION ( 'NONE',  ( 1.000000000000000, 0.000000000000000, 0.000000000000000 ) ) ;
#1389 = AXIS2_PLACEMENT_3D ( 'NONE', #1386, #1387, #1388 ) ;
#1390 = ADVANCED_BREP_SHAPE_REPRESENTATION ( 'INDC250X180X200L50', ( #468, #991, #1345, #1389 ), #475 ) ;
#1391 = STYLED_ITEM ( 'NONE', ( #1385 ), #1390 ) ;
#1392 = PRESENTATION_LAYER_ASSIGNMENT (  '',  '', ( #1391 ) ) ;
#1393 = MECHANICAL_DESIGN_GEOMETRIC_PRESENTATION_REPRESENTATION (  '', ( #1391 ), #475 ) ;
#1394 = PRODUCT_DEFINITION_FORMATION_WITH_SPECIFIED_SOURCE ( 'ANY', '', #5, .NOT_KNOWN. ) ;
#1395 = PRODUCT_DEFINITION_CONTEXT ( 'detailed design', #3, 'design' ) ;
#1396 = PRODUCT_DEFINITION ( 'UNKNOWN', '', #1394, #1395 ) ;
#1397 = PRODUCT_DEFINITION_SHAPE ( 'NONE', 'NONE', #1396 ) ;
#1398 = SHAPE_DEFINITION_REPRESENTATION ( #1397, #1390 ) ;
ENDSEC;
END-ISO-10303-21;
