(module "SOD250X130X110L35X32N" (layer "F.Cu") (tedit 5FB3C03B)
  (descr "Diode, Small Outline Diode (SOD); 1.75 mm L X 1.30 mm W X 1.10 mm H body")
  (attr smd)
  (fp_text reference "REF**" (at 0 0) (layer "F.SilkS")
    (effects (font (size 1.2 1.2) (thickness 0.12)))
    (tstamp d0bdea63-d20b-493c-8023-e967b63d131c)
  )
  (fp_text value "VAL**" (at 0 0) (layer "F.Fab")
    (effects (font (size 1.2 1.2) (thickness 0.12)))
    (tstamp 9d5e4121-3d23-4246-8d1a-12c71014d1ce)
  )
  (fp_text user "${REFERENCE}" (at 0 0) (layer "F.Fab")
    (effects (font (size 0.81 0.81) (thickness 0.08)))
    (tstamp e7f8b97f-28a2-4730-af15-dff72d833f11)
  )
  (fp_line (start -0.95 -0.73) (end 0.95 -0.73) (layer "F.SilkS") (width 0.16) (tstamp f63c1533-29c0-492d-bb11-ee83a8f790b0))
  (fp_line (start -1.845 0.16) (end -1.845 -0.16) (layer "F.SilkS") (width 0.16) (tstamp f73c9af0-a958-4ff1-8672-0ec4403c60d9))
  (fp_line (start 0.95 0.73) (end -0.95 0.73) (layer "F.SilkS") (width 0.16) (tstamp f90d31f4-4ccc-4c34-a7de-af83af968004))
  (fp_line (start -0.875 -0.65) (end 0.875 -0.65) (layer "Dwgs.User") (width 0.025) (tstamp 1f5146f6-a947-450a-b95e-91a4c6ca47fc))
  (fp_line (start -0.875 0.65) (end -0.875 -0.65) (layer "Dwgs.User") (width 0.025) (tstamp 24278d4a-9860-4cd8-b811-69c9c27469d3))
  (fp_line (start -1.25 -0.1625) (end -0.9 -0.1625) (layer "Dwgs.User") (width 0.025) (tstamp 2bc9d24e-d905-4046-8139-15efcae5e458))
  (fp_line (start 1.25 -0.1625) (end 1.25 0.1625) (layer "Dwgs.User") (width 0.025) (tstamp 4622e0ee-7e3b-4644-995a-08d41eb61076))
  (fp_line (start 0.875 0.65) (end -0.875 0.65) (layer "Dwgs.User") (width 0.025) (tstamp 5e996a08-b753-4508-9cba-c38b92e4626b))
  (fp_line (start 0.875 -0.65) (end 0.875 0.65) (layer "Dwgs.User") (width 0.025) (tstamp 747def1b-b740-4de1-8002-30c73a0d1dd6))
  (fp_line (start 0.9 0.1625) (end 0.9 -0.1625) (layer "Dwgs.User") (width 0.025) (tstamp 97121b42-2f4d-4ca6-b979-1596d5b8c340))
  (fp_line (start -1.25 0.1625) (end -1.25 -0.1625) (layer "Dwgs.User") (width 0.025) (tstamp 9af1a0e8-0a64-4145-8a6e-5188fef9b02e))
  (fp_line (start 0.9 -0.1625) (end 1.25 -0.1625) (layer "Dwgs.User") (width 0.025) (tstamp a5a25a66-3615-4602-a3f0-d233e0130e6f))
  (fp_line (start -0.9 0.1625) (end -1.25 0.1625) (layer "Dwgs.User") (width 0.025) (tstamp c81c1ff6-ef3b-4b18-b85b-0a0137408051))
  (fp_line (start 1.25 0.1625) (end 0.9 0.1625) (layer "Dwgs.User") (width 0.025) (tstamp e102e6c3-0a1a-467f-bb7d-4724a9b8298c))
  (fp_line (start -0.9 -0.1625) (end -0.9 0.1625) (layer "Dwgs.User") (width 0.025) (tstamp e258cd44-dca9-4d97-a44f-33f1ef89b07f))
  (fp_line (start 1.15 0.48) (end 1.805 0.48) (layer "F.CrtYd") (width 0.05) (tstamp 10db46f7-b9b1-4c2d-8658-12c205f0984b))
  (fp_line (start 1.15 -0.48) (end 1.15 -0.93) (layer "F.CrtYd") (width 0.05) (tstamp 1d6921cf-6270-4b95-962d-26bd7a5d4bea))
  (fp_line (start -1.15 -0.93) (end -1.15 -0.48) (layer "F.CrtYd") (width 0.05) (tstamp 65bdda7d-8493-4fc8-a0c3-f10d44af12f8))
  (fp_line (start 1.15 -0.93) (end -1.15 -0.93) (layer "F.CrtYd") (width 0.05) (tstamp 8b23ce27-d795-4321-881c-58b528a032d0))
  (fp_line (start -1.805 0.48) (end -1.15 0.48) (layer "F.CrtYd") (width 0.05) (tstamp 918234d7-563f-41b0-99fb-9a8891a19459))
  (fp_line (start 1.15 0.93) (end 1.15 0.48) (layer "F.CrtYd") (width 0.05) (tstamp 92e89a47-0d3e-41a1-af48-beee3d0a5fcb))
  (fp_line (start -1.15 0.48) (end -1.15 0.93) (layer "F.CrtYd") (width 0.05) (tstamp 93efbe03-3aaf-4e29-9b34-625164b63f32))
  (fp_line (start -1.15 0.93) (end 1.15 0.93) (layer "F.CrtYd") (width 0.05) (tstamp 980d2dc6-2c14-4490-8340-68a4c43824af))
  (fp_line (start -1.15 -0.48) (end -1.805 -0.48) (layer "F.CrtYd") (width 0.05) (tstamp ad9564ad-21c6-4ad1-afd4-7e6fcbcd7cf8))
  (fp_line (start -1.805 -0.48) (end -1.805 0.48) (layer "F.CrtYd") (width 0.05) (tstamp c29bf75a-1984-4b37-a319-65c543fc2a29))
  (fp_line (start 1.805 0.48) (end 1.805 -0.48) (layer "F.CrtYd") (width 0.05) (tstamp efce7638-72c0-487e-b2cd-418084673ef3))
  (fp_line (start 1.805 -0.48) (end 1.15 -0.48) (layer "F.CrtYd") (width 0.05) (tstamp fd5d6b94-0338-44f2-9592-546d8ec47323))
  (fp_line (start -0.95 -0.24333) (end -0.46333 -0.73) (layer "F.Fab") (width 0.16) (tstamp 03c629a7-744a-4abc-8d99-8962b67fff80))
  (fp_line (start -0.34787 0.001065) (end 0.35213 0.001065) (layer "F.Fab") (width 0.05) (tstamp 11ce48d2-f91a-4f0b-909e-c178aab00914))
  (fp_line (start -0.95 0.73) (end -0.95 -0.24333) (layer "F.Fab") (width 0.16) (tstamp 6f58006d-fb3b-490c-9da9-81b809060bd2))
  (fp_line (start 0.95 -0.73) (end 0.95 0.73) (layer "F.Fab") (width 0.16) (tstamp 70c99543-60d3-4cd6-a6a0-e74438796bf5))
  (fp_line (start -0.46333 -0.73) (end 0.95 -0.73) (layer "F.Fab") (width 0.16) (tstamp 7c45a155-0fb4-4011-a6ed-a54abe688e52))
  (fp_line (start 0.00213 -0.348935) (end 0.00213 0.351065) (layer "F.Fab") (width 0.05) (tstamp 8fdbe692-d42f-42b7-942e-74b0972d1441))
  (fp_line (start 0.95 0.73) (end -0.95 0.73) (layer "F.Fab") (width 0.16) (tstamp f44b9f70-63e0-421b-8d16-657ef42e1f64))
  (fp_circle (center 0.00213 0.001065) (end 0.25213 0.001065) (layer "F.Fab") (width 0.05) (tstamp f5a3d7f7-be42-49fe-941b-eb0a790c313c))
  (pad "A" smd roundrect (at 1.02 0) (size 1.17 0.56) (layers "F.Cu" "F.Paste" "F.Mask") (roundrect_rratio 0.25) (tstamp 01c9f36c-ea74-4654-8d64-6d7be9f8f638))
  (pad "C" smd roundrect (at -1.02 0) (size 1.17 0.56) (layers "F.Cu" "F.Paste" "F.Mask") (roundrect_rratio 0.25) (tstamp f4c51310-4647-4ec2-a308-d85b35bad3bf))
  (model "${KISYS3DMOD}/SOD250X130X110L35X32.STEP"
    (offset (xyz 0 0 0))
    (scale (xyz 1 1 1))
    (rotate (xyz -90 0 0))
  )
)
