(module "SOD370X155X135L32X57N" (layer "F.Cu") (tedit 5FB3C048)
  (descr "Diode, Small Outline Diode (SOD); 2.70 mm L X 1.55 mm W X 1.35 mm H body")
  (attr smd)
  (fp_text reference "REF**" (at 0 0) (layer "F.SilkS")
    (effects (font (size 1.2 1.2) (thickness 0.12)))
    (tstamp 9cf10be6-b54b-4ede-8e13-bfb2fe9fdd64)
  )
  (fp_text value "VAL**" (at 0 0) (layer "F.Fab")
    (effects (font (size 1.2 1.2) (thickness 0.12)))
    (tstamp f9e1a3dc-1212-47c7-af27-9f498fbbff5b)
  )
  (fp_text user "${REFERENCE}" (at 0 0) (layer "F.Fab")
    (effects (font (size 1.06 1.06) (thickness 0.11)))
    (tstamp cb625766-873e-47ab-9d7d-53623ee0bcc0)
  )
  (fp_line (start -1.43 -0.85) (end 1.43 -0.85) (layer "F.SilkS") (width 0.16) (tstamp 3b3c33c9-97d5-4b89-8391-0225dceffebe))
  (fp_line (start 1.43 0.85) (end -1.43 0.85) (layer "F.SilkS") (width 0.16) (tstamp 7ed76278-1ecd-46b6-8fd4-20a99f384aef))
  (fp_line (start -2.425 0.29) (end -2.425 -0.29) (layer "F.SilkS") (width 0.16) (tstamp 93586348-7acc-4c2f-b924-ad9636817cb0))
  (fp_line (start -1.525 -0.285) (end -1.525 0.285) (layer "Dwgs.User") (width 0.025) (tstamp 047499c3-9a6e-425c-96fc-a6eed776fb48))
  (fp_line (start 1.35 -0.775) (end 1.35 0.775) (layer "Dwgs.User") (width 0.025) (tstamp 2520dd21-75f7-494e-895d-43345a0f8aaa))
  (fp_line (start 1.35 0.775) (end -1.35 0.775) (layer "Dwgs.User") (width 0.025) (tstamp 50b68103-24de-4a57-b1ec-76355e59bbff))
  (fp_line (start 1.525 -0.285) (end 1.85 -0.285) (layer "Dwgs.User") (width 0.025) (tstamp 5605e399-7d5b-463c-85dc-2d4c27b4c137))
  (fp_line (start -1.525 0.285) (end -1.85 0.285) (layer "Dwgs.User") (width 0.025) (tstamp 651ab114-8ee8-493a-9cfa-c495000e98a8))
  (fp_line (start -1.35 -0.775) (end 1.35 -0.775) (layer "Dwgs.User") (width 0.025) (tstamp a9aa199e-e4ed-4277-8b49-ad8dc365f279))
  (fp_line (start -1.85 -0.285) (end -1.525 -0.285) (layer "Dwgs.User") (width 0.025) (tstamp c4f614d9-75f1-4ba6-9d26-fb98af350ed4))
  (fp_line (start 1.525 0.285) (end 1.525 -0.285) (layer "Dwgs.User") (width 0.025) (tstamp c5054366-2c15-435b-b496-4e38346b2b0e))
  (fp_line (start -1.85 0.285) (end -1.85 -0.285) (layer "Dwgs.User") (width 0.025) (tstamp cb6ea71f-bdd5-4385-9a21-c4410722db1d))
  (fp_line (start 1.85 0.285) (end 1.525 0.285) (layer "Dwgs.User") (width 0.025) (tstamp cf480e83-02ce-4959-a058-8afcc061b0a0))
  (fp_line (start -1.35 0.775) (end -1.35 -0.775) (layer "Dwgs.User") (width 0.025) (tstamp de6f41d1-98cb-4515-bc90-86fc44e0274d))
  (fp_line (start 1.85 -0.285) (end 1.85 0.285) (layer "Dwgs.User") (width 0.025) (tstamp eeff93c6-fdd6-4a12-81c6-8a28cbca5a45))
  (fp_line (start -1.63 0.595) (end -1.63 1.05) (layer "F.CrtYd") (width 0.05) (tstamp 0472820d-3a72-4110-99dd-67bf21cccb20))
  (fp_line (start 2.385 0.595) (end 2.385 -0.595) (layer "F.CrtYd") (width 0.05) (tstamp 59397c65-391e-4915-9a2a-0d0da97b4ff0))
  (fp_line (start -2.385 -0.595) (end -2.385 0.595) (layer "F.CrtYd") (width 0.05) (tstamp 657b94ac-6011-4f98-a636-676fff5cb9a7))
  (fp_line (start -1.63 -0.595) (end -2.385 -0.595) (layer "F.CrtYd") (width 0.05) (tstamp 73383a17-e70f-422f-8e6f-16abda135f62))
  (fp_line (start 1.63 -1.05) (end -1.63 -1.05) (layer "F.CrtYd") (width 0.05) (tstamp 7bdf9495-be5f-4ee0-a178-48892634c2a7))
  (fp_line (start 2.385 -0.595) (end 1.63 -0.595) (layer "F.CrtYd") (width 0.05) (tstamp 875acd58-9187-418e-a08a-d4dfb4cc0b5f))
  (fp_line (start 1.63 0.595) (end 2.385 0.595) (layer "F.CrtYd") (width 0.05) (tstamp 8f5fc3eb-dd67-4850-a5fd-f642d77b6b83))
  (fp_line (start -1.63 1.05) (end 1.63 1.05) (layer "F.CrtYd") (width 0.05) (tstamp 9dcd1dc9-3dd7-4bbd-b232-09357cd1b4ba))
  (fp_line (start 1.63 -0.595) (end 1.63 -1.05) (layer "F.CrtYd") (width 0.05) (tstamp b2af2965-f34d-4cdb-8236-757474d6edb4))
  (fp_line (start -1.63 -1.05) (end -1.63 -0.595) (layer "F.CrtYd") (width 0.05) (tstamp cf759e14-08dc-4d38-ac2a-46a9e4fd2dad))
  (fp_line (start -2.385 0.595) (end -1.63 0.595) (layer "F.CrtYd") (width 0.05) (tstamp d7767126-3546-4ae6-8d96-e2537e4e15a7))
  (fp_line (start 1.63 1.05) (end 1.63 0.595) (layer "F.CrtYd") (width 0.05) (tstamp edfebee9-1a3e-47cc-97a1-9fa499f6df84))
  (fp_line (start 0.00213 -0.348935) (end 0.00213 0.351065) (layer "F.Fab") (width 0.05) (tstamp 1dc1ef56-40c2-43ee-8122-d16b14d4f5b4))
  (fp_line (start -1.43 -0.28333) (end -0.86333 -0.85) (layer "F.Fab") (width 0.16) (tstamp 69e8ff0b-83f5-4b71-91ff-e7260448a5ee))
  (fp_line (start -0.34787 0.001065) (end 0.35213 0.001065) (layer "F.Fab") (width 0.05) (tstamp 85340412-9932-4cd6-be1a-94b97f11c5a3))
  (fp_line (start -0.86333 -0.85) (end 1.43 -0.85) (layer "F.Fab") (width 0.16) (tstamp 93d4e47d-fc0d-46dc-b9c5-2dae4a6d2ef8))
  (fp_line (start -1.43 0.85) (end -1.43 -0.28333) (layer "F.Fab") (width 0.16) (tstamp 98b857a0-8a58-4c59-a743-f651f60e3ead))
  (fp_line (start 1.43 0.85) (end -1.43 0.85) (layer "F.Fab") (width 0.16) (tstamp dabee28c-a529-43b2-b453-8f683e520637))
  (fp_line (start 1.43 -0.85) (end 1.43 0.85) (layer "F.Fab") (width 0.16) (tstamp fe9a5c30-3f6c-4caa-8890-c4e95344e609))
  (fp_circle (center 0.00213 0.001065) (end 0.25213 0.001065) (layer "F.Fab") (width 0.05) (tstamp 37433a30-306a-45e9-b91d-87ea251efec2))
  (pad "A" smd roundrect (at 1.63 0) (size 1.11 0.79) (layers "F.Cu" "F.Paste" "F.Mask") (roundrect_rratio 0.2532) (tstamp c53ca5c3-37ae-4ab1-abc4-a7410796f8dd))
  (pad "C" smd roundrect (at -1.63 0) (size 1.11 0.79) (layers "F.Cu" "F.Paste" "F.Mask") (roundrect_rratio 0.2532) (tstamp 86348191-300e-4286-a2d8-28c1459bc62c))
  (model "${KISYS3DMOD}/SOD370X155X135L32X57.STEP"
    (offset (xyz 0 0 0))
    (scale (xyz 1 1 1))
    (rotate (xyz -90 0 0))
  )
)
