(module "SOD371X160X135L25X61N" (layer "F.Cu") (tedit 5FB3C054)
  (descr "Diode, Small Outline Diode (SOD); 2.69 mm L X 1.60 mm W X 1.35 mm H body")
  (attr smd)
  (fp_text reference "REF**" (at 0 0) (layer "F.SilkS")
    (effects (font (size 1.2 1.2) (thickness 0.12)))
    (tstamp 8968f384-b222-473e-ae88-8a3e0d9c857f)
  )
  (fp_text value "VAL**" (at 0 0) (layer "F.Fab")
    (effects (font (size 1.2 1.2) (thickness 0.12)))
    (tstamp 91d49b58-d37d-4084-96cf-89c3cf2b0004)
  )
  (fp_text user "${REFERENCE}" (at 0 0) (layer "F.Fab")
    (effects (font (size 1.16 1.16) (thickness 0.12)))
    (tstamp c3983b2c-c316-486b-b184-bae944488d93)
  )
  (fp_line (start -1.42 -0.9) (end 1.42 -0.9) (layer "F.SilkS") (width 0.16) (tstamp 53d95344-7cbd-49f4-b829-42128cfe07ce))
  (fp_line (start 1.42 0.9) (end -1.42 0.9) (layer "F.SilkS") (width 0.16) (tstamp 9e69afbf-3755-42cf-8ccb-43d318ed9286))
  (fp_line (start -2.43 0.31) (end -2.43 -0.31) (layer "F.SilkS") (width 0.16) (tstamp f3eb4de2-0b0a-419c-8845-4421930b91dc))
  (fp_line (start 1.855 0.305) (end 1.605 0.305) (layer "Dwgs.User") (width 0.025) (tstamp 055a1966-fc2e-467c-a657-5a0a216f2404))
  (fp_line (start -1.605 0.305) (end -1.855 0.305) (layer "Dwgs.User") (width 0.025) (tstamp 0f5efcec-00e1-4da1-9104-517d54d76289))
  (fp_line (start 1.605 0.305) (end 1.605 -0.305) (layer "Dwgs.User") (width 0.025) (tstamp 11efb0d9-5979-4b7e-9a9a-aa78be437e50))
  (fp_line (start -1.345 -0.8) (end 1.345 -0.8) (layer "Dwgs.User") (width 0.025) (tstamp 145389c3-9f90-43e3-acc3-ca6300ca9f36))
  (fp_line (start 1.855 -0.305) (end 1.855 0.305) (layer "Dwgs.User") (width 0.025) (tstamp 240b975b-64fc-4165-9490-94073744a220))
  (fp_line (start 1.605 -0.305) (end 1.855 -0.305) (layer "Dwgs.User") (width 0.025) (tstamp 55152a15-c297-4745-b84d-750570397ccb))
  (fp_line (start -1.855 -0.305) (end -1.605 -0.305) (layer "Dwgs.User") (width 0.025) (tstamp 57b01083-b8dd-41d5-a0e7-e80817704cce))
  (fp_line (start 1.345 -0.8) (end 1.345 0.8) (layer "Dwgs.User") (width 0.025) (tstamp 6a9b37b1-d7a4-404a-8bde-6a1a9ff181ce))
  (fp_line (start 1.345 0.8) (end -1.345 0.8) (layer "Dwgs.User") (width 0.025) (tstamp 80705cc6-19c9-43f4-9d33-8bfbded2ddb8))
  (fp_line (start -1.855 0.305) (end -1.855 -0.305) (layer "Dwgs.User") (width 0.025) (tstamp b93bbfc2-5c34-4d5b-a79d-41fc91903676))
  (fp_line (start -1.605 -0.305) (end -1.605 0.305) (layer "Dwgs.User") (width 0.025) (tstamp d7f49bd7-114f-47f1-a64c-93bc6bf8c62a))
  (fp_line (start -1.345 0.8) (end -1.345 -0.8) (layer "Dwgs.User") (width 0.025) (tstamp da7eaac2-4019-4731-a288-fafbd8972f04))
  (fp_line (start -1.62 -1.1) (end -1.62 -0.63) (layer "F.CrtYd") (width 0.05) (tstamp 25f21537-d9c4-4b35-be4b-3a1670ab6977))
  (fp_line (start -1.62 1.1) (end 1.62 1.1) (layer "F.CrtYd") (width 0.05) (tstamp 2d6b8fed-ef9b-4cd5-b891-80ba972de78c))
  (fp_line (start -1.62 0.63) (end -1.62 1.1) (layer "F.CrtYd") (width 0.05) (tstamp 40c72924-41cc-4b67-8908-e6f2a567a2e0))
  (fp_line (start -1.62 -0.63) (end -2.39 -0.63) (layer "F.CrtYd") (width 0.05) (tstamp 5b3f5196-5610-4bfe-beb3-57d4951905a7))
  (fp_line (start 1.62 -1.1) (end -1.62 -1.1) (layer "F.CrtYd") (width 0.05) (tstamp 70a1f1ec-af2a-4cbf-ba18-e08c432c0df3))
  (fp_line (start 2.39 -0.63) (end 1.62 -0.63) (layer "F.CrtYd") (width 0.05) (tstamp 7ff3e683-bdb6-4d65-bc97-7ab4eaf55bfb))
  (fp_line (start -2.39 -0.63) (end -2.39 0.63) (layer "F.CrtYd") (width 0.05) (tstamp 813884d9-cc84-401c-8474-a9e829ed03dd))
  (fp_line (start 2.39 0.63) (end 2.39 -0.63) (layer "F.CrtYd") (width 0.05) (tstamp 81aaf6da-bc7f-4a1d-bb7d-0f81de3ab22f))
  (fp_line (start 1.62 0.63) (end 2.39 0.63) (layer "F.CrtYd") (width 0.05) (tstamp 83d3eabd-81d8-4da4-b53e-1a8b3d1d8dd2))
  (fp_line (start 1.62 -0.63) (end 1.62 -1.1) (layer "F.CrtYd") (width 0.05) (tstamp 92b8ba82-3aee-4fcb-9a52-ea96d0ce516d))
  (fp_line (start -2.39 0.63) (end -1.62 0.63) (layer "F.CrtYd") (width 0.05) (tstamp e1c5adc5-77a4-4c4e-8ed7-492ce842e9cf))
  (fp_line (start 1.62 1.1) (end 1.62 0.63) (layer "F.CrtYd") (width 0.05) (tstamp eea0fb55-528e-4a41-b637-928f10ef6447))
  (fp_line (start -1.42 -0.3) (end -0.82 -0.9) (layer "F.Fab") (width 0.16) (tstamp 04f11e84-dbd4-4736-86fd-fb27e6d7636d))
  (fp_line (start 1.42 0.9) (end -1.42 0.9) (layer "F.Fab") (width 0.16) (tstamp 0b77d879-aeff-4023-8273-6b2698d6d30b))
  (fp_line (start -0.82 -0.9) (end 1.42 -0.9) (layer "F.Fab") (width 0.16) (tstamp 31f0404c-a67e-45e0-9700-b26dd9a2e7db))
  (fp_line (start 0.00213 -0.348935) (end 0.00213 0.351065) (layer "F.Fab") (width 0.05) (tstamp 8bd52564-77b0-434d-8b78-2ae4054be886))
  (fp_line (start -0.34787 0.001065) (end 0.35213 0.001065) (layer "F.Fab") (width 0.05) (tstamp d25b3831-5781-41fb-81ab-5d7bcc78fd78))
  (fp_line (start 1.42 -0.9) (end 1.42 0.9) (layer "F.Fab") (width 0.16) (tstamp dee7fa43-584a-4df7-9da4-9544ad7db463))
  (fp_line (start -1.42 0.9) (end -1.42 -0.3) (layer "F.Fab") (width 0.16) (tstamp eb79a9bc-a21d-4162-b5a4-e3cdbbcc92c2))
  (fp_circle (center 0.00213 0.001065) (end 0.25213 0.001065) (layer "F.Fab") (width 0.05) (tstamp 5327581e-97f3-456b-afb8-d10c928e3722))
  (pad "A" smd roundrect (at 1.68 0) (size 1.02 0.86) (layers "F.Cu" "F.Paste" "F.Mask") (roundrect_rratio 0.2558) (tstamp d7d2e29b-ec8c-4a18-8679-a007dec2a699))
  (pad "C" smd roundrect (at -1.68 0) (size 1.02 0.86) (layers "F.Cu" "F.Paste" "F.Mask") (roundrect_rratio 0.2558) (tstamp 38b6cf2d-b79d-4a35-b1c3-8edc1aa52d40))
  (model "${KISYS3DMOD}/SOD371X160X135L25X61.STEP"
    (offset (xyz 0 0 0))
    (scale (xyz 1 1 1))
    (rotate (xyz -90 0 0))
  )
)
