(module SIP805W60P500L1025H1030Q2 (layer F.Cu) (tedit 0)
  (descr "SIP, 5.00 mm pitch; 2 pin, 10.25 mm L X 8.05 mm W X 10.30 mm H body")
  (fp_text reference REF** (at 2.5 -0.1) (layer F.SilkS)
    (effects (font (size 1.2 1.2) (thickness 0.12)))
  )
  (fp_text user %R (at 2.5 -0.1) (layer F.Fab)
    (effects (font (size 2 2) (thickness 0.2)))
  )
  (fp_text value VAL** (at 2.5 -0.1) (layer F.Fab)
    (effects (font (size 1.2 1.2) (thickness 0.12)))
  )
  (fp_line (start 0.425 0.625) (end -0.425 0.625) (layer Dwgs.User) (width 0.025))
  (fp_line (start -0.425 0.625) (end -0.425 -0.625) (layer Dwgs.User) (width 0.025))
  (fp_line (start -0.425 -0.625) (end 0.425 -0.625) (layer Dwgs.User) (width 0.025))
  (fp_line (start 0.425 -0.625) (end 0.425 0.625) (layer Dwgs.User) (width 0.025))
  (fp_line (start 5.425 0.625) (end 4.575 0.625) (layer Dwgs.User) (width 0.025))
  (fp_line (start 4.575 0.625) (end 4.575 -0.625) (layer Dwgs.User) (width 0.025))
  (fp_line (start 4.575 -0.625) (end 5.425 -0.625) (layer Dwgs.User) (width 0.025))
  (fp_line (start 5.425 -0.625) (end 5.425 0.625) (layer Dwgs.User) (width 0.025))
  (fp_line (start -2.625 3.925) (end -2.625 -4.125) (layer Dwgs.User) (width 0.025))
  (fp_line (start -2.625 -4.125) (end 7.625 -4.125) (layer Dwgs.User) (width 0.025))
  (fp_line (start 7.625 -4.125) (end 7.625 3.925) (layer Dwgs.User) (width 0.025))
  (fp_line (start 7.625 3.925) (end -2.625 3.925) (layer Dwgs.User) (width 0.025))
  (fp_circle (center 0 0) (end 0 0.25) (layer F.CrtYd) (width 0.05))
  (fp_line (start 0 -0.35) (end 0 0.35) (layer F.CrtYd) (width 0.05))
  (fp_line (start -0.35 0) (end 0.35 0) (layer F.CrtYd) (width 0.05))
  (fp_line (start 7.88 4.18) (end 7.88 -4.38) (layer F.CrtYd) (width 0.05))
  (fp_line (start 7.88 -4.38) (end -2.88 -4.38) (layer F.CrtYd) (width 0.05))
  (fp_line (start -2.88 -4.38) (end -2.88 4.18) (layer F.CrtYd) (width 0.05))
  (fp_line (start -2.88 4.18) (end 7.88 4.18) (layer F.CrtYd) (width 0.05))
  (fp_line (start 1.31 3.93) (end -2.63 3.93) (layer F.SilkS) (width 0.16))
  (fp_line (start -2.63 3.93) (end -2.63 -4.13) (layer F.SilkS) (width 0.16))
  (fp_line (start -2.63 -4.13) (end 1.31 -4.13) (layer F.SilkS) (width 0.16))
  (fp_line (start 6.32 3.93) (end 7.63 3.93) (layer F.SilkS) (width 0.16))
  (fp_line (start 7.63 3.93) (end 7.63 -4.13) (layer F.SilkS) (width 0.16))
  (fp_line (start 7.63 -4.13) (end 6.32 -4.13) (layer F.SilkS) (width 0.16))
  (fp_line (start 7.63 3.93) (end -2.63 3.93) (layer F.Fab) (width 0.16))
  (fp_line (start -2.63 3.93) (end -2.63 0.535) (layer F.Fab) (width 0.16))
  (fp_line (start -2.63 0.535) (end -1.36 -0.1) (layer F.Fab) (width 0.16))
  (fp_line (start -1.36 -0.1) (end -2.63 -0.735) (layer F.Fab) (width 0.16))
  (fp_line (start -2.63 -0.735) (end -2.63 -4.13) (layer F.Fab) (width 0.16))
  (fp_line (start -2.63 -4.13) (end 7.63 -4.13) (layer F.Fab) (width 0.16))
  (fp_line (start 7.63 -4.13) (end 7.63 3.93) (layer F.Fab) (width 0.16))
  (pad 1 thru_hole rect (at 0 0) (size 2.49 2.49) (drill 1.66) (layers *.Cu *.Mask))
  (pad 2 thru_hole circle (at 5 0) (size 2.49 2.49) (drill 1.66) (layers *.Cu *.Mask))
)
