(module "DIOM5226X240L114X145N" (layer "F.Cu") (tedit 5FB27E50)
  (descr "Diode, Molded Body; 5.195 mm L X 2.605 mm W X 2.40 mm H body")
  (attr smd)
  (fp_text reference "REF**" (at 0 0) (layer "F.SilkS")
    (effects (font (size 1.016 1.016) (thickness 0.1524)))
    (tstamp 34dcb56c-ed2d-489b-9904-55bf33031750)
  )
  (fp_text value "Val**" (at 0 0) (layer "F.SilkS") hide
    (effects (font (size 1.524 1.524) (thickness 0.15)))
    (tstamp ee6753db-c7f3-48d5-bbf8-4a1e22e50e13)
  )
  (fp_line (start 1.7 1.5) (end -3.5 1.5) (layer "F.SilkS") (width 0.12) (tstamp 472a3d4c-5944-481c-8832-dcfc863a94f3))
  (fp_line (start -3.5 1.5) (end -3.5 -1.5) (layer "F.SilkS") (width 0.127) (tstamp 63949ce1-6f5d-4dcc-a60a-a58f15ecf242))
  (fp_line (start 1.7 -1.5) (end -3.5 -1.5) (layer "F.SilkS") (width 0.12) (tstamp d71adf66-970d-4c00-8f64-461c83b65206))
  (fp_line (start 3.55 -1.71) (end 3.55 1.71) (layer "F.CrtYd") (width 0.05) (tstamp 4543efce-d975-418f-a6fa-ae699ae4f806))
  (fp_line (start -3.55 -1.71) (end 3.55 -1.71) (layer "F.CrtYd") (width 0.05) (tstamp 60fdb382-d687-43de-9071-709780ed40de))
  (fp_line (start -3.55 1.71) (end -3.55 -1.71) (layer "F.CrtYd") (width 0.05) (tstamp b47b9a92-e385-4fe7-be9b-63daf63c13af))
  (fp_line (start 3.55 1.71) (end -3.55 1.71) (layer "F.CrtYd") (width 0.05) (tstamp de09d8bf-ad4e-407f-9e51-b64d33b10c21))
  (fp_line (start 2.8 -1.46) (end 2.8 1.46) (layer "F.Fab") (width 0.12) (tstamp 334b2ad3-9287-4f50-a7cc-be3f56184aae))
  (fp_line (start 2.8 1.46) (end -2.8 1.46) (layer "F.Fab") (width 0.12) (tstamp 5503363e-b467-418a-ae64-25eb9b9ff3e2))
  (fp_line (start -2.8 1.46) (end -2.8 -1.46) (layer "F.Fab") (width 0.12) (tstamp 6ea13b08-6ad6-4355-a068-7f29feac9af2))
  (fp_line (start 0.002742 -0.342712) (end 0.002742 0.357288) (layer "F.Fab") (width 0.05) (tstamp 9ec95bec-56d7-4b3b-8d85-1dc31682dd7c))
  (fp_line (start 0.352742 0.007288) (end -0.347258 0.007288) (layer "F.Fab") (width 0.05) (tstamp e214f651-3b74-4351-8f65-1abc11abcc26))
  (fp_line (start -2.8 -1.46) (end 2.8 -1.46) (layer "F.Fab") (width 0.12) (tstamp f8bf8ba1-d18a-4cf8-9660-6127d8fe2e47))
  (fp_circle (center 0.002742 0.007288) (end 0.252742 0.007288) (layer "F.Fab") (width 0.05) (tstamp 58a98bb8-c367-4bef-9ea1-1d64f468e0a9))
  (pad "A" smd rect (at 2.135 0) (size 2.33 1.55) (layers "F.Cu" "F.Paste" "F.Mask") (tstamp 6cbb11c1-3579-42f6-96a2-bb2aa9e4bfb4))
  (pad "C" smd rect (at -2.135 0) (size 2.33 1.55) (layers "F.Cu" "F.Paste" "F.Mask") (tstamp 860c704d-5ed1-4fed-b85f-3205e3b79eb3))
)
