(module "INDM4540X350L180X400" (layer "F.Cu") (tedit 5FB27E81)
  (descr "Inductor, Molded Body; 4.50 mm L X 4.00 mm W X 3.50 mm H body")
  (attr smd)
  (fp_text reference "REF**" (at 0 0) (layer "F.SilkS")
    (effects (font (size 1.2 1.2) (thickness 0.12)))
    (tstamp b29b6db2-dc62-44d7-a58e-706f334e4402)
  )
  (fp_text value "Val**" (at 0 0) (layer "F.SilkS")
    (effects (font (size 1.27 1.27) (thickness 0.15)))
    (tstamp 7d39e459-90c6-496f-8ad3-4496363ba411)
  )
  (fp_line (start 2.25 -2.43) (end -2.25 -2.43) (layer "F.SilkS") (width 0.12) (tstamp 64535696-82cd-4c2f-bca0-e036166ac5e7))
  (fp_line (start 2.25 2.43) (end -2.25 2.43) (layer "F.SilkS") (width 0.12) (tstamp 74235e51-edcc-43c4-bcfb-27fd4b0e0b34))
  (fp_line (start 2.8 2.5) (end -2.8 2.5) (layer "F.CrtYd") (width 0.05) (tstamp ba2e0a72-25b5-4e56-b099-8ab0ed7b1d0f))
  (fp_line (start -2.8 2.5) (end -2.8 -2.5) (layer "F.CrtYd") (width 0.05) (tstamp c089218d-fbf7-4ce6-9aba-665db7e31f50))
  (fp_line (start 2.8 -2.5) (end 2.8 2.5) (layer "F.CrtYd") (width 0.05) (tstamp dc993c10-72d6-443e-af46-8243347c8068))
  (fp_line (start -2.8 -2.5) (end 2.8 -2.5) (layer "F.CrtYd") (width 0.05) (tstamp eec95f6f-3354-4349-af6d-c01d2b6a90ec))
  (fp_line (start 2.4 2.15) (end -2.4 2.15) (layer "F.Fab") (width 0.12) (tstamp 283385f4-9c06-4c80-a2bf-593777703f3e))
  (fp_line (start 2.4 -2.15) (end 2.4 2.15) (layer "F.Fab") (width 0.12) (tstamp 67fba3ab-c858-44fd-926b-b9e54ad5d160))
  (fp_line (start -2.4 2.15) (end -2.4 -2.15) (layer "F.Fab") (width 0.12) (tstamp 7ab2cd48-e016-47d0-a7bf-c0205432003a))
  (fp_line (start 0.352742 0.007288) (end -0.347258 0.007288) (layer "F.Fab") (width 0.05) (tstamp 8495963f-f252-4915-9699-8e00357e628b))
  (fp_line (start 0.002742 -0.342712) (end 0.002742 0.357288) (layer "F.Fab") (width 0.05) (tstamp 9e377321-4f22-4f50-b166-e08decca037d))
  (fp_line (start -2.4 -2.15) (end 2.4 -2.15) (layer "F.Fab") (width 0.12) (tstamp f922df63-280e-4b87-88d5-b0a49624cdb4))
  (fp_circle (center 0.002742 0.007288) (end 0.252742 0.007288) (layer "F.Fab") (width 0.05) (tstamp 6c324a0b-cee6-4eed-8608-d86d2f2aec48))
  (pad "1" smd rect (at -1.65 0) (size 1.8 4.5) (layers "F.Cu" "F.Paste" "F.Mask") (tstamp 6a6f1472-d852-4ced-8447-e6d0087c4c0a))
  (pad "2" smd rect (at 1.65 0) (size 1.8 4.5) (layers "F.Cu" "F.Paste" "F.Mask") (tstamp abdb7aeb-5c6f-469b-9e97-f9649f1d83ee))
)
