(module "INDM320X250X240L55X190N" (layer "F.Cu") (tedit 5FB3B9E0)
  (descr "Inductor, Molded Body; 3.10 mm L X 2.50 mm W X 2.40 mm H body")
  (attr smd)
  (fp_text reference "REF**" (at 0 0) (layer "F.SilkS")
    (effects (font (size 1.2 1.2) (thickness 0.12)))
    (tstamp fd47b72f-05c1-4f6a-863a-d8838c469ddc)
  )
  (fp_text value "VAL**" (at 0 0) (layer "F.Fab")
    (effects (font (size 1.2 1.2) (thickness 0.12)))
    (tstamp 3f38ecfe-7398-45cc-b470-59a6dc915bd9)
  )
  (fp_text user "${REFERENCE}" (at 0 0) (layer "F.Fab")
    (effects (font (size 2 2) (thickness 0.2)))
    (tstamp 181886cb-58b5-4a32-b4d2-9a2d37177bcc)
  )
  (fp_line (start -1.6 -1.35) (end 1.6 -1.35) (layer "F.SilkS") (width 0.16) (tstamp 22adfdd5-d1b0-464a-87e8-2ea6455bd90e))
  (fp_line (start 1.6 1.35) (end -1.6 1.35) (layer "F.SilkS") (width 0.16) (tstamp aa17014e-e20f-4d9b-aed4-a805c44a0616))
  (fp_line (start 1.55 -1.25) (end 1.55 1.25) (layer "Dwgs.User") (width 0.025) (tstamp 27b73901-daf1-4b5e-ba2d-a7e3f790e887))
  (fp_line (start 1.55 1.25) (end -1.55 1.25) (layer "Dwgs.User") (width 0.025) (tstamp 31e45dec-f17a-4595-b495-f351d91606f9))
  (fp_line (start -1.05 0.95) (end -1.6 0.95) (layer "Dwgs.User") (width 0.025) (tstamp 51a90210-c6ea-4f96-a4a2-0f8c91331ef2))
  (fp_line (start 1.6 0.95) (end 1.05 0.95) (layer "Dwgs.User") (width 0.025) (tstamp 59e9c680-59e1-42fc-a350-64aae9353cb1))
  (fp_line (start 1.05 0.95) (end 1.05 -0.95) (layer "Dwgs.User") (width 0.025) (tstamp 65ebf212-6a58-44ff-ac57-5389f0f81a39))
  (fp_line (start -1.55 1.25) (end -1.55 -1.25) (layer "Dwgs.User") (width 0.025) (tstamp 7c8f3c78-476d-42f5-8446-2b543bbcfe90))
  (fp_line (start 1.6 -0.95) (end 1.6 0.95) (layer "Dwgs.User") (width 0.025) (tstamp 9431699d-7df4-45f1-84ec-414b59bd0879))
  (fp_line (start -1.6 0.95) (end -1.6 -0.95) (layer "Dwgs.User") (width 0.025) (tstamp b08c7410-5126-4055-9d7f-f6263eeaa0b5))
  (fp_line (start -1.6 -0.95) (end -1.05 -0.95) (layer "Dwgs.User") (width 0.025) (tstamp ca2fd21f-c331-41a6-ad10-cfbdb0db4a10))
  (fp_line (start -1.55 -1.25) (end 1.55 -1.25) (layer "Dwgs.User") (width 0.025) (tstamp d57fcdf5-bb69-492b-b95a-7a423103542b))
  (fp_line (start 1.05 -0.95) (end 1.6 -0.95) (layer "Dwgs.User") (width 0.025) (tstamp eba2aa19-be6c-49bf-b1a4-13884e8bfd94))
  (fp_line (start -1.05 -0.95) (end -1.05 0.95) (layer "Dwgs.User") (width 0.025) (tstamp f66b2253-96d3-460b-9173-b3223cbe5c4e))
  (fp_line (start 1.8 -1.215) (end 1.8 -1.55) (layer "F.CrtYd") (width 0.05) (tstamp 188cdf50-949b-48bd-86d6-67886874f962))
  (fp_line (start -1.8 -1.55) (end -1.8 -1.215) (layer "F.CrtYd") (width 0.05) (tstamp 1c1f08b1-76be-430b-adf4-dfdbe5a13302))
  (fp_line (start -1.8 -1.215) (end -2.405 -1.215) (layer "F.CrtYd") (width 0.05) (tstamp 57eca2ad-b399-49de-a304-892cc42931b0))
  (fp_line (start -1.8 1.215) (end -1.8 1.55) (layer "F.CrtYd") (width 0.05) (tstamp 653c7131-2f98-4773-8df4-396f9faee6a9))
  (fp_line (start 2.405 1.215) (end 2.405 -1.215) (layer "F.CrtYd") (width 0.05) (tstamp 6e377794-840e-4b93-a844-b55928b41d23))
  (fp_line (start 1.8 1.215) (end 2.405 1.215) (layer "F.CrtYd") (width 0.05) (tstamp 851b8331-b386-4c77-80ba-3df957d83ceb))
  (fp_line (start -2.405 1.215) (end -1.8 1.215) (layer "F.CrtYd") (width 0.05) (tstamp 9f233e9f-af33-4356-b362-e823b104cb86))
  (fp_line (start 1.8 -1.55) (end -1.8 -1.55) (layer "F.CrtYd") (width 0.05) (tstamp b7646628-09b1-4d75-8426-921d5b34fe04))
  (fp_line (start -1.8 1.55) (end 1.8 1.55) (layer "F.CrtYd") (width 0.05) (tstamp bd9fcc60-fa95-4f57-9c75-01c93735e20a))
  (fp_line (start 2.405 -1.215) (end 1.8 -1.215) (layer "F.CrtYd") (width 0.05) (tstamp ca06ddf5-4b74-4dce-8af4-4530c3dc71d9))
  (fp_line (start 1.8 1.55) (end 1.8 1.215) (layer "F.CrtYd") (width 0.05) (tstamp d01d0889-d61f-42a9-aa75-b0f439664e17))
  (fp_line (start -2.405 -1.215) (end -2.405 1.215) (layer "F.CrtYd") (width 0.05) (tstamp ddd28860-dbfb-4dbd-84b7-c9497b9b8b08))
  (fp_line (start -1.6 -1.35) (end 1.6 -1.35) (layer "F.Fab") (width 0.16) (tstamp 382ed9ae-99d4-4d98-8d71-5940eb98ef57))
  (fp_line (start 0.002742 -0.342712) (end 0.002742 0.357288) (layer "F.Fab") (width 0.05) (tstamp 87573c80-4c3d-4850-b2bf-681eeaea26e0))
  (fp_line (start -1.6 1.35) (end -1.6 -1.35) (layer "F.Fab") (width 0.16) (tstamp 901dc281-449a-4217-aa9f-9d488f0a8079))
  (fp_line (start 1.6 1.35) (end -1.6 1.35) (layer "F.Fab") (width 0.16) (tstamp a67e7981-9ea5-4c78-ac28-57a97d4e405e))
  (fp_line (start 1.6 -1.35) (end 1.6 1.35) (layer "F.Fab") (width 0.16) (tstamp c117a432-c8ad-4726-a174-e30596bcb406))
  (fp_line (start 0.352742 0.007288) (end -0.347258 0.007288) (layer "F.Fab") (width 0.05) (tstamp e52c872e-c48f-421c-af37-394201df28d6))
  (fp_circle (center 0.002742 0.007288) (end 0.252742 0.007288) (layer "F.Fab") (width 0.05) (tstamp 5c181734-2edf-4484-94f3-b6d23d63d8fb))
  (pad "1" smd roundrect (at -1.52 0) (size 1.37 2.03) (layers "F.Cu" "F.Paste" "F.Mask") (roundrect_rratio 0.1825) (tstamp 1959107b-0927-4d79-a836-c59b8f218630))
  (pad "2" smd roundrect (at 1.52 0) (size 1.37 2.03) (layers "F.Cu" "F.Paste" "F.Mask") (roundrect_rratio 0.1825) (tstamp 0c01df93-8688-4f23-8f4c-2a3234a885a6))
  (model "${KISYS3DMOD}/INDM320X250X240L55X190.STEP"
    (offset (xyz 0 0 0))
    (scale (xyz 1 1 1))
    (rotate (xyz -90 0 0))
  )
)
