(module "LCC_ESP32-WROOM-32E" (layer "F.Cu") (tedit 5FB3AA77)
  (descr "Leadless Chip Carrier (LCC), 1.27 mm pitch; rect., 14 pin X 10 pin, 19.30 mm L X 18.00 mm W X 3.25 mm H body")
  (attr smd)
  (fp_text reference "REF**" (at 0 2.9845 270) (layer "F.SilkS")
    (effects (font (size 1.2 1.2) (thickness 0.16)))
    (tstamp 3985c593-7b79-4584-afbb-b9ef094de6e4)
  )
  (fp_text value "VAL**" (at 0 2.9845 270) (layer "F.Fab")
    (effects (font (size 1.2 1.2) (thickness 0.12)))
    (tstamp 2c24f1ae-dccd-4b52-973b-013a16d06679)
  )
  (fp_text user "${REFERENCE}" (at 0 2.9845 270) (layer "F.Fab")
    (effects (font (size 2 2) (thickness 0.2)))
    (tstamp 288cebd6-4e1e-40c2-a1eb-05c3412c294f)
  )
  (fp_line (start -9.08 -7.0155) (end -9.08 -12.9655) (layer "F.SilkS") (width 0.16) (tstamp 0ec64541-bda4-43b8-abda-696c0c2387b7))
  (fp_line (start -9.08 11.8945) (end -9.08 12.7145) (layer "F.SilkS") (width 0.16) (tstamp 21212d00-47c5-4f81-b1cd-1dc36bf27772))
  (fp_line (start 9.08 11.8945) (end 9.08 12.7145) (layer "F.SilkS") (width 0.16) (tstamp 2be4703a-d947-441b-8700-3c8a2e2cc774))
  (fp_line (start 9.08 12.7145) (end 6.37 12.7145) (layer "F.SilkS") (width 0.16) (tstamp 5839fc48-ee9d-494d-976e-861beb90c422))
  (fp_line (start 9.08 -5.9255) (end 9.08 -12.9655) (layer "F.SilkS") (width 0.16) (tstamp 6872f0fd-c254-4c0f-bd23-8b7e9cdeff1a))
  (fp_line (start -9.08 12.7145) (end -6.37 12.7145) (layer "F.SilkS") (width 0.16) (tstamp 99833e20-98fb-4887-98fb-fe9d4afddcf2))
  (fp_line (start -9.1 -7.0155) (end -11.1 -7.0155) (layer "F.SilkS") (width 0.16) (tstamp d1de1701-25b3-48bd-b6cf-9e5baa567a6d))
  (fp_line (start -9.08 -12.9655) (end 9.08 -12.9655) (layer "F.SilkS") (width 0.16) (tstamp eb5c9af0-3043-4675-a231-2edfac40c9e4))
  (fp_line (start -9 8.2495) (end -8.15 8.2495) (layer "Dwgs.User") (width 0.025) (tstamp 040d0943-f040-4ba7-9fe0-97a473eefaab))
  (fp_line (start -8.15 10.7895) (end -8.15 11.6895) (layer "Dwgs.User") (width 0.025) (tstamp 042cc2f2-2518-4956-b32d-dd6c62d190c9))
  (fp_line (start -9 0.2595) (end -9 -0.6405) (layer "Dwgs.User") (width 0.025) (tstamp 0788ae98-fd7f-4b17-91ab-9fcbe32fa402))
  (fp_line (start -8.15 3.1695) (end -8.15 4.0695) (layer "Dwgs.User") (width 0.025) (tstamp 07ca56d8-8791-432f-a3bc-589cbffc27ba))
  (fp_line (start -3.995 12.6345) (end -4.895 12.6345) (layer "Dwgs.User") (width 0.025) (tstamp 08ebd9c2-8aa6-4ba2-a97b-aaa451941543))
  (fp_line (start 6.165 11.7845) (end 6.165 12.6345) (layer "Dwgs.User") (width 0.025) (tstamp 0a7e449a-b989-4772-8bea-adf2489b4739))
  (fp_line (start 8.15 4.0695) (end 8.15 3.1695) (layer "Dwgs.User") (width 0.025) (tstamp 0abf1da3-3a07-4ed9-bcd9-fb53d9cff77d))
  (fp_line (start -9 9.5195) (end -8.15 9.5195) (layer "Dwgs.User") (width 0.025) (tstamp 0bc334e5-4323-4c63-8fe8-62c0ae04637e))
  (fp_line (start 0.185 12.6345) (end 0.185 11.7845) (layer "Dwgs.User") (width 0.025) (tstamp 0c2c0868-a8f1-4816-835f-8d981820a4de))
  (fp_line (start 9 10.4195) (end 8.15 10.4195) (layer "Dwgs.User") (width 0.025) (tstamp 0e1f1022-894e-4655-95b3-0a74234fa8ac))
  (fp_line (start 8.15 -4.8205) (end 8.15 -5.7205) (layer "Dwgs.User") (width 0.025) (tstamp 0eea87a8-970f-447c-a654-2e8344b76964))
  (fp_line (start 8.15 -0.6405) (end 9 -0.6405) (layer "Dwgs.User") (width 0.025) (tstamp 12f94722-f661-41cb-8062-b27f81ad672e))
  (fp_line (start 9 11.6895) (end 8.15 11.6895) (layer "Dwgs.User") (width 0.025) (tstamp 15e5ca48-17d5-4205-8d75-1740c80b62bd))
  (fp_line (start 8.15 8.2495) (end 9 8.2495) (layer "Dwgs.User") (width 0.025) (tstamp 167379a2-7de9-4834-9406-21dfdc7ad121))
  (fp_line (start 8.15 -2.2805) (end 8.15 -3.1805) (layer "Dwgs.User") (width 0.025) (tstamp 1693f00b-f063-4c71-9d6a-17043dc95d2d))
  (fp_line (start 6.165 12.6345) (end 5.265 12.6345) (layer "Dwgs.User") (width 0.025) (tstamp 170f11e8-03cd-4ab9-b927-3649e4b11153))
  (fp_line (start 8.15 0.6295) (end 9 0.6295) (layer "Dwgs.User") (width 0.025) (tstamp 1c11fcad-6462-4b73-8a4e-39fe0db4691d))
  (fp_line (start -9 1.8995) (end -8.15 1.8995) (layer "Dwgs.User") (width 0.025) (tstamp 1ced2b62-fe88-4244-9d14-fae7d2d76a10))
  (fp_line (start 9 2.7995) (end 8.15 2.7995) (layer "Dwgs.User") (width 0.025) (tstamp 1d3ae646-bb2a-42c9-977d-c1caa67567c2))
  (fp_line (start 9 4.4395) (end 9 5.3395) (layer "Dwgs.User") (width 0.025) (tstamp 1f7d3bfc-63ea-468f-93e6-d99acc18bc7e))
  (fp_line (start 9 -3.1805) (end 9 -2.2805) (layer "Dwgs.User") (width 0.025) (tstamp 1f8a3d46-d965-4c58-bf48-f5329ae82641))
  (fp_line (start -9 -3.1805) (end -8.15 -3.1805) (layer "Dwgs.User") (width 0.025) (tstamp 1f99c2bf-0b5c-4b09-9d5b-73c6cf915773))
  (fp_line (start -8.15 4.4395) (end -8.15 5.3395) (layer "Dwgs.User") (width 0.025) (tstamp 25fdfd49-bc59-479e-8ee3-94262589a889))
  (fp_line (start 8.15 10.4195) (end 8.15 9.5195) (layer "Dwgs.User") (width 0.025) (tstamp 263472bf-5195-45b7-900f-789f83c1b73c))
  (fp_line (start -9 4.0695) (end -9 3.1695) (layer "Dwgs.User") (width 0.025) (tstamp 29a76070-09fb-4329-95ab-9e0db7bfbb50))
  (fp_line (start 8.15 10.7895) (end 9 10.7895) (layer "Dwgs.User") (width 0.025) (tstamp 2a087107-e7d4-43d9-a0cb-7518aa15b078))
  (fp_line (start 9 6.9795) (end 9 7.8795) (layer "Dwgs.User") (width 0.025) (tstamp 2a684f6e-4796-4333-9aeb-2927fd773e0a))
  (fp_line (start 9 -6.6655) (end 9 12.6345) (layer "Dwgs.User") (width 0.025) (tstamp 2c861485-870e-4620-ba40-9ce5a31eb11d))
  (fp_line (start -9 6.9795) (end -8.15 6.9795) (layer "Dwgs.User") (width 0.025) (tstamp 2d963f59-7537-48ba-a77f-c2351bb389ca))
  (fp_line (start -9 5.7095) (end -8.15 5.7095) (layer "Dwgs.User") (width 0.025) (tstamp 2fc8bf99-5997-4769-831e-8dfbc6a710ca))
  (fp_line (start -9 -0.6405) (end -8.15 -0.6405) (layer "Dwgs.User") (width 0.025) (tstamp 326581e7-a8a9-4482-879d-590954360afe))
  (fp_line (start 8.15 -4.4505) (end 9 -4.4505) (layer "Dwgs.User") (width 0.025) (tstamp 33dc3022-7310-45af-b8d5-efc231e36b91))
  (fp_line (start -9 12.6345) (end -9 -6.6655) (layer "Dwgs.User") (width 0.025) (tstamp 385197c4-bb52-4454-91e0-0b68e8c77a48))
  (fp_line (start 8.15 6.6095) (end 8.15 5.7095) (layer "Dwgs.User") (width 0.025) (tstamp 3a69a726-b649-4f8b-9bf1-454df0f748f1))
  (fp_line (start 3.625 11.7845) (end 3.625 12.6345) (layer "Dwgs.User") (width 0.025) (tstamp 3e107531-9c93-44b0-8956-530883de3650))
  (fp_line (start 8.15 5.7095) (end 9 5.7095) (layer "Dwgs.User") (width 0.025) (tstamp 3e7164e6-b2eb-48ca-9b5b-2e3ea6faa50b))
  (fp_line (start 3.995 12.6345) (end 3.995 11.7845) (layer "Dwgs.User") (width 0.025) (tstamp 43a15b49-6db2-4268-889d-783b4c55574b))
  (fp_line (start 5.265 12.6345) (end 5.265 11.7845) (layer "Dwgs.User") (width 0.025) (tstamp 44e4c9fd-3804-4695-a1d3-677a3b014010))
  (fp_line (start 8.15 -1.9105) (end 9 -1.9105) (layer "Dwgs.User") (width 0.025) (tstamp 4916317a-7faf-4f05-a36d-475b091057ae))
  (fp_line (start 2.355 11.7845) (end 2.355 12.6345) (layer "Dwgs.User") (width 0.025) (tstamp 4b7013e3-4389-4a21-99cb-7eedb856461f))
  (fp_line (start -9 -12.9655) (end 9 -12.9655) (layer "Dwgs.User") (width 0.025) (tstamp 4bf23fa8-2a66-4c4f-b0cf-34e7e9b81233))
  (fp_line (start -9 10.4195) (end -9 9.5195) (layer "Dwgs.User") (width 0.025) (tstamp 4d73d402-4c26-4e08-93a9-a55e9bac0467))
  (fp_line (start -5.265 11.7845) (end -5.265 12.6345) (layer "Dwgs.User") (width 0.025) (tstamp 4da455e7-a5d9-4873-a793-2699361db12a))
  (fp_line (start -6.165 12.6345) (end -6.165 11.7845) (layer "Dwgs.User") (width 0.025) (tstamp 4ebfaa1c-9615-4f2b-8db0-a140885ae39c))
  (fp_line (start -8.15 1.5295) (end -9 1.5295) (layer "Dwgs.User") (width 0.025) (tstamp 5195ae6c-1ecf-4a52-8825-1574627ad9f9))
  (fp_line (start -9 -4.4505) (end -8.15 -4.4505) (layer "Dwgs.User") (width 0.025) (tstamp 522ae6a3-8a0a-4bd2-bc9c-7a0f819531b8))
  (fp_line (start 8.15 4.4395) (end 9 4.4395) (layer "Dwgs.User") (width 0.025) (tstamp 52804a2c-32f9-4063-a2d9-9624719db0f6))
  (fp_line (start -8.15 4.0695) (end -9 4.0695) (layer "Dwgs.User") (width 0.025) (tstamp 52d4790e-1f94-4886-93ac-66ece5d208fd))
  (fp_line (start -3.625 11.7845) (end -2.725 11.7845) (layer "Dwgs.User") (width 0.025) (tstamp 573dd1d2-d0dc-4700-a16c-27aaf6a88866))
  (fp_line (start 8.15 9.1495) (end 8.15 8.2495) (layer "Dwgs.User") (width 0.025) (tstamp 57940a95-70ab-444e-85ea-0e303a738991))
  (fp_line (start -8.15 -2.2805) (end -9 -2.2805) (layer "Dwgs.User") (width 0.025) (tstamp 5908c0ce-c0f3-4ce3-9447-2033249643c5))
  (fp_line (start 9 0.6295) (end 9 1.5295) (layer "Dwgs.User") (width 0.025) (tstamp 5ba77696-4752-43f9-8cfe-e1b84fc5372c))
  (fp_line (start 9 0.2595) (end 8.15 0.2595) (layer "Dwgs.User") (width 0.025) (tstamp 5bbdc28a-a1e8-46a2-8c5d-c56f504aafca))
  (fp_line (start 9 9.1495) (end 8.15 9.1495) (layer "Dwgs.User") (width 0.025) (tstamp 5c90ea50-48cb-43f9-b7d5-538b30db760d))
  (fp_line (start 8.15 0.2595) (end 8.15 -0.6405) (layer "Dwgs.User") (width 0.025) (tstamp 5d85b2a7-844f-40c3-8288-8bbda36ad4f6))
  (fp_line (start -8.15 5.7095) (end -8.15 6.6095) (layer "Dwgs.User") (width 0.025) (tstamp 5df82fd6-b7b0-48fd-b66a-57bd1149864a))
  (fp_line (start 9 -0.6405) (end 9 0.2595) (layer "Dwgs.User") (width 0.025) (tstamp 6162aa7c-dc6e-400c-b0d1-822045b30950))
  (fp_line (start 2.725 12.6345) (end 2.725 11.7845) (layer "Dwgs.User") (width 0.025) (tstamp 64d1f172-3d10-417f-8536-b1ffca58149f))
  (fp_line (start 8.15 1.8995) (end 9 1.8995) (layer "Dwgs.User") (width 0.025) (tstamp 65e53e91-15ee-484e-aa77-097ba9e571cb))
  (fp_line (start 8.15 9.5195) (end 9 9.5195) (layer "Dwgs.User") (width 0.025) (tstamp 67c3f66c-56f9-4316-bf6d-08b061564489))
  (fp_line (start -8.15 11.6895) (end -9 11.6895) (layer "Dwgs.User") (width 0.025) (tstamp 6b50b1c3-fa91-4bd3-96b3-a27df765693e))
  (fp_line (start 1.085 11.7845) (end 1.085 12.6345) (layer "Dwgs.User") (width 0.025) (tstamp 6df732b8-757d-4b65-a1b0-6477e24e9615))
  (fp_line (start -9 0.6295) (end -8.15 0.6295) (layer "Dwgs.User") (width 0.025) (tstamp 7229f2c5-987d-4dd8-8923-b6537e9c6214))
  (fp_line (start -8.15 -5.7205) (end -8.15 -4.8205) (layer "Dwgs.User") (width 0.025) (tstamp 72cfd444-d00c-4257-81a0-4d55f3b5584f))
  (fp_line (start 9 8.2495) (end 9 9.1495) (layer "Dwgs.User") (width 0.025) (tstamp 750ba4a5-a64f-4003-865b-65f019a653c0))
  (fp_line (start 9 1.8995) (end 9 2.7995) (layer "Dwgs.User") (width 0.025) (tstamp 76184404-c43e-4e11-96a7-a407d7d7b60b))
  (fp_line (start -9 2.7995) (end -9 1.8995) (layer "Dwgs.User") (width 0.025) (tstamp 77522ce4-d1fa-4ca9-9625-605cfe14e7ec))
  (fp_line (start -4.895 12.6345) (end -4.895 11.7845) (layer "Dwgs.User") (width 0.025) (tstamp 779fe540-a00d-41a0-9a85-c2b54daa703a))
  (fp_line (start 8.15 1.5295) (end 8.15 0.6295) (layer "Dwgs.User") (width 0.025) (tstamp 77d753d6-cbd9-4314-bee5-bb9663cd8114))
  (fp_line (start 9 10.7895) (end 9 11.6895) (layer "Dwgs.User") (width 0.025) (tstamp 77dc433d-dfd1-4409-9d62-a3f0ebcceaae))
  (fp_line (start -9 11.6895) (end -9 10.7895) (layer "Dwgs.User") (width 0.025) (tstamp 7aa8b20c-e0ee-4e1d-8b8c-8e1e297e8ee6))
  (fp_line (start -3.625 12.6345) (end -3.625 11.7845) (layer "Dwgs.User") (width 0.025) (tstamp 7e5fb9f6-53f4-445d-be87-ab8daa9d7d63))
  (fp_line (start 8.15 7.8795) (end 8.15 6.9795) (layer "Dwgs.User") (width 0.025) (tstamp 81774510-f226-4496-93fc-b5b566f81d23))
  (fp_line (start -1.085 12.6345) (end -1.085 11.7845) (layer "Dwgs.User") (width 0.025) (tstamp 81844323-394f-41ea-ae47-32f16a481150))
  (fp_line (start -8.15 0.2595) (end -9 0.2595) (layer "Dwgs.User") (width 0.025) (tstamp 81f0fabd-2cf7-4cf9-ab24-a5bc96d6cfa4))
  (fp_line (start 9 -4.4505) (end 9 -3.5505) (layer "Dwgs.User") (width 0.025) (tstamp 85c382d4-d3d6-41cc-9625-498d38ac3608))
  (fp_line (start -6.165 11.7845) (end -5.265 11.7845) (layer "Dwgs.User") (width 0.025) (tstamp 867b3ad8-a462-4beb-942b-b49dd08224aa))
  (fp_line (start 1.455 11.7845) (end 2.355 11.7845) (layer "Dwgs.User") (width 0.025) (tstamp 8c259003-06fe-4561-90da-fc23201014d7))
  (fp_line (start -9 -1.9105) (end -8.15 -1.9105) (layer "Dwgs.User") (width 0.025) (tstamp 8d3b7bf6-9cb7-487e-9fbc-a9ba141cbfd3))
  (fp_line (start 8.15 -3.1805) (end 9 -3.1805) (layer "Dwgs.User") (width 0.025) (tstamp 8ebca4d2-9b38-44ce-83a7-2bbc26db5502))
  (fp_line (start 4.895 11.7845) (end 4.895 12.6345) (layer "Dwgs.User") (width 0.025) (tstamp 90a0949c-5f09-46c8-8e06-2e5d6bfed0e5))
  (fp_line (start 9 5.7095) (end 9 6.6095) (layer "Dwgs.User") (width 0.025) (tstamp 90d5e842-36cd-44d6-904c-8d8d677d0650))
  (fp_line (start 9 -4.8205) (end 8.15 -4.8205) (layer "Dwgs.User") (width 0.025) (tstamp 90d8886d-3b40-4c22-b820-cabdcca2caf2))
  (fp_line (start -9 1.5295) (end -9 0.6295) (layer "Dwgs.User") (width 0.025) (tstamp 91f7890f-cdb1-4e1f-8f08-15353872075a))
  (fp_line (start 9 3.1695) (end 9 4.0695) (layer "Dwgs.User") (width 0.025) (tstamp 959f5ab1-7bc9-471b-9e29-3006bfacf504))
  (fp_line (start 3.625 12.6345) (end 2.725 12.6345) (layer "Dwgs.User") (width 0.025) (tstamp 95dc804b-1f8a-457b-b89c-565bd6f0ca54))
  (fp_line (start -1.455 11.7845) (end -1.455 12.6345) (layer "Dwgs.User") (width 0.025) (tstamp 967cc5ec-b40f-46b6-b95e-578fdf962bfa))
  (fp_line (start -9 7.8795) (end -9 6.9795) (layer "Dwgs.User") (width 0.025) (tstamp 9a4e5e46-5f1a-4915-8a38-cfc0bdd2bb3c))
  (fp_line (start -8.15 7.8795) (end -9 7.8795) (layer "Dwgs.User") (width 0.025) (tstamp 9c1a1241-64ff-46ff-bdb7-6f169b735dbe))
  (fp_line (start -0.185 11.7845) (end -0.185 12.6345) (layer "Dwgs.User") (width 0.025) (tstamp 9c7decf5-9c37-406d-81c6-56297b3b0d01))
  (fp_line (start 8.15 2.7995) (end 8.15 1.8995) (layer "Dwgs.User") (width 0.025) (tstamp 9e17231e-b8e2-4ece-908d-be961343bdc2))
  (fp_line (start -8.15 -3.1805) (end -8.15 -2.2805) (layer "Dwgs.User") (width 0.025) (tstamp 9f1486a3-9f32-466a-9da3-21847f1c87ba))
  (fp_line (start -9 10.7895) (end -8.15 10.7895) (layer "Dwgs.User") (width 0.025) (tstamp 9f65209c-4dec-411e-9c07-2e0c5583c8cd))
  (fp_line (start 4.895 12.6345) (end 3.995 12.6345) (layer "Dwgs.User") (width 0.025) (tstamp a005c261-903e-450f-9e11-d1ce66d35a40))
  (fp_line (start -8.15 1.8995) (end -8.15 2.7995) (layer "Dwgs.User") (width 0.025) (tstamp a3f069fd-b241-41ac-92ed-6bb161e7c516))
  (fp_line (start -5.265 12.6345) (end -6.165 12.6345) (layer "Dwgs.User") (width 0.025) (tstamp a6bdf692-9afa-4087-a713-7e920ae48a79))
  (fp_line (start 3.995 11.7845) (end 4.895 11.7845) (layer "Dwgs.User") (width 0.025) (tstamp a7971021-6252-439f-af63-b9a5f805edb4))
  (fp_line (start -8.15 -3.5505) (end -9 -3.5505) (layer "Dwgs.User") (width 0.025) (tstamp a7d10c23-931c-4e6a-880f-c1fe52a01d27))
  (fp_line (start -0.185 12.6345) (end -1.085 12.6345) (layer "Dwgs.User") (width 0.025) (tstamp a92c7ffa-d396-4cd3-9cdd-4f05e4227cf4))
  (fp_line (start -8.15 9.1495) (end -9 9.1495) (layer "Dwgs.User") (width 0.025) (tstamp aa9d5b2f-3694-4ddd-83cf-4bb7b5df0ff2))
  (fp_line (start -8.15 0.6295) (end -8.15 1.5295) (layer "Dwgs.User") (width 0.025) (tstamp acb177ce-d7eb-439f-9824-223f747078da))
  (fp_line (start -9 -5.7205) (end -8.15 -5.7205) (layer "Dwgs.User") (width 0.025) (tstamp af48ea4d-0f00-459b-bd5d-956a3350dd11))
  (fp_line (start 2.355 12.6345) (end 1.455 12.6345) (layer "Dwgs.User") (width 0.025) (tstamp afe81783-745a-4e13-9098-065511d74d3d))
  (fp_line (start 8.15 6.9795) (end 9 6.9795) (layer "Dwgs.User") (width 0.025) (tstamp b0762322-b2f8-4410-a818-2de8d8cf3e80))
  (fp_line (start -9 3.1695) (end -8.15 3.1695) (layer "Dwgs.User") (width 0.025) (tstamp b25a9744-fd3c-4fb9-b16b-cab94783d05a))
  (fp_line (start 8.15 -1.0105) (end 8.15 -1.9105) (layer "Dwgs.User") (width 0.025) (tstamp b6451042-7d3d-4f39-84e9-5f779c0c3764))
  (fp_line (start -8.15 6.6095) (end -9 6.6095) (layer "Dwgs.User") (width 0.025) (tstamp b786f493-b126-44c6-80be-15f99b1d72d5))
  (fp_line (start -2.355 12.6345) (end -2.355 11.7845) (layer "Dwgs.User") (width 0.025) (tstamp b9e5db77-eeeb-421f-9674-9b891ef31aa9))
  (fp_line (start 2.725 11.7845) (end 3.625 11.7845) (layer "Dwgs.User") (width 0.025) (tstamp b9ed3a0e-0343-4931-a50c-7a7dd11edb42))
  (fp_line (start -9 9.1495) (end -9 8.2495) (layer "Dwgs.User") (width 0.025) (tstamp baafdd2e-eab0-4a74-a27c-0741d3be8e50))
  (fp_line (start -2.355 11.7845) (end -1.455 11.7845) (layer "Dwgs.User") (width 0.025) (tstamp be148243-4af0-4c85-9903-0ad4f754ce86))
  (fp_line (start 1.085 12.6345) (end 0.185 12.6345) (layer "Dwgs.User") (width 0.025) (tstamp c28b92b3-b728-4856-bfe2-2ced47557a78))
  (fp_line (start 9 5.3395) (end 8.15 5.3395) (layer "Dwgs.User") (width 0.025) (tstamp c312ed58-0d22-4181-b3cf-139390c315c2))
  (fp_line (start -9 5.3395) (end -9 4.4395) (layer "Dwgs.User") (width 0.025) (tstamp c3a0aa81-8d0b-460e-ad7f-145268e93b3d))
  (fp_line (start -4.895 11.7845) (end -3.995 11.7845) (layer "Dwgs.User") (width 0.025) (tstamp c48f8001-99c7-498f-be43-cba00a98faf2))
  (fp_line (start 9 1.5295) (end 8.15 1.5295) (layer "Dwgs.User") (width 0.025) (tstamp c5bbe165-0fed-4fd8-a377-f7b8340d0ef8))
  (fp_line (start -8.15 5.3395) (end -9 5.3395) (layer "Dwgs.User") (width 0.025) (tstamp c5dade23-7575-4431-8151-c1971805bb8d))
  (fp_line (start -8.15 8.2495) (end -8.15 9.1495) (layer "Dwgs.User") (width 0.025) (tstamp c65b9c85-caf8-45a7-8bf0-575593536b9b))
  (fp_line (start 0.185 11.7845) (end 1.085 11.7845) (layer "Dwgs.User") (width 0.025) (tstamp c7551591-ad3b-4294-b20c-81c48e0bec47))
  (fp_line (start 9 -5.7205) (end 9 -4.8205) (layer "Dwgs.User") (width 0.025) (tstamp cbaa8dac-324c-490d-8ce3-a992b5d5b115))
  (fp_line (start 9 6.6095) (end 8.15 6.6095) (layer "Dwgs.User") (width 0.025) (tstamp cbf45bb4-a0b5-4fc9-9927-d43ada51cceb))
  (fp_line (start -2.725 11.7845) (end -2.725 12.6345) (layer "Dwgs.User") (width 0.025) (tstamp cc9a3c2b-4f22-4a32-909a-df774d786416))
  (fp_line (start 9 -1.9105) (end 9 -1.0105) (layer "Dwgs.User") (width 0.025) (tstamp ce46de79-9325-430c-96ed-d8372abffca4))
  (fp_line (start 8.15 -3.5505) (end 8.15 -4.4505) (layer "Dwgs.User") (width 0.025) (tstamp d009f686-73ad-458e-bfd5-120e56e5b239))
  (fp_line (start 8.15 3.1695) (end 9 3.1695) (layer "Dwgs.User") (width 0.025) (tstamp d42c5d66-e477-4f6b-9270-27e632b31490))
  (fp_line (start -2.725 12.6345) (end -3.625 12.6345) (layer "Dwgs.User") (width 0.025) (tstamp d54f7eb9-3512-4280-9325-9266156e7ec2))
  (fp_line (start -9 6.6095) (end -9 5.7095) (layer "Dwgs.User") (width 0.025) (tstamp d6fed92e-cf5d-4c1c-b47b-363d15031cdf))
  (fp_line (start -8.15 -1.0105) (end -9 -1.0105) (layer "Dwgs.User") (width 0.025) (tstamp d7a64a35-d1cc-424d-8c75-a8a4cee507f9))
  (fp_line (start -8.15 2.7995) (end -9 2.7995) (layer "Dwgs.User") (width 0.025) (tstamp d9088c6a-a6cc-4f5f-b7db-c04b17fe4b62))
  (fp_line (start -8.15 10.4195) (end -9 10.4195) (layer "Dwgs.User") (width 0.025) (tstamp d9604db0-2b53-4a6f-a6c9-3db67198ca45))
  (fp_line (start 8.15 -5.7205) (end 9 -5.7205) (layer "Dwgs.User") (width 0.025) (tstamp d964e149-d207-4c33-a59f-16ed31e3188e))
  (fp_line (start 9 12.6345) (end -9 12.6345) (layer "Dwgs.User") (width 0.025) (tstamp da9b005f-b699-4af8-b7e9-9c93c6b73b18))
  (fp_line (start 1.455 12.6345) (end 1.455 11.7845) (layer "Dwgs.User") (width 0.025) (tstamp e09c1e12-57e6-45f9-aa7d-0ae88a1c582d))
  (fp_line (start -8.15 -4.8205) (end -9 -4.8205) (layer "Dwgs.User") (width 0.025) (tstamp e1a6b72d-f5f0-4b3c-95e0-0e1d743efeda))
  (fp_line (start -3.995 11.7845) (end -3.995 12.6345) (layer "Dwgs.User") (width 0.025) (tstamp e2fadb84-6385-446a-a383-ac2b21bd90f8))
  (fp_line (start -9 -3.5505) (end -9 -4.4505) (layer "Dwgs.User") (width 0.025) (tstamp e506ae42-4f9c-4032-8d8f-260179e356c4))
  (fp_line (start -8.15 9.5195) (end -8.15 10.4195) (layer "Dwgs.User") (width 0.025) (tstamp e7009f48-2219-4781-9dc1-a1df47667995))
  (fp_line (start 5.265 11.7845) (end 6.165 11.7845) (layer "Dwgs.User") (width 0.025) (tstamp e7498e15-d203-42e4-912d-b4073e36af5a))
  (fp_line (start -1.455 12.6345) (end -2.355 12.6345) (layer "Dwgs.User") (width 0.025) (tstamp e94257e0-b555-4806-be51-5bca38b77f73))
  (fp_line (start -8.15 -0.6405) (end -8.15 0.2595) (layer "Dwgs.User") (width 0.025) (tstamp edd080dc-234d-496b-a51a-221fecd0164d))
  (fp_line (start 9 9.5195) (end 9 10.4195) (layer "Dwgs.User") (width 0.025) (tstamp efd0f89d-71e3-4807-b114-03fa6b48e100))
  (fp_line (start 9 7.8795) (end 8.15 7.8795) (layer "Dwgs.User") (width 0.025) (tstamp efd556a6-9877-469c-a563-b02931db7969))
  (fp_line (start -8.15 -1.9105) (end -8.15 -1.0105) (layer "Dwgs.User") (width 0.025) (tstamp f0968ea5-250c-4d02-944d-545dfc69a377))
  (fp_line (start -9 -1.0105) (end -9 -1.9105) (layer "Dwgs.User") (width 0.025) (tstamp f39a3d54-978e-4a32-a364-5887d4fcce3c))
  (fp_line (start 8.15 11.6895) (end 8.15 10.7895) (layer "Dwgs.User") (width 0.025) (tstamp f40733b6-a4c9-44b6-8f99-ad88a38ae68d))
  (fp_line (start 8.15 5.3395) (end 8.15 4.4395) (layer "Dwgs.User") (width 0.025) (tstamp f43db189-da9e-4baf-8816-5200cd12789c))
  (fp_line (start -9 -4.8205) (end -9 -5.7205) (layer "Dwgs.User") (width 0.025) (tstamp f4c83bdf-51ef-4bc2-af08-67646ffc98ac))
  (fp_line (start -1.085 11.7845) (end -0.185 11.7845) (layer "Dwgs.User") (width 0.025) (tstamp f731346b-d9fc-467f-8aea-0bfab37a3f1a))
  (fp_line (start -9 4.4395) (end -8.15 4.4395) (layer "Dwgs.User") (width 0.025) (tstamp f85fb4d5-2137-45a2-b0fd-2c4e3dcae6f6))
  (fp_line (start -8.15 6.9795) (end -8.15 7.8795) (layer "Dwgs.User") (width 0.025) (tstamp fa574d83-1e80-445b-a484-02b4bf56768b))
  (fp_line (start 9 -3.5505) (end 8.15 -3.5505) (layer "Dwgs.User") (width 0.025) (tstamp fb53deb2-7718-4a62-be61-3fd723e63030))
  (fp_line (start 9 4.0695) (end 8.15 4.0695) (layer "Dwgs.User") (width 0.025) (tstamp fb8798e4-0740-4cce-b6bc-e590fecb4a9d))
  (fp_line (start -9 -2.2805) (end -9 -3.1805) (layer "Dwgs.User") (width 0.025) (tstamp fd08c1b1-35b2-4241-ab41-075ac3a0f365))
  (fp_line (start 9 -1.0105) (end 8.15 -1.0105) (layer "Dwgs.User") (width 0.025) (tstamp fde11288-3964-46e6-9b3d-6cbd5834e504))
  (fp_line (start 9 -2.2805) (end 8.15 -2.2805) (layer "Dwgs.User") (width 0.025) (tstamp fe8b2939-0da8-47e4-843d-3cb90092f301))
  (fp_line (start -8.15 -4.4505) (end -8.15 -3.5505) (layer "Dwgs.User") (width 0.025) (tstamp ffba4c5d-46c8-43c0-a069-6cfae31addc3))
  (fp_line (start 0 2.6345) (end 0 3.3345) (layer "F.CrtYd") (width 0.05) (tstamp 1538f2bd-1f30-4172-8045-838571d75126))
  (fp_line (start -9.28 12.9145) (end -6.385 12.9145) (layer "F.CrtYd") (width 0.05) (tstamp 20d9492c-c68b-49b0-9fe6-3a6087c4770f))
  (fp_line (start 9.28 11.9095) (end 9.735 11.9095) (layer "F.CrtYd") (width 0.05) (tstamp 33ca3d83-e9ee-45de-9cab-6c9b9827a3ac))
  (fp_line (start -9.735 11.9095) (end -9.28 11.9095) (layer "F.CrtYd") (width 0.05) (tstamp 3e7c2c62-616a-4050-82c6-6fbd215c1bfd))
  (fp_line (start 6.385 13.3695) (end 6.385 12.9145) (layer "F.CrtYd") (width 0.05) (tstamp 4039a489-b3a1-4a24-9413-4537f2db0240))
  (fp_line (start 9.28 12.9145) (end 9.28 11.9095) (layer "F.CrtYd") (width 0.05) (tstamp 51d031d1-f577-47fc-b5f4-29e68be0f8b9))
  (fp_line (start -9.735 -13.1655) (end -9.735 11.9095) (layer "F.CrtYd") (width 0.05) (tstamp 568d5dcd-1ddf-4747-83e0-b5d8117505a9))
  (fp_line (start -6.385 12.9145) (end -6.385 13.3695) (layer "F.CrtYd") (width 0.05) (tstamp 6d5fe60f-358c-46ec-a449-ac0c9cf53d53))
  (fp_line (start 0.35 2.9845) (end -0.35 2.9845) (layer "F.CrtYd") (width 0.05) (tstamp 996004a2-dbec-49cf-b02a-9ddbe2d01354))
  (fp_line (start -6.385 13.3695) (end 6.385 13.3695) (layer "F.CrtYd") (width 0.05) (tstamp 996f081a-cc0a-437a-bc97-1f49a2ddff37))
  (fp_line (start 6.385 12.9145) (end 9.28 12.9145) (layer "F.CrtYd") (width 0.05) (tstamp aeaf5ee8-947d-468e-a5a5-7ee1cdbed883))
  (fp_line (start -9.28 11.9095) (end -9.28 12.9145) (layer "F.CrtYd") (width 0.05) (tstamp b4bf69c9-9e30-4ab2-abe8-7ba03e2a09ae))
  (fp_line (start 9.735 11.9095) (end 9.735 -13.1655) (layer "F.CrtYd") (width 0.05) (tstamp b9e37061-2105-4552-a198-4d63e31b7243))
  (fp_line (start -9.735 -13.1655) (end 9.735 -13.1655) (layer "F.CrtYd") (width 0.05) (tstamp ca87f1ed-de39-41ce-aed7-1f9b82b659e9))
  (fp_circle (center 0 2.9845) (end -0.25 2.9845) (layer "F.CrtYd") (width 0.05) (tstamp 1e91fb2c-d411-4575-b896-5e079c2b778e))
  (fp_line (start -9.08 -12.9655) (end 9.08 -12.9655) (layer "F.Fab") (width 0.12) (tstamp 2818b005-48ae-4b38-884b-ed68d9c74e43))
  (fp_line (start 9.08 12.7145) (end -9.08 12.7145) (layer "F.Fab") (width 0.12) (tstamp bc29b36c-e43f-4414-86e5-35ab4b124b46))
  (fp_line (start 9.08 -12.9655) (end 9.08 12.7145) (layer "F.Fab") (width 0.12) (tstamp db9143d2-d233-4fa0-ad2f-01d0165adc19))
  (fp_line (start -9.08 12.7145) (end -9.08 -12.9655) (layer "F.Fab") (width 0.12) (tstamp dc092cf4-f756-43dd-be6e-edccf8805e47))
  (pad "1" smd roundrect (at -8.795 -5.2705) (size 1.48 0.94) (layers "F.Cu" "F.Paste" "F.Mask") (roundrect_rratio 0.2553) (tstamp e70ae680-5ea1-45f1-9abf-c62378b60b1b))
  (pad "2" smd roundrect (at -8.795 -4.0005) (size 1.48 0.94) (layers "F.Cu" "F.Paste" "F.Mask") (roundrect_rratio 0.2553) (tstamp 92e954d0-dd25-435d-903d-344ad7ae2149))
  (pad "3" smd roundrect (at -8.795 -2.7305) (size 1.48 0.94) (layers "F.Cu" "F.Paste" "F.Mask") (roundrect_rratio 0.2553) (tstamp 8320deda-13c3-4a29-9ae7-4fe77b4ba365))
  (pad "4" smd roundrect (at -8.795 -1.4605) (size 1.48 0.94) (layers "F.Cu" "F.Paste" "F.Mask") (roundrect_rratio 0.2553) (tstamp c72af444-8ccf-4a6d-8100-f427259bbc55))
  (pad "5" smd roundrect (at -8.795 -0.1905) (size 1.48 0.94) (layers "F.Cu" "F.Paste" "F.Mask") (roundrect_rratio 0.2553) (tstamp 4c20dc16-fcf0-4afa-8ce5-dec36dd6070d))
  (pad "6" smd roundrect (at -8.795 1.0795) (size 1.48 0.94) (layers "F.Cu" "F.Paste" "F.Mask") (roundrect_rratio 0.2553) (tstamp 042df45a-891d-4013-a51e-99364d25dec1))
  (pad "7" smd roundrect (at -8.795 2.3495) (size 1.48 0.94) (layers "F.Cu" "F.Paste" "F.Mask") (roundrect_rratio 0.2553) (tstamp 737e104b-7ee9-49d1-b4af-14c43e9f85d8))
  (pad "8" smd roundrect (at -8.795 3.6195) (size 1.48 0.94) (layers "F.Cu" "F.Paste" "F.Mask") (roundrect_rratio 0.2553) (tstamp 88c8404f-0259-40e1-8fb8-be90756025c1))
  (pad "9" smd roundrect (at -8.795 4.8895) (size 1.48 0.94) (layers "F.Cu" "F.Paste" "F.Mask") (roundrect_rratio 0.2553) (tstamp 35e68bfb-e12e-4567-b483-64e0bc9872a7))
  (pad "10" smd roundrect (at -8.795 6.1595) (size 1.48 0.94) (layers "F.Cu" "F.Paste" "F.Mask") (roundrect_rratio 0.2553) (tstamp 20500c59-64d2-4be8-a3a8-5cd2b4c7eebd))
  (pad "11" smd roundrect (at -8.795 7.4295) (size 1.48 0.94) (layers "F.Cu" "F.Paste" "F.Mask") (roundrect_rratio 0.2553) (tstamp 20bcbf96-0c12-4446-8721-0fb9aa3e59c2))
  (pad "12" smd roundrect (at -8.795 8.6995) (size 1.48 0.94) (layers "F.Cu" "F.Paste" "F.Mask") (roundrect_rratio 0.2553) (tstamp 65d25b67-b7ca-480d-9119-29b01cf23958))
  (pad "13" smd roundrect (at -8.795 9.9695) (size 1.48 0.94) (layers "F.Cu" "F.Paste" "F.Mask") (roundrect_rratio 0.2553) (tstamp 572b98cb-d5de-4c41-a4bd-d415f5d61c61))
  (pad "14" smd roundrect (at -8.795 11.2395) (size 1.48 0.94) (layers "F.Cu" "F.Paste" "F.Mask") (roundrect_rratio 0.2553) (tstamp 99c0db02-d7fb-4010-9cb4-b242840070aa))
  (pad "15" smd roundrect (at -5.715 12.4295 270) (size 1.48 0.94) (layers "F.Cu" "F.Paste" "F.Mask") (roundrect_rratio 0.2553) (tstamp 7a526d55-7bc5-41b2-9f7b-ddded1d89df8))
  (pad "16" smd roundrect (at -4.445 12.4295 270) (size 1.48 0.94) (layers "F.Cu" "F.Paste" "F.Mask") (roundrect_rratio 0.2553) (tstamp 4bc53aeb-3201-4c19-8031-e581c5e0dc87))
  (pad "17" smd roundrect (at -3.175 12.4295 270) (size 1.48 0.94) (layers "F.Cu" "F.Paste" "F.Mask") (roundrect_rratio 0.2553) (tstamp 3042fde0-1b6d-4cbb-9ef4-e46c79d2016c))
  (pad "18" smd roundrect (at -1.905 12.4295 270) (size 1.48 0.94) (layers "F.Cu" "F.Paste" "F.Mask") (roundrect_rratio 0.2553) (tstamp c1ffc2b7-5efb-4961-a019-5ac22702b002))
  (pad "19" smd roundrect (at -0.635 12.4295 270) (size 1.48 0.94) (layers "F.Cu" "F.Paste" "F.Mask") (roundrect_rratio 0.2553) (tstamp 2c8f6a58-dd2d-4485-a4d1-0371ac008288))
  (pad "20" smd roundrect (at 0.635 12.4295 270) (size 1.48 0.94) (layers "F.Cu" "F.Paste" "F.Mask") (roundrect_rratio 0.2553) (tstamp 62919115-eddc-4311-9023-38a2af80b203))
  (pad "21" smd roundrect (at 1.905 12.4295 270) (size 1.48 0.94) (layers "F.Cu" "F.Paste" "F.Mask") (roundrect_rratio 0.2553) (tstamp 66f1f15d-5a0e-4458-949c-06218bb9314e))
  (pad "22" smd roundrect (at 3.175 12.4295 270) (size 1.48 0.94) (layers "F.Cu" "F.Paste" "F.Mask") (roundrect_rratio 0.2553) (tstamp 504e978c-e912-4523-9d4c-2421153d4f17))
  (pad "23" smd roundrect (at 4.445 12.4295 270) (size 1.48 0.94) (layers "F.Cu" "F.Paste" "F.Mask") (roundrect_rratio 0.2553) (tstamp e3e26767-4f3a-41d5-ab48-bbb6a714850e))
  (pad "24" smd roundrect (at 5.715 12.4295 270) (size 1.48 0.94) (layers "F.Cu" "F.Paste" "F.Mask") (roundrect_rratio 0.2553) (tstamp 999044c2-b8de-426d-8ee0-88ac72be39b2))
  (pad "25" smd roundrect (at 8.795 11.2395) (size 1.48 0.94) (layers "F.Cu" "F.Paste" "F.Mask") (roundrect_rratio 0.2553) (tstamp af174e92-c62b-4a8f-9742-288c73f4ae7e))
  (pad "26" smd roundrect (at 8.795 9.9695) (size 1.48 0.94) (layers "F.Cu" "F.Paste" "F.Mask") (roundrect_rratio 0.2553) (tstamp 35e9134b-1cbb-492c-b3b4-04e96401f1d7))
  (pad "27" smd roundrect (at 8.795 8.6995) (size 1.48 0.94) (layers "F.Cu" "F.Paste" "F.Mask") (roundrect_rratio 0.2553) (tstamp 1dfba4ec-20c0-48dc-b961-cb85d3ac1232))
  (pad "28" smd roundrect (at 8.795 7.4295) (size 1.48 0.94) (layers "F.Cu" "F.Paste" "F.Mask") (roundrect_rratio 0.2553) (tstamp 713efae7-e978-405b-a4f0-6b821af5d391))
  (pad "29" smd roundrect (at 8.795 6.1595) (size 1.48 0.94) (layers "F.Cu" "F.Paste" "F.Mask") (roundrect_rratio 0.2553) (tstamp 9a055d64-cfc3-453a-8a2c-c41eec841398))
  (pad "30" smd roundrect (at 8.795 4.8895) (size 1.48 0.94) (layers "F.Cu" "F.Paste" "F.Mask") (roundrect_rratio 0.2553) (tstamp e697c234-c250-4d7d-958d-5d953b0d17f2))
  (pad "31" smd roundrect (at 8.795 3.6195) (size 1.48 0.94) (layers "F.Cu" "F.Paste" "F.Mask") (roundrect_rratio 0.2553) (tstamp a68e67a6-af77-4983-8da5-512af16b83be))
  (pad "32" smd roundrect (at 8.795 2.3495) (size 1.48 0.94) (layers "F.Cu" "F.Paste" "F.Mask") (roundrect_rratio 0.2553) (tstamp 22419f5d-3dd8-4a15-88a0-9d22b87aaeab))
  (pad "33" smd roundrect (at 8.795 1.0795) (size 1.48 0.94) (layers "F.Cu" "F.Paste" "F.Mask") (roundrect_rratio 0.2553) (tstamp ba0a688f-d1d5-4a45-a13c-1195083eb17f))
  (pad "34" smd roundrect (at 8.795 -0.1905) (size 1.48 0.94) (layers "F.Cu" "F.Paste" "F.Mask") (roundrect_rratio 0.2553) (tstamp 96160a98-6dc0-4a6b-a29e-2731678fc98f))
  (pad "35" smd roundrect (at 8.795 -1.4605) (size 1.48 0.94) (layers "F.Cu" "F.Paste" "F.Mask") (roundrect_rratio 0.2553) (tstamp 85cd6abb-29b2-4df6-a123-4b9ceaa172bc))
  (pad "36" smd roundrect (at 8.795 -2.7305) (size 1.48 0.94) (layers "F.Cu" "F.Paste" "F.Mask") (roundrect_rratio 0.2553) (tstamp 0bc1d342-f72e-48c0-b7db-0726f6628827))
  (pad "37" smd roundrect (at 8.795 -4.0005) (size 1.48 0.94) (layers "F.Cu" "F.Paste" "F.Mask") (roundrect_rratio 0.2553) (tstamp 95b5ac33-1268-4a07-910c-de914d374a08))
  (pad "38" smd roundrect (at 8.795 -5.2705) (size 1.48 0.94) (layers "F.Cu" "F.Paste" "F.Mask") (roundrect_rratio 0.2553) (tstamp 1c441326-d7ea-4e64-bcd8-8bf5352c8d44))
  (pad "39" smd rect (at -1.08 2.2045) (size 5 5) (layers "F.Cu" "F.Paste" "F.Mask") (tstamp 62ea94a8-5189-48d4-9207-2d048cb17f26))
  (model "${KISYS3DMOD}/ESP321.STEP"
    (offset (xyz 0 0 0))
    (scale (xyz 1 1 1))
    (rotate (xyz 0 0 0))
  )
)
