(module "QUECTEL_BG96" (layer "F.Cu") (tedit 5FB3AB2F)
  (attr through_hole)
  (fp_text reference "REF**" (at -0.099999 1.7 unlocked) (layer "F.SilkS")
    (effects (font (size 1 1) (thickness 0.15)))
    (tstamp dfbc6c31-3058-487f-b00e-109393abab8f)
  )
  (fp_text value "QUECTEL_BG96" (at -0.099999 3.2 unlocked) (layer "F.Fab")
    (effects (font (size 1 1) (thickness 0.15)))
    (tstamp 6070668d-05d9-4833-9a9a-0a6dc74f2965)
  )
  (fp_text user "${REFERENCE}" (at -0.099999 4.7 unlocked) (layer "F.Fab")
    (effects (font (size 1 1) (thickness 0.15)))
    (tstamp be561dc2-3d51-4186-b001-41c323f1993c)
  )
  (fp_line (start -8.128 -13.208) (end -11.176 -10.16) (layer "F.SilkS") (width 0.16) (tstamp 06c6c821-fdab-4990-bbc1-c7b8b2460bdf))
  (fp_rect (start -11.25 -13.25) (end 11.25 13.25) (layer "F.SilkS") (width 0.16) (tstamp 7c130090-0725-400c-a706-711ce3404fc5))
  (fp_circle (center -12.7 -9.906) (end -12.446 -9.906) (layer "F.SilkS") (width 1) (tstamp 1a90eb13-4b68-4551-83de-e61de1c83763))
  (fp_rect (start -14.25 -16.25) (end 14.25 16.25) (layer "F.CrtYd") (width 0.12) (tstamp b070d5cb-ac9e-4c00-85c7-7fcc91335af4))
  (fp_line (start -0.027161 -0.360672) (end -0.027161 0.339328) (layer "F.Fab") (width 0.05) (tstamp 09d30c9e-1b4c-47df-80d0-92db5926f79d))
  (fp_line (start 0.322839 -0.010672) (end -0.377161 -0.010672) (layer "F.Fab") (width 0.05) (tstamp b2226bb8-1ad8-405c-82f3-f0b86c6b67a6))
  (fp_rect (start -11.25 -13.25) (end 11.25 13.25) (layer "F.Fab") (width 0.16) (tstamp 84cedf07-ad74-4865-b055-3a82f33da811))
  (fp_circle (center -0.027161 -0.010672) (end 0.222839 -0.010672) (layer "F.Fab") (width 0.05) (tstamp 809191df-914e-4e5d-931c-5b9b8ea4d4d2))
  (pad "1" smd rect (at -9.18 -9.7) (size 1.15 0.7) (layers "F.Cu" "F.Paste" "F.Mask") (tstamp f5d0a9be-3fe7-44db-b8c9-ca3c57c09af7))
  (pad "2" smd rect (at -9.18 -8.6) (size 1.15 0.7) (layers "F.Cu" "F.Paste" "F.Mask") (tstamp e3430d09-b90a-4eaf-bb14-bcf24d1ea25e))
  (pad "3" smd rect (at -9.18 -7.5) (size 1.15 0.7) (layers "F.Cu" "F.Paste" "F.Mask") (tstamp 88ac13af-0c84-4939-9ff2-bae0ced9069c))
  (pad "4" smd rect (at -9.18 -6.4) (size 1.15 0.7) (layers "F.Cu" "F.Paste" "F.Mask") (tstamp 53060c79-4d09-48e8-a5a1-abb208c32a18))
  (pad "5" smd rect (at -9.18 -5.3) (size 1.15 0.7) (layers "F.Cu" "F.Paste" "F.Mask") (tstamp 22b1b0c1-e814-4ad7-a215-93201d3b69ae))
  (pad "6" smd rect (at -9.18 -4.2) (size 1.15 0.7) (layers "F.Cu" "F.Paste" "F.Mask") (tstamp 569d7eee-5459-4dc9-b723-729eb1d523ff))
  (pad "7" smd rect (at -9.18 -3.1) (size 1.15 0.7) (layers "F.Cu" "F.Paste" "F.Mask") (tstamp 3a26fcc0-75d1-4634-a54e-4351223b0ef9))
  (pad "8" smd rect (at -9.18 -2) (size 1.15 0.7) (layers "F.Cu" "F.Paste" "F.Mask") (tstamp 8d9c7491-5816-4197-8e9f-5cfdafa56667))
  (pad "9" smd rect (at -9.18 -0.9) (size 1.15 0.7) (layers "F.Cu" "F.Paste" "F.Mask") (tstamp d19b9cd3-e93e-4e4b-9bae-75a551a1698e))
  (pad "10" smd rect (at -9.18 0.2) (size 1.15 0.7) (layers "F.Cu" "F.Paste" "F.Mask") (tstamp 82f03621-08b4-4f8a-9fe9-1000daf66295))
  (pad "11" smd rect (at -9.18 1.9) (size 1.15 0.7) (layers "F.Cu" "F.Paste" "F.Mask") (tstamp bb3567a1-9ba4-4c56-9f92-17150944df1b))
  (pad "12" smd rect (at -9.18 3) (size 1.15 0.7) (layers "F.Cu" "F.Paste" "F.Mask") (tstamp 4ff44b87-26bf-4fe7-b703-3c69b52cd420))
  (pad "13" smd rect (at -9.18 4.1) (size 1.15 0.7) (layers "F.Cu" "F.Paste" "F.Mask") (tstamp b30479e6-4cfe-44bf-93d4-6913966d166e))
  (pad "14" smd rect (at -9.18 5.2) (size 1.15 0.7) (layers "F.Cu" "F.Paste" "F.Mask") (tstamp befc4952-5e1a-4855-9f47-6aeaa47fd287))
  (pad "15" smd rect (at -9.18 6.3) (size 1.15 0.7) (layers "F.Cu" "F.Paste" "F.Mask") (tstamp 8d0e5472-c6ee-4578-86a9-0ee47a11086e))
  (pad "16" smd rect (at -9.18 7.4) (size 1.15 0.7) (layers "F.Cu" "F.Paste" "F.Mask") (tstamp 185c6d14-aef4-4be6-8b47-befc9732a0f2))
  (pad "17" smd rect (at -9.18 8.5) (size 1.15 0.7) (layers "F.Cu" "F.Paste" "F.Mask") (tstamp ce08266f-4dfd-4bfc-80f6-e7e91c1c3b60))
  (pad "18" smd rect (at -9.18 9.6) (size 1.15 0.7) (layers "F.Cu" "F.Paste" "F.Mask") (tstamp 41734a93-69d8-4420-9d78-d8f5b9317f2e))
  (pad "19" smd rect (at -7.45 11.03 90) (size 1.15 0.7) (layers "F.Cu" "F.Paste" "F.Mask") (tstamp c6f052b8-b6ce-497a-ba8e-ca7d7c52c9f3))
  (pad "20" smd rect (at -6.35 11.03 90) (size 1.15 0.7) (layers "F.Cu" "F.Paste" "F.Mask") (tstamp 858ddbad-ec1b-4e3c-8e7d-96c1f9606f76))
  (pad "21" smd rect (at -5.25 11.03 90) (size 1.15 0.7) (layers "F.Cu" "F.Paste" "F.Mask") (tstamp b745cf40-f72c-4a1f-ba0d-81b380c53e0d))
  (pad "22" smd rect (at -4.15 11.03 90) (size 1.15 0.7) (layers "F.Cu" "F.Paste" "F.Mask") (tstamp 1ff5e19a-9eb4-4c19-b1dd-59c24da05560))
  (pad "23" smd rect (at -3.05 11.03 90) (size 1.15 0.7) (layers "F.Cu" "F.Paste" "F.Mask") (tstamp 0e7166bf-fb46-4fba-974d-5b1c1828800f))
  (pad "24" smd rect (at -1.95 11.03 90) (size 1.15 0.7) (layers "F.Cu" "F.Paste" "F.Mask") (tstamp 69cb7cdc-916d-4d21-91cf-39b74d31a1d5))
  (pad "25" smd rect (at 0.55 11.03 90) (size 1.15 0.7) (layers "F.Cu" "F.Paste" "F.Mask") (tstamp 3d8004a5-e25c-4cf9-a255-ded82d319e90))
  (pad "26" smd rect (at 1.65 11.03 90) (size 1.15 0.7) (layers "F.Cu" "F.Paste" "F.Mask") (tstamp cd2f1901-3489-4b80-bac7-8652448f327d))
  (pad "27" smd rect (at 2.75 11.03 90) (size 1.15 0.7) (layers "F.Cu" "F.Paste" "F.Mask") (tstamp bdc97ac7-bcca-4e40-9030-fe958c2862ba))
  (pad "28" smd rect (at 3.85 11.03 90) (size 1.15 0.7) (layers "F.Cu" "F.Paste" "F.Mask") (tstamp cb7bb567-e220-42fe-a52b-972dae5200aa))
  (pad "29" smd rect (at 4.95 11.03 90) (size 1.15 0.7) (layers "F.Cu" "F.Paste" "F.Mask") (tstamp 69e3f0d1-a47e-43c5-bd19-3d5056307d4d))
  (pad "30" smd rect (at 6.05 11.03 90) (size 1.15 0.7) (layers "F.Cu" "F.Paste" "F.Mask") (tstamp 5a6854cd-7ecc-4134-ada4-522165627680))
  (pad "31" smd rect (at 7.15 11.03 90) (size 1.15 0.7) (layers "F.Cu" "F.Paste" "F.Mask") (tstamp 79415363-8ccc-4b9f-a361-4ba4743296e2))
  (pad "32" smd rect (at 9.18 9.6 180) (size 1.15 0.7) (layers "F.Cu" "F.Paste" "F.Mask") (tstamp a08daaaf-58e7-46e8-835b-22b3a5283f86))
  (pad "33" smd rect (at 9.18 8.5 180) (size 1.15 0.7) (layers "F.Cu" "F.Paste" "F.Mask") (tstamp 6f292621-49f0-481b-868c-3293c6f025ee))
  (pad "34" smd rect (at 9.18 7.4 180) (size 1.15 0.7) (layers "F.Cu" "F.Paste" "F.Mask") (tstamp e38b1efd-d0c8-4570-8b9b-8b2d4b8936ea))
  (pad "35" smd rect (at 9.18 6.3 180) (size 1.15 0.7) (layers "F.Cu" "F.Paste" "F.Mask") (tstamp 65ff3517-c211-4266-af3d-cc0dd01000e2))
  (pad "36" smd rect (at 9.18 5.2 180) (size 1.15 0.7) (layers "F.Cu" "F.Paste" "F.Mask") (tstamp 83bbbca1-2d96-48d6-9923-d090594ecf67))
  (pad "37" smd rect (at 9.18 4.1 180) (size 1.15 0.7) (layers "F.Cu" "F.Paste" "F.Mask") (tstamp 8dbb6cfa-ce41-4cdf-adb1-761d36312b43))
  (pad "38" smd rect (at 9.18 3 180) (size 1.15 0.7) (layers "F.Cu" "F.Paste" "F.Mask") (tstamp 91f71c55-1f00-4c77-bbe7-d2756a2f6651))
  (pad "39" smd rect (at 9.18 1.9 180) (size 1.15 0.7) (layers "F.Cu" "F.Paste" "F.Mask") (tstamp 215d9349-f6fc-44ca-a4dd-66131c33a858))
  (pad "40" smd rect (at 9.18 0.2 180) (size 1.15 0.7) (layers "F.Cu" "F.Paste" "F.Mask") (tstamp bafc9857-39f7-4ce1-95b7-3bcaacbefb0c))
  (pad "41" smd rect (at 9.18 -0.9 180) (size 1.15 0.7) (layers "F.Cu" "F.Paste" "F.Mask") (tstamp e2d9d365-a37c-4b7a-9f52-8e90d8dfcde0))
  (pad "42" smd rect (at 9.18 -2 180) (size 1.15 0.7) (layers "F.Cu" "F.Paste" "F.Mask") (tstamp 30b83a92-cd4d-4a1b-adfd-af094b09cf0a))
  (pad "43" smd rect (at 9.18 -3.1 180) (size 1.15 0.7) (layers "F.Cu" "F.Paste" "F.Mask") (tstamp 973217b5-a5b3-4c00-a0c9-6660ba1fe2f9))
  (pad "44" smd rect (at 9.18 -4.2 180) (size 1.15 0.7) (layers "F.Cu" "F.Paste" "F.Mask") (tstamp 61c1ce48-61e9-4150-a9b5-4c15040dffb4))
  (pad "45" smd rect (at 9.18 -5.3 180) (size 1.15 0.7) (layers "F.Cu" "F.Paste" "F.Mask") (tstamp 410a9b35-1c85-472a-a3eb-c26bbd7da32e))
  (pad "46" smd rect (at 9.18 -6.4 180) (size 1.15 0.7) (layers "F.Cu" "F.Paste" "F.Mask") (tstamp 4483d43f-8ed1-492c-bff1-ea15aeaa8f10))
  (pad "47" smd rect (at 9.18 -7.5 180) (size 1.15 0.7) (layers "F.Cu" "F.Paste" "F.Mask") (tstamp 24f5d911-0a9c-40e7-9ae5-948bb4c1f83b))
  (pad "48" smd rect (at 9.18 -8.6 180) (size 1.15 0.7) (layers "F.Cu" "F.Paste" "F.Mask") (tstamp 743ba0ff-42b6-4039-a9de-23cf0204bd7f))
  (pad "49" smd rect (at 9.18 -9.7 180) (size 1.15 0.7) (layers "F.Cu" "F.Paste" "F.Mask") (tstamp ea85030f-5dad-4cc1-b5d9-a98fe674fdbb))
  (pad "50" smd rect (at 7.15 -11.03 270) (size 1.15 0.7) (layers "F.Cu" "F.Paste" "F.Mask") (tstamp dfd33acb-15a8-4dff-bfb5-ffd1872f1d95))
  (pad "51" smd rect (at 6.05 -11.03 270) (size 1.15 0.7) (layers "F.Cu" "F.Paste" "F.Mask") (tstamp 7216ed24-767b-40ed-8d4e-406370f75b54))
  (pad "52" smd rect (at 4.95 -11.03 270) (size 1.15 0.7) (layers "F.Cu" "F.Paste" "F.Mask") (tstamp 30d05dd3-5db0-45c0-8690-53ab634619db))
  (pad "53" smd rect (at 3.85 -11.03 270) (size 1.15 0.7) (layers "F.Cu" "F.Paste" "F.Mask") (tstamp be147b04-2e09-4a95-ac27-e809742de46c))
  (pad "54" smd rect (at 2.75 -11.03 270) (size 1.15 0.7) (layers "F.Cu" "F.Paste" "F.Mask") (tstamp 872a6ae9-d410-46ee-801f-37b72c09b45b))
  (pad "55" smd rect (at 1.65 -11.03 270) (size 1.15 0.7) (layers "F.Cu" "F.Paste" "F.Mask") (tstamp 541b0f11-dd7f-4556-89c4-5e77f63c5a7c))
  (pad "56" smd rect (at 0.55 -11.03 270) (size 1.15 0.7) (layers "F.Cu" "F.Paste" "F.Mask") (tstamp 02042576-6280-43cb-8ea3-6e9fddd23f96))
  (pad "57" smd rect (at -1.95 -11.03 270) (size 1.15 0.7) (layers "F.Cu" "F.Paste" "F.Mask") (tstamp 64b6952f-5eee-41b0-b069-dfa108ffe0ac))
  (pad "58" smd rect (at -3.05 -11.03 270) (size 1.15 0.7) (layers "F.Cu" "F.Paste" "F.Mask") (tstamp bc2282d8-0762-4e17-8c44-123bc93b47ba))
  (pad "59" smd rect (at -4.15 -11.03 270) (size 1.15 0.7) (layers "F.Cu" "F.Paste" "F.Mask") (tstamp 822002c6-e345-42d2-9bc0-c7087613bc35))
  (pad "60" smd rect (at -5.25 -11.03 270) (size 1.15 0.7) (layers "F.Cu" "F.Paste" "F.Mask") (tstamp b193fd9b-6c57-474e-b95b-7b5a9a2c45d8))
  (pad "61" smd rect (at -6.35 -11.03 270) (size 1.15 0.7) (layers "F.Cu" "F.Paste" "F.Mask") (tstamp 37119a11-a9a2-4d10-84d4-00662fbf61f9))
  (pad "62" smd rect (at -7.45 -11.03 270) (size 1.15 0.7) (layers "F.Cu" "F.Paste" "F.Mask") (tstamp b3d9dbfb-a4ce-40d2-9771-22d78758618f))
  (pad "63" smd rect (at -5.95 -4.25 270) (size 1 1) (layers "F.Cu" "F.Paste" "F.Mask") (tstamp 5319a8a0-1d08-4e38-8b59-57ab26a6dd5f))
  (pad "64" smd rect (at -5.95 -2.55 270) (size 1 1) (layers "F.Cu" "F.Paste" "F.Mask") (tstamp 04a0eb59-19fa-4c3a-a7e2-70153eabff40))
  (pad "65" smd rect (at -5.95 -0.85 270) (size 1 1) (layers "F.Cu" "F.Paste" "F.Mask") (tstamp 14a52f09-48a9-48c5-a263-31e3f99c8218))
  (pad "66" smd rect (at -5.95 0.85 270) (size 1 1) (layers "F.Cu" "F.Paste" "F.Mask") (tstamp 188df042-7764-49b0-a798-7d0349699426))
  (pad "67" smd rect (at -5.95 2.55 270) (size 1 1) (layers "F.Cu" "F.Paste" "F.Mask") (tstamp bfd707bb-e9e9-4897-97f7-93cb803d0e19))
  (pad "68" smd rect (at -5.95 4.25 270) (size 1 1) (layers "F.Cu" "F.Paste" "F.Mask") (tstamp 12fe04ab-55f9-496f-87eb-18beca23f823))
  (pad "69" smd rect (at -2.55 7.65 270) (size 1 1) (layers "F.Cu" "F.Paste" "F.Mask") (tstamp 38ec5cfe-90f7-4eb9-afb2-2ff21e380c5d))
  (pad "70" smd rect (at -0.85 7.65 270) (size 1 1) (layers "F.Cu" "F.Paste" "F.Mask") (tstamp b2a0f87f-e37c-4b84-8dc0-85430a88e1e5))
  (pad "71" smd rect (at 0.85 7.65 270) (size 1 1) (layers "F.Cu" "F.Paste" "F.Mask") (tstamp 76f4c96d-d5b2-4f31-8e39-99171b804d1b))
  (pad "72" smd rect (at 2.55 7.65 270) (size 1 1) (layers "F.Cu" "F.Paste" "F.Mask") (tstamp 7b842c04-690e-446e-9100-925784156870))
  (pad "73" smd rect (at 5.95 4.25 270) (size 1 1) (layers "F.Cu" "F.Paste" "F.Mask") (tstamp 6159aec5-fb45-4008-b0d3-5e11e798ec64))
  (pad "74" smd rect (at 5.95 2.55 270) (size 1 1) (layers "F.Cu" "F.Paste" "F.Mask") (tstamp 80672e03-9132-4dbb-a76e-27ddecfe33d9))
  (pad "75" smd rect (at 5.95 0.85 270) (size 1 1) (layers "F.Cu" "F.Paste" "F.Mask") (tstamp f2489860-9773-4113-9e95-373c0140459b))
  (pad "76" smd rect (at 5.95 -0.85 270) (size 1 1) (layers "F.Cu" "F.Paste" "F.Mask") (tstamp 9b42ff8f-70ad-4377-a149-2965700e45de))
  (pad "77" smd rect (at 5.95 -2.55 270) (size 1 1) (layers "F.Cu" "F.Paste" "F.Mask") (tstamp 11adf679-630a-4bca-9233-88f1cae344b7))
  (pad "78" smd rect (at 5.95 -4.25 270) (size 1 1) (layers "F.Cu" "F.Paste" "F.Mask") (tstamp 08a22bc7-0ea3-4bed-95b5-5f2b76770e6d))
  (pad "79" smd rect (at 2.55 -7.65 270) (size 1 1) (layers "F.Cu" "F.Paste" "F.Mask") (tstamp 4aa6a40d-f41f-4fb3-8a20-906d01aa54a2))
  (pad "80" smd rect (at 0.85 -7.65 270) (size 1 1) (layers "F.Cu" "F.Paste" "F.Mask") (tstamp aab2ab3c-9a76-4433-874a-1b8234f91460))
  (pad "81" smd rect (at -0.85 -7.65 270) (size 1 1) (layers "F.Cu" "F.Paste" "F.Mask") (tstamp 08f97908-c860-402e-bade-e6c3d8395e35))
  (pad "82" smd rect (at -2.55 -7.65 270) (size 1 1) (layers "F.Cu" "F.Paste" "F.Mask") (tstamp 079f4d32-b6ab-4f20-9a8f-0045b16ae390))
  (pad "83" smd rect (at -4.25 -4.25 270) (size 1 1) (layers "F.Cu" "F.Paste" "F.Mask") (tstamp a179f5b2-cf26-4c98-ba0a-fc669b81db60))
  (pad "84" smd rect (at -4.25 -2.55 270) (size 1 1) (layers "F.Cu" "F.Paste" "F.Mask") (tstamp 02f8fe2f-e1ca-4eb1-80e2-a4642229dfa9))
  (pad "85" smd rect (at -4.25 -0.85 270) (size 1 1) (layers "F.Cu" "F.Paste" "F.Mask") (tstamp aec99198-78d0-471c-8ecb-9ad2e209d125))
  (pad "86" smd rect (at -4.25 0.85 270) (size 1 1) (layers "F.Cu" "F.Paste" "F.Mask") (tstamp 0ddc5de4-9265-4d4d-b61e-e6d3912f3e20))
  (pad "87" smd rect (at -4.25 2.55 270) (size 1 1) (layers "F.Cu" "F.Paste" "F.Mask") (tstamp 58e580c3-f1e9-44a3-a53a-9bf9574c5ead))
  (pad "88" smd rect (at -4.25 4.25 270) (size 1 1) (layers "F.Cu" "F.Paste" "F.Mask") (tstamp 2b0be6d3-ccde-4049-8401-dcfc024890f4))
  (pad "89" smd rect (at -2.55 5.95 270) (size 1 1) (layers "F.Cu" "F.Paste" "F.Mask") (tstamp 2b0acd09-a53c-49ef-aece-50602b249bc0))
  (pad "90" smd rect (at -0.85 5.95 270) (size 1 1) (layers "F.Cu" "F.Paste" "F.Mask") (tstamp cb13be8b-72ce-47e5-9662-f4b773fa5e32))
  (pad "91" smd rect (at 0.85 5.95 270) (size 1 1) (layers "F.Cu" "F.Paste" "F.Mask") (tstamp 71e9a734-2864-468e-8f95-29ba7996b7f3))
  (pad "92" smd rect (at 2.55 5.95 270) (size 1 1) (layers "F.Cu" "F.Paste" "F.Mask") (tstamp 6c790eac-d40d-4175-83a2-59ac2418fb9c))
  (pad "93" smd rect (at 4.25 4.25 270) (size 1 1) (layers "F.Cu" "F.Paste" "F.Mask") (tstamp fb447b3d-f7c5-4931-89aa-1134d9dae323))
  (pad "94" smd rect (at 4.25 2.55 270) (size 1 1) (layers "F.Cu" "F.Paste" "F.Mask") (tstamp 411dc69f-b25a-4e2a-a7b2-8191c6a477e4))
  (pad "95" smd rect (at 4.25 0.85 270) (size 1 1) (layers "F.Cu" "F.Paste" "F.Mask") (tstamp 5afa4216-653a-4e6b-a3a0-fa3c3955b2be))
  (pad "96" smd rect (at 4.25 -0.85 270) (size 1 1) (layers "F.Cu" "F.Paste" "F.Mask") (tstamp b2d191e4-0593-4b33-9f69-0654ea37681f))
  (pad "97" smd rect (at 4.25 -2.55 270) (size 1 1) (layers "F.Cu" "F.Paste" "F.Mask") (tstamp ee5cce96-cc56-4970-90bc-1b1fd2046598))
  (pad "98" smd rect (at 4.25 -4.25 270) (size 1 1) (layers "F.Cu" "F.Paste" "F.Mask") (tstamp c2964795-55cb-49d5-afa6-599c1be0d8c3))
  (pad "99" smd rect (at 2.55 -5.95 270) (size 1 1) (layers "F.Cu" "F.Paste" "F.Mask") (tstamp c8fbc8ea-3365-4a87-92db-2efe22e951ac))
  (pad "100" smd rect (at 0.85 -5.95 270) (size 1 1) (layers "F.Cu" "F.Paste" "F.Mask") (tstamp ffbada8c-e652-4b7a-9118-d6f87c89451f))
  (pad "101" smd rect (at -0.85 -5.95 270) (size 1 1) (layers "F.Cu" "F.Paste" "F.Mask") (tstamp 6fed2b5d-1f6a-4b4b-82d2-6b4f8dfbf87e))
  (pad "102" smd rect (at -2.55 -5.95 270) (size 1 1) (layers "F.Cu" "F.Paste" "F.Mask") (tstamp 6d0fc129-c9d7-49b5-8cad-59187c0229fd))
  (model "${KISYS3DMOD}/BG96.STEP"
    (offset (xyz 0 0 0))
    (scale (xyz 1 1 1))
    (rotate (xyz 0 0 0))
  )
)
