(footprint "SOT223-4P230_700X175L20X74N" (layer "F.Cu") (tedit 5FB404A9)
  (descr "Small Outline Transistor (SOT223), 2.30 mm pitch; 4 pin, 6.50 mm L X 3.50 mm W X 1.75 mm H body")
  (attr smd)
  (fp_text reference "REF**" (at 0 0) (layer "F.SilkS")
    (effects (font (size 1.2 1.2) (thickness 0.12)))
    (tstamp 988a9c96-ca6c-4325-ba07-e53457a2bfbe)
  )
  (fp_text value "VAL**" (at 0 0) (layer "F.Fab")
    (effects (font (size 1.2 1.2) (thickness 0.12)))
    (tstamp 111b2e9c-a8c9-4845-bc27-469e0fdf3c21)
  )
  (fp_text user "${REFERENCE}" (at 0 0) (layer "F.Fab")
    (effects (font (size 2 2) (thickness 0.2)))
    (tstamp 1b511542-08a2-4003-8e01-3c1a2161868a)
  )
  (fp_line (start 3.055 1.85) (end 3.35 1.85) (layer "F.SilkS") (width 0.16) (tstamp 010abc3c-6364-4b93-84a1-689367ffd4e9))
  (fp_line (start -3.055 1.85) (end -3.055 3.825) (layer "F.SilkS") (width 0.16) (tstamp 150d3c0c-1136-4660-812d-fd85456c724b))
  (fp_line (start -3.055 1.85) (end -3.35 1.85) (layer "F.SilkS") (width 0.16) (tstamp 2935eb3d-3481-42ef-a5ba-c8ab96bad669))
  (fp_line (start 3.35 1.85) (end 3.35 -1.85) (layer "F.SilkS") (width 0.16) (tstamp 6f7c7527-34d9-4b78-8f93-9d3089205c2c))
  (fp_line (start -3.35 -1.85) (end -1.91 -1.85) (layer "F.SilkS") (width 0.16) (tstamp 96fdd9ea-77ae-4944-907b-1e3945a19f47))
  (fp_line (start 3.35 -1.85) (end 1.91 -1.85) (layer "F.SilkS") (width 0.16) (tstamp 9e60ae87-35c1-4bbe-aea5-f24a0da97d64))
  (fp_line (start -3.35 1.85) (end -3.35 -1.85) (layer "F.SilkS") (width 0.16) (tstamp cf8b9e1f-bd04-4d69-b1c9-42e6a3ce6e14))
  (fp_line (start -3.25 1.75) (end -3.25 -1.75) (layer "Dwgs.User") (width 0.025) (tstamp 02a418ce-2eb7-4b42-8f90-8a4406034497))
  (fp_line (start 1.525 -3.3) (end -1.525 -3.3) (layer "Dwgs.User") (width 0.025) (tstamp 05d4f767-aa0a-411a-b36c-2c23aee52bac))
  (fp_line (start 0.3725 3.3) (end 0.3725 3.5) (layer "Dwgs.User") (width 0.025) (tstamp 26f4ca99-edeb-47d7-b929-20537cbd82af))
  (fp_line (start 2.6725 3.3) (end 2.6725 3.5) (layer "Dwgs.User") (width 0.025) (tstamp 282a08c2-7a26-4911-85cc-37638958dc5e))
  (fp_line (start -0.3725 3.3) (end 0.3725 3.3) (layer "Dwgs.User") (width 0.025) (tstamp 403c60c2-983f-4c81-a604-7b87cf1fe5bb))
  (fp_line (start -2.6725 3.5) (end -2.6725 3.3) (layer "Dwgs.User") (width 0.025) (tstamp 457a44c5-35a4-4ded-bc5a-4dea2499f91b))
  (fp_line (start 1.9275 3.5) (end 1.9275 3.3) (layer "Dwgs.User") (width 0.025) (tstamp 537493bd-df2d-4e1a-a03e-072295cbfea0))
  (fp_line (start -1.9275 3.5) (end -2.6725 3.5) (layer "Dwgs.User") (width 0.025) (tstamp 5eb990f9-9daa-4f72-a10e-889d892ad6be))
  (fp_line (start -3.25 -1.75) (end 3.25 -1.75) (layer "Dwgs.User") (width 0.025) (tstamp 656071c6-c1ea-4849-92f8-c60beece2a46))
  (fp_line (start -1.525 -3.5) (end 1.525 -3.5) (layer "Dwgs.User") (width 0.025) (tstamp 69bee2b7-ce4a-4529-b1a6-de80762f87b9))
  (fp_line (start 0.3725 3.5) (end -0.3725 3.5) (layer "Dwgs.User") (width 0.025) (tstamp 7330b721-219a-4fda-8957-0102f7542ad7))
  (fp_line (start 1.9275 3.3) (end 2.6725 3.3) (layer "Dwgs.User") (width 0.025) (tstamp 74e7b3cd-64ac-4522-bd33-43bcffb3aefb))
  (fp_line (start 2.6725 3.5) (end 1.9275 3.5) (layer "Dwgs.User") (width 0.025) (tstamp 77c00238-38bd-48ec-a2d8-0ec69f834396))
  (fp_line (start -0.3725 3.5) (end -0.3725 3.3) (layer "Dwgs.User") (width 0.025) (tstamp 90752e82-5456-43cf-996c-299b12244412))
  (fp_line (start 3.25 -1.75) (end 3.25 1.75) (layer "Dwgs.User") (width 0.025) (tstamp c091b5de-e004-4cb3-b6d0-226ab61c89cf))
  (fp_line (start -2.6725 3.3) (end -1.9275 3.3) (layer "Dwgs.User") (width 0.025) (tstamp cd56fedc-74b0-436d-9d7d-0906f918fe61))
  (fp_line (start 1.525 -3.5) (end 1.525 -3.3) (layer "Dwgs.User") (width 0.025) (tstamp d444bc91-ee5d-44c9-b3a7-d88d07b98fdb))
  (fp_line (start 3.25 1.75) (end -3.25 1.75) (layer "Dwgs.User") (width 0.025) (tstamp f2bcfac6-1e43-4d0b-9bd1-28bc52990def))
  (fp_line (start -1.9275 3.3) (end -1.9275 3.5) (layer "Dwgs.User") (width 0.025) (tstamp fa7f897c-f037-4e6c-b103-1c7f17edb76e))
  (fp_line (start -1.525 -3.3) (end -1.525 -3.5) (layer "Dwgs.User") (width 0.025) (tstamp fc5baae7-c769-4bf2-acaa-3148b1cdbc55))
  (fp_line (start 3.55 -2.05) (end 1.87 -2.05) (layer "F.CrtYd") (width 0.05) (tstamp 06e71164-e2a7-4c4f-a5df-c8217cad2580))
  (fp_line (start 1.87 -2.05) (end 1.87 -4.105) (layer "F.CrtYd") (width 0.05) (tstamp 0d4db795-d7f5-4820-827a-75156ec91eb7))
  (fp_line (start -3.015 2.05) (end -3.015 4.105) (layer "F.CrtYd") (width 0.05) (tstamp 101a7374-ad5f-4c0d-bfaf-40dca2993663))
  (fp_line (start -3.55 -2.05) (end -3.55 2.05) (layer "F.CrtYd") (width 0.05) (tstamp 3ac704c0-cfcc-4a34-b276-6b9cefac7c51))
  (fp_line (start 3.55 2.05) (end 3.55 -2.05) (layer "F.CrtYd") (width 0.05) (tstamp 46e44538-2cad-45d3-ae4b-cd3e902c727c))
  (fp_line (start 3.015 4.105) (end 3.015 2.05) (layer "F.CrtYd") (width 0.05) (tstamp 4ae07095-fd1a-4ae6-bbe1-1915965fc62f))
  (fp_line (start -1.87 -2.05) (end -3.55 -2.05) (layer "F.CrtYd") (width 0.05) (tstamp 7b0dbeb8-4a11-4009-9f1b-48ffca44cf0f))
  (fp_line (start 1.87 -4.105) (end -1.87 -4.105) (layer "F.CrtYd") (width 0.05) (tstamp 9c8666b0-f737-4cbd-af91-e3f4600badd3))
  (fp_line (start 3.015 2.05) (end 3.55 2.05) (layer "F.CrtYd") (width 0.05) (tstamp ae85212c-3d29-42b4-88a8-77249c47024d))
  (fp_line (start -3.55 2.05) (end -3.015 2.05) (layer "F.CrtYd") (width 0.05) (tstamp bda1116b-704f-40fe-9739-ccc7d136e702))
  (fp_line (start -1.87 -4.105) (end -1.87 -2.05) (layer "F.CrtYd") (width 0.05) (tstamp ca1bb3d6-ecbe-46a6-828c-056f050c72ac))
  (fp_line (start -3.015 4.105) (end 3.015 4.105) (layer "F.CrtYd") (width 0.05) (tstamp e9d0426f-f7dd-41ea-956d-2fbd7f81c83e))
  (fp_line (start -3.35 0.61667) (end -3.35 -1.85) (layer "F.Fab") (width 0.16) (tstamp 053b6a85-3d56-40d0-8324-10dc46117d68))
  (fp_line (start 3.35 1.85) (end -2.11667 1.85) (layer "F.Fab") (width 0.16) (tstamp 4c26fb6a-f3cf-4e32-a558-0c22268fa9ae))
  (fp_line (start -2.11667 1.85) (end -3.35 0.61667) (layer "F.Fab") (width 0.16) (tstamp 649c12d5-68db-4ccf-9003-b2b559af11c4))
  (fp_line (start 3.35 -1.85) (end 3.35 1.85) (layer "F.Fab") (width 0.16) (tstamp 8396ab51-091a-429f-ad4d-bdaa86661298))
  (fp_line (start 0.00213 -0.348935) (end 0.00213 0.351065) (layer "F.Fab") (width 0.05) (tstamp 989a3d73-abcb-466d-b1a9-80f17938c0ce))
  (fp_line (start -3.35 -1.85) (end 3.35 -1.85) (layer "F.Fab") (width 0.16) (tstamp c3213a18-240d-44ff-b39c-81fff619fc37))
  (fp_line (start -0.34787 0.001065) (end 0.35213 0.001065) (layer "F.Fab") (width 0.05) (tstamp e2cf0c24-8ec4-4192-9f30-3e59788cd903))
  (fp_circle (center 0.00213 0.001065) (end 0.25213 0.001065) (layer "F.Fab") (width 0.05) (fill none) (tstamp 14e1da7c-69b6-4b5d-9668-59490f2cf9f5))
  (pad "1" smd rect (at -2.3 3.35 90) (size 1.11 1.03) (layers "F.Cu" "F.Paste" "F.Mask") (tstamp 48d90855-c547-47e0-a382-3cb08a3e494a))
  (pad "2" smd rect (at 0 3.35 90) (size 1.11 1.03) (layers "F.Cu" "F.Paste" "F.Mask") (tstamp 757afea8-8a0a-406b-ab6f-1d62c6429d15))
  (pad "3" smd rect (at 2.3 3.35 90) (size 1.11 1.03) (layers "F.Cu" "F.Paste" "F.Mask") (tstamp 5d6993fe-b626-4972-987e-9255a21fc656))
  (pad "4" smd rect (at 0 -3.35 90) (size 1.11 3.34) (layers "F.Cu" "F.Paste" "F.Mask") (tstamp 2f5b385a-693b-48e7-a77d-9997e1a89112))
  (model "${KISYS3DMOD}/SOT223-4P230_700X175L20X74.STEP"
    (offset (xyz 0 0 0))
    (scale (xyz 1 1 1))
    (rotate (xyz -90 0 0))
  )
)
