(module "SOT23-3P95_237X111L20X43N" (layer "F.Cu") (tedit 5FB3CC5F)
  (descr "Small Outline Transistor (SOT23), 0.95 mm pitch; 3 pin, 2.92 mm L X 1.30 mm W X 1.11 mm H body")
  (attr smd)
  (fp_text reference "REF**" (at 0 0) (layer "F.SilkS")
    (effects (font (size 1.2 1.2) (thickness 0.12)))
    (tstamp d9a9c9d9-3327-4e00-a147-e6f978ed7925)
  )
  (fp_text value "Val**" (at 0 0) (layer "F.SilkS")
    (effects (font (size 1.27 1.27) (thickness 0.15)))
    (tstamp 0e23223d-a97d-4e7c-9e28-282e8391c795)
  )
  (fp_line (start -1.52 -0.7) (end -0.48 -0.7) (layer "F.SilkS") (width 0.12) (tstamp 2860663d-7672-4ca0-8f60-1d7c1216cf60))
  (fp_line (start 1.52 -0.7) (end 0.48 -0.7) (layer "F.SilkS") (width 0.12) (tstamp 6e1a679b-e20e-4802-baf8-2b0e9ee4e00b))
  (fp_line (start 1.52 0.7) (end 1.52 -0.7) (layer "F.SilkS") (width 0.12) (tstamp a9dc2e24-2ae2-4d02-9d91-7dabcd5dab27))
  (fp_line (start -1.52 0.7) (end -1.52 -0.7) (layer "F.SilkS") (width 0.12) (tstamp ff97320a-59be-4182-bcc1-37ad4c7d9bb7))
  (fp_line (start 1.77 0.95) (end 1.77 -0.95) (layer "F.CrtYd") (width 0.05) (tstamp 09d36f2b-fd2c-46bf-94d9-17b82cba4539))
  (fp_line (start 1.77 -0.95) (end 0.55 -0.95) (layer "F.CrtYd") (width 0.05) (tstamp 0be1d149-7d10-4658-9c80-7d29583c245c))
  (fp_line (start 1.5 1.93) (end 1.5 0.95) (layer "F.CrtYd") (width 0.05) (tstamp 4c5b3cc3-8dc3-4d7d-a3c1-eb1af0b3b542))
  (fp_line (start 0.55 -0.95) (end 0.55 -1.93) (layer "F.CrtYd") (width 0.05) (tstamp 523ec388-b5d2-476f-a9df-55dad38a1fe4))
  (fp_line (start -0.55 -0.95) (end -1.77 -0.95) (layer "F.CrtYd") (width 0.05) (tstamp 64ed2ad7-0483-4d13-8ffa-66d03b2812c9))
  (fp_line (start -1.77 0.95) (end -1.5 0.95) (layer "F.CrtYd") (width 0.05) (tstamp 823b6577-4da1-439f-a9eb-fdb519cf67c6))
  (fp_line (start 0.55 -1.93) (end -0.55 -1.93) (layer "F.CrtYd") (width 0.05) (tstamp 8bdd5d8d-3389-4666-aec6-8ffbce0f7e7d))
  (fp_line (start -1.5 0.95) (end -1.5 1.93) (layer "F.CrtYd") (width 0.05) (tstamp b11ba700-7fae-4241-80d4-dd2b86e65a35))
  (fp_line (start -1.5 1.93) (end 1.5 1.93) (layer "F.CrtYd") (width 0.05) (tstamp b2a84fe2-94ea-41f7-ac30-5e3084ca48c6))
  (fp_line (start 1.5 0.95) (end 1.77 0.95) (layer "F.CrtYd") (width 0.05) (tstamp b53479c2-88ab-42b3-970d-a97bb975e4e2))
  (fp_line (start -0.55 -1.93) (end -0.55 -0.95) (layer "F.CrtYd") (width 0.05) (tstamp dbb2ba22-7e7d-48fa-89d7-1a45550e53d3))
  (fp_line (start -1.77 -0.95) (end -1.77 0.95) (layer "F.CrtYd") (width 0.05) (tstamp e93c76c1-5b46-47b1-9882-e559e585a846))
  (fp_line (start -1.52 -0.7) (end 1.52 -0.7) (layer "F.Fab") (width 0.12) (tstamp 3a7cbf26-dbc6-4da1-87a2-2ef08951bbf1))
  (fp_line (start 1.52 0.7) (end -1.52 0.7) (layer "F.Fab") (width 0.12) (tstamp 4c161ea5-1810-40fa-9949-819e629c13d0))
  (fp_line (start -0.34787 0.001065) (end 0.35213 0.001065) (layer "F.Fab") (width 0.05) (tstamp 5bf1a5b2-6583-4850-9df0-a0e54881a75f))
  (fp_line (start -1.52 0.7) (end -1.52 -0.7) (layer "F.Fab") (width 0.12) (tstamp 95d28d2b-2d24-425d-b4d1-1c17add4f486))
  (fp_line (start 0.00213 -0.348935) (end 0.00213 0.351065) (layer "F.Fab") (width 0.05) (tstamp 981629b6-2d8c-4db3-a0b1-8be43bb1aefc))
  (fp_line (start 1.52 -0.7) (end 1.52 0.7) (layer "F.Fab") (width 0.12) (tstamp ccce7d5e-828f-4a3e-9f1d-f03d920a5b8d))
  (fp_circle (center 0.00213 0.001065) (end 0.25213 0.001065) (layer "F.Fab") (width 0.05) (tstamp 7772876d-429d-40f6-86af-eadfacfa42b7))
  (pad "1" smd rect (at -0.95 1.075 90) (size 1.2 0.6) (layers "F.Cu" "F.Paste" "F.Mask") (tstamp 8eaf34c3-6c38-46e6-8165-91391888db1f))
  (pad "2" smd rect (at 0.95 1.075 90) (size 1.2 0.6) (layers "F.Cu" "F.Paste" "F.Mask") (tstamp d180b44d-942a-42c0-a47b-609025fc9e38))
  (pad "3" smd rect (at 0 -1.075 90) (size 1.2 0.6) (layers "F.Cu" "F.Paste" "F.Mask") (tstamp 64fc09c7-9443-4e4f-8fea-ddd7cecb6977))
  (model "${KISYS3DMOD}/SOT23-3P95_237X112L50X42.STEP"
    (offset (xyz 0 0 0))
    (scale (xyz 1 1 1))
    (rotate (xyz -90 0 0))
  )
)
