(module "SOT23-3P91_240X110L40X44N" (layer "F.Cu") (tedit 5FB28176)
  (descr "Small Outline Transistor (SOT23), 0.915 mm pitch; 3 pin, 2.90 mm L X 1.30 mm W X 1.10 mm H body")
  (attr smd)
  (fp_text reference "REF**" (at 0 0) (layer "F.SilkS")
    (effects (font (size 1.2 1.2) (thickness 0.12)))
    (tstamp f5ea18de-96b8-4332-b7e7-f4f40bf67cff)
  )
  (fp_text value "Val**" (at 0 0) (layer "F.SilkS")
    (effects (font (size 1.27 1.27) (thickness 0.15)))
    (tstamp deda8496-1ef5-4863-9957-294e5777b1be)
  )
  (fp_line (start 1.5 0.7) (end 1.5 -0.7) (layer "F.SilkS") (width 0.12) (tstamp 2e70d3c1-74b6-495e-a10d-11de8693db2a))
  (fp_line (start 1.5 -0.7) (end 0.485 -0.7) (layer "F.SilkS") (width 0.12) (tstamp 6e8037d8-0107-431e-ab1b-081ad76c98ef))
  (fp_line (start -1.5 0.7) (end -1.5 -0.7) (layer "F.SilkS") (width 0.12) (tstamp b1b4f6bf-7b7d-4fe0-860f-7d8683c848da))
  (fp_line (start -1.5 -0.7) (end -0.485 -0.7) (layer "F.SilkS") (width 0.12) (tstamp cd60aad5-4708-4824-8e1f-79c64eca2182))
  (fp_line (start 0.56 -0.95) (end 0.56 -1.87) (layer "F.CrtYd") (width 0.05) (tstamp 00f1a22f-61bd-4e33-b4ab-5bb14cf43693))
  (fp_line (start 1.75 -0.95) (end 0.56 -0.95) (layer "F.CrtYd") (width 0.05) (tstamp 01128cd8-f6e0-434e-a966-bce63ac4b6ac))
  (fp_line (start -0.56 -0.95) (end -1.75 -0.95) (layer "F.CrtYd") (width 0.05) (tstamp 37631b39-9b6b-41ee-8ed9-1902dc206bc2))
  (fp_line (start -1.75 -0.95) (end -1.75 0.95) (layer "F.CrtYd") (width 0.05) (tstamp 3f3b55bc-8375-4781-9574-a9d1cd64813c))
  (fp_line (start -1.75 0.95) (end -1.47 0.95) (layer "F.CrtYd") (width 0.05) (tstamp 487b4514-1a0d-4b1a-8930-1070c8a48513))
  (fp_line (start 1.47 0.95) (end 1.75 0.95) (layer "F.CrtYd") (width 0.05) (tstamp 6cc7b332-57db-4095-bc6b-b71316b155eb))
  (fp_line (start 1.47 1.87) (end 1.47 0.95) (layer "F.CrtYd") (width 0.05) (tstamp 7c76d8bd-aa3d-4d64-bbe0-c827326da6b5))
  (fp_line (start 0.56 -1.87) (end -0.56 -1.87) (layer "F.CrtYd") (width 0.05) (tstamp 86a68860-ee22-4e36-8f5d-242053982286))
  (fp_line (start 1.75 0.95) (end 1.75 -0.95) (layer "F.CrtYd") (width 0.05) (tstamp c158d75e-3231-4177-9f01-40e05c8a6084))
  (fp_line (start -1.47 1.87) (end 1.47 1.87) (layer "F.CrtYd") (width 0.05) (tstamp d02de08d-63d2-4c1c-90e3-25a9616657e2))
  (fp_line (start -1.47 0.95) (end -1.47 1.87) (layer "F.CrtYd") (width 0.05) (tstamp eb1a35a6-1706-4e71-b2e9-13c8d997d2db))
  (fp_line (start -0.56 -1.87) (end -0.56 -0.95) (layer "F.CrtYd") (width 0.05) (tstamp ec4ce1ae-f08f-4fc8-b2b3-2205410b597f))
  (fp_line (start 1.5 0.7) (end -1.5 0.7) (layer "F.Fab") (width 0.12) (tstamp 2cf2a4ff-22b3-4ac8-8f49-cad89c9d525a))
  (fp_line (start -1.5 -0.7) (end 1.5 -0.7) (layer "F.Fab") (width 0.12) (tstamp 30d7dc5b-b7f3-495f-b75a-88c77ac22415))
  (fp_line (start -1.5 0.7) (end -1.5 -0.7) (layer "F.Fab") (width 0.12) (tstamp 47614244-0832-4d0e-ad42-56e0dcff514e))
  (fp_line (start -0.34787 0.001065) (end 0.35213 0.001065) (layer "F.Fab") (width 0.05) (tstamp ce83b374-87c8-4787-9db6-ae26d0ea09e0))
  (fp_line (start 1.5 -0.7) (end 1.5 0.7) (layer "F.Fab") (width 0.12) (tstamp df28afef-3063-4be2-b9fd-5f4a86ea399a))
  (fp_line (start 0.00213 -0.348935) (end 0.00213 0.351065) (layer "F.Fab") (width 0.05) (tstamp fc209144-380d-4764-82c5-b16c2b7ff0f2))
  (fp_circle (center 0.00213 0.001065) (end 0.25213 0.001065) (layer "F.Fab") (width 0.05) (tstamp 2a6e46a0-b69a-468b-be00-12f50fb691a0))
  (pad "1" smd rect (at -0.915 1.07 90) (size 1.09 0.61) (layers "F.Cu" "F.Paste" "F.Mask") (tstamp f52bd6f6-7e28-435e-bcc5-a8f30d231dd4))
  (pad "2" smd rect (at 0.915 1.07 90) (size 1.09 0.61) (layers "F.Cu" "F.Paste" "F.Mask") (tstamp 05379f2a-1edc-400e-92eb-560b029eeda2))
  (pad "3" smd rect (at 0 -1.07 90) (size 1.09 0.61) (layers "F.Cu" "F.Paste" "F.Mask") (tstamp 23797513-6c5a-4848-a932-8cd14b0fb86b))
)
