(module "SON9P127_600X800X80L50X41T430X337N" (layer "F.Cu") (tedit 5FB28003)
  (descr "Small Outline No-Lead (SON with Tab), 1.27 mm pitch; 8 pin, 6.00 mm L X 8.00 mm W X 0.80 mm H body")
  (attr smd)
  (fp_text reference "REF**" (at 0 0) (layer "F.SilkS")
    (effects (font (size 1.2 1.2) (thickness 0.12)))
    (tstamp 147f113d-b4a0-4a44-a78c-165fbf608a0c)
  )
  (fp_text value "VAL**" (at 0 0) (layer "F.Fab")
    (effects (font (size 1.2 1.2) (thickness 0.12)))
    (tstamp f7eefb05-c8fb-4b60-8add-2dac615e9db6)
  )
  (fp_text user "${REFERENCE}" (at 0 0) (layer "F.Fab")
    (effects (font (size 2 2) (thickness 0.2)))
    (tstamp 1517b070-07ab-4737-a3ad-1bb329259640)
  )
  (fp_line (start 3.05 -4.05) (end 2.365 -4.05) (layer "F.SilkS") (width 0.16) (tstamp 1fb17d43-5f12-4305-8472-02960d1049cc))
  (fp_line (start -3.05 4.05) (end -3.05 -4.05) (layer "F.SilkS") (width 0.16) (tstamp 50591f04-4a94-4856-8b2c-b3e11a005df6))
  (fp_line (start 2.365 4.05) (end 3.05 4.05) (layer "F.SilkS") (width 0.16) (tstamp 50a52fa6-fba5-4362-9fa5-1a6917ed929c))
  (fp_line (start -3.05 -4.05) (end -2.365 -4.05) (layer "F.SilkS") (width 0.16) (tstamp 777e85d1-61a1-49df-ad31-60799f99f7a2))
  (fp_line (start 3.05 4.05) (end 3.05 -4.05) (layer "F.SilkS") (width 0.16) (tstamp 96ab650c-81d2-4a06-b68a-76daaee28438))
  (fp_line (start -2.365 4.05) (end -2.365 4.185) (layer "F.SilkS") (width 0.16) (tstamp 9c04b416-8519-47ac-ba95-95e5124a5dcb))
  (fp_line (start -2.365 4.05) (end -3.05 4.05) (layer "F.SilkS") (width 0.16) (tstamp b780e2a4-28e9-4b0d-9011-a6e8e2e14bb7))
  (fp_line (start 0.4275 -4) (end 0.4275 -3.7075) (layer "Dwgs.User") (width 0.025) (tstamp 0852d33b-6fb0-4263-bab8-5c67768bde99))
  (fp_line (start -0.8425 4) (end -0.4275 4) (layer "Dwgs.User") (width 0.025) (tstamp 0ee2ee74-c197-474a-80e8-a3fbb5ef9a26))
  (fp_line (start -0.8425 3.7075) (end -0.8425 4) (layer "Dwgs.User") (width 0.025) (tstamp 10879e4c-8522-4253-8c63-2584a0581d5f))
  (fp_line (start -1.6975 -4) (end -2.1125 -4) (layer "Dwgs.User") (width 0.025) (tstamp 16c94012-5ecf-45b7-b51a-8b5e8914d835))
  (fp_line (start -0.8425 -4) (end -0.8425 -3.7075) (layer "Dwgs.User") (width 0.025) (tstamp 1eac4f53-8042-41c2-bc7c-52e0368c27e3))
  (fp_line (start -1.6975 4) (end -1.6975 3.7075) (layer "Dwgs.User") (width 0.025) (tstamp 22dea3f4-fd5c-4add-a1db-91ee5665e67e))
  (fp_line (start -3 -4) (end 3 -4) (layer "Dwgs.User") (width 0.025) (tstamp 231ff10d-78c6-4c6b-90b9-bf550531c426))
  (fp_line (start 3 -4) (end 3 4) (layer "Dwgs.User") (width 0.025) (tstamp 3e22c002-263c-4119-9cab-c47564cc6be3))
  (fp_line (start 2.1125 4) (end 2.1125 3.7075) (layer "Dwgs.User") (width 0.025) (tstamp 3e2b8aff-6bc0-4ac5-b35e-a554f15e9ac2))
  (fp_line (start 2.15 1.6875) (end 2.15 -1.6875) (layer "Dwgs.User") (width 0.025) (tstamp 440164d0-eb35-4eda-80fe-3c8513b7b891))
  (fp_line (start 2.15 -1.6875) (end -2.15 -1.6875) (layer "Dwgs.User") (width 0.025) (tstamp 6093fc04-5e2f-4dc0-a901-016f6196f310))
  (fp_line (start -2.15 1.5875) (end -2.05 1.6875) (layer "Dwgs.User") (width 0.025) (tstamp 6dc6f478-1d8b-4a59-93a7-4bf431a572dd))
  (fp_line (start 0.4275 3.7075) (end 0.4275 4) (layer "Dwgs.User") (width 0.025) (tstamp 6ed0601c-b9a3-4091-a33a-4d3843e271a2))
  (fp_line (start 0.8425 -4) (end 0.4275 -4) (layer "Dwgs.User") (width 0.025) (tstamp 7657ab93-58a7-4010-b682-c00dfe7fa31c))
  (fp_line (start -1.6975 -3.7075) (end -1.6975 -4) (layer "Dwgs.User") (width 0.025) (tstamp 8a44521a-04b2-487e-8405-6c212467e792))
  (fp_line (start 1.6975 4) (end 2.1125 4) (layer "Dwgs.User") (width 0.025) (tstamp 8c906c75-b36b-4727-8f9a-028f5835f36e))
  (fp_line (start -0.4275 -3.7075) (end -0.4275 -4) (layer "Dwgs.User") (width 0.025) (tstamp 977e2e83-6c07-47c8-9f51-faba5aec5ebc))
  (fp_line (start 2.1125 -3.7075) (end 2.1125 -4) (layer "Dwgs.User") (width 0.025) (tstamp a249fb27-d290-4b8a-a148-9e08e7693c1c))
  (fp_line (start 1.6975 -4) (end 1.6975 -3.7075) (layer "Dwgs.User") (width 0.025) (tstamp b177699e-4cd8-4615-9748-a6cb25b7ed29))
  (fp_line (start -0.4275 4) (end -0.4275 3.7075) (layer "Dwgs.User") (width 0.025) (tstamp b4590092-ab8f-4cc9-a826-b3870c732e94))
  (fp_line (start 2.1125 -4) (end 1.6975 -4) (layer "Dwgs.User") (width 0.025) (tstamp b820d7fa-de50-48e6-8052-63f7a9e3ba28))
  (fp_line (start -2.05 1.6875) (end 2.15 1.6875) (layer "Dwgs.User") (width 0.025) (tstamp b864a180-dd37-41a3-9961-480b441391bc))
  (fp_line (start 0.8425 4) (end 0.8425 3.7075) (layer "Dwgs.User") (width 0.025) (tstamp be26aac1-df02-40b0-99fc-a7a4ec0dc4aa))
  (fp_line (start -3 4) (end -3 -4) (layer "Dwgs.User") (width 0.025) (tstamp c2e0e467-5ad9-417a-b42d-a069d21aa1db))
  (fp_line (start -2.1125 3.7075) (end -2.1125 4) (layer "Dwgs.User") (width 0.025) (tstamp c33e116f-264c-4767-a42d-0d51cec1ee09))
  (fp_line (start 0.4275 4) (end 0.8425 4) (layer "Dwgs.User") (width 0.025) (tstamp c5d051ef-27fe-4d29-84d8-79680134d31e))
  (fp_line (start 0.8425 -3.7075) (end 0.8425 -4) (layer "Dwgs.User") (width 0.025) (tstamp d57fe300-ac5e-47ac-bcc5-cd28649b62f5))
  (fp_line (start -2.1125 4) (end -1.6975 4) (layer "Dwgs.User") (width 0.025) (tstamp d72ae2e3-4a2a-49db-9985-422b27ae2aac))
  (fp_line (start 3 4) (end -3 4) (layer "Dwgs.User") (width 0.025) (tstamp dcbf040f-d83c-4fd9-8567-e97bbcdd094e))
  (fp_line (start -2.1125 -4) (end -2.1125 -3.7075) (layer "Dwgs.User") (width 0.025) (tstamp dd198e80-93fb-490b-82b3-33b4ee6b821c))
  (fp_line (start -2.15 -1.6875) (end -2.15 1.5875) (layer "Dwgs.User") (width 0.025) (tstamp e82447f2-676d-4f9a-82d9-cc538eb27c6b))
  (fp_line (start -0.4275 -4) (end -0.8425 -4) (layer "Dwgs.User") (width 0.025) (tstamp f1cc6961-3f97-4b58-9f15-ec706e482405))
  (fp_line (start 1.6975 3.7075) (end 1.6975 4) (layer "Dwgs.User") (width 0.025) (tstamp f24f0fe7-f09b-499c-9053-d9eed7f5ecc0))
  (fp_arc (start 1.905 -3.7075) (end 2.1125 -3.7075) (angle 180) (layer "Dwgs.User") (width 0.025) (tstamp 1b2cd821-0042-4ac2-a41a-becc39f5ef71))
  (fp_arc (start 0.635 3.7075) (end 0.4275 3.7075) (angle 180) (layer "Dwgs.User") (width 0.025) (tstamp 3ff4904a-383b-479a-b097-e55732e0aa65))
  (fp_arc (start 1.905 3.7075) (end 1.6975 3.7075) (angle 180) (layer "Dwgs.User") (width 0.025) (tstamp 96f6c6d3-eeb6-46a2-b2ed-b25de5975d83))
  (fp_arc (start -0.635 -3.7075) (end -0.4275 -3.7075) (angle 180) (layer "Dwgs.User") (width 0.025) (tstamp bb38a107-c872-402b-9956-1f3dc244c040))
  (fp_arc (start -0.635 3.7075) (end -0.8425 3.7075) (angle 180) (layer "Dwgs.User") (width 0.025) (tstamp dc38d34a-831f-4990-add1-4cb0df75c94a))
  (fp_arc (start -1.905 -3.7075) (end -1.6975 -3.7075) (angle 180) (layer "Dwgs.User") (width 0.025) (tstamp e0b18f8c-1780-456e-b214-43436d8ed044))
  (fp_arc (start 0.635 -3.7075) (end 0.8425 -3.7075) (angle 180) (layer "Dwgs.User") (width 0.025) (tstamp ed6f8f6b-f7e9-48b9-8ade-d0127bfd74e7))
  (fp_arc (start -1.905 3.7075) (end -2.1125 3.7075) (angle 180) (layer "Dwgs.User") (width 0.025) (tstamp fe9dd095-6e3f-482e-b3dc-75a6c6aedfbe))
  (fp_line (start -2.325 4.465) (end 2.325 4.465) (layer "F.CrtYd") (width 0.05) (tstamp 03571ecd-2c48-4589-a2fd-cdf0f94e4f34))
  (fp_line (start -3.25 -4.25) (end -3.25 4.25) (layer "F.CrtYd") (width 0.05) (tstamp 282054cc-7599-4581-b0b4-d8611f364d52))
  (fp_line (start -3.25 4.25) (end -2.325 4.25) (layer "F.CrtYd") (width 0.05) (tstamp 2e0b06af-dd41-47eb-92d8-6945658e9b51))
  (fp_line (start 2.325 4.465) (end 2.325 4.25) (layer "F.CrtYd") (width 0.05) (tstamp 2fc31e54-caf1-4830-8a46-eb2da1fbe006))
  (fp_line (start -2.325 -4.465) (end -2.325 -4.25) (layer "F.CrtYd") (width 0.05) (tstamp 3e7f0839-dba8-4b41-a73a-3c738750e7b9))
  (fp_line (start 2.325 -4.25) (end 2.325 -4.465) (layer "F.CrtYd") (width 0.05) (tstamp 4981cf2d-e49b-44ce-85b2-74e684b98508))
  (fp_line (start 2.325 -4.465) (end -2.325 -4.465) (layer "F.CrtYd") (width 0.05) (tstamp 64444310-6fae-48fc-8af9-fe711bd034fc))
  (fp_line (start 3.25 4.25) (end 3.25 -4.25) (layer "F.CrtYd") (width 0.05) (tstamp 74d7f795-155a-4dd7-ba98-033f0ec09b48))
  (fp_line (start 3.25 -4.25) (end 2.325 -4.25) (layer "F.CrtYd") (width 0.05) (tstamp 89ccb251-3f86-4107-99f3-7cc7d82f9589))
  (fp_line (start 2.325 4.25) (end 3.25 4.25) (layer "F.CrtYd") (width 0.05) (tstamp 935fcea1-67c0-44c8-8350-4a5a7e437533))
  (fp_line (start -2.325 -4.25) (end -3.25 -4.25) (layer "F.CrtYd") (width 0.05) (tstamp 94248c5a-9e8c-43e8-bb37-c5b84011cc66))
  (fp_line (start -2.325 4.25) (end -2.325 4.465) (layer "F.CrtYd") (width 0.05) (tstamp e5451119-37cc-4b35-bbb7-98892da10200))
  (fp_line (start -1.78 4.05) (end -3.05 2.78) (layer "F.Fab") (width 0.16) (tstamp 10bf6308-dda6-4442-814a-39e9565d804e))
  (fp_line (start 3.05 -4.05) (end 3.05 4.05) (layer "F.Fab") (width 0.16) (tstamp 4916fcab-285b-4d11-917c-d469875c3d48))
  (fp_line (start -3.05 2.78) (end -3.05 -4.05) (layer "F.Fab") (width 0.16) (tstamp 7d5aab43-cbda-42c0-bef8-b198dab785fc))
  (fp_line (start -0.34787 0.001065) (end 0.35213 0.001065) (layer "F.Fab") (width 0.05) (tstamp 87e8c79a-f67f-4e0f-b69b-12ea7a90fd6b))
  (fp_line (start 3.05 4.05) (end -1.78 4.05) (layer "F.Fab") (width 0.16) (tstamp b98961ff-dbd6-401c-a9cd-b1cb5bc1045e))
  (fp_line (start 0.00213 -0.348935) (end 0.00213 0.351065) (layer "F.Fab") (width 0.05) (tstamp b9ea9c05-8ebf-422d-b510-26db1f411496))
  (fp_line (start -3.05 -4.05) (end 3.05 -4.05) (layer "F.Fab") (width 0.16) (tstamp f080ae10-3685-4f8f-9501-643a44f80201))
  (fp_circle (center 0.00213 0.001065) (end 0.25213 0.001065) (layer "F.Fab") (width 0.05) (tstamp 9c0c33a9-4393-47d1-8b24-d663027c8a1d))
  (pad "" smd rect (at -1.075 -0.84 90) (size 1.19 1.66) (layers "F.Paste") (tstamp 3b43a243-a33d-4e0e-9e56-f405c09f1c7e))
  (pad "" smd rect (at 1.075 -0.84 90) (size 1.19 1.66) (layers "F.Paste") (tstamp 4faafc73-49d8-4368-8191-0a7f250aa9b2))
  (pad "" smd rect (at 1.075 0.84 90) (size 1.19 1.66) (layers "F.Paste") (tstamp 60eac096-6296-429d-9cb7-60a4be6d89ad))
  (pad "" smd rect (at -1.075 0.84 90) (size 1.19 1.66) (layers "F.Paste") (tstamp b9fe6074-54cc-4803-98d3-c5f4f21f2efd))
  (pad "1" smd roundrect (at -1.905 3.845 90) (size 0.84 0.44) (layers "F.Cu" "F.Paste" "F.Mask") (roundrect_rratio 0.25) (tstamp 28585caa-8166-47ab-a1a4-3515d8b14515))
  (pad "2" smd roundrect (at -0.635 3.845 90) (size 0.84 0.44) (layers "F.Cu" "F.Paste" "F.Mask") (roundrect_rratio 0.25) (tstamp bfb084bf-c701-4d91-9f51-c1f8b22630fe))
  (pad "3" smd roundrect (at 0.635 3.845 90) (size 0.84 0.44) (layers "F.Cu" "F.Paste" "F.Mask") (roundrect_rratio 0.25) (tstamp 861f1e18-2ae3-4210-bc85-1e0b263ac6a3))
  (pad "4" smd roundrect (at 1.905 3.845 90) (size 0.84 0.44) (layers "F.Cu" "F.Paste" "F.Mask") (roundrect_rratio 0.25) (tstamp 85a59cf5-51e4-48ed-9c3a-8fd78af9cdb7))
  (pad "5" smd roundrect (at 1.905 -3.845 90) (size 0.84 0.44) (layers "F.Cu" "F.Paste" "F.Mask") (roundrect_rratio 0.25) (tstamp 6f35c16d-6599-4c23-9e05-e8011d086a13))
  (pad "6" smd roundrect (at 0.635 -3.845 90) (size 0.84 0.44) (layers "F.Cu" "F.Paste" "F.Mask") (roundrect_rratio 0.25) (tstamp 006b8e10-8a89-4986-b74a-840d9b2e9555))
  (pad "7" smd roundrect (at -0.635 -3.845 90) (size 0.84 0.44) (layers "F.Cu" "F.Paste" "F.Mask") (roundrect_rratio 0.25) (tstamp 3e7f396e-5222-4bf8-8e18-6c9a8cf97079))
  (pad "8" smd roundrect (at -1.905 -3.845 90) (size 0.84 0.44) (layers "F.Cu" "F.Paste" "F.Mask") (roundrect_rratio 0.25) (tstamp 53b7a824-c83c-48a9-90e4-13598b85ddef))
  (pad "9" smd rect (at 0 0 90) (size 3.375 4.3) (layers "F.Cu" "F.Mask") (tstamp 928e2b29-547f-4de9-b8ef-8e0a5a5db063))
)
