(module "BEADC100X50X55L25N" (layer "F.Cu") (tedit 5FB39983)
  (descr "Ferrite Bead, Chip; 1.00 mm L X 0.50 mm W X 0.55 mm H body")
  (attr smd)
  (fp_text reference "REF**" (at 0 0) (layer "F.SilkS")
    (effects (font (size 1.2 1.2) (thickness 0.12)))
    (tstamp 1d7501fa-c974-4a7b-a58f-66fd4b76aa24)
  )
  (fp_text value "VAL**" (at 0 0) (layer "F.Fab")
    (effects (font (size 1.2 1.2) (thickness 0.12)))
    (tstamp 6a463a5c-9c0b-450e-af78-8d7688b3bb04)
  )
  (fp_text user "${REFERENCE}" (at 0 0) (layer "F.Fab")
    (effects (font (size 0.5 0.5) (thickness 0.05)))
    (tstamp 763f526b-8418-4b76-b24b-b3289b6bc109)
  )
  (fp_line (start -0.5 -0.25) (end 0.5 -0.25) (layer "Dwgs.User") (width 0.025) (tstamp 0fcb86cd-029e-4770-93f3-617e2ed03596))
  (fp_line (start -0.5 0.25) (end -0.5 -0.25) (layer "Dwgs.User") (width 0.025) (tstamp 16093a01-7289-4de9-b697-94b13cbbb605))
  (fp_line (start 0.25 0.25) (end 0.25 -0.25) (layer "Dwgs.User") (width 0.025) (tstamp 6d0fdc81-1068-4966-a740-ca3b481f0811))
  (fp_line (start 0.25 -0.25) (end 0.5 -0.25) (layer "Dwgs.User") (width 0.025) (tstamp 97a6f287-c882-4a72-bfa5-fff9da379171))
  (fp_line (start 0.5 0.25) (end -0.5 0.25) (layer "Dwgs.User") (width 0.025) (tstamp 9a9caf65-7c24-4a82-9d80-73c29bbea799))
  (fp_line (start 0.5 -0.25) (end 0.5 0.25) (layer "Dwgs.User") (width 0.025) (tstamp a1e1615a-029a-4361-bc49-11781c3a51b6))
  (fp_line (start 0.5 -0.25) (end 0.5 0.25) (layer "Dwgs.User") (width 0.025) (tstamp b6ca7980-c9cf-42be-b9d9-014c04199777))
  (fp_line (start -0.5 0.25) (end -0.5 -0.25) (layer "Dwgs.User") (width 0.025) (tstamp b6da6d4f-e358-415d-a19b-8832a9cd905f))
  (fp_line (start -0.25 0.25) (end -0.5 0.25) (layer "Dwgs.User") (width 0.025) (tstamp bfe1b909-a33d-493e-8cce-468aecc29175))
  (fp_line (start -0.5 -0.25) (end -0.25 -0.25) (layer "Dwgs.User") (width 0.025) (tstamp cb2f1b63-a796-417b-a48b-97a1e0467b97))
  (fp_line (start -0.25 -0.25) (end -0.25 0.25) (layer "Dwgs.User") (width 0.025) (tstamp d54a36de-0d66-464a-b7c9-b04b439c78be))
  (fp_line (start 0.5 0.25) (end 0.25 0.25) (layer "Dwgs.User") (width 0.025) (tstamp f499cc00-efb4-4f8a-9d80-f245653e5f45))
  (fp_line (start 0.9 0.44) (end -0.9 0.44) (layer "F.CrtYd") (width 0.05) (tstamp 280e3142-d2e7-4b18-b1b2-8a933a2f5b50))
  (fp_line (start -0.9 -0.44) (end 0.9 -0.44) (layer "F.CrtYd") (width 0.05) (tstamp db5ab99c-0c0b-4734-be3e-c93cd8c14c97))
  (fp_line (start -0.9 0.44) (end -0.9 -0.44) (layer "F.CrtYd") (width 0.05) (tstamp e62c15d4-d158-4e4c-a920-5a2b7933e085))
  (fp_line (start 0.9 -0.44) (end 0.9 0.44) (layer "F.CrtYd") (width 0.05) (tstamp f533acaf-c771-46d6-b3bd-6b20fa676c76))
  (fp_line (start 0.000269 -0.36036) (end 0.000269 0.33964) (layer "F.Fab") (width 0.05) (tstamp 30ac7d08-7783-4c2a-83c2-5687eac4a197))
  (fp_line (start 0.53 0.28) (end -0.53 0.28) (layer "F.Fab") (width 0.16) (tstamp 3868ed07-d3d2-4d21-8f56-d1cf0c1b3cdc))
  (fp_line (start 0.350269 -0.01036) (end -0.349731 -0.01036) (layer "F.Fab") (width 0.05) (tstamp 83a26e92-8cd2-4ed6-8f06-bca0c32e4c3a))
  (fp_line (start -0.53 -0.28) (end 0.53 -0.28) (layer "F.Fab") (width 0.16) (tstamp 908cf043-12d6-4705-bdcb-83b4539f3854))
  (fp_line (start -0.53 0.28) (end -0.53 -0.28) (layer "F.Fab") (width 0.16) (tstamp b4384663-9ddf-4f3e-af57-b761f0a3d16b))
  (fp_line (start 0.53 -0.28) (end 0.53 0.28) (layer "F.Fab") (width 0.16) (tstamp e614e6cd-510b-4d59-afd8-8589cae29e43))
  (fp_circle (center 0.000269 -0.01036) (end 0.250269 -0.01036) (layer "F.Fab") (width 0.05) (tstamp e2229403-f910-4f86-9721-e476205fdc74))
  (pad "1" smd rect (at -0.46 0) (size 0.58 0.58) (layers "F.Cu" "F.Paste" "F.Mask") (tstamp 4df6cf34-fb6a-4fdd-8e20-387d56e4d37c))
  (pad "2" smd rect (at 0.46 0) (size 0.58 0.58) (layers "F.Cu" "F.Paste" "F.Mask") (tstamp b6f2e39a-9d13-4248-82f9-4be48dc9344d))
  (model "${KISYS3DMOD}/BEADC100X50X55L25.STEP"
    (offset (xyz 0 0 0))
    (scale (xyz 1 1 1))
    (rotate (xyz -90 0 0))
  )
)
