(module CAPC100X50X56L25N (layer F.Cu) (tedit 0)
  (descr "Capacitor, Chip; 1.00 mm L X 0.50 mm W X 0.56 mm H body")
  (attr smd)
  (fp_text user %R (at 0 0) (layer F.Fab)
    (effects (font (size 0.5 0.5) (thickness 0.05)))
  )
  (fp_text value VAL** (at 0 0) (layer F.Fab)
    (effects (font (size 1.2 1.2) (thickness 0.12)))
  )
  (fp_text reference REF** (at 0 0) (layer F.SilkS)
    (effects (font (size 1.2 1.2) (thickness 0.12)))
  )
  (fp_line (start -0.25 -0.25) (end -0.25 0.25) (layer Dwgs.User) (width 0.025))
  (fp_line (start -0.25 0.25) (end -0.5 0.25) (layer Dwgs.User) (width 0.025))
  (fp_line (start -0.5 0.25) (end -0.5 -0.25) (layer Dwgs.User) (width 0.025))
  (fp_line (start -0.5 -0.25) (end -0.25 -0.25) (layer Dwgs.User) (width 0.025))
  (fp_line (start 0.25 0.25) (end 0.25 -0.25) (layer Dwgs.User) (width 0.025))
  (fp_line (start 0.25 -0.25) (end 0.5 -0.25) (layer Dwgs.User) (width 0.025))
  (fp_line (start 0.5 -0.25) (end 0.5 0.25) (layer Dwgs.User) (width 0.025))
  (fp_line (start 0.5 0.25) (end 0.25 0.25) (layer Dwgs.User) (width 0.025))
  (fp_line (start -0.5 0.25) (end -0.5 -0.25) (layer Dwgs.User) (width 0.025))
  (fp_line (start -0.5 -0.25) (end 0.5 -0.25) (layer Dwgs.User) (width 0.025))
  (fp_line (start 0.5 -0.25) (end 0.5 0.25) (layer Dwgs.User) (width 0.025))
  (fp_line (start 0.5 0.25) (end -0.5 0.25) (layer Dwgs.User) (width 0.025))
  (fp_line (start -0.6 0.35) (end -0.6 -0.35) (layer F.Fab) (width 0.16))
  (fp_line (start -0.6 -0.35) (end 0.6 -0.35) (layer F.Fab) (width 0.16))
  (fp_line (start 0.6 -0.35) (end 0.6 0.35) (layer F.Fab) (width 0.16))
  (fp_line (start 0.6 0.35) (end -0.6 0.35) (layer F.Fab) (width 0.16))
  (fp_line (start -0.96 0.5) (end -0.96 -0.5) (layer F.CrtYd) (width 0.05))
  (fp_line (start -0.96 -0.5) (end 0.96 -0.5) (layer F.CrtYd) (width 0.05))
  (fp_line (start 0.96 -0.5) (end 0.96 0.5) (layer F.CrtYd) (width 0.05))
  (fp_line (start 0.96 0.5) (end -0.96 0.5) (layer F.CrtYd) (width 0.05))
  (pad 1 smd rect (at -0.46 0) (size 0.7 0.7) (layers F.Cu F.Paste F.Mask))
  (pad 2 smd rect (at 0.46 0) (size 0.7 0.7) (layers F.Cu F.Paste F.Mask))
)
