(module "CAPC320X250X155L50N" (layer "F.Cu") (tedit 5FB39943)
  (descr "Capacitor, Chip; 3.20 mm L X 2.50 mm W X 1.55 mm H body")
  (attr smd)
  (fp_text reference "REF**" (at 0 0) (layer "F.SilkS")
    (effects (font (size 1.2 1.2) (thickness 0.12)))
    (tstamp 7fd8f958-c4fd-495d-9e4a-44206190d006)
  )
  (fp_text value "VAL**" (at 0 0) (layer "F.Fab")
    (effects (font (size 1.2 1.2) (thickness 0.12)))
    (tstamp 4437cffb-40ba-49bb-9a2c-baaadf1f056e)
  )
  (fp_text user "${REFERENCE}" (at 0 0) (layer "F.Fab")
    (effects (font (size 2 2) (thickness 0.2)))
    (tstamp eb6b2e10-67c8-466a-8ec5-61869e2388f3)
  )
  (fp_line (start -0.655 1.35) (end 0.655 1.35) (layer "F.SilkS") (width 0.16) (tstamp 670c3146-233f-46da-af32-c4c4a5a2dd67))
  (fp_line (start -0.655 -1.35) (end 0.655 -1.35) (layer "F.SilkS") (width 0.16) (tstamp 90ad84a0-9b25-4f77-a733-3a6ba77a8211))
  (fp_line (start 1.6 1.25) (end -1.6 1.25) (layer "Dwgs.User") (width 0.025) (tstamp 0793e74c-6e24-48b7-9d10-be7a039b856f))
  (fp_line (start -1.6 -1.25) (end 1.6 -1.25) (layer "Dwgs.User") (width 0.025) (tstamp 29657494-0f12-45c5-aaeb-8fbc60bfadd5))
  (fp_line (start -1.6 -1.25) (end -1.1 -1.25) (layer "Dwgs.User") (width 0.025) (tstamp 325590f2-89ae-4a99-8def-525f706cad5c))
  (fp_line (start -1.1 -1.25) (end -1.1 1.25) (layer "Dwgs.User") (width 0.025) (tstamp 3b23fd03-6103-450a-9526-d30b98ffb7ad))
  (fp_line (start 1.6 1.25) (end 1.1 1.25) (layer "Dwgs.User") (width 0.025) (tstamp 3c2ef422-193d-4446-8e69-8e662c37d4a0))
  (fp_line (start -1.6 1.25) (end -1.6 -1.25) (layer "Dwgs.User") (width 0.025) (tstamp 647d0ce8-42ed-418f-9e91-0921f894c439))
  (fp_line (start 1.6 -1.25) (end 1.6 1.25) (layer "Dwgs.User") (width 0.025) (tstamp 8394268f-e308-4f28-a90f-1d9f28d331df))
  (fp_line (start -1.6 1.25) (end -1.6 -1.25) (layer "Dwgs.User") (width 0.025) (tstamp 8ab4e253-8b8a-47be-95e0-f6e7c5e68dc3))
  (fp_line (start 1.1 1.25) (end 1.1 -1.25) (layer "Dwgs.User") (width 0.025) (tstamp 952ac9d8-6ccc-4a8b-80a1-52c200ef921a))
  (fp_line (start -1.1 1.25) (end -1.6 1.25) (layer "Dwgs.User") (width 0.025) (tstamp 9712680b-5152-446f-b413-8afcf1c3607c))
  (fp_line (start 1.1 -1.25) (end 1.6 -1.25) (layer "Dwgs.User") (width 0.025) (tstamp fe5603c1-22a0-4306-bce1-e0d7c5e3c1e2))
  (fp_line (start 1.6 -1.25) (end 1.6 1.25) (layer "Dwgs.User") (width 0.025) (tstamp ff818eae-a11e-4853-a918-ef4302360fd2))
  (fp_line (start 2.26 -1.56) (end 2.26 1.56) (layer "F.CrtYd") (width 0.05) (tstamp 461cdb28-e83e-4f8d-a8d5-70435d8163c4))
  (fp_line (start -2.26 1.56) (end -2.26 -1.56) (layer "F.CrtYd") (width 0.05) (tstamp 6c78f533-15c5-41c6-8235-316d23eeb2c9))
  (fp_line (start -2.26 -1.56) (end 2.26 -1.56) (layer "F.CrtYd") (width 0.05) (tstamp a1a8a87a-704d-41df-9f84-66511dbf0379))
  (fp_line (start 2.26 1.56) (end -2.26 1.56) (layer "F.CrtYd") (width 0.05) (tstamp c6d45433-9d1f-457b-85fe-b5b77e547fd3))
  (fp_line (start -1.7 -1.35) (end 1.7 -1.35) (layer "F.Fab") (width 0.16) (tstamp 0d0f7b83-a4a4-4828-901a-03d444a178e5))
  (fp_line (start 0.000269 -0.36036) (end 0.000269 0.33964) (layer "F.Fab") (width 0.05) (tstamp 3fe9bc75-ccc0-42ef-9e3f-db5f86c5cf02))
  (fp_line (start -1.7 1.35) (end -1.7 -1.35) (layer "F.Fab") (width 0.16) (tstamp 3fff9029-4e81-45f5-b594-949313734963))
  (fp_line (start 1.7 -1.35) (end 1.7 1.35) (layer "F.Fab") (width 0.16) (tstamp 6764ab3a-ea31-43aa-b85d-c558ae4e1552))
  (fp_line (start 1.7 1.35) (end -1.7 1.35) (layer "F.Fab") (width 0.16) (tstamp c8ade022-ae4a-49fa-a404-c6527731fcb0))
  (fp_line (start 0.350269 -0.01036) (end -0.349731 -0.01036) (layer "F.Fab") (width 0.05) (tstamp fb8bcf6d-3f64-49d2-9b5a-9e59cf415a89))
  (fp_circle (center 0.000269 -0.01036) (end 0.250269 -0.01036) (layer "F.Fab") (width 0.05) (tstamp ec0734b5-500d-4efe-8505-c7fe30971639))
  (pad "1" smd roundrect (at -1.475 0) (size 1.16 2.72) (layers "F.Cu" "F.Paste" "F.Mask") (roundrect_rratio 0.2155) (tstamp 154e9591-7900-46d3-9b4b-d085cc6bf8f4))
  (pad "2" smd roundrect (at 1.475 0) (size 1.16 2.72) (layers "F.Cu" "F.Paste" "F.Mask") (roundrect_rratio 0.2155) (tstamp b4bedf1f-55bf-4690-aec8-7e7e4bc141fe))
  (model "${KISYS3DMOD}/CAPC320X250X155L50.STEP"
    (offset (xyz 0 0 0))
    (scale (xyz 1 1 1))
    (rotate (xyz -90 0 0))
  )
)
