(module "INDC250X180X200L50N" (layer "F.Cu") (tedit 5FB39924)
  (descr "Inductor, Chip; 2.50 mm L X 1.80 mm W X 2.00 mm H body")
  (attr smd)
  (fp_text reference "REF**" (at 0 0) (layer "F.SilkS")
    (effects (font (size 1.2 1.2) (thickness 0.12)))
    (tstamp a8c5c513-c3ba-4921-8ed7-c1654f98215f)
  )
  (fp_text value "VAL**" (at 0 0) (layer "F.Fab")
    (effects (font (size 1.2 1.2) (thickness 0.12)))
    (tstamp 3b640dfb-374c-49c2-8473-735ca248658d)
  )
  (fp_text user "${REFERENCE}" (at 0 0) (layer "F.Fab")
    (effects (font (size 1.36 1.36) (thickness 0.14)))
    (tstamp c6c2db2b-5774-4e91-a95b-3c8da7bd341c)
  )
  (fp_line (start -0.33 -1) (end 0.33 -1) (layer "F.SilkS") (width 0.16) (tstamp d0f71f29-cf52-41ec-972d-0248e31335ae))
  (fp_line (start -0.33 1) (end 0.33 1) (layer "F.SilkS") (width 0.16) (tstamp e6a747f5-c378-442d-863f-08a8932dafe8))
  (fp_line (start -1.25 0.9) (end -1.25 -0.9) (layer "Dwgs.User") (width 0.025) (tstamp 153ccc10-ba0f-4a23-a7c1-282fa02c4ab3))
  (fp_line (start -0.75 -0.9) (end -0.75 0.9) (layer "Dwgs.User") (width 0.025) (tstamp 262aab34-5c46-48ab-9b86-0dfcca89787e))
  (fp_line (start -1.25 -0.9) (end 1.25 -0.9) (layer "Dwgs.User") (width 0.025) (tstamp 2fed4c64-344b-4165-8f9c-10c7642caac7))
  (fp_line (start 1.25 0.9) (end 0.75 0.9) (layer "Dwgs.User") (width 0.025) (tstamp 43e6acec-1782-4459-abb3-f2bc4c82553e))
  (fp_line (start 1.25 -0.9) (end 1.25 0.9) (layer "Dwgs.User") (width 0.025) (tstamp 45e76091-d8a3-441d-90c9-58463f373c62))
  (fp_line (start -1.25 0.9) (end -1.25 -0.9) (layer "Dwgs.User") (width 0.025) (tstamp 8e8d6a93-a60c-44b7-b887-d0657c72c9e5))
  (fp_line (start 1.25 -0.9) (end 1.25 0.9) (layer "Dwgs.User") (width 0.025) (tstamp 962a6794-3f21-4be0-b18c-029e371861c3))
  (fp_line (start 0.75 0.9) (end 0.75 -0.9) (layer "Dwgs.User") (width 0.025) (tstamp 9fe1f35a-9974-4c0c-b831-52b0103c9aa2))
  (fp_line (start -0.75 0.9) (end -1.25 0.9) (layer "Dwgs.User") (width 0.025) (tstamp a193995d-a700-4079-8bb4-ef1fb98959e3))
  (fp_line (start 0.75 -0.9) (end 1.25 -0.9) (layer "Dwgs.User") (width 0.025) (tstamp bc2326c0-b1c6-467a-b167-0d3f09dd71ce))
  (fp_line (start 1.25 0.9) (end -1.25 0.9) (layer "Dwgs.User") (width 0.025) (tstamp e0a1993b-c5fe-4b52-8fa9-81a01b2f3a1a))
  (fp_line (start -1.25 -0.9) (end -0.75 -0.9) (layer "Dwgs.User") (width 0.025) (tstamp e490a5d3-4906-438a-9cb3-a0ce56f81c9f))
  (fp_line (start 1.86 1.21) (end -1.86 1.21) (layer "F.CrtYd") (width 0.05) (tstamp 71684489-3e12-4859-9e75-f002868c722d))
  (fp_line (start -1.86 -1.21) (end 1.86 -1.21) (layer "F.CrtYd") (width 0.05) (tstamp 74779d67-6853-4c06-a90a-b475cbb1d32d))
  (fp_line (start -1.86 1.21) (end -1.86 -1.21) (layer "F.CrtYd") (width 0.05) (tstamp f66d3ca0-7d44-451f-9abc-4e74c54a6c25))
  (fp_line (start 1.86 -1.21) (end 1.86 1.21) (layer "F.CrtYd") (width 0.05) (tstamp fa53261b-fa35-4f33-9d6f-04d23e53f29f))
  (fp_line (start 0.000269 -0.36036) (end 0.000269 0.33964) (layer "F.Fab") (width 0.05) (tstamp 1e2ac638-4aed-4efa-aba8-5d5ac6e445ca))
  (fp_line (start 0.350269 -0.01036) (end -0.349731 -0.01036) (layer "F.Fab") (width 0.05) (tstamp 2eb433a4-3b4b-4a61-bd83-ceb29d531134))
  (fp_line (start 1.35 1) (end -1.35 1) (layer "F.Fab") (width 0.16) (tstamp 920d629c-7623-47ca-9255-9dab4dbbdc03))
  (fp_line (start -1.35 1) (end -1.35 -1) (layer "F.Fab") (width 0.16) (tstamp afd0e09f-87ae-4065-9a4e-02c7dbf23326))
  (fp_line (start -1.35 -1) (end 1.35 -1) (layer "F.Fab") (width 0.16) (tstamp cb99c908-0a74-443b-be5e-9bc6907a3b09))
  (fp_line (start 1.35 -1) (end 1.35 1) (layer "F.Fab") (width 0.16) (tstamp d4ef43a6-21c2-4976-95f1-4df8a2b2e1b6))
  (fp_circle (center 0.000269 -0.01036) (end 0.250269 -0.01036) (layer "F.Fab") (width 0.05) (tstamp 97cff01f-87d0-4655-acd3-981b3a22d55a))
  (pad "1" smd roundrect (at -1.115 0) (size 1.09 2.02) (layers "F.Cu" "F.Paste" "F.Mask") (roundrect_rratio 0.2294) (tstamp 537ecbdb-8bef-4eec-8f89-290216cfac17))
  (pad "2" smd roundrect (at 1.115 0) (size 1.09 2.02) (layers "F.Cu" "F.Paste" "F.Mask") (roundrect_rratio 0.2294) (tstamp 7b84cd9f-1136-4cd2-9c03-88834c0eb547))
  (model "${KISYS3DMOD}/INDC250X180X200L50.STEP"
    (offset (xyz 0 0 0))
    (scale (xyz 1 1 1))
    (rotate (xyz -90 0 0))
  )
)
