(footprint "RESC100X50X40L20_25N" (version 20201116) (generator pcbnew) (layer "F.Cu")
  (tedit 5FBA902C)
  (descr "Resistor, Chip; 1.00 mm L X 0.50 mm W X 0.40 mm H body")
  (attr smd)
  (fp_text reference "REF**" (at 0 0) (layer "F.SilkS")
    (effects (font (size 1.2 1.2) (thickness 0.12)))
    (tstamp 4289e327-9652-4b6e-9f8f-3924e08d292c)
  )
  (fp_text value "VAL**" (at 0 0) (layer "F.Fab")
    (effects (font (size 1.2 1.2) (thickness 0.12)))
    (tstamp 451637b2-583f-4e99-906c-d0c5bcb2fdfb)
  )
  (fp_text user "${REFERENCE}" (at 0 0) (layer "F.Fab")
    (effects (font (size 0.5 0.5) (thickness 0.05)))
    (tstamp 198b3e5a-7dbe-4504-8359-719c10beb9fe)
  )
  (fp_line (start -0.3 0.25) (end -0.5 0.25) (layer "Dwgs.User") (width 0.025) (tstamp 01f29b6e-f14f-4246-b692-17d0ae538e91))
  (fp_line (start -0.3 -0.25) (end -0.3 0.25) (layer "Dwgs.User") (width 0.025) (tstamp 29688a86-e170-4afe-ad6a-1676a907b2a3))
  (fp_line (start 0.5 -0.25) (end 0.5 0.25) (layer "Dwgs.User") (width 0.025) (tstamp 2d875a2d-b93b-4375-85d2-8651feabb1f0))
  (fp_line (start 0.25 0.25) (end 0.25 -0.25) (layer "Dwgs.User") (width 0.025) (tstamp 3368db31-b82d-48d8-a291-b58ee2c3a4ff))
  (fp_line (start 0.5 0.25) (end -0.5 0.25) (layer "Dwgs.User") (width 0.025) (tstamp 5ef2b341-6afa-4c6a-85a9-1b6fbe8dec9d))
  (fp_line (start -0.5 -0.25) (end -0.3 -0.25) (layer "Dwgs.User") (width 0.025) (tstamp 61bedc92-7d37-4c16-b192-4451d1c58d75))
  (fp_line (start -0.5 0.25) (end -0.5 -0.25) (layer "Dwgs.User") (width 0.025) (tstamp 7f60cf5d-463b-4bc0-a8c5-1d0cd17ee26e))
  (fp_line (start -0.5 -0.25) (end 0.5 -0.25) (layer "Dwgs.User") (width 0.025) (tstamp a2695a4b-5cd2-44df-be0d-3d396895c7f6))
  (fp_line (start 0.25 -0.25) (end 0.5 -0.25) (layer "Dwgs.User") (width 0.025) (tstamp a8552abe-18ca-439d-9429-931313b7d147))
  (fp_line (start 0.5 0.25) (end 0.25 0.25) (layer "Dwgs.User") (width 0.025) (tstamp ae64f95b-6bb9-40e3-9f7b-4e8f94aba301))
  (fp_line (start -0.5 0.25) (end -0.5 -0.25) (layer "Dwgs.User") (width 0.025) (tstamp f41d4624-5912-457a-9a31-a399a2e36617))
  (fp_line (start 0.5 -0.25) (end 0.5 0.25) (layer "Dwgs.User") (width 0.025) (tstamp f85f5031-be4c-4efb-b9c1-defff97fa750))
  (fp_line (start 0.9 0.44) (end -0.9 0.44) (layer "F.CrtYd") (width 0.05) (tstamp 4eb94727-8534-4b24-ade5-8f63b68dc5a5))
  (fp_line (start -0.9 0.44) (end -0.9 -0.44) (layer "F.CrtYd") (width 0.05) (tstamp b01fc358-f2c8-4659-847a-a69a6dc0c39a))
  (fp_line (start -0.9 -0.44) (end 0.9 -0.44) (layer "F.CrtYd") (width 0.05) (tstamp bceeb7ee-8e90-4792-afc9-2df3aea95ecd))
  (fp_line (start 0.9 -0.44) (end 0.9 0.44) (layer "F.CrtYd") (width 0.05) (tstamp c70fe44c-f3d1-49c2-8378-69e20c98f381))
  (fp_line (start -0.53 0.28) (end -0.53 -0.28) (layer "F.Fab") (width 0.16) (tstamp 07eb5d41-61b0-4ce2-8dac-485c495ea8b3))
  (fp_line (start 0.53 -0.28) (end 0.53 0.28) (layer "F.Fab") (width 0.16) (tstamp 3609075a-efcc-455e-a648-3aa01e431159))
  (fp_line (start 0.53 0.28) (end -0.53 0.28) (layer "F.Fab") (width 0.16) (tstamp 3a506076-a47b-4dfa-a32f-fcfa03ded046))
  (fp_line (start 0.000269 -0.36036) (end 0.000269 0.33964) (layer "F.Fab") (width 0.05) (tstamp 4dd6baa8-be41-404c-9bf1-56ef2a67f69c))
  (fp_line (start -0.53 -0.28) (end 0.53 -0.28) (layer "F.Fab") (width 0.16) (tstamp 53babd04-755e-4edb-9c6c-85970d472b9f))
  (fp_line (start 0.350269 -0.01036) (end -0.349731 -0.01036) (layer "F.Fab") (width 0.05) (tstamp 75829106-9fa4-4f0e-acf3-a907d05451f3))
  (fp_circle (center 0.000269 -0.01036) (end 0.250269 -0.01036) (layer "F.Fab") (width 0.05) (fill none) (tstamp ba00211c-15e0-4a65-821b-0dc619fa0d94))
  (pad "1" smd roundrect (at -0.485 0) (size 0.58 0.58) (layers "F.Cu" "F.Paste" "F.Mask") (roundrect_rratio 0.245) (tstamp 58af802c-909c-460c-a07c-63fd18038292))
  (pad "2" smd roundrect (at 0.46 0) (size 0.58 0.58) (layers "F.Cu" "F.Paste" "F.Mask") (roundrect_rratio 0.245) (tstamp 85b0abda-71cc-4825-bc81-c74b82b20928))
  (model "${KISYS3DMOD}/RESC100X50X40L20_25.STEP"
    (offset (xyz 0 0 0))
    (scale (xyz 1 1 1))
    (rotate (xyz -90 0 0))
  )
)
