(module "RESC305X155X65L42N" (layer "F.Cu") (tedit 5FB399FB)
  (descr "Resistor, Chip; 3.05 mm L X 1.55 mm W X 0.65 mm H body")
  (attr smd)
  (fp_text reference "REF**" (at 0 0) (layer "F.SilkS")
    (effects (font (size 1.2 1.2) (thickness 0.12)))
    (tstamp a1e66d7b-9069-48f8-9c7e-3b7f346b551b)
  )
  (fp_text value "VAL**" (at 0 0) (layer "F.Fab")
    (effects (font (size 1.2 1.2) (thickness 0.12)))
    (tstamp cc91393d-b1cf-4685-b41a-bc00a11aaaf9)
  )
  (fp_text user "${REFERENCE}" (at 0 0) (layer "F.Fab")
    (effects (font (size 1.22 1.22) (thickness 0.12)))
    (tstamp 70c229cf-bcf8-4ff7-97e0-a9fc9f1914f1)
  )
  (fp_line (start -0.76 -0.85) (end 0.76 -0.85) (layer "F.SilkS") (width 0.12) (tstamp 146e8abc-a10d-4dd8-a36e-5e0c8c3185ba))
  (fp_line (start -0.76 0.85) (end 0.76 0.85) (layer "F.SilkS") (width 0.12) (tstamp d21e41f1-1e3d-4702-b7d3-ab6cd082f7a5))
  (fp_line (start 1.525 -0.775) (end 1.525 0.775) (layer "Dwgs.User") (width 0.025) (tstamp 23411dc4-fe31-4d8b-aa7b-cffbd6912f8c))
  (fp_line (start -1.525 0.775) (end -1.525 -0.775) (layer "Dwgs.User") (width 0.025) (tstamp 258822b7-f6ac-4935-a346-c798c0fdd2ee))
  (fp_line (start 1.525 0.775) (end -1.525 0.775) (layer "Dwgs.User") (width 0.025) (tstamp 3c7fa2de-fe99-4bd6-9a3e-84d7b1a21b8d))
  (fp_line (start -1.525 -0.775) (end 1.525 -0.775) (layer "Dwgs.User") (width 0.025) (tstamp 3da0662d-67a8-4d57-80b3-88f5421eab78))
  (fp_line (start -1.105 -0.775) (end -1.105 0.775) (layer "Dwgs.User") (width 0.025) (tstamp 44f774e4-762a-4571-95a5-66adbe4e1a15))
  (fp_line (start -1.525 0.775) (end -1.525 -0.775) (layer "Dwgs.User") (width 0.025) (tstamp 567c6e48-a579-4ff6-9d54-8b327c1e782f))
  (fp_line (start -1.105 0.775) (end -1.525 0.775) (layer "Dwgs.User") (width 0.025) (tstamp 570b4cc1-7431-4851-9482-fb0e30487747))
  (fp_line (start 1.105 0.775) (end 1.105 -0.775) (layer "Dwgs.User") (width 0.025) (tstamp 6dd937c1-687b-4944-aa84-3641b502c0f2))
  (fp_line (start 1.525 -0.775) (end 1.525 0.775) (layer "Dwgs.User") (width 0.025) (tstamp c11b3353-d034-4a5e-9df6-98c2874ff72a))
  (fp_line (start 1.105 -0.775) (end 1.525 -0.775) (layer "Dwgs.User") (width 0.025) (tstamp cc076b12-0941-44b4-b9f1-f9e106ebcf9c))
  (fp_line (start 1.525 0.775) (end 1.105 0.775) (layer "Dwgs.User") (width 0.025) (tstamp d4b66819-9296-470d-bafb-1f9f90936b3f))
  (fp_line (start -1.525 -0.775) (end -1.105 -0.775) (layer "Dwgs.User") (width 0.025) (tstamp ed0187ad-db42-46c4-ab95-75b70688d22c))
  (fp_line (start 2.16 -1.06) (end 2.16 1.06) (layer "F.CrtYd") (width 0.05) (tstamp 640d3bc9-33ec-410e-bb5a-eae73c8e9cf6))
  (fp_line (start -2.16 -1.06) (end 2.16 -1.06) (layer "F.CrtYd") (width 0.05) (tstamp 686a2276-3262-4fe2-b079-dcd88f00473a))
  (fp_line (start -2.16 1.06) (end -2.16 -1.06) (layer "F.CrtYd") (width 0.05) (tstamp bef6fd65-8a52-4bc8-a8a5-fcb03954c6f4))
  (fp_line (start 2.16 1.06) (end -2.16 1.06) (layer "F.CrtYd") (width 0.05) (tstamp ccbe4f9d-ff7b-41ab-9b28-d635663adb22))
  (fp_line (start -1.6 -0.85) (end 1.6 -0.85) (layer "F.Fab") (width 0.12) (tstamp 2e222c86-e6c9-4b3b-b98b-f2e474136d83))
  (fp_line (start -1.6 0.85) (end -1.6 -0.85) (layer "F.Fab") (width 0.12) (tstamp 5b0b139a-a5db-4b7d-b578-0987d103c31a))
  (fp_line (start 1.6 -0.85) (end 1.6 0.85) (layer "F.Fab") (width 0.12) (tstamp 65ea11b7-717a-4545-ab3c-78de0af3f95c))
  (fp_line (start 1.6 0.85) (end -1.6 0.85) (layer "F.Fab") (width 0.12) (tstamp 7890b248-9151-4558-b550-280a1594dce4))
  (fp_line (start 0.350269 -0.01036) (end -0.349731 -0.01036) (layer "F.Fab") (width 0.05) (tstamp 9af9c66c-6f14-45c4-8d9c-d381251ab9eb))
  (fp_line (start 0.000269 -0.36036) (end 0.000269 0.33964) (layer "F.Fab") (width 0.05) (tstamp ee414fae-055f-4336-9c94-fe364f76dba3))
  (fp_circle (center 0.000269 -0.01036) (end 0.250269 -0.01036) (layer "F.Fab") (width 0.05) (tstamp 7bf41200-f493-48e8-83ad-3996710bed6f))
  (pad "1" smd roundrect (at -1.45 0) (size 1.02 1.72) (layers "F.Cu" "F.Paste" "F.Mask") (roundrect_rratio 0.2451) (tstamp 361c1fb4-86ae-465b-9093-60d566cf3f43))
  (pad "2" smd roundrect (at 1.45 0) (size 1.02 1.72) (layers "F.Cu" "F.Paste" "F.Mask") (roundrect_rratio 0.2451) (tstamp 8449193c-f789-4c09-9022-9f9cdd4060f7))
  (model "${KISYS3DMOD}/RESC305X155X65L42.STEP"
    (offset (xyz 0 0 0))
    (scale (xyz 1 1 1))
    (rotate (xyz -90 0 0))
  )
)
