(module "RESC155X80X55L30N" (layer "F.Cu") (tedit 5FB399CB)
  (descr "Resistor, Chip; 1.55 mm L X 0.80 mm W X 0.55 mm H body")
  (attr smd)
  (fp_text reference "REF**" (at 0 0) (layer "F.SilkS")
    (effects (font (size 1.2 1.2) (thickness 0.12)))
    (tstamp 30ed5a84-e4c8-403b-9a37-c40e896ada11)
  )
  (fp_text value "VAL**" (at 0 0) (layer "F.Fab")
    (effects (font (size 1.2 1.2) (thickness 0.12)))
    (tstamp 85e67e53-db94-4483-8624-e69a452213e4)
  )
  (fp_text user "${REFERENCE}" (at 0 0) (layer "F.Fab")
    (effects (font (size 0.5 0.5) (thickness 0.05)))
    (tstamp 4891c40e-9344-4e43-b5b7-31bd1c8d33e4)
  )
  (fp_line (start -0.775 0.4) (end -0.775 -0.4) (layer "Dwgs.User") (width 0.025) (tstamp 1cb54238-625a-416c-ba2b-11ddd0ad2fb0))
  (fp_line (start -0.775 0.4) (end -0.775 -0.4) (layer "Dwgs.User") (width 0.025) (tstamp 2710ae7b-ef21-418a-aec7-80c44ab3f788))
  (fp_line (start -0.775 -0.4) (end 0.775 -0.4) (layer "Dwgs.User") (width 0.025) (tstamp 2eb800f5-864b-4970-9ebc-b14f53b70d6f))
  (fp_line (start -0.475 -0.4) (end -0.475 0.4) (layer "Dwgs.User") (width 0.025) (tstamp 35970aa4-6ed9-46a1-aefb-1ca52e8cf955))
  (fp_line (start -0.775 -0.4) (end -0.475 -0.4) (layer "Dwgs.User") (width 0.025) (tstamp 58e484b3-4d33-4290-9227-98756156b5c7))
  (fp_line (start 0.775 0.4) (end -0.775 0.4) (layer "Dwgs.User") (width 0.025) (tstamp 7ef03944-151e-4148-b344-11e24cc0b154))
  (fp_line (start -0.475 0.4) (end -0.775 0.4) (layer "Dwgs.User") (width 0.025) (tstamp 7febd3e4-24bf-4093-9ee3-65f67466e293))
  (fp_line (start 0.775 -0.4) (end 0.775 0.4) (layer "Dwgs.User") (width 0.025) (tstamp 83f61b69-afab-4e0b-a143-ef92edef3053))
  (fp_line (start 0.775 0.4) (end 0.475 0.4) (layer "Dwgs.User") (width 0.025) (tstamp 856bb2a2-ce24-454f-8555-1bfabf7c2c7a))
  (fp_line (start 0.475 0.4) (end 0.475 -0.4) (layer "Dwgs.User") (width 0.025) (tstamp 8a5da65e-73a9-431a-bc92-e601825a9d13))
  (fp_line (start 0.475 -0.4) (end 0.775 -0.4) (layer "Dwgs.User") (width 0.025) (tstamp 9e4d23cf-e1e7-4136-a6ae-c62a7f300e97))
  (fp_line (start 0.775 -0.4) (end 0.775 0.4) (layer "Dwgs.User") (width 0.025) (tstamp f83cbb22-2a52-4ae3-aa2f-7e8cabd7a32d))
  (fp_line (start -1.34 -0.67) (end 1.34 -0.67) (layer "F.CrtYd") (width 0.05) (tstamp 0b909c0e-b86e-434d-ab8a-6830a6ecc074))
  (fp_line (start 1.34 0.67) (end -1.34 0.67) (layer "F.CrtYd") (width 0.05) (tstamp 31718f93-1e43-413f-bfd0-0820b6f90eaa))
  (fp_line (start 1.34 -0.67) (end 1.34 0.67) (layer "F.CrtYd") (width 0.05) (tstamp 65ca83d1-b09e-4b65-a6bd-a61800c8be0d))
  (fp_line (start -1.34 0.67) (end -1.34 -0.67) (layer "F.CrtYd") (width 0.05) (tstamp 69f8546d-1ef1-4f0a-9916-0d06207ea573))
  (fp_line (start 0.83 0.45) (end -0.83 0.45) (layer "F.Fab") (width 0.16) (tstamp 00724620-91ee-4d9a-b375-c8703926ae1a))
  (fp_line (start 0.83 -0.45) (end 0.83 0.45) (layer "F.Fab") (width 0.16) (tstamp 08f5fda7-39a6-4ac7-8f0a-3aa4b744bd56))
  (fp_line (start 0.350269 -0.01036) (end -0.349731 -0.01036) (layer "F.Fab") (width 0.05) (tstamp 4ed47f42-e62f-4c1a-8baa-04ceabd83ac3))
  (fp_line (start -0.83 0.45) (end -0.83 -0.45) (layer "F.Fab") (width 0.16) (tstamp b27bbe17-8c2c-4766-ae11-53d1dadf2245))
  (fp_line (start 0.000269 -0.36036) (end 0.000269 0.33964) (layer "F.Fab") (width 0.05) (tstamp b98ff71e-85a4-4c07-90af-2fb3cc771e9e))
  (fp_line (start -0.83 -0.45) (end 0.83 -0.45) (layer "F.Fab") (width 0.16) (tstamp e310ea29-0a3e-494a-bad5-194c647e89ac))
  (fp_circle (center 0.000269 -0.01036) (end 0.250269 -0.01036) (layer "F.Fab") (width 0.05) (tstamp 89b5bba5-ab1e-471e-8289-8fe9563d8015))
  (pad "1" smd roundrect (at -0.73 0) (size 0.82 0.93) (layers "F.Cu" "F.Paste" "F.Mask") (roundrect_rratio 0.2561) (tstamp 26904c77-096f-48ff-b147-5838adc92ec6))
  (pad "2" smd roundrect (at 0.73 0) (size 0.82 0.93) (layers "F.Cu" "F.Paste" "F.Mask") (roundrect_rratio 0.2561) (tstamp f13175db-4bb6-47ce-aff7-2486e93b6c16))
  (model "${KISYS3DMOD}/RESC155X80X55L30.STEP"
    (offset (xyz 0 0 0))
    (scale (xyz 1 1 1))
    (rotate (xyz -90 0 0))
  )
)
