(module FUSC310X155X70L50N (layer F.Cu) (tedit 0)
  (descr "Fuse, Chip; 3.10 mm L X 1.55 mm W X 0.70 mm H body")
  (attr smd)
  (fp_text user %R (at 0 0) (layer F.Fab)
    (effects (font (size 1.01 1.01) (thickness 0.1)))
  )
  (fp_text value VAL** (at 0 0) (layer F.Fab)
    (effects (font (size 1.2 1.2) (thickness 0.12)))
  )
  (fp_text reference REF** (at 0 0) (layer F.SilkS)
    (effects (font (size 1.2 1.2) (thickness 0.12)))
  )
  (fp_line (start -1.05 -0.775) (end -1.05 0.775) (layer Dwgs.User) (width 0.025))
  (fp_line (start -1.05 0.775) (end -1.55 0.775) (layer Dwgs.User) (width 0.025))
  (fp_line (start -1.55 0.775) (end -1.55 -0.775) (layer Dwgs.User) (width 0.025))
  (fp_line (start -1.55 -0.775) (end -1.05 -0.775) (layer Dwgs.User) (width 0.025))
  (fp_line (start 1.05 0.775) (end 1.05 -0.775) (layer Dwgs.User) (width 0.025))
  (fp_line (start 1.05 -0.775) (end 1.55 -0.775) (layer Dwgs.User) (width 0.025))
  (fp_line (start 1.55 -0.775) (end 1.55 0.775) (layer Dwgs.User) (width 0.025))
  (fp_line (start 1.55 0.775) (end 1.05 0.775) (layer Dwgs.User) (width 0.025))
  (fp_line (start -1.55 0.775) (end -1.55 -0.775) (layer Dwgs.User) (width 0.025))
  (fp_line (start -1.55 -0.775) (end 1.55 -0.775) (layer Dwgs.User) (width 0.025))
  (fp_line (start 1.55 -0.775) (end 1.55 0.775) (layer Dwgs.User) (width 0.025))
  (fp_line (start 1.55 0.775) (end -1.55 0.775) (layer Dwgs.User) (width 0.025))
  (fp_line (start -1.6 0.83) (end -1.6 -0.83) (layer F.Fab) (width 0.16))
  (fp_line (start -1.6 -0.83) (end 1.6 -0.83) (layer F.Fab) (width 0.16))
  (fp_line (start 1.6 -0.83) (end 1.6 0.83) (layer F.Fab) (width 0.16))
  (fp_line (start 1.6 0.83) (end -1.6 0.83) (layer F.Fab) (width 0.16))
  (fp_line (start -0.585 -0.83) (end 0.585 -0.83) (layer F.SilkS) (width 0.16))
  (fp_line (start -0.585 0.83) (end 0.585 0.83) (layer F.SilkS) (width 0.16))
  (fp_line (start -2.17 1.04) (end -2.17 -1.04) (layer F.CrtYd) (width 0.05))
  (fp_line (start -2.17 -1.04) (end 2.17 -1.04) (layer F.CrtYd) (width 0.05))
  (fp_line (start 2.17 -1.04) (end 2.17 1.04) (layer F.CrtYd) (width 0.05))
  (fp_line (start 2.17 1.04) (end -2.17 1.04) (layer F.CrtYd) (width 0.05))
  (fp_circle (center 0 0) (end 0 0.25) (layer F.CrtYd) (width 0.05))
  (fp_line (start 0.35 0) (end -0.35 0) (layer F.CrtYd) (width 0.05))
  (fp_line (start 0 -0.35) (end 0 0.35) (layer F.CrtYd) (width 0.05))
  (pad 1 smd roundrect (at -1.395 0) (size 1.14 1.68) (layers F.Cu F.Paste F.Mask) (roundrect_rratio 0.2193))
  (pad 2 smd roundrect (at 1.395 0) (size 1.14 1.68) (layers F.Cu F.Paste F.Mask) (roundrect_rratio 0.2193))
)
