(module CAPC320X250X155L50N (layer F.Cu) (tedit 0)
  (descr "Capacitor, Chip; 3.20 mm L X 2.50 mm W X 1.55 mm H body")
  (attr smd)
  (fp_text user %R (at 0 0) (layer F.Fab)
    (effects (font (size 2 2) (thickness 0.2)))
  )
  (fp_text value VAL** (at 0 0) (layer F.Fab)
    (effects (font (size 1.2 1.2) (thickness 0.12)))
  )
  (fp_text reference REF** (at 0 0) (layer F.SilkS)
    (effects (font (size 1.2 1.2) (thickness 0.12)))
  )
  (fp_line (start -1.1 -1.25) (end -1.1 1.25) (layer Dwgs.User) (width 0.025))
  (fp_line (start -1.1 1.25) (end -1.6 1.25) (layer Dwgs.User) (width 0.025))
  (fp_line (start -1.6 1.25) (end -1.6 -1.25) (layer Dwgs.User) (width 0.025))
  (fp_line (start -1.6 -1.25) (end -1.1 -1.25) (layer Dwgs.User) (width 0.025))
  (fp_line (start 1.1 1.25) (end 1.1 -1.25) (layer Dwgs.User) (width 0.025))
  (fp_line (start 1.1 -1.25) (end 1.6 -1.25) (layer Dwgs.User) (width 0.025))
  (fp_line (start 1.6 -1.25) (end 1.6 1.25) (layer Dwgs.User) (width 0.025))
  (fp_line (start 1.6 1.25) (end 1.1 1.25) (layer Dwgs.User) (width 0.025))
  (fp_line (start -1.6 1.25) (end -1.6 -1.25) (layer Dwgs.User) (width 0.025))
  (fp_line (start -1.6 -1.25) (end 1.6 -1.25) (layer Dwgs.User) (width 0.025))
  (fp_line (start 1.6 -1.25) (end 1.6 1.25) (layer Dwgs.User) (width 0.025))
  (fp_line (start 1.6 1.25) (end -1.6 1.25) (layer Dwgs.User) (width 0.025))
  (fp_line (start -1.7 1.35) (end -1.7 -1.35) (layer F.Fab) (width 0.16))
  (fp_line (start -1.7 -1.35) (end 1.7 -1.35) (layer F.Fab) (width 0.16))
  (fp_line (start 1.7 -1.35) (end 1.7 1.35) (layer F.Fab) (width 0.16))
  (fp_line (start 1.7 1.35) (end -1.7 1.35) (layer F.Fab) (width 0.16))
  (fp_line (start -0.655 -1.35) (end 0.655 -1.35) (layer F.SilkS) (width 0.16))
  (fp_line (start -0.655 1.35) (end 0.655 1.35) (layer F.SilkS) (width 0.16))
  (fp_line (start -2.26 1.56) (end -2.26 -1.56) (layer F.CrtYd) (width 0.05))
  (fp_line (start -2.26 -1.56) (end 2.26 -1.56) (layer F.CrtYd) (width 0.05))
  (fp_line (start 2.26 -1.56) (end 2.26 1.56) (layer F.CrtYd) (width 0.05))
  (fp_line (start 2.26 1.56) (end -2.26 1.56) (layer F.CrtYd) (width 0.05))
  (fp_circle (center 0 0) (end 0 0.25) (layer F.CrtYd) (width 0.05))
  (fp_line (start 0.35 0) (end -0.35 0) (layer F.CrtYd) (width 0.05))
  (fp_line (start 0 -0.35) (end 0 0.35) (layer F.CrtYd) (width 0.05))
  (pad 1 smd roundrect (at -1.475 0) (size 1.16 2.72) (layers F.Cu F.Paste F.Mask) (roundrect_rratio 0.2155))
  (pad 2 smd roundrect (at 1.475 0) (size 1.16 2.72) (layers F.Cu F.Paste F.Mask) (roundrect_rratio 0.2155))
)
