(kicad_symbol_lib (version 20201005) (generator kicad_symbol_editor)
  (symbol "lz-bead-murata-blmax-0402:600" (pin_numbers hide) (pin_names hide) (in_bom yes) (on_board yes)
    (property "Reference" "FB" (id 0) (at -5.08 1.27 0)
      (effects (font (size 1.27 1.27)))
    )
    (property "Value" "600" (id 1) (at -2.54 -3.81 0)
      (effects (font (size 1.27 1.27)))
    )
    (property "Footprint" "CHIP:BEADC100X50X55L25N" (id 2) (at 0 -11.43 0)
      (effects (font (size 1.27 1.27)) hide)
    )
    (property "Datasheet" "murata_EMIFIL.pdf" (id 3) (at 0 -11.43 0)
      (effects (font (size 1.27 1.27)) hide)
    )
    (property "Package" "0402" (id 4) (at 0 0 0)
      (effects (font (size 1.27 1.27)) hide)
    )
    (property "Operating Temperature" "-55 ~ +125" (id 5) (at 0.635 -11.43 0)
      (effects (font (size 1.27 1.27)) hide)
    )
    (property "Manufacturer" "Murata" (id 6) (at 0.635 -11.43 0)
      (effects (font (size 1.27 1.27)) hide)
    )
    (property "Part" "BLM15AX601SN1D" (id 7) (at 0.635 -11.43 0)
      (effects (font (size 1.27 1.27)) hide)
    )
    (property "Vendor" "https://eu.mouser.com/ProductDetail/Murata-Electronics/BLM15AX601SN1D?qs=MY6wChARw2zrjX4xpWbUQA%3D%3D" (id 8) (at 0.635 -11.43 0)
      (effects (font (size 1.27 1.27)) hide)
    )
    (property "DC Current" "500mA" (id 10) (at 0.635 -11.43 0)
      (effects (font (size 1.27 1.27)) hide)
    )
    (property "DC Resistance" "340 mR" (id 11) (at 0.635 -11.43 0)
      (effects (font (size 1.27 1.27)) hide)
    )
    (property "ki_description" "Ferrite Beads 0402 600ohms" (id 12) (at 0 0 0)
      (effects (font (size 1.27 1.27)) hide)
    )
    (symbol "600_0_1"
      (arc (start 0 1.27) (end -0.635 1.905) (radius (at 0 1.905) (length 0.635) (angles -90 180))
        (stroke (width 0.0006)) (fill (type none))
      )
      (arc (start -0.635 1.905) (end 0 2.54) (radius (at 0 1.905) (length 0.635) (angles 180 90))
        (stroke (width 0.0006)) (fill (type none))
      )
      (arc (start 0 0) (end -0.635 0.635) (radius (at 0 0.635) (length 0.635) (angles -90 180))
        (stroke (width 0.0006)) (fill (type none))
      )
      (arc (start -0.635 0.635) (end 0 1.27) (radius (at 0 0.635) (length 0.635) (angles 180 90))
        (stroke (width 0.0006)) (fill (type none))
      )
      (arc (start 0 -1.27) (end -0.635 -0.635) (radius (at 0 -0.635) (length 0.635) (angles -90 180))
        (stroke (width 0.0006)) (fill (type none))
      )
      (arc (start -0.635 -0.635) (end 0 0) (radius (at 0 -0.635) (length 0.635) (angles 180 90))
        (stroke (width 0.0006)) (fill (type none))
      )
      (arc (start 0 -2.54) (end -0.635 -1.905) (radius (at 0 -1.905) (length 0.635) (angles -90 180))
        (stroke (width 0.0006)) (fill (type none))
      )
      (arc (start -0.635 -1.905) (end 0 -1.27) (radius (at 0 -1.905) (length 0.635) (angles 180 90))
        (stroke (width 0.0006)) (fill (type none))
      )
    )
    (symbol "600_1_1"
      (pin passive line (at 0 3.81 270) (length 1.27)
        (name "~" (effects (font (size 1.524 1.524))))
        (number "1" (effects (font (size 1.524 1.524))))
      )
      (pin passive line (at 0 -3.81 90) (length 1.27)
        (name "~" (effects (font (size 1.524 1.524))))
        (number "2" (effects (font (size 1.524 1.524))))
      )
    )
  )
)
