(kicad_symbol_lib (version 20201005) (generator kicad_symbol_editor)
  (symbol "lz-connectors:105017-0001" (in_bom yes) (on_board yes)
    (property "Reference" "J" (id 0) (at -5.08 10.16 0)
      (effects (font (size 1.27 1.27)))
    )
    (property "Value" "105017-0001" (id 1) (at 0 -10.16 0)
      (effects (font (size 1.27 1.27)))
    )
    (property "Footprint" "CONNECTOR:USB_B_MICRO_105017-0001" (id 2) (at 5.08 -1.27 0)
      (effects (font (size 1.27 1.27)) hide)
    )
    (property "Datasheet" "MOLEX_1050170001.pdf" (id 3) (at 5.08 -1.27 0)
      (effects (font (size 1.27 1.27)) hide)
    )
    (property "Vendor" "https://eu.mouser.com/ProductDetail/Molex/105017-0001?qs=hlXxxvYE36k7QcsR97GUKA%3D%3D" (id 4) (at 0 0 0)
      (effects (font (size 1.27 1.27)) hide)
    )
    (property "Manufacturer" "Molex" (id 5) (at 0 0 0)
      (effects (font (size 1.27 1.27)) hide)
    )
    (property "Part" "105017-0001" (id 6) (at 0 0 0)
      (effects (font (size 1.27 1.27)) hide)
    )
    (property "Type" "Micro USB Type B" (id 7) (at 0 0 0)
      (effects (font (size 1.27 1.27)) hide)
    )
    (property "Gender" "Jack (Female)" (id 8) (at 0 0 0)
      (effects (font (size 1.27 1.27)) hide)
    )
    (property "Standard" "USB 2.0" (id 9) (at 0 0 0)
      (effects (font (size 1.27 1.27)) hide)
    )
    (property "Contacts" "5" (id 10) (at 0 0 0)
      (effects (font (size 1.27 1.27)) hide)
    )
    (property "Ports" "1" (id 11) (at 0 0 0)
      (effects (font (size 1.27 1.27)) hide)
    )
    (property "Current Rating" "1.8 A" (id 12) (at 0 0 0)
      (effects (font (size 1.27 1.27)) hide)
    )
    (property "Angle" "Right Angle" (id 13) (at 0 0 0)
      (effects (font (size 1.27 1.27)) hide)
    )
    (property "ki_description" "USB Connectors MICRO USB B RECPT BTTM MNT SMT TH TABS" (id 14) (at 0 0 0)
      (effects (font (size 1.27 1.27)) hide)
    )
    (symbol "105017-0001_0_0"
      (pin unspecified line (at -8.89 5.08 0) (length 2.54)
        (name "VCC" (effects (font (size 1.27 1.27))))
        (number "1" (effects (font (size 1.27 1.27))))
      )
      (pin unspecified line (at -8.89 2.54 0) (length 2.54)
        (name "D-" (effects (font (size 1.27 1.27))))
        (number "2" (effects (font (size 1.27 1.27))))
      )
      (pin unspecified line (at -8.89 0 0) (length 2.54)
        (name "D+" (effects (font (size 1.27 1.27))))
        (number "3" (effects (font (size 1.27 1.27))))
      )
      (pin unspecified line (at -8.89 -2.54 0) (length 2.54)
        (name "ID" (effects (font (size 1.27 1.27))))
        (number "4" (effects (font (size 1.27 1.27))))
      )
      (pin unspecified line (at -8.89 -5.08 0) (length 2.54)
        (name "GND" (effects (font (size 1.27 1.27))))
        (number "5" (effects (font (size 1.27 1.27))))
      )
      (pin unspecified line (at 8.89 6.35 180) (length 2.54)
        (name "SHELL1" (effects (font (size 1.27 1.27))))
        (number "6" (effects (font (size 1.27 1.27))))
      )
      (pin unspecified line (at 8.89 3.81 180) (length 2.54)
        (name "SHELL2" (effects (font (size 1.27 1.27))))
        (number "7" (effects (font (size 1.27 1.27))))
      )
      (pin unspecified line (at 8.89 1.27 180) (length 2.54)
        (name "SHELL3" (effects (font (size 1.27 1.27))))
        (number "8" (effects (font (size 1.27 1.27))))
      )
      (pin unspecified line (at 8.89 -1.27 180) (length 2.54)
        (name "SHELL4" (effects (font (size 1.27 1.27))))
        (number "9" (effects (font (size 1.27 1.27))))
      )
      (pin unspecified line (at 8.89 -3.81 180) (length 2.54)
        (name "SHELL5" (effects (font (size 1.27 1.27))))
        (number "10" (effects (font (size 1.27 1.27))))
      )
      (pin unspecified line (at 8.89 -6.35 180) (length 2.54)
        (name "SHELL6" (effects (font (size 1.27 1.27))))
        (number "11" (effects (font (size 1.27 1.27))))
      )
    )
    (symbol "105017-0001_0_1"
      (rectangle (start 6.35 8.89) (end -6.35 -8.89)
        (stroke (width 0.001)) (fill (type background))
      )
    )
  )
  (symbol "lz-connectors:1990148" (in_bom yes) (on_board yes)
    (property "Reference" "J" (id 0) (at -1.27 22.86 0)
      (effects (font (size 1.27 1.27)))
    )
    (property "Value" "1990148" (id 1) (at 1.27 -22.86 0)
      (effects (font (size 1.27 1.27)))
    )
    (property "Footprint" "CONNECTOR:PXC_1990148" (id 2) (at -3.81 19.05 0)
      (effects (font (size 1.27 1.27)) hide)
    )
    (property "Datasheet" "PHOENIX_1990148.pdf" (id 3) (at -3.81 19.05 0)
      (effects (font (size 1.27 1.27)) hide)
    )
    (property "Manufacturer" "Phoenix Contact" (id 4) (at 0 0 0)
      (effects (font (size 1.27 1.27)) hide)
    )
    (property "Vendor" "https://eu.mouser.com/ProductDetail/Phoenix-Contact/1990148?qs=eiqBpq341KUElhQa3rg7Qw%3D%3D" (id 5) (at 0 0 0)
      (effects (font (size 1.27 1.27)) hide)
    )
    (property "Part" "1990148" (id 6) (at 0 0 0)
      (effects (font (size 1.27 1.27)) hide)
    )
    (property "Position" "16" (id 7) (at 0 0 0)
      (effects (font (size 1.27 1.27)) hide)
    )
    (property "Pitch" "2.5 mm" (id 8) (at 0 0 0)
      (effects (font (size 1.27 1.27)) hide)
    )
    (property "Connection Method" "Push-In" (id 9) (at 0 0 0)
      (effects (font (size 1.27 1.27)) hide)
    )
    (property "Current Rating" "2 A" (id 10) (at 0 0 0)
      (effects (font (size 1.27 1.27)) hide)
    )
    (property "Voltage Rating" "160 V" (id 11) (at 0 0 0)
      (effects (font (size 1.27 1.27)) hide)
    )
    (property "Type" "Fixed Terminal Block" (id 12) (at 0 0 0)
      (effects (font (size 1.27 1.27)) hide)
    )
    (property "ki_description" "Fixed Terminal Blocks PTSA 0.5/16-2.5-Z 16P 2.5MM 45DEG" (id 13) (at 0 0 0)
      (effects (font (size 1.27 1.27)) hide)
    )
    (symbol "1990148_0_0"
      (pin unspecified line (at -3.81 19.05 0) (length 2.54)
        (name "1" (effects (font (size 1.27 1.27))))
        (number "1" (effects (font (size 1.27 1.27))))
      )
      (pin unspecified line (at -3.81 16.51 0) (length 2.54)
        (name "2" (effects (font (size 1.27 1.27))))
        (number "2" (effects (font (size 1.27 1.27))))
      )
      (pin unspecified line (at -3.81 13.97 0) (length 2.54)
        (name "3" (effects (font (size 1.27 1.27))))
        (number "3" (effects (font (size 1.27 1.27))))
      )
      (pin unspecified line (at -3.81 11.43 0) (length 2.54)
        (name "4" (effects (font (size 1.27 1.27))))
        (number "4" (effects (font (size 1.27 1.27))))
      )
      (pin unspecified line (at -3.81 8.89 0) (length 2.54)
        (name "5" (effects (font (size 1.27 1.27))))
        (number "5" (effects (font (size 1.27 1.27))))
      )
      (pin unspecified line (at -3.81 6.35 0) (length 2.54)
        (name "6" (effects (font (size 1.27 1.27))))
        (number "6" (effects (font (size 1.27 1.27))))
      )
      (pin unspecified line (at -3.81 3.81 0) (length 2.54)
        (name "7" (effects (font (size 1.27 1.27))))
        (number "7" (effects (font (size 1.27 1.27))))
      )
      (pin unspecified line (at -3.81 1.27 0) (length 2.54)
        (name "8" (effects (font (size 1.27 1.27))))
        (number "8" (effects (font (size 1.27 1.27))))
      )
      (pin unspecified line (at -3.81 -1.27 0) (length 2.54)
        (name "9" (effects (font (size 1.27 1.27))))
        (number "9" (effects (font (size 1.27 1.27))))
      )
      (pin unspecified line (at -3.81 -3.81 0) (length 2.54)
        (name "10" (effects (font (size 1.27 1.27))))
        (number "10" (effects (font (size 1.27 1.27))))
      )
      (pin unspecified line (at -3.81 -6.35 0) (length 2.54)
        (name "11" (effects (font (size 1.27 1.27))))
        (number "11" (effects (font (size 1.27 1.27))))
      )
      (pin unspecified line (at -3.81 -8.89 0) (length 2.54)
        (name "12" (effects (font (size 1.27 1.27))))
        (number "12" (effects (font (size 1.27 1.27))))
      )
      (pin unspecified line (at -3.81 -11.43 0) (length 2.54)
        (name "13" (effects (font (size 1.27 1.27))))
        (number "13" (effects (font (size 1.27 1.27))))
      )
      (pin unspecified line (at -3.81 -13.97 0) (length 2.54)
        (name "14" (effects (font (size 1.27 1.27))))
        (number "14" (effects (font (size 1.27 1.27))))
      )
      (pin unspecified line (at -3.81 -16.51 0) (length 2.54)
        (name "15" (effects (font (size 1.27 1.27))))
        (number "15" (effects (font (size 1.27 1.27))))
      )
      (pin unspecified line (at -3.81 -19.05 0) (length 2.54)
        (name "16" (effects (font (size 1.27 1.27))))
        (number "16" (effects (font (size 1.27 1.27))))
      )
    )
    (symbol "1990148_0_1"
      (rectangle (start -1.27 21.59) (end 2.54 -21.59)
        (stroke (width 0.001)) (fill (type background))
      )
    )
  )
  (symbol "lz-connectors:203564-2017" (pin_names hide) (in_bom yes) (on_board yes)
    (property "Reference" "J" (id 0) (at 0 15.24 0)
      (effects (font (size 1.27 1.27)))
    )
    (property "Value" "203564-2017" (id 1) (at 0 -15.24 0)
      (effects (font (size 1.27 1.27)))
    )
    (property "Footprint" "CONNECTOR:MOLEX_203564-2017" (id 2) (at 1.27 0 0)
      (effects (font (size 1.27 1.27)) hide)
    )
    (property "Datasheet" "MOLEX_2035642017.pdf" (id 3) (at 1.27 0 0)
      (effects (font (size 1.27 1.27)) hide)
    )
    (property "Vendor" "https://eu.mouser.com/ProductDetail/Molex/203564-2017?qs=F5EMLAvA7IAHUbz5s3aACQ%3D%3D" (id 4) (at 0 0 0)
      (effects (font (size 1.27 1.27)) hide)
    )
    (property "Manufacturer" "Molex" (id 5) (at 0 0 0)
      (effects (font (size 1.27 1.27)) hide)
    )
    (property "Part" "203564-2017\n" (id 6) (at 0 0 0)
      (effects (font (size 1.27 1.27)) hide)
    )
    (property "Type" "Shrouded" (id 7) (at 0 0 0)
      (effects (font (size 1.27 1.27)) hide)
    )
    (property "Positions" "20" (id 8) (at 0 0 0)
      (effects (font (size 1.27 1.27)) hide)
    )
    (property "Pitch" "1 mm" (id 9) (at 0 0 0)
      (effects (font (size 1.27 1.27)) hide)
    )
    (property "Rows" "2" (id 10) (at 0 0 0)
      (effects (font (size 1.27 1.27)) hide)
    )
    (property "Mounting" "SMD" (id 11) (at 0 0 0)
      (effects (font (size 1.27 1.27)) hide)
    )
    (property "Angle" "Vertical" (id 12) (at 0 0 0)
      (effects (font (size 1.27 1.27)) hide)
    )
    (property "Operating Temperature" "-40/+105 C" (id 13) (at 0 0 0)
      (effects (font (size 1.27 1.27)) hide)
    )
    (property "Current Rating" "1 A" (id 14) (at 0 0 0)
      (effects (font (size 1.27 1.27)) hide)
    )
    (property "Voltage Rating" "50 VAC/VDC" (id 15) (at 0 0 0)
      (effects (font (size 1.27 1.27)) hide)
    )
    (property "Plating" "Gold" (id 16) (at 0 0 0)
      (effects (font (size 1.27 1.27)) hide)
    )
    (property "ki_description" "Headers & Wire Housings PicoClasp Hdr SMT DR Vt 20CKT W/PL Au0.38" (id 17) (at 0 0 0)
      (effects (font (size 1.27 1.27)) hide)
    )
    (symbol "203564-2017_0_0"
      (pin unspecified line (at -3.81 11.43 0) (length 2.54)
        (name "1" (effects (font (size 1.27 1.27))))
        (number "1" (effects (font (size 1.27 1.27))))
      )
      (pin unspecified line (at 3.81 11.43 180) (length 2.54)
        (name "2" (effects (font (size 1.27 1.27))))
        (number "2" (effects (font (size 1.27 1.27))))
      )
      (pin unspecified line (at -3.81 8.89 0) (length 2.54)
        (name "3" (effects (font (size 1.27 1.27))))
        (number "3" (effects (font (size 1.27 1.27))))
      )
      (pin unspecified line (at 3.81 8.89 180) (length 2.54)
        (name "4" (effects (font (size 1.27 1.27))))
        (number "4" (effects (font (size 1.27 1.27))))
      )
      (pin unspecified line (at -3.81 6.35 0) (length 2.54)
        (name "5" (effects (font (size 1.27 1.27))))
        (number "5" (effects (font (size 1.27 1.27))))
      )
      (pin unspecified line (at 3.81 6.35 180) (length 2.54)
        (name "6" (effects (font (size 1.27 1.27))))
        (number "6" (effects (font (size 1.27 1.27))))
      )
      (pin unspecified line (at -3.81 3.81 0) (length 2.54)
        (name "7" (effects (font (size 1.27 1.27))))
        (number "7" (effects (font (size 1.27 1.27))))
      )
      (pin unspecified line (at 3.81 3.81 180) (length 2.54)
        (name "8" (effects (font (size 1.27 1.27))))
        (number "8" (effects (font (size 1.27 1.27))))
      )
      (pin unspecified line (at -3.81 1.27 0) (length 2.54)
        (name "9" (effects (font (size 1.27 1.27))))
        (number "9" (effects (font (size 1.27 1.27))))
      )
      (pin unspecified line (at 3.81 1.27 180) (length 2.54)
        (name "10" (effects (font (size 1.27 1.27))))
        (number "10" (effects (font (size 1.27 1.27))))
      )
      (pin unspecified line (at -3.81 -1.27 0) (length 2.54)
        (name "11" (effects (font (size 1.27 1.27))))
        (number "11" (effects (font (size 1.27 1.27))))
      )
      (pin unspecified line (at 3.81 -1.27 180) (length 2.54)
        (name "12" (effects (font (size 1.27 1.27))))
        (number "12" (effects (font (size 1.27 1.27))))
      )
      (pin unspecified line (at -3.81 -3.81 0) (length 2.54)
        (name "13" (effects (font (size 1.27 1.27))))
        (number "13" (effects (font (size 1.27 1.27))))
      )
      (pin unspecified line (at 3.81 -3.81 180) (length 2.54)
        (name "14" (effects (font (size 1.27 1.27))))
        (number "14" (effects (font (size 1.27 1.27))))
      )
      (pin unspecified line (at -3.81 -6.35 0) (length 2.54)
        (name "15" (effects (font (size 1.27 1.27))))
        (number "15" (effects (font (size 1.27 1.27))))
      )
      (pin unspecified line (at 3.81 -6.35 180) (length 2.54)
        (name "16" (effects (font (size 1.27 1.27))))
        (number "16" (effects (font (size 1.27 1.27))))
      )
      (pin unspecified line (at -3.81 -8.89 0) (length 2.54)
        (name "17" (effects (font (size 1.27 1.27))))
        (number "17" (effects (font (size 1.27 1.27))))
      )
      (pin unspecified line (at 3.81 -8.89 180) (length 2.54)
        (name "18" (effects (font (size 1.27 1.27))))
        (number "18" (effects (font (size 1.27 1.27))))
      )
      (pin unspecified line (at -3.81 -11.43 0) (length 2.54)
        (name "19" (effects (font (size 1.27 1.27))))
        (number "19" (effects (font (size 1.27 1.27))))
      )
      (pin unspecified line (at 3.81 -11.43 180) (length 2.54)
        (name "20" (effects (font (size 1.27 1.27))))
        (number "20" (effects (font (size 1.27 1.27))))
      )
    )
    (symbol "203564-2017_0_1"
      (rectangle (start -1.27 13.97) (end 1.27 -13.97)
        (stroke (width 0.001)) (fill (type background))
      )
    )
    (symbol "203564-2017_1_1"
      (pin unconnected non_logic (at 17.78 1.27 0) (length 2.54) hide
        (name "M1" (effects (font (size 1.27 1.27))))
        (number "M1" (effects (font (size 1.27 1.27))))
      )
      (pin unconnected non_logic (at 17.78 -1.27 0) (length 2.54) hide
        (name "M2" (effects (font (size 1.27 1.27))))
        (number "M2" (effects (font (size 1.27 1.27))))
      )
    )
  )
  (symbol "lz-connectors:2041126-1" (in_bom yes) (on_board yes)
    (property "Reference" "J" (id 0) (at 1.27 12.7 0)
      (effects (font (size 1.27 1.27)))
    )
    (property "Value" "2041126-1" (id 1) (at 1.27 -12.7 0)
      (effects (font (size 1.27 1.27)))
    )
    (property "Footprint" "CONNECTOR:TE_2041126-1" (id 2) (at -2.54 8.89 0)
      (effects (font (size 1.27 1.27)) hide)
    )
    (property "Datasheet" "TE_2041126.pdf" (id 3) (at -2.54 8.89 0)
      (effects (font (size 1.27 1.27)) hide)
    )
    (property "Part" "2041126-1" (id 4) (at 0 0 0)
      (effects (font (size 1.27 1.27)) hide)
    )
    (property "Vendor" "https://eu.mouser.com/ProductDetail/TE-Connectivity-AMP/2041126-1?qs=udq735CAsV3wRYwXfOOWMg%3D%3D" (id 5) (at 0 0 0)
      (effects (font (size 1.27 1.27)) hide)
    )
    (property "Manufacturer" "TE Connectivity" (id 6) (at 0 0 0)
      (effects (font (size 1.27 1.27)) hide)
    )
    (property "Type" "RJ45" (id 7) (at 0 0 0)
      (effects (font (size 1.27 1.27)) hide)
    )
    (property "ki_description" "Modular Connectors / Ethernet Connectors MODULAR JACK RJ45 SMT TYPE AU 6u" (id 8) (at 0 0 0)
      (effects (font (size 1.27 1.27)) hide)
    )
    (symbol "2041126-1_0_0"
      (pin unspecified line (at -2.54 8.89 0) (length 2.54)
        (name "1" (effects (font (size 1.27 1.27))))
        (number "1" (effects (font (size 1.27 1.27))))
      )
      (pin unspecified line (at -2.54 6.35 0) (length 2.54)
        (name "2" (effects (font (size 1.27 1.27))))
        (number "2" (effects (font (size 1.27 1.27))))
      )
      (pin unspecified line (at -2.54 3.81 0) (length 2.54)
        (name "3" (effects (font (size 1.27 1.27))))
        (number "3" (effects (font (size 1.27 1.27))))
      )
      (pin unspecified line (at -2.54 1.27 0) (length 2.54)
        (name "4" (effects (font (size 1.27 1.27))))
        (number "4" (effects (font (size 1.27 1.27))))
      )
      (pin unspecified line (at -2.54 -1.27 0) (length 2.54)
        (name "5" (effects (font (size 1.27 1.27))))
        (number "5" (effects (font (size 1.27 1.27))))
      )
      (pin unspecified line (at -2.54 -3.81 0) (length 2.54)
        (name "6" (effects (font (size 1.27 1.27))))
        (number "6" (effects (font (size 1.27 1.27))))
      )
      (pin unspecified line (at -2.54 -6.35 0) (length 2.54)
        (name "7" (effects (font (size 1.27 1.27))))
        (number "7" (effects (font (size 1.27 1.27))))
      )
      (pin unspecified line (at -2.54 -8.89 0) (length 2.54)
        (name "8" (effects (font (size 1.27 1.27))))
        (number "8" (effects (font (size 1.27 1.27))))
      )
    )
    (symbol "2041126-1_0_1"
      (rectangle (start 0 11.43) (end 2.54 -11.43)
        (stroke (width 0.001)) (fill (type background))
      )
    )
  )
  (symbol "lz-connectors:2200326" (in_bom yes) (on_board yes)
    (property "Reference" "J" (id 0) (at 0 7.62 0)
      (effects (font (size 1.27 1.27)))
    )
    (property "Value" "2200326" (id 1) (at 1.27 -8.89 0)
      (effects (font (size 1.27 1.27)))
    )
    (property "Footprint" "CONNECTOR:SIP380W100P500L2000H1600Q4" (id 2) (at -2.54 5.08 0)
      (effects (font (size 1.27 1.27)) hide)
    )
    (property "Datasheet" "PHOENIX_2200326.pdf" (id 3) (at -2.54 5.08 0)
      (effects (font (size 1.27 1.27)) hide)
    )
    (property "Vendor" "https://eu.mouser.com/ProductDetail/Phoenix-Contact/2200326?qs=zUB8f6wPlfU2HL7WLyOWCw%3D%3D" (id 4) (at 0 0 0)
      (effects (font (size 1.27 1.27)) hide)
    )
    (property "Part" "2200326" (id 5) (at 0 -1.27 0)
      (effects (font (size 1.27 1.27)) hide)
    )
    (property "Manufacturer" "Phoenix Contact" (id 6) (at 0 0 0)
      (effects (font (size 1.27 1.27)) hide)
    )
    (property "Positions" "4" (id 7) (at 0 -1.27 0)
      (effects (font (size 1.27 1.27)) hide)
    )
    (property "Pitch" "5 mm" (id 8) (at 0 -1.27 0)
      (effects (font (size 1.27 1.27)) hide)
    )
    (property "Type" "Pluggable Terminal Block" (id 9) (at 0 0 0)
      (effects (font (size 1.27 1.27)) hide)
    )
    (property "Curent Rating" "16 A" (id 10) (at 0 -1.27 0)
      (effects (font (size 1.27 1.27)) hide)
    )
    (property "Voltage Rating" "320 V" (id 11) (at 0 -1.27 0)
      (effects (font (size 1.27 1.27)) hide)
    )
    (property "ki_description" "Pluggable Terminal Blocks MSTBO 2,5/4-G1PL(R )" (id 12) (at 0 0 0)
      (effects (font (size 1.27 1.27)) hide)
    )
    (symbol "2200326_0_0"
      (pin passive line (at -2.54 3.81 0) (length 2.54)
        (name "1" (effects (font (size 1.27 1.27))))
        (number "1" (effects (font (size 1.27 1.27))))
      )
      (pin passive line (at -2.54 1.27 0) (length 2.54)
        (name "2" (effects (font (size 1.27 1.27))))
        (number "2" (effects (font (size 1.27 1.27))))
      )
      (pin passive line (at -2.54 -1.27 0) (length 2.54)
        (name "3" (effects (font (size 1.27 1.27))))
        (number "3" (effects (font (size 1.27 1.27))))
      )
      (pin passive line (at -2.54 -3.81 0) (length 2.54)
        (name "4" (effects (font (size 1.27 1.27))))
        (number "4" (effects (font (size 1.27 1.27))))
      )
    )
    (symbol "2200326_0_1"
      (rectangle (start 0 6.35) (end 2.54 -6.35)
        (stroke (width 0.001)) (fill (type background))
      )
    )
  )
  (symbol "lz-connectors:2278380" (in_bom yes) (on_board yes)
    (property "Reference" "J" (id 0) (at 0 8.89 0)
      (effects (font (size 1.27 1.27)))
    )
    (property "Value" "2278380" (id 1) (at 1.27 -8.89 0)
      (effects (font (size 1.27 1.27)))
    )
    (property "Footprint" "CONNECTOR:SIP370W80P350L2000H1750Q5" (id 2) (at -2.54 5.08 0)
      (effects (font (size 1.27 1.27)) hide)
    )
    (property "Datasheet" "PHOENIX_2278380.pdf" (id 3) (at -2.54 5.08 0)
      (effects (font (size 1.27 1.27)) hide)
    )
    (property "Vendor" "https://eu.mouser.com/ProductDetail/Phoenix-Contact/2278380?qs=LqEMasVbnSi%252BNZCnkvf3Bg%3D%3D" (id 4) (at 0 0 0)
      (effects (font (size 1.27 1.27)) hide)
    )
    (property "Part" "2278380" (id 5) (at 0 0 0)
      (effects (font (size 1.27 1.27)) hide)
    )
    (property "Manufacturer" "Phoenix Contact" (id 6) (at 0 0 0)
      (effects (font (size 1.27 1.27)) hide)
    )
    (property "Positions" "5" (id 7) (at 0 0 0)
      (effects (font (size 1.27 1.27)) hide)
    )
    (property "Pitch" "3.5 mm" (id 8) (at 0 0 0)
      (effects (font (size 1.27 1.27)) hide)
    )
    (property "Type" "Pluggable Terminal Block" (id 9) (at 0 0 0)
      (effects (font (size 1.27 1.27)) hide)
    )
    (property "Curent Rating" "5 A" (id 10) (at 0 0 0)
      (effects (font (size 1.27 1.27)) hide)
    )
    (property "Voltage Rating" "160 V" (id 11) (at 0 0 0)
      (effects (font (size 1.27 1.27)) hide)
    )
    (property "ki_description" "Pluggable Terminal Blocks 5 Pos 3.5mm pitch Through Hole Header" (id 12) (at 0 0 0)
      (effects (font (size 1.27 1.27)) hide)
    )
    (symbol "2278380_0_0"
      (pin passive line (at -2.54 5.08 0) (length 2.54)
        (name "1" (effects (font (size 1.27 1.27))))
        (number "1" (effects (font (size 1.27 1.27))))
      )
      (pin passive line (at -2.54 2.54 0) (length 2.54)
        (name "2" (effects (font (size 1.27 1.27))))
        (number "2" (effects (font (size 1.27 1.27))))
      )
      (pin passive line (at -2.54 0 0) (length 2.54)
        (name "3" (effects (font (size 1.27 1.27))))
        (number "3" (effects (font (size 1.27 1.27))))
      )
      (pin passive line (at -2.54 -2.54 0) (length 2.54)
        (name "4" (effects (font (size 1.27 1.27))))
        (number "4" (effects (font (size 1.27 1.27))))
      )
      (pin passive line (at -2.54 -5.08 0) (length 2.54)
        (name "5" (effects (font (size 1.27 1.27))))
        (number "5" (effects (font (size 1.27 1.27))))
      )
    )
    (symbol "2278380_0_1"
      (rectangle (start 0 7.62) (end 2.54 -7.62)
        (stroke (width 0.001)) (fill (type background))
      )
    )
  )
  (symbol "lz-connectors:52465-1071" (in_bom yes) (on_board yes)
    (property "Reference" "J" (id 0) (at -2.54 8.89 0)
      (effects (font (size 1.27 1.27)))
    )
    (property "Value" "52465-1071" (id 1) (at 0 -8.89 0)
      (effects (font (size 1.27 1.27)))
    )
    (property "Footprint" "CONNECTOR:CFP10P80_560X420X370L95X32N" (id 2) (at 1.27 -5.08 0)
      (effects (font (size 1.27 1.27)) hide)
    )
    (property "Datasheet" "MOLEX_524651071.pdf" (id 3) (at 1.27 -5.08 0)
      (effects (font (size 1.27 1.27)) hide)
    )
    (property "Vendor" "https://eu.mouser.com/ProductDetail/Molex/52465-1071?qs=hEqCCtD38zTgLknFjRf5AQ%3D%3D" (id 4) (at 0 0 0)
      (effects (font (size 1.27 1.27)) hide)
    )
    (property "Part" "52465-1071" (id 5) (at 0 0 0)
      (effects (font (size 1.27 1.27)) hide)
    )
    (property "Manufacturer" "Molex" (id 6) (at 0 0 0)
      (effects (font (size 1.27 1.27)) hide)
    )
    (property "Positions" "10" (id 7) (at 0 0 0)
      (effects (font (size 1.27 1.27)) hide)
    )
    (property "Pitch" "0.8 mm" (id 8) (at 0 0 0)
      (effects (font (size 1.27 1.27)) hide)
    )
    (property "Rows" "2" (id 9) (at 0 0 0)
      (effects (font (size 1.27 1.27)) hide)
    )
    (property "Mounting Angle" "Vertical" (id 10) (at 0 0 0)
      (effects (font (size 1.27 1.27)) hide)
    )
    (property "Current Rating" "500 mA" (id 11) (at 0 0 0)
      (effects (font (size 1.27 1.27)) hide)
    )
    (property "Voltage Rating" "50 V" (id 12) (at 0 0 0)
      (effects (font (size 1.27 1.27)) hide)
    )
    (property "Operating Temperature" "-40/+105 C" (id 13) (at 0 0 0)
      (effects (font (size 1.27 1.27)) hide)
    )
    (property "ki_description" "Board to Board & Mezzanine Connectors 10CKT RECPT SMT DR" (id 14) (at 0 0 0)
      (effects (font (size 1.27 1.27)) hide)
    )
    (symbol "52465-1071_0_0"
      (pin unspecified line (at -6.35 5.08 0) (length 2.54)
        (name "1" (effects (font (size 1.27 1.27))))
        (number "1" (effects (font (size 1.27 1.27))))
      )
      (pin unspecified line (at -6.35 2.54 0) (length 2.54)
        (name "2" (effects (font (size 1.27 1.27))))
        (number "2" (effects (font (size 1.27 1.27))))
      )
      (pin unspecified line (at -6.35 0 0) (length 2.54)
        (name "3" (effects (font (size 1.27 1.27))))
        (number "3" (effects (font (size 1.27 1.27))))
      )
      (pin unspecified line (at -6.35 -2.54 0) (length 2.54)
        (name "4" (effects (font (size 1.27 1.27))))
        (number "4" (effects (font (size 1.27 1.27))))
      )
      (pin unspecified line (at -6.35 -5.08 0) (length 2.54)
        (name "5" (effects (font (size 1.27 1.27))))
        (number "5" (effects (font (size 1.27 1.27))))
      )
      (pin unspecified line (at 6.35 -5.08 180) (length 2.54)
        (name "6" (effects (font (size 1.27 1.27))))
        (number "6" (effects (font (size 1.27 1.27))))
      )
      (pin unspecified line (at 6.35 -2.54 180) (length 2.54)
        (name "7" (effects (font (size 1.27 1.27))))
        (number "7" (effects (font (size 1.27 1.27))))
      )
      (pin unspecified line (at 6.35 0 180) (length 2.54)
        (name "8" (effects (font (size 1.27 1.27))))
        (number "8" (effects (font (size 1.27 1.27))))
      )
      (pin unspecified line (at 6.35 2.54 180) (length 2.54)
        (name "9" (effects (font (size 1.27 1.27))))
        (number "9" (effects (font (size 1.27 1.27))))
      )
      (pin unspecified line (at 6.35 5.08 180) (length 2.54)
        (name "10" (effects (font (size 1.27 1.27))))
        (number "10" (effects (font (size 1.27 1.27))))
      )
    )
    (symbol "52465-1071_0_1"
      (rectangle (start -3.81 7.62) (end 3.81 -7.62)
        (stroke (width 0.001)) (fill (type background))
      )
    )
  )
  (symbol "lz-connectors:53309-1070" (in_bom yes) (on_board yes)
    (property "Reference" "J" (id 0) (at -2.54 8.89 0)
      (effects (font (size 1.27 1.27)))
    )
    (property "Value" "53309-1070" (id 1) (at 0 -8.89 0)
      (effects (font (size 1.27 1.27)))
    )
    (property "Footprint" "CONNECTOR:CFP10P80_580X510X490L105X32N" (id 2) (at 1.27 -5.08 0)
      (effects (font (size 1.27 1.27)) hide)
    )
    (property "Datasheet" "MOLEX_533091070.pdf" (id 3) (at 1.27 -5.08 0)
      (effects (font (size 1.27 1.27)) hide)
    )
    (property "Vendor" "https://eu.mouser.com/ProductDetail/Molex/53309-1070?qs=WKQl4mA73SppmXuIHq5cog%3D%3D" (id 4) (at 0 0 0)
      (effects (font (size 1.27 1.27)) hide)
    )
    (property "Part" "53309-1070" (id 5) (at 0 0 0)
      (effects (font (size 1.27 1.27)) hide)
    )
    (property "Manufacturer" "Molex" (id 6) (at 0 0 0)
      (effects (font (size 1.27 1.27)) hide)
    )
    (property "Positions" "10" (id 7) (at 0 0 0)
      (effects (font (size 1.27 1.27)) hide)
    )
    (property "Pitch" "0.8 mm" (id 8) (at 0 0 0)
      (effects (font (size 1.27 1.27)) hide)
    )
    (property "Rows" "2" (id 9) (at 0 0 0)
      (effects (font (size 1.27 1.27)) hide)
    )
    (property "Mounting Angle" "Right Angle" (id 10) (at 0 0 0)
      (effects (font (size 1.27 1.27)) hide)
    )
    (property "Current Rating" "500 mA" (id 11) (at 0 0 0)
      (effects (font (size 1.27 1.27)) hide)
    )
    (property "Voltage Rating" "50 V" (id 12) (at 0 0 0)
      (effects (font (size 1.27 1.27)) hide)
    )
    (property "Operating Temperature" "-40/+105 C" (id 13) (at 0 0 0)
      (effects (font (size 1.27 1.27)) hide)
    )
    (property "ki_description" "Board to Board & Mezzanine Connectors .8MM HDR 02X05P RA SMT" (id 14) (at 0 0 0)
      (effects (font (size 1.27 1.27)) hide)
    )
    (symbol "53309-1070_0_0"
      (pin unspecified line (at -6.35 5.08 0) (length 2.54)
        (name "1" (effects (font (size 1.27 1.27))))
        (number "1" (effects (font (size 1.27 1.27))))
      )
      (pin unspecified line (at -6.35 2.54 0) (length 2.54)
        (name "2" (effects (font (size 1.27 1.27))))
        (number "2" (effects (font (size 1.27 1.27))))
      )
      (pin unspecified line (at -6.35 0 0) (length 2.54)
        (name "3" (effects (font (size 1.27 1.27))))
        (number "3" (effects (font (size 1.27 1.27))))
      )
      (pin unspecified line (at -6.35 -2.54 0) (length 2.54)
        (name "4" (effects (font (size 1.27 1.27))))
        (number "4" (effects (font (size 1.27 1.27))))
      )
      (pin unspecified line (at -6.35 -5.08 0) (length 2.54)
        (name "5" (effects (font (size 1.27 1.27))))
        (number "5" (effects (font (size 1.27 1.27))))
      )
      (pin unspecified line (at 6.35 -5.08 180) (length 2.54)
        (name "6" (effects (font (size 1.27 1.27))))
        (number "6" (effects (font (size 1.27 1.27))))
      )
      (pin unspecified line (at 6.35 -2.54 180) (length 2.54)
        (name "7" (effects (font (size 1.27 1.27))))
        (number "7" (effects (font (size 1.27 1.27))))
      )
      (pin unspecified line (at 6.35 0 180) (length 2.54)
        (name "8" (effects (font (size 1.27 1.27))))
        (number "8" (effects (font (size 1.27 1.27))))
      )
      (pin unspecified line (at 6.35 2.54 180) (length 2.54)
        (name "9" (effects (font (size 1.27 1.27))))
        (number "9" (effects (font (size 1.27 1.27))))
      )
      (pin unspecified line (at 6.35 5.08 180) (length 2.54)
        (name "10" (effects (font (size 1.27 1.27))))
        (number "10" (effects (font (size 1.27 1.27))))
      )
    )
    (symbol "53309-1070_0_1"
      (rectangle (start -3.81 7.62) (end 3.81 -7.62)
        (stroke (width 0.001)) (fill (type background))
      )
    )
  )
  (symbol "lz-connectors:ARM-JTAG-10P" (in_bom yes) (on_board yes)
    (property "Reference" "J" (id 0) (at -10.16 8.89 0)
      (effects (font (size 1.27 1.27)))
    )
    (property "Value" "ARM-JTAG-10P" (id 1) (at 0 -8.89 0)
      (effects (font (size 1.27 1.27)))
    )
    (property "Footprint" "CONNECTOR:CON10P127_635X584X597L165X40N" (id 2) (at 3.81 -12.7 0)
      (effects (font (size 1.27 1.27)) hide)
    )
    (property "Datasheet" "SAMTEC_FTSH_SMT.pdf" (id 3) (at 1.27 -15.24 0)
      (effects (font (size 1.27 1.27)) hide)
    )
    (property "Manufacturer" "Samtec" (id 4) (at 0 -16.51 0)
      (effects (font (size 1.27 1.27)) hide)
    )
    (property "Part" "FTSH-105-01-L-DV-K" (id 5) (at 0 -17.78 0)
      (effects (font (size 1.27 1.27)) hide)
    )
    (property "Vendor" "https://eu.mouser.com/ProductDetail/Samtec/FTSH-105-01-L-DV-K?qs=%252B5JSS813miOqo3Vy%252BvhCFg%3D%3D" (id 6) (at 2.54 -11.43 0)
      (effects (font (size 1.27 1.27)) hide)
    )
    (property "Positions" "10" (id 7) (at 1.27 -15.24 0)
      (effects (font (size 1.27 1.27)) hide)
    )
    (property "Pitch" "1.27" (id 8) (at 1.27 -13.97 0)
      (effects (font (size 1.27 1.27)) hide)
    )
    (property "Key" "Pin 7" (id 9) (at 0 -15.24 0)
      (effects (font (size 1.27 1.27)) hide)
    )
    (property "Row" "2" (id 10) (at 0 -15.24 0)
      (effects (font (size 1.27 1.27)) hide)
    )
    (property "Current" "3.4 A" (id 11) (at 0 -16.51 0)
      (effects (font (size 1.27 1.27)) hide)
    )
    (property "Operating Temperature" "-55/+125 C" (id 12) (at 0 -15.24 0)
      (effects (font (size 1.27 1.27)) hide)
    )
    (property "ki_description" "CONN HEADER SMD 10POS 2ROW KEY7 1.27MM" (id 13) (at 0 0 0)
      (effects (font (size 1.27 1.27)) hide)
    )
    (symbol "ARM-JTAG-10P_0_0"
      (pin passive line (at -13.97 5.08 0) (length 2.54)
        (name "VTref" (effects (font (size 1.27 1.27))))
        (number "1" (effects (font (size 1.27 1.27))))
      )
      (pin passive line (at 11.43 5.08 180) (length 2.54)
        (name "SWDIO/TMS" (effects (font (size 1.27 1.27))))
        (number "2" (effects (font (size 1.27 1.27))))
      )
      (pin passive line (at -13.97 2.54 0) (length 2.54)
        (name "GND" (effects (font (size 1.27 1.27))))
        (number "3" (effects (font (size 1.27 1.27))))
      )
      (pin passive line (at 11.43 2.54 180) (length 2.54)
        (name "SWDCLK/TCK" (effects (font (size 1.27 1.27))))
        (number "4" (effects (font (size 1.27 1.27))))
      )
      (pin passive line (at -13.97 0 0) (length 2.54)
        (name "GND" (effects (font (size 1.27 1.27))))
        (number "5" (effects (font (size 1.27 1.27))))
      )
      (pin passive line (at 11.43 0 180) (length 2.54)
        (name "SWO/TDO" (effects (font (size 1.27 1.27))))
        (number "6" (effects (font (size 1.27 1.27))))
      )
      (pin unconnected line (at -13.97 -2.54 0) (length 2.54)
        (name "KEY" (effects (font (size 1.27 1.27))))
        (number "7" (effects (font (size 1.27 1.27))))
      )
      (pin passive line (at 11.43 -2.54 180) (length 2.54)
        (name "TDI" (effects (font (size 1.27 1.27))))
        (number "8" (effects (font (size 1.27 1.27))))
      )
      (pin passive line (at -13.97 -5.08 0) (length 2.54)
        (name "GND" (effects (font (size 1.27 1.27))))
        (number "9" (effects (font (size 1.27 1.27))))
      )
      (pin passive line (at 11.43 -5.08 180) (length 2.54)
        (name "~RST" (effects (font (size 1.27 1.27))))
        (number "10" (effects (font (size 1.27 1.27))))
      )
    )
    (symbol "ARM-JTAG-10P_0_1"
      (rectangle (start -11.43 7.62) (end 8.89 -7.62)
        (stroke (width 0.001)) (fill (type background))
      )
    )
  )
  (symbol "lz-connectors:FTSH-105-01-L-DV-K" (pin_names hide) (in_bom yes) (on_board yes)
    (property "Reference" "J" (id 0) (at -1.27 8.89 0)
      (effects (font (size 1.27 1.27)))
    )
    (property "Value" "FTSH-105-01-L-DV-K" (id 1) (at 0 -8.89 0)
      (effects (font (size 1.27 1.27)))
    )
    (property "Footprint" "CONNECTOR:CON10P127_635X584X597L165X40N" (id 2) (at 1.27 -1.27 0)
      (effects (font (size 1.27 1.27)) hide)
    )
    (property "Datasheet" "SAMTEC_FTSH_SMT.pdf" (id 3) (at 1.27 -1.27 0)
      (effects (font (size 1.27 1.27)) hide)
    )
    (property "Manufacturer" "Samtec" (id 4) (at 0 0 0)
      (effects (font (size 1.27 1.27)) hide)
    )
    (property "Part" "FTSH-105-01-L-DV-K" (id 5) (at 0 0 0)
      (effects (font (size 1.27 1.27)) hide)
    )
    (property "Vendor" "https://eu.mouser.com/ProductDetail/Samtec/FTSH-105-01-L-DV-K?qs=%252B5JSS813miOqo3Vy%252BvhCFg%3D%3D" (id 6) (at 0 0 0)
      (effects (font (size 1.27 1.27)) hide)
    )
    (property "Positions" "10" (id 7) (at 0 0 0)
      (effects (font (size 1.27 1.27)) hide)
    )
    (property "Pitch" "1.27" (id 8) (at 0 0 0)
      (effects (font (size 1.27 1.27)) hide)
    )
    (property "Key" "Pin 7" (id 9) (at 0 0 0)
      (effects (font (size 1.27 1.27)) hide)
    )
    (property "Row" "2" (id 10) (at 0 0 0)
      (effects (font (size 1.27 1.27)) hide)
    )
    (property "Current" "3.4 A" (id 11) (at 0 0 0)
      (effects (font (size 1.27 1.27)) hide)
    )
    (property "Operating Temperature" "-55/+125 C" (id 12) (at 0 0 0)
      (effects (font (size 1.27 1.27)) hide)
    )
    (property "ki_description" "CONN HEADER SMD 10POS 2ROW KEY7 1.27MM" (id 13) (at 0 0 0)
      (effects (font (size 1.27 1.27)) hide)
    )
    (symbol "FTSH-105-01-L-DV-K_0_0"
      (pin passive line (at -3.81 5.08 0) (length 2.54)
        (name "1" (effects (font (size 1.27 1.27))))
        (number "1" (effects (font (size 1.27 1.27))))
      )
      (pin passive line (at 3.81 5.08 180) (length 2.54)
        (name "2" (effects (font (size 1.27 1.27))))
        (number "2" (effects (font (size 1.27 1.27))))
      )
      (pin passive line (at -3.81 2.54 0) (length 2.54)
        (name "3" (effects (font (size 1.27 1.27))))
        (number "3" (effects (font (size 1.27 1.27))))
      )
      (pin passive line (at 3.81 2.54 180) (length 2.54)
        (name "4" (effects (font (size 1.27 1.27))))
        (number "4" (effects (font (size 1.27 1.27))))
      )
      (pin passive line (at -3.81 0 0) (length 2.54)
        (name "5" (effects (font (size 1.27 1.27))))
        (number "5" (effects (font (size 1.27 1.27))))
      )
      (pin passive line (at 3.81 0 180) (length 2.54)
        (name "6" (effects (font (size 1.27 1.27))))
        (number "6" (effects (font (size 1.27 1.27))))
      )
      (pin unconnected line (at -3.81 -2.54 0) (length 2.54)
        (name "7" (effects (font (size 1.27 1.27))))
        (number "7" (effects (font (size 1.27 1.27))))
      )
      (pin passive line (at 3.81 -2.54 180) (length 2.54)
        (name "8" (effects (font (size 1.27 1.27))))
        (number "8" (effects (font (size 1.27 1.27))))
      )
      (pin passive line (at -3.81 -5.08 0) (length 2.54)
        (name "9" (effects (font (size 1.27 1.27))))
        (number "9" (effects (font (size 1.27 1.27))))
      )
      (pin passive line (at 3.81 -5.08 180) (length 2.54)
        (name "10" (effects (font (size 1.27 1.27))))
        (number "10" (effects (font (size 1.27 1.27))))
      )
    )
    (symbol "FTSH-105-01-L-DV-K_0_1"
      (rectangle (start -1.27 7.62) (end 1.27 -7.62)
        (stroke (width 0.001)) (fill (type background))
      )
    )
  )
  (symbol "lz-connectors:G800W304018EU" (pin_names hide) (in_bom yes) (on_board yes)
    (property "Reference" "J" (id 0) (at -1.27 7.62 0)
      (effects (font (size 1.27 1.27)))
    )
    (property "Value" "G800W304018EU" (id 1) (at 0 -7.62 0)
      (effects (font (size 1.27 1.27)))
    )
    (property "Footprint" "CONNECTOR:HDRV4W69P254_4X1_1016X250H895" (id 2) (at -3.81 3.81 0)
      (effects (font (size 1.27 1.27)) hide)
    )
    (property "Datasheet" "AMPHENOL_G800WxxxxxxEU.pdf" (id 3) (at -3.81 3.81 0)
      (effects (font (size 1.27 1.27)) hide)
    )
    (property "Vendor" "https://eu.mouser.com/ProductDetail/Amphenol-Commercial-Products/G800W304018EU?qs=f9yNj16SXrKi9QS16pMdvA%3D%3D" (id 4) (at 0 0 0)
      (effects (font (size 1.27 1.27)) hide)
    )
    (property "Part" "G800W304018EU" (id 5) (at 0 0 0)
      (effects (font (size 1.27 1.27)) hide)
    )
    (property "Manufacturer" "Amphenol" (id 6) (at 0 0 0)
      (effects (font (size 1.27 1.27)) hide)
    )
    (property "Type" "Pin Strip" (id 7) (at 0 0 0)
      (effects (font (size 1.27 1.27)) hide)
    )
    (property "Style" "Through Hole" (id 8) (at 0 0 0)
      (effects (font (size 1.27 1.27)) hide)
    )
    (property "Rows" "1" (id 9) (at 0 0 0)
      (effects (font (size 1.27 1.27)) hide)
    )
    (property "Positions" "4" (id 10) (at 0 0 0)
      (effects (font (size 1.27 1.27)) hide)
    )
    (property "Pitch" "2.54 mm" (id 11) (at 0 0 0)
      (effects (font (size 1.27 1.27)) hide)
    )
    (property "Angle" "Straight" (id 12) (at 0 0 0)
      (effects (font (size 1.27 1.27)) hide)
    )
    (property "Gender" "Male" (id 13) (at 0 0 0)
      (effects (font (size 1.27 1.27)) hide)
    )
    (property "Plating" "Gold" (id 14) (at 0 0 0)
      (effects (font (size 1.27 1.27)) hide)
    )
    (property "Current Rating" "3 A" (id 15) (at 0 0 0)
      (effects (font (size 1.27 1.27)) hide)
    )
    (property "ki_description" "Headers & Wire Housings Pin Header 2.54mm Pitch STR DIP,1x4Pin,FULL G/F,NY6T,6.1mm*2.5mm*3.0mm,Color-Black,BAG" (id 16) (at 0 0 0)
      (effects (font (size 1.27 1.27)) hide)
    )
    (symbol "G800W304018EU_0_0"
      (pin unspecified line (at -3.81 3.81 0) (length 2.54)
        (name "1" (effects (font (size 1.27 1.27))))
        (number "1" (effects (font (size 1.27 1.27))))
      )
      (pin unspecified line (at -3.81 1.27 0) (length 2.54)
        (name "2" (effects (font (size 1.27 1.27))))
        (number "2" (effects (font (size 1.27 1.27))))
      )
      (pin unspecified line (at -3.81 -1.27 0) (length 2.54)
        (name "3" (effects (font (size 1.27 1.27))))
        (number "3" (effects (font (size 1.27 1.27))))
      )
      (pin unspecified line (at -3.81 -3.81 0) (length 2.54)
        (name "4" (effects (font (size 1.27 1.27))))
        (number "4" (effects (font (size 1.27 1.27))))
      )
    )
    (symbol "G800W304018EU_0_1"
      (rectangle (start -1.27 6.35) (end 1.27 -6.35)
        (stroke (width 0.001)) (fill (type background))
      )
    )
  )
  (symbol "lz-connectors:JAE_SF53_USIM_6P" (in_bom yes) (on_board yes)
    (property "Reference" "J" (id 0) (at -7.62 12.7 0)
      (effects (font (size 1.27 1.27)))
    )
    (property "Value" "JAE_SF53_USIM_6P" (id 1) (at 1.27 -13.97 0)
      (effects (font (size 1.27 1.27)))
    )
    (property "Footprint" "CONNECTOR:PNJAE_SF53--MICROSIM6P-P127" (id 2) (at 8.89 -6.35 0)
      (effects (font (size 1.27 1.27)) hide)
    )
    (property "Datasheet" "JAE_J115712-1135435.pdf" (id 3) (at 8.89 -6.35 0)
      (effects (font (size 1.27 1.27)) hide)
    )
    (property "Manufacturer" "JAE Electronics" (id 4) (at 0 0 0)
      (effects (font (size 1.27 1.27)) hide)
    )
    (property "Type" "MicroSIM" (id 5) (at 0 0 0)
      (effects (font (size 1.27 1.27)) hide)
    )
    (property "Contacts" "6" (id 6) (at 0 0 0)
      (effects (font (size 1.27 1.27)) hide)
    )
    (property "Current Rating" "500 mA" (id 7) (at 0 0 0)
      (effects (font (size 1.27 1.27)) hide)
    )
    (property "Orientation" "Right Angle" (id 8) (at 0 0 0)
      (effects (font (size 1.27 1.27)) hide)
    )
    (property "Voltage Rating" "10 V" (id 9) (at 0 0 0)
      (effects (font (size 1.27 1.27)) hide)
    )
    (property "Operating Temperature" "-30/+85 C" (id 10) (at 0 0 0)
      (effects (font (size 1.27 1.27)) hide)
    )
    (property "ki_description" "Memory Card Connectors 6P 1.45mm MICRO-SIM CARD PUSH-PULL" (id 11) (at 0 0 0)
      (effects (font (size 1.27 1.27)) hide)
    )
    (symbol "JAE_SF53_USIM_6P_0_0"
      (pin power_in line (at 10.16 -10.16 180) (length 2.54)
        (name "SIM_GND" (effects (font (size 1.27 1.27))))
        (number "C5" (effects (font (size 1.27 1.27))))
      )
      (pin power_in line (at -10.16 8.89 0) (length 2.54)
        (name "VDD" (effects (font (size 1.27 1.27))))
        (number "C1" (effects (font (size 1.27 1.27))))
      )
      (pin power_in line (at -10.16 5.08 0) (length 2.54)
        (name "VPP" (effects (font (size 1.27 1.27))))
        (number "C6" (effects (font (size 1.27 1.27))))
      )
      (pin input line (at -10.16 1.27 0) (length 2.54)
        (name "RST" (effects (font (size 1.27 1.27))))
        (number "C2" (effects (font (size 1.27 1.27))))
      )
      (pin bidirectional line (at -10.16 -2.54 0) (length 2.54)
        (name "DATA" (effects (font (size 1.27 1.27))))
        (number "C7" (effects (font (size 1.27 1.27))))
      )
      (pin input line (at -10.16 -6.35 0) (length 2.54)
        (name "CLK" (effects (font (size 1.27 1.27))))
        (number "C3" (effects (font (size 1.27 1.27))))
      )
      (pin power_in line (at 10.16 8.89 180) (length 2.54)
        (name "GND" (effects (font (size 1.27 1.27))))
        (number "G1" (effects (font (size 1.27 1.27))))
      )
      (pin power_in line (at 10.16 6.35 180) (length 2.54)
        (name "GND" (effects (font (size 1.27 1.27))))
        (number "G2" (effects (font (size 1.27 1.27))))
      )
      (pin power_in line (at 10.16 3.81 180) (length 2.54)
        (name "GND" (effects (font (size 1.27 1.27))))
        (number "G3" (effects (font (size 1.27 1.27))))
      )
      (pin power_in line (at 10.16 1.27 180) (length 2.54)
        (name "GND" (effects (font (size 1.27 1.27))))
        (number "G4" (effects (font (size 1.27 1.27))))
      )
      (pin power_in line (at 10.16 -1.27 180) (length 2.54)
        (name "GND" (effects (font (size 1.27 1.27))))
        (number "G5" (effects (font (size 1.27 1.27))))
      )
      (pin power_in line (at 10.16 -3.81 180) (length 2.54)
        (name "GND" (effects (font (size 1.27 1.27))))
        (number "G7" (effects (font (size 1.27 1.27))))
      )
      (pin power_in line (at 10.16 -6.35 180) (length 2.54)
        (name "GND" (effects (font (size 1.27 1.27))))
        (number "G8" (effects (font (size 1.27 1.27))))
      )
    )
    (symbol "JAE_SF53_USIM_6P_0_1"
      (rectangle (start -7.62 11.43) (end 7.62 -12.7)
        (stroke (width 0.001)) (fill (type background))
      )
    )
  )
  (symbol "lz-connectors:RJHSE-3385" (in_bom yes) (on_board yes)
    (property "Reference" "J" (id 0) (at -5.08 21.59 0)
      (effects (font (size 1.27 1.27)))
    )
    (property "Value" "RJHSE-3385" (id 1) (at -1.27 -22.86 0)
      (effects (font (size 1.27 1.27)))
    )
    (property "Footprint" "CONNECTOR:RJHSE-3385" (id 2) (at 0 1.27 0)
      (effects (font (size 1.27 1.27)) hide)
    )
    (property "Datasheet" "amphenol_rjhse338x.pdf" (id 3) (at 0 1.27 0)
      (effects (font (size 1.27 1.27)) hide)
    )
    (property "Manufacturer" "Amphenol" (id 4) (at 0 0 0)
      (effects (font (size 1.27 1.27)) hide)
    )
    (property "Part" "RJHSE-3385" (id 5) (at 0 0 0)
      (effects (font (size 1.27 1.27)) hide)
    )
    (property "Category" "Cat 5" (id 6) (at 0 0 0)
      (effects (font (size 1.27 1.27)) hide)
    )
    (property "Mounting Angle" "Vertical" (id 7) (at 0 0 0)
      (effects (font (size 1.27 1.27)) hide)
    )
    (property "Shielding" "Shielded" (id 8) (at 0 0 0)
      (effects (font (size 1.27 1.27)) hide)
    )
    (property "Operating Temperature" "-55 to +85" (id 9) (at 0 0 0)
      (effects (font (size 1.27 1.27)) hide)
    )
    (property "Temination" "Through hole" (id 10) (at 0 0 0)
      (effects (font (size 1.27 1.27)) hide)
    )
    (property "ki_description" "CONN MOD JACK RJ45 CAT5 8P8C VERT SHIELDED" (id 11) (at 0 0 0)
      (effects (font (size 1.27 1.27)) hide)
    )
    (symbol "RJHSE-3385_0_0"
      (pin passive line (at -7.62 17.78 0) (length 2.54)
        (name "TX+" (effects (font (size 1.27 1.27))))
        (number "1" (effects (font (size 1.27 1.27))))
      )
      (pin passive line (at -7.62 15.24 0) (length 2.54)
        (name "TX-" (effects (font (size 1.27 1.27))))
        (number "2" (effects (font (size 1.27 1.27))))
      )
      (pin passive line (at -7.62 12.7 0) (length 2.54)
        (name "RX+" (effects (font (size 1.27 1.27))))
        (number "3" (effects (font (size 1.27 1.27))))
      )
      (pin passive line (at -7.62 10.16 0) (length 2.54)
        (name "NC" (effects (font (size 1.27 1.27))))
        (number "4" (effects (font (size 1.27 1.27))))
      )
      (pin passive line (at -7.62 7.62 0) (length 2.54)
        (name "NC" (effects (font (size 1.27 1.27))))
        (number "5" (effects (font (size 1.27 1.27))))
      )
      (pin passive line (at -7.62 5.08 0) (length 2.54)
        (name "RX-" (effects (font (size 1.27 1.27))))
        (number "6" (effects (font (size 1.27 1.27))))
      )
      (pin passive line (at -7.62 2.54 0) (length 2.54)
        (name "NC" (effects (font (size 1.27 1.27))))
        (number "7" (effects (font (size 1.27 1.27))))
      )
      (pin passive line (at -7.62 0 0) (length 2.54)
        (name "NC" (effects (font (size 1.27 1.27))))
        (number "8" (effects (font (size 1.27 1.27))))
      )
      (pin passive line (at -7.62 -12.7 0) (length 2.54)
        (name "LEDY_K" (effects (font (size 1.27 1.27))))
        (number "9" (effects (font (size 1.27 1.27))))
      )
      (pin passive line (at -7.62 -10.16 0) (length 2.54)
        (name "LEDY_A" (effects (font (size 1.27 1.27))))
        (number "10" (effects (font (size 1.27 1.27))))
      )
      (pin passive line (at -7.62 -19.05 0) (length 2.54)
        (name "LEDG_K" (effects (font (size 1.27 1.27))))
        (number "11" (effects (font (size 1.27 1.27))))
      )
      (pin passive line (at -7.62 -16.51 0) (length 2.54)
        (name "LEDG_A" (effects (font (size 1.27 1.27))))
        (number "12" (effects (font (size 1.27 1.27))))
      )
    )
    (symbol "RJHSE-3385_0_1"
      (rectangle (start -5.08 20.32) (end 5.08 -21.59)
        (stroke (width 0.001)) (fill (type background))
      )
    )
    (symbol "RJHSE-3385_1_1"
      (pin input line (at -7.62 -3.81 0) (length 2.54)
        (name "Shield" (effects (font (size 1.27 1.27))))
        (number "13" (effects (font (size 1.27 1.27))))
      )
      (pin input line (at -7.62 -6.35 0) (length 2.54)
        (name "Shield" (effects (font (size 1.27 1.27))))
        (number "14" (effects (font (size 1.27 1.27))))
      )
    )
  )
  (symbol "lz-connectors:TB003-500-P02BE" (pin_names hide) (in_bom yes) (on_board yes)
    (property "Reference" "J" (id 0) (at -2.54 5.08 0)
      (effects (font (size 1.27 1.27)))
    )
    (property "Value" "TB003-500-P02BE" (id 1) (at -1.27 -5.08 0)
      (effects (font (size 1.27 1.27)))
    )
    (property "Footprint" "CONNECTOR:TB_TB003-500-P02BE" (id 2) (at -5.08 1.27 0)
      (effects (font (size 1.27 1.27)) hide)
    )
    (property "Datasheet" "CUI_TB003-500.pdf" (id 3) (at -5.08 1.27 0)
      (effects (font (size 1.27 1.27)) hide)
    )
    (property "Vendor" "https://eu.mouser.com/ProductDetail/CUI-Devices/TB003-500-P02BE?qs=vLWxofP3U2yAT9CFQJ%2FCaw%3D%3D" (id 4) (at 0 0 0)
      (effects (font (size 1.27 1.27)) hide)
    )
    (property "Manufacturer" "CUI Devices" (id 5) (at 0 0 0)
      (effects (font (size 1.27 1.27)) hide)
    )
    (property "Part" "TB003-500-P02BE" (id 6) (at 0 0 0)
      (effects (font (size 1.27 1.27)) hide)
    )
    (property "Positions" "2" (id 7) (at 0 0 0)
      (effects (font (size 1.27 1.27)) hide)
    )
    (property "Pitch" "5 mm" (id 8) (at 0 0 0)
      (effects (font (size 1.27 1.27)) hide)
    )
    (property "Connection Method" "Screw" (id 9) (at 0 0 0)
      (effects (font (size 1.27 1.27)) hide)
    )
    (property "Current Rating" "10 A" (id 10) (at 0 0 0)
      (effects (font (size 1.27 1.27)) hide)
    )
    (property "Voltage Rating" "300 V" (id 11) (at 0 0 0)
      (effects (font (size 1.27 1.27)) hide)
    )
    (property "Mouting Angle" "Right Angle" (id 12) (at 0 0 0)
      (effects (font (size 1.27 1.27)) hide)
    )
    (property "Category" "Terminal Block" (id 13) (at 0 0 0)
      (effects (font (size 1.27 1.27)) hide)
    )
    (symbol "TB003-500-P02BE_0_0"
      (pin unspecified line (at -5.08 1.27 0) (length 2.54)
        (name "1" (effects (font (size 1.27 1.27))))
        (number "1" (effects (font (size 1.27 1.27))))
      )
      (pin unspecified line (at -5.08 -1.27 0) (length 2.54)
        (name "2" (effects (font (size 1.27 1.27))))
        (number "2" (effects (font (size 1.27 1.27))))
      )
    )
    (symbol "TB003-500-P02BE_0_1"
      (rectangle (start -2.54 3.81) (end 0 -3.81)
        (stroke (width 0.001)) (fill (type background))
      )
    )
  )
  (symbol "lz-connectors:TP" (in_bom yes) (on_board yes)
    (property "Reference" "TP" (id 0) (at 0 0 0)
      (effects (font (size 1.27 1.27)))
    )
    (property "Value" "TP" (id 1) (at 0 0 0)
      (effects (font (size 1.27 1.27)))
    )
    (property "Footprint" "" (id 2) (at 0 0 0)
      (effects (font (size 1.27 1.27)) hide)
    )
    (property "Datasheet" "" (id 3) (at 0 0 0)
      (effects (font (size 1.27 1.27)) hide)
    )
    (symbol "TP_1_1"
      (pin input line (at -2.54 0 0) (length 2.54)
        (name "1" (effects (font (size 1.27 1.27))))
        (number "1" (effects (font (size 1.27 1.27))))
      )
    )
  )
  (symbol "lz-connectors:TP-DNP" (pin_numbers hide) (pin_names hide) (in_bom yes) (on_board yes)
    (property "Reference" "TP" (id 0) (at -2.54 2.54 0)
      (effects (font (size 1.27 1.27)))
    )
    (property "Value" "TP-DNP" (id 1) (at 0 -2.54 0)
      (effects (font (size 1.27 1.27)) hide)
    )
    (property "Footprint" "tp:tp-th-128-50" (id 2) (at 0 -2.54 0)
      (effects (font (size 1.27 1.27)) hide)
    )
    (property "Datasheet" "" (id 3) (at 0 0 0)
      (effects (font (size 1.27 1.27)) hide)
    )
    (symbol "TP-DNP_0_1"
      (circle (center 0 0) (radius 0.635) (stroke (width 0.0006)) (fill (type none)))
    )
    (symbol "TP-DNP_1_1"
      (pin input line (at -2.54 0 0) (length 2.54)
        (name "1" (effects (font (size 1.27 1.27))))
        (number "1" (effects (font (size 1.27 1.27))))
      )
    )
  )
  (symbol "lz-connectors:TP-NFP-DNP" (pin_numbers hide) (pin_names hide) (in_bom yes) (on_board yes)
    (property "Reference" "TP" (id 0) (at -2.54 2.54 0)
      (effects (font (size 1.27 1.27)))
    )
    (property "Value" "TP-NFP-DNP" (id 1) (at 0 -2.54 0)
      (effects (font (size 1.27 1.27)) hide)
    )
    (property "Footprint" "" (id 2) (at 0 -2.54 0)
      (effects (font (size 1.27 1.27)) hide)
    )
    (property "Datasheet" "" (id 3) (at 0 0 0)
      (effects (font (size 1.27 1.27)) hide)
    )
    (symbol "TP-NFP-DNP_0_1"
      (circle (center 0 0) (radius 0.635) (stroke (width 0.0006)) (fill (type none)))
    )
    (symbol "TP-NFP-DNP_1_1"
      (pin input line (at -2.54 0 0) (length 2.54)
        (name "1" (effects (font (size 1.27 1.27))))
        (number "1" (effects (font (size 1.27 1.27))))
      )
    )
  )
  (symbol "lz-connectors:UJ2-MIBH-4-SMT-TR" (in_bom yes) (on_board yes)
    (property "Reference" "J" (id 0) (at -5.08 10.16 0)
      (effects (font (size 1.27 1.27)))
    )
    (property "Value" "UJ2-MIBH-4-SMT-TR" (id 1) (at 0 -10.16 0)
      (effects (font (size 1.27 1.27)))
    )
    (property "Footprint" "CONNECTOR:CUI_UJ2-MIBH-4-SMT" (id 2) (at -8.89 5.08 0)
      (effects (font (size 1.27 1.27)) hide)
    )
    (property "Datasheet" "CUI_UJ2_MIBH_4_SMT.pdf" (id 3) (at -8.89 5.08 0)
      (effects (font (size 1.27 1.27)) hide)
    )
    (property "Part" "UJ2-MIBH-4-SMT-TR" (id 4) (at 0 0 0)
      (effects (font (size 1.27 1.27)) hide)
    )
    (property "Manufacturer" "CUI Devices" (id 5) (at 0 0 0)
      (effects (font (size 1.27 1.27)) hide)
    )
    (property "Vendor" "https://eu.mouser.com/ProductDetail/CUI-Devices/UJ2-MIBH-4-SMT-TR?qs=5mqXD9RfOg1UAOZFFw949w%3D%3D" (id 6) (at 0 0 0)
      (effects (font (size 1.27 1.27)) hide)
    )
    (property "Type" "Micro USB Type B" (id 7) (at 0 0 0)
      (effects (font (size 1.27 1.27)) hide)
    )
    (property "Gender" "Jack (Female)" (id 8) (at 0 0 0)
      (effects (font (size 1.27 1.27)) hide)
    )
    (property "Standard" "USB 2.0" (id 9) (at 0 0 0)
      (effects (font (size 1.27 1.27)) hide)
    )
    (property "Contacts" "5" (id 10) (at 0 0 0)
      (effects (font (size 1.27 1.27)) hide)
    )
    (property "Ports" "1" (id 11) (at 0 0 0)
      (effects (font (size 1.27 1.27)) hide)
    )
    (property "Current Rating" "500 mA" (id 12) (at 0 0 0)
      (effects (font (size 1.27 1.27)) hide)
    )
    (property "Mounting Angle" "Right Angle" (id 13) (at 0 0 0)
      (effects (font (size 1.27 1.27)) hide)
    )
    (property "Mounting Style" "SMD" (id 14) (at 0 0 0)
      (effects (font (size 1.27 1.27)) hide)
    )
    (property "Voltage Rating" "30 V" (id 15) (at 0 0 0)
      (effects (font (size 1.27 1.27)) hide)
    )
    (property "Operating Temperature" "-25/+85 C" (id 16) (at 0 0 0)
      (effects (font (size 1.27 1.27)) hide)
    )
    (property "ki_description" "USB Connectors USB 2.0 micro B jack 5 pin Horizontal SMT" (id 17) (at 0 0 0)
      (effects (font (size 1.27 1.27)) hide)
    )
    (symbol "UJ2-MIBH-4-SMT-TR_0_0"
      (pin unspecified line (at -8.89 5.08 0) (length 2.54)
        (name "VCC" (effects (font (size 1.27 1.27))))
        (number "1" (effects (font (size 1.27 1.27))))
      )
      (pin unspecified line (at -8.89 2.54 0) (length 2.54)
        (name "D-" (effects (font (size 1.27 1.27))))
        (number "2" (effects (font (size 1.27 1.27))))
      )
      (pin unspecified line (at -8.89 0 0) (length 2.54)
        (name "D+" (effects (font (size 1.27 1.27))))
        (number "3" (effects (font (size 1.27 1.27))))
      )
      (pin unspecified line (at -8.89 -2.54 0) (length 2.54)
        (name "ID" (effects (font (size 1.27 1.27))))
        (number "4" (effects (font (size 1.27 1.27))))
      )
      (pin unspecified line (at -8.89 -5.08 0) (length 2.54)
        (name "GND" (effects (font (size 1.27 1.27))))
        (number "5" (effects (font (size 1.27 1.27))))
      )
      (pin unspecified line (at 8.89 6.35 180) (length 2.54)
        (name "Shield" (effects (font (size 1.27 1.27))))
        (number "SH1" (effects (font (size 1.27 1.27))))
      )
      (pin unspecified line (at 8.89 3.81 180) (length 2.54)
        (name "Shield" (effects (font (size 1.27 1.27))))
        (number "SH2" (effects (font (size 1.27 1.27))))
      )
      (pin unspecified line (at 8.89 1.27 180) (length 2.54)
        (name "Shield" (effects (font (size 1.27 1.27))))
        (number "SH3" (effects (font (size 1.27 1.27))))
      )
      (pin unspecified line (at 8.89 -1.27 180) (length 2.54)
        (name "Shield" (effects (font (size 1.27 1.27))))
        (number "SH4" (effects (font (size 1.27 1.27))))
      )
      (pin unspecified line (at 8.89 -3.81 180) (length 2.54)
        (name "Shield" (effects (font (size 1.27 1.27))))
        (number "SH5" (effects (font (size 1.27 1.27))))
      )
      (pin unspecified line (at 8.89 -6.35 180) (length 2.54)
        (name "Shield" (effects (font (size 1.27 1.27))))
        (number "SH6" (effects (font (size 1.27 1.27))))
      )
    )
    (symbol "UJ2-MIBH-4-SMT-TR_0_1"
      (rectangle (start 6.35 8.89) (end -6.35 -8.89)
        (stroke (width 0.001)) (fill (type background))
      )
    )
  )
  (symbol "lz-connectors:u.fl-2337019-1" (in_bom yes) (on_board yes)
    (property "Reference" "J" (id 0) (at -3.81 5.08 0)
      (effects (font (size 1.27 1.27)))
    )
    (property "Value" "u.fl-2337019-1" (id 1) (at 0 -5.08 0)
      (effects (font (size 1.27 1.27)))
    )
    (property "Footprint" "CONNECTOR:UFL-TE-2337019-1" (id 2) (at -2.54 5.08 0)
      (effects (font (size 1.27 1.27)) hide)
    )
    (property "Datasheet" "TE_2337019_A3.pdf" (id 3) (at -2.54 5.08 0)
      (effects (font (size 1.27 1.27)) hide)
    )
    (property "Vendor" "https://eu.mouser.com/ProductDetail/TE-Connectivity/2337019-1?qs=l4Gc20tDgJIuN7nS9rJkJw%3D%3D" (id 4) (at 0 0 0)
      (effects (font (size 1.27 1.27)) hide)
    )
    (property "Manufacturer" "TE Connectivity" (id 5) (at 0 0 0)
      (effects (font (size 1.27 1.27)) hide)
    )
    (property "Part" "2337019-1" (id 6) (at 0 0 0)
      (effects (font (size 1.27 1.27)) hide)
    )
    (property "Impedance" "50 R" (id 7) (at 0 0 0)
      (effects (font (size 1.27 1.27)) hide)
    )
    (property "Maximum Frequency" "6 GHz" (id 8) (at 0 0 0)
      (effects (font (size 1.27 1.27)) hide)
    )
    (property "Orientation" "Vertical" (id 9) (at 0 0 0)
      (effects (font (size 1.27 1.27)) hide)
    )
    (property "Insulation Resistance" "500 MOhms" (id 10) (at 0 0 0)
      (effects (font (size 1.27 1.27)) hide)
    )
    (property "Operating Temperature" "-40/+85 C" (id 11) (at 0 0 0)
      (effects (font (size 1.27 1.27)) hide)
    )
    (property "ki_description" "RF Connectors / Coaxial Connectors MicroCoax receptacle UMCC Gen 1" (id 12) (at 0 0 0)
      (effects (font (size 1.27 1.27)) hide)
    )
    (symbol "u.fl-2337019-1_0_0"
      (pin power_in line (at 6.35 1.27 180) (length 2.54)
        (name "GND" (effects (font (size 1.27 1.27))))
        (number "2" (effects (font (size 1.27 1.27))))
      )
      (pin bidirectional line (at -6.35 0 0) (length 2.54)
        (name "RF" (effects (font (size 1.27 1.27))))
        (number "1" (effects (font (size 1.27 1.27))))
      )
      (pin power_in line (at 6.35 -1.27 180) (length 2.54)
        (name "GND" (effects (font (size 1.27 1.27))))
        (number "3" (effects (font (size 1.27 1.27))))
      )
    )
    (symbol "u.fl-2337019-1_0_1"
      (rectangle (start -3.81 3.81) (end 3.81 -3.81)
        (stroke (width 0.001)) (fill (type background))
      )
    )
  )
)
