(kicad_symbol_lib (version 20201005) (generator kicad_symbol_editor)
  (symbol "lz-cap-kemet-x7r-1210-2000v:1000pF" (pin_numbers hide) (pin_names hide) (in_bom yes) (on_board yes)
    (property "Reference" "C" (id 0) (at 0 0 0)
      (effects (font (size 1.27 1.27)))
    )
    (property "Value" "1000pF" (id 1) (at 0 0 0)
      (effects (font (size 1.27 1.27)))
    )
    (property "Footprint" "CHIP:CAPC320X250X155L50N" (id 2) (at 0 0 0)
      (effects (font (size 1.27 1.27)) hide)
    )
    (property "Datasheet" "KEMET_C1010_X7R_HV_SMD.pdf" (id 3) (at 0 0 0)
      (effects (font (size 1.27 1.27)) hide)
    )
    (property "Vendor" "https://eu.mouser.com/ProductDetail/KEMET/C1210C102KGRACTU?qs=%2Fha2pyFaduiE5F3NeAx%252BskIOe%252BAXoqaKpmjPX8hoU6w4pd5BBmMbiQ%3D%3D" (id 4) (at 0 0 0)
      (effects (font (size 1.27 1.27)) hide)
    )
    (property "Part" "C1210C102KGRACTU" (id 5) (at 0 0 0)
      (effects (font (size 1.27 1.27)) hide)
    )
    (property "Manufacturer" "KEMET" (id 6) (at 0 0 0)
      (effects (font (size 1.27 1.27)) hide)
    )
    (property "VDC" "2 KVDC" (id 7) (at 0 0 0)
      (effects (font (size 1.27 1.27)) hide)
    )
    (property "Dielectric" "X7R" (id 8) (at 0 0 0)
      (effects (font (size 1.27 1.27)) hide)
    )
    (property "Tolerance" "10 %" (id 9) (at 0 0 0)
      (effects (font (size 1.27 1.27)) hide)
    )
    (property "Package" "1210" (id 10) (at 0 0 0)
      (effects (font (size 1.27 1.27)) hide)
    )
    (property "Operating Temperature" "-55/+125 C" (id 11) (at 0 0 0)
      (effects (font (size 1.27 1.27)) hide)
    )
    (property "ki_description" "Multilayer Ceramic Capacitors MLCC - SMD/SMT 2000V 1nF X7R 1210" (id 12) (at 0 0 0)
      (effects (font (size 1.27 1.27)) hide)
    )
    (symbol "1000pF_0_1"
      (polyline
        (pts
          (xy -1.27 0.635)
          (xy 1.27 0.635)
        )
        (stroke (width 0.254)) (fill (type none))
      )
      (polyline
        (pts
          (xy 1.27 -0.635)
          (xy -1.27 -0.635)
        )
        (stroke (width 0.254)) (fill (type none))
      )
      (polyline
        (pts
          (xy 0 1.27)
          (xy 0 0.635)
        )
        (stroke (width 0.0006)) (fill (type none))
      )
      (polyline
        (pts
          (xy 0 -1.27)
          (xy 0 -0.635)
        )
        (stroke (width 0.0006)) (fill (type none))
      )
    )
    (symbol "1000pF_0_0"
      (pin bidirectional line (at 0 3.81 270) (length 2.54)
        (name "1" (effects (font (size 1.27 1.27))))
        (number "1" (effects (font (size 1.27 1.27))))
      )
      (pin bidirectional line (at 0 -3.81 90) (length 2.54)
        (name "2" (effects (font (size 1.27 1.27))))
        (number "2" (effects (font (size 1.27 1.27))))
      )
    )
  )
  (symbol "lz-cap-kemet-x7r-1210-2000v:4700pF" (pin_numbers hide) (pin_names hide) (in_bom yes) (on_board yes)
    (property "Reference" "C" (id 0) (at 0 0 0)
      (effects (font (size 1.27 1.27)))
    )
    (property "Value" "4700pF" (id 1) (at 0 0 0)
      (effects (font (size 1.27 1.27)))
    )
    (property "Footprint" "CHIP:CAPC320X250X155L50N" (id 2) (at 0 0 0)
      (effects (font (size 1.27 1.27)) hide)
    )
    (property "Datasheet" "KEMET_C1010_X7R_HV_SMD.pdf" (id 3) (at 0 0 0)
      (effects (font (size 1.27 1.27)) hide)
    )
    (property "Vendor" "https://eu.mouser.com/ProductDetail/KEMET/C1210C472KGRACTU?qs=%2Fha2pyFadug2uUJwbHthV8wO3lB4oV4r21jku%2Fc8Jor%252BGMvqKYPjtA%3D%3D" (id 4) (at 0 0 0)
      (effects (font (size 1.27 1.27)) hide)
    )
    (property "Part" "C1210C472KGRACTU" (id 5) (at 0 0 0)
      (effects (font (size 1.27 1.27)) hide)
    )
    (property "Manufacturer" "KEMET" (id 6) (at 0 0 0)
      (effects (font (size 1.27 1.27)) hide)
    )
    (property "VDC" "2 KVDC" (id 7) (at 0 0 0)
      (effects (font (size 1.27 1.27)) hide)
    )
    (property "Dielectric" "X7R" (id 8) (at 0 0 0)
      (effects (font (size 1.27 1.27)) hide)
    )
    (property "Tolerance" "10 %" (id 9) (at 0 0 0)
      (effects (font (size 1.27 1.27)) hide)
    )
    (property "Package" "1210" (id 10) (at 0 0 0)
      (effects (font (size 1.27 1.27)) hide)
    )
    (property "Operating Temperature" "-55/+125 C" (id 11) (at 0 0 0)
      (effects (font (size 1.27 1.27)) hide)
    )
    (property "ki_description" "Multilayer Ceramic Capacitors MLCC - SMD/SMT 2000V 4.7nF X7R 1210" (id 12) (at 0 0 0)
      (effects (font (size 1.27 1.27)) hide)
    )
    (symbol "4700pF_0_1"
      (polyline
        (pts
          (xy -1.27 0.635)
          (xy 1.27 0.635)
        )
        (stroke (width 0.254)) (fill (type none))
      )
      (polyline
        (pts
          (xy 1.27 -0.635)
          (xy -1.27 -0.635)
        )
        (stroke (width 0.254)) (fill (type none))
      )
      (polyline
        (pts
          (xy 0 1.27)
          (xy 0 0.635)
        )
        (stroke (width 0.0006)) (fill (type none))
      )
      (polyline
        (pts
          (xy 0 -1.27)
          (xy 0 -0.635)
        )
        (stroke (width 0.0006)) (fill (type none))
      )
    )
    (symbol "4700pF_0_0"
      (pin bidirectional line (at 0 3.81 270) (length 2.54)
        (name "1" (effects (font (size 1.27 1.27))))
        (number "1" (effects (font (size 1.27 1.27))))
      )
      (pin bidirectional line (at 0 -3.81 90) (length 2.54)
        (name "2" (effects (font (size 1.27 1.27))))
        (number "2" (effects (font (size 1.27 1.27))))
      )
    )
  )
)
