(kicad_symbol_lib (version 20201005) (generator kicad_symbol_editor)
  (symbol "lz-cap-murata-x7r-gcm-0805:10uF" (pin_numbers hide) (pin_names hide) (in_bom yes) (on_board yes)
    (property "Reference" "C" (id 0) (at 5.08 1.27 0)
      (effects (font (size 1.27 1.27)))
    )
    (property "Value" "10uF" (id 1) (at 6.35 -2.54 0)
      (effects (font (size 1.27 1.27)))
    )
    (property "Footprint" "CHIP:CAPC200X125X140L45N" (id 2) (at 0 -7.62 0)
      (effects (font (size 1.27 1.27)) hide)
    )
    (property "Datasheet" "murata_GCM.pdf" (id 3) (at 0 -7.62 0)
      (effects (font (size 1.27 1.27)) hide)
    )
    (property "Voltage" "10VDC" (id 7) (at 0 -7.62 0)
      (effects (font (size 1.27 1.27)) hide)
    )
    (property "Dielectric" "X7R" (id 10) (at 0 0 0)
      (effects (font (size 1.27 1.27)) hide)
    )
    (property "Package" "0805" (id 8) (at 0 -7.62 0)
      (effects (font (size 1.27 1.27)) hide)
    )
    (property "Operating Temp" "-55/+120 C" (id 9) (at 0 -7.62 0)
      (effects (font (size 1.27 1.27)) hide)
    )
    (property "Manufacturer" "Murata" (id 4) (at 0 -7.62 0)
      (effects (font (size 1.27 1.27)) hide)
    )
    (property "Part" "GCM21BR71A106KE22L" (id 5) (at 1.27 -7.62 0)
      (effects (font (size 1.27 1.27)) hide)
    )
    (property "Vendor" "https://eu.mouser.com/ProductDetail/Murata-Electronics/GCM21BR71A106KE22L?qs=sGAEpiMZZMvsSlwiRhF8qiQS58Jycy%2Fsl6x2bTAi8tM%3D" (id 6) (at 0 -7.62 0)
      (effects (font (size 1.27 1.27)) hide)
    )
    (property "ki_description" "Multilayer Ceramic Capacitors MLCC - SMD/SMT 0805 10uF 10volts X7R 10%" (id 7) (at 0 0 0)
      (effects (font (size 1.27 1.27)) hide)
    )
    (symbol "10uF_0_1"
      (polyline
        (pts
          (xy -1.27 0.635)
          (xy 1.27 0.635)
        )
        (stroke (width 0.254)) (fill (type none))
      )
      (polyline
        (pts
          (xy 1.27 -0.635)
          (xy -1.27 -0.635)
        )
        (stroke (width 0.254)) (fill (type none))
      )
      (polyline
        (pts
          (xy 0 1.27)
          (xy 0 0.635)
        )
        (stroke (width 0.0006)) (fill (type none))
      )
      (polyline
        (pts
          (xy 0 -1.27)
          (xy 0 -0.635)
        )
        (stroke (width 0.0006)) (fill (type none))
      )
    )
    (symbol "10uF_0_0"
      (pin bidirectional line (at 0 3.81 270) (length 2.54)
        (name "1" (effects (font (size 1.27 1.27))))
        (number "1" (effects (font (size 1.27 1.27))))
      )
      (pin bidirectional line (at 0 -3.81 90) (length 2.54)
        (name "2" (effects (font (size 1.27 1.27))))
        (number "2" (effects (font (size 1.27 1.27))))
      )
    )
  )
  (symbol "lz-cap-murata-x7r-gcm-0805:2.2uF" (pin_numbers hide) (pin_names hide) (in_bom yes) (on_board yes)
    (property "Reference" "C" (id 0) (at 5.08 1.27 0)
      (effects (font (size 1.27 1.27)))
    )
    (property "Value" "2.2uF" (id 1) (at 6.35 -2.54 0)
      (effects (font (size 1.27 1.27)))
    )
    (property "Footprint" "CHIP:CAPC200X125X140L45N" (id 2) (at 0 -7.62 0)
      (effects (font (size 1.27 1.27)) hide)
    )
    (property "Datasheet" "murata_GCM.pdf" (id 3) (at 0 -7.62 0)
      (effects (font (size 1.27 1.27)) hide)
    )
    (property "Voltage" "25VDC" (id 7) (at 0 -7.62 0)
      (effects (font (size 1.27 1.27)) hide)
    )
    (property "Dielectric" "X7R" (id 10) (at 0 0 0)
      (effects (font (size 1.27 1.27)) hide)
    )
    (property "Package" "0805" (id 8) (at 0 -7.62 0)
      (effects (font (size 1.27 1.27)) hide)
    )
    (property "Operating Temp" "-55/+125 C" (id 9) (at 0 -7.62 0)
      (effects (font (size 1.27 1.27)) hide)
    )
    (property "Manufacturer" "Murata" (id 4) (at 0 -7.62 0)
      (effects (font (size 1.27 1.27)) hide)
    )
    (property "Part" "GCM21BR71E225KA73L" (id 5) (at 1.27 -7.62 0)
      (effects (font (size 1.27 1.27)) hide)
    )
    (property "Vendor" "https://eu.mouser.com/ProductDetail/Murata-Electronics/GCM21BR71E225KA73L?qs=aEuGZpxfbxXYW28lkhxT3w%3D%3D" (id 6) (at 0 -7.62 0)
      (effects (font (size 1.27 1.27)) hide)
    )
    (property "ki_description" "Multilayer Ceramic Capacitors MLCC - SMD/SMT 0805 2.2uF 25volts X7R 10%" (id 7) (at 0 0 0)
      (effects (font (size 1.27 1.27)) hide)
    )
    (symbol "2.2uF_0_1"
      (polyline
        (pts
          (xy -1.27 0.635)
          (xy 1.27 0.635)
        )
        (stroke (width 0.254)) (fill (type none))
      )
      (polyline
        (pts
          (xy 1.27 -0.635)
          (xy -1.27 -0.635)
        )
        (stroke (width 0.254)) (fill (type none))
      )
      (polyline
        (pts
          (xy 0 1.27)
          (xy 0 0.635)
        )
        (stroke (width 0.0006)) (fill (type none))
      )
      (polyline
        (pts
          (xy 0 -1.27)
          (xy 0 -0.635)
        )
        (stroke (width 0.0006)) (fill (type none))
      )
    )
    (symbol "2.2uF_0_0"
      (pin bidirectional line (at 0 3.81 270) (length 2.54)
        (name "1" (effects (font (size 1.27 1.27))))
        (number "1" (effects (font (size 1.27 1.27))))
      )
      (pin bidirectional line (at 0 -3.81 90) (length 2.54)
        (name "2" (effects (font (size 1.27 1.27))))
        (number "2" (effects (font (size 1.27 1.27))))
      )
    )
  )
  (symbol "lz-cap-murata-x7r-gcm-0805:4.7uF" (pin_numbers hide) (pin_names hide) (in_bom yes) (on_board yes)
    (property "Reference" "C" (id 0) (at 5.08 1.27 0)
      (effects (font (size 1.27 1.27)))
    )
    (property "Value" "4.7uF" (id 1) (at 6.35 -2.54 0)
      (effects (font (size 1.27 1.27)))
    )
    (property "Footprint" "CHIP:CAPC200X125X140L45N" (id 2) (at 0 -7.62 0)
      (effects (font (size 1.27 1.27)) hide)
    )
    (property "Datasheet" "murata_GCM.pdf" (id 3) (at 0 -7.62 0)
      (effects (font (size 1.27 1.27)) hide)
    )
    (property "Voltage" "16VDC" (id 7) (at 0 -7.62 0)
      (effects (font (size 1.27 1.27)) hide)
    )
    (property "Dielectric" "X7R" (id 10) (at 0 0 0)
      (effects (font (size 1.27 1.27)) hide)
    )
    (property "Package" "0805" (id 8) (at 0 -7.62 0)
      (effects (font (size 1.27 1.27)) hide)
    )
    (property "Operating Temp" "-55/+125 C" (id 9) (at 0 -7.62 0)
      (effects (font (size 1.27 1.27)) hide)
    )
    (property "Manufacturer" "Murata" (id 4) (at 0 -7.62 0)
      (effects (font (size 1.27 1.27)) hide)
    )
    (property "Part" "GCM21BR71C475KA73L" (id 5) (at 1.27 -7.62 0)
      (effects (font (size 1.27 1.27)) hide)
    )
    (property "Vendor" "https://eu.mouser.com/ProductDetail/Murata-Electronics/GCM21BR71C475KA73L?qs=F4nQUk0dC2NDKVXFc%2FL9Og%3D%3D" (id 6) (at 0 -7.62 0)
      (effects (font (size 1.27 1.27)) hide)
    )
    (property "ki_description" "Multilayer Ceramic Capacitors MLCC - SMD/SMT 0805 4.7uF 16volts X7R 10%" (id 7) (at 0 0 0)
      (effects (font (size 1.27 1.27)) hide)
    )
    (symbol "4.7uF_0_1"
      (polyline
        (pts
          (xy -1.27 0.635)
          (xy 1.27 0.635)
        )
        (stroke (width 0.254)) (fill (type none))
      )
      (polyline
        (pts
          (xy 1.27 -0.635)
          (xy -1.27 -0.635)
        )
        (stroke (width 0.254)) (fill (type none))
      )
      (polyline
        (pts
          (xy 0 1.27)
          (xy 0 0.635)
        )
        (stroke (width 0.0006)) (fill (type none))
      )
      (polyline
        (pts
          (xy 0 -1.27)
          (xy 0 -0.635)
        )
        (stroke (width 0.0006)) (fill (type none))
      )
    )
    (symbol "4.7uF_0_0"
      (pin bidirectional line (at 0 3.81 270) (length 2.54)
        (name "1" (effects (font (size 1.27 1.27))))
        (number "1" (effects (font (size 1.27 1.27))))
      )
      (pin bidirectional line (at 0 -3.81 90) (length 2.54)
        (name "2" (effects (font (size 1.27 1.27))))
        (number "2" (effects (font (size 1.27 1.27))))
      )
    )
  )
)
