(kicad_symbol_lib (version 20201005) (generator kicad_symbol_editor)
  (symbol "lz-cap-murata-grt-0603-50vdc:1uF" (pin_numbers hide) (pin_names hide) (in_bom yes) (on_board yes)
    (property "Reference" "C" (id 0) (at 5.08 1.27 0)
      (effects (font (size 1.27 1.27)))
    )
    (property "Value" "1uF" (id 1) (at 6.35 -2.54 0)
      (effects (font (size 1.27 1.27)))
    )
    (property "Footprint" "CHIP:CAPC160X80X90L35N" (id 2) (at 0 -7.62 0)
      (effects (font (size 1.27 1.27)) hide)
    )
    (property "Datasheet" "MURATA_GRT188R61H105KE13D.pdf" (id 3) (at 0 -7.62 0)
      (effects (font (size 1.27 1.27)) hide)
    )
    (property "Voltage" "50VDC" (id 7) (at 0 -7.62 0)
      (effects (font (size 1.27 1.27)) hide)
    )
    (property "Dielectric" "X5R" (id 10) (at 0 0 0)
      (effects (font (size 1.27 1.27)) hide)
    )
    (property "Package" "0603" (id 8) (at 0 -7.62 0)
      (effects (font (size 1.27 1.27)) hide)
    )
    (property "Operating Temp" "-55/+85 C" (id 9) (at 0 -7.62 0)
      (effects (font (size 1.27 1.27)) hide)
    )
    (property "Manufacturer" "Murata" (id 4) (at 0 -7.62 0)
      (effects (font (size 1.27 1.27)) hide)
    )
    (property "Part" "GRT188R61H105KE13D" (id 5) (at 1.27 -7.62 0)
      (effects (font (size 1.27 1.27)) hide)
    )
    (property "Vendor" "https://eu.mouser.com/ProductDetail/Murata-Electronics/GRT188R61H105KE13D?qs=sGAEpiMZZMvsSlwiRhF8qquPIBdUMwzgHb%2F4B%2FZsTL4vnB8OzEGDMQ%3D%3D" (id 6) (at 0 -7.62 0)
      (effects (font (size 1.27 1.27)) hide)
    )
    (property "Tolerance" "10 %" (id 11) (at 0 0 0)
      (effects (font (size 1.27 1.27)) hide)
    )
    (property "ki_description" "Multilayer Ceramic Capacitors MLCC - SMD/SMT 0603 50Vdc 1.0uF X5R 10%" (id 12) (at 0 0 0)
      (effects (font (size 1.27 1.27)) hide)
    )
    (symbol "1uF_0_1"
      (polyline
        (pts
          (xy -1.27 0.635)
          (xy 1.27 0.635)
        )
        (stroke (width 0.254)) (fill (type none))
      )
      (polyline
        (pts
          (xy 1.27 -0.635)
          (xy -1.27 -0.635)
        )
        (stroke (width 0.254)) (fill (type none))
      )
      (polyline
        (pts
          (xy 0 1.27)
          (xy 0 0.635)
        )
        (stroke (width 0.0006)) (fill (type none))
      )
      (polyline
        (pts
          (xy 0 -1.27)
          (xy 0 -0.635)
        )
        (stroke (width 0.0006)) (fill (type none))
      )
    )
    (symbol "1uF_0_0"
      (pin bidirectional line (at 0 3.81 270) (length 2.54)
        (name "1" (effects (font (size 1.27 1.27))))
        (number "1" (effects (font (size 1.27 1.27))))
      )
      (pin bidirectional line (at 0 -3.81 90) (length 2.54)
        (name "2" (effects (font (size 1.27 1.27))))
        (number "2" (effects (font (size 1.27 1.27))))
      )
    )
  )
)
