(kicad_symbol_lib (version 20201005) (generator kicad_symbol_editor)
  (symbol "lz-diode-tvs-littlefuse-tpsmb-vr:TPSMB26CA-VR" (pin_numbers hide) (pin_names hide) (in_bom yes) (on_board yes)
    (property "Reference" "D" (id 0) (at 0 0 0)
      (effects (font (size 1.27 1.27)))
    )
    (property "Value" "TPSMB26CA-VR" (id 1) (at 0 0 0)
      (effects (font (size 1.27 1.27)))
    )
    (property "Footprint" "MOLDED:DIONM540X362X244L114X207N" (id 2) (at 0 0 0)
      (effects (font (size 1.27 1.27)) hide)
    )
    (property "Datasheet" "LITTLEFUSE_TPSMB_VR.pdf" (id 3) (at 0 0 0)
      (effects (font (size 1.27 1.27)) hide)
    )
    (property "Vendor" "https://eu.mouser.com/ProductDetail/Littelfuse/TPSMB26CA-VR?qs=AQlKX63v8RscDVqqUdNlPw%3D%3D" (id 4) (at 0 0 0)
      (effects (font (size 1.27 1.27)) hide)
    )
    (property "Part" "TPSMB26CA-VR" (id 5) (at 0 0 0)
      (effects (font (size 1.27 1.27)) hide)
    )
    (property "Manufacturer" "Littelfuse" (id 6) (at 0 0 0)
      (effects (font (size 1.27 1.27)) hide)
    )
    (property "Working Voltage" "26 V" (id 7) (at 0 0 0)
      (effects (font (size 1.27 1.27)) hide)
    )
    (property "Channels" "1" (id 8) (at 0 0 0)
      (effects (font (size 1.27 1.27)) hide)
    )
    (property "Package" "DO-214AA-2" (id 9) (at 0 0 0)
      (effects (font (size 1.27 1.27)) hide)
    )
    (property "Breakdown Voltage" "31.9 V" (id 10) (at 0 0 0)
      (effects (font (size 1.27 1.27)) hide)
    )
    (property "Clamping Voltage" "42.1 V" (id 11) (at 0 0 0)
      (effects (font (size 1.27 1.27)) hide)
    )
    (property "Vesd - Contact" "30 KV" (id 12) (at 0 0 0)
      (effects (font (size 1.27 1.27)) hide)
    )
    (property "Vesd - Air" "30 KV" (id 13) (at 0 0 0)
      (effects (font (size 1.27 1.27)) hide)
    )
    (property "Ipp" "14.3 A" (id 14) (at 0 0 0)
      (effects (font (size 1.27 1.27)) hide)
    )
    (property "Operating Temperature" "-65/+175 C" (id 15) (at 0 0 0)
      (effects (font (size 1.27 1.27)) hide)
    )
    (symbol "TPSMB26CA-VR_0_1"
      (polyline
        (pts
          (xy 0 0)
          (xy -1.27 0)
          (xy 1.27 0)
        )
        (stroke (width 0.0006)) (fill (type none))
      )
      (polyline
        (pts
          (xy 1.27 0)
          (xy 1.905 -0.635)
        )
        (stroke (width 0.0006)) (fill (type none))
      )
      (polyline
        (pts
          (xy -1.27 0)
          (xy -1.905 0.635)
        )
        (stroke (width 0.0006)) (fill (type none))
      )
      (polyline
        (pts
          (xy 0 0)
          (xy -1.27 -2.54)
          (xy 1.27 -2.54)
          (xy 0 0)
        )
        (stroke (width 0.001)) (fill (type outline))
      )
      (polyline
        (pts
          (xy 0 0)
          (xy 1.27 2.54)
          (xy -1.27 2.54)
          (xy 0 0)
        )
        (stroke (width 0.001)) (fill (type outline))
      )
    )
    (symbol "TPSMB26CA-VR_0_0"
      (pin unspecified line (at 0 5.08 270) (length 2.54)
        (name "1" (effects (font (size 1.27 1.27))))
        (number "1" (effects (font (size 1.27 1.27))))
      )
      (pin unspecified line (at 0 -5.08 90) (length 2.54)
        (name "2" (effects (font (size 1.27 1.27))))
        (number "2" (effects (font (size 1.27 1.27))))
      )
    )
  )
)
