(kicad_symbol_lib (version 20201005) (generator kicad_symbol_editor)
  (symbol "lz-module-wifi:ESP32-WROOM-32E" (in_bom yes) (on_board yes)
    (property "Reference" "MOD" (id 0) (at -8.89 30.48 0)
      (effects (font (size 1.27 1.27)))
    )
    (property "Value" "ESP32-WROOM-32E" (id 1) (at 0 -31.75 0)
      (effects (font (size 1.27 1.27)))
    )
    (property "Footprint" "MODULE:LCC_ESP32-WROOM-32E" (id 2) (at 30.48 22.86 0)
      (effects (font (size 1.27 1.27)) hide)
    )
    (property "Datasheet" "ESPRESSIF_ESP32_WROOM_32E.pdf" (id 3) (at 30.48 22.86 0)
      (effects (font (size 1.27 1.27)) hide)
    )
    (property "Vendor" "https://eu.mouser.com/ProductDetail/Espressif-Systems/ESP32-WROOM-32EM113EH2800PH3Q0?qs=sGAEpiMZZMu3sxpa5v1qrl%2FYtpu2q02IVMmJKBwXLzE%3D" (id 4) (at 0 0 0)
      (effects (font (size 1.27 1.27)) hide)
    )
    (property "Part" "ESP32-WROOM-32E" (id 5) (at 0 0 0)
      (effects (font (size 1.27 1.27)) hide)
    )
    (property "Manufacturer" "Espressif" (id 6) (at 0 0 0)
      (effects (font (size 1.27 1.27)) hide)
    )
    (property "Protocol" "802.11 b/g/n" (id 7) (at 0 0 0)
      (effects (font (size 1.27 1.27)) hide)
    )
    (property "Frequency" "2.4-2.5 GHz" (id 8) (at 0 0 0)
      (effects (font (size 1.27 1.27)) hide)
    )
    (property "Data Rate" "150 Mb/s" (id 9) (at 0 0 0)
      (effects (font (size 1.27 1.27)) hide)
    )
    (property "Output Power" "20 dBm" (id 10) (at 0 0 0)
      (effects (font (size 1.27 1.27)) hide)
    )
    (property "Operating Voltage" "3/3.6 V" (id 11) (at 0 0 0)
      (effects (font (size 1.27 1.27)) hide)
    )
    (property "Operating Temperature" "-40/+85 C" (id 12) (at 0 0 0)
      (effects (font (size 1.27 1.27)) hide)
    )
    (property "Package" "LCC" (id 13) (at 0 0 0)
      (effects (font (size 1.27 1.27)) hide)
    )
    (property "ki_description" "WiFi Modules (802.11) SMD Module ESP32-WROOM-32E, ESP32-D0WD-V3, 16 MB SPI flash, PCB antenna" (id 14) (at 0 0 0)
      (effects (font (size 1.27 1.27)) hide)
    )
    (symbol "ESP32-WROOM-32E_0_1"
      (rectangle (start -10.16 29.21) (end 10.16 -30.48)
        (stroke (width 0.001)) (fill (type background))
      )
    )
    (symbol "ESP32-WROOM-32E_0_0"
      (pin power_in line (at 12.7 -19.05 180) (length 2.54)
        (name "GND" (effects (font (size 1.27 1.27))))
        (number "1" (effects (font (size 1.27 1.27))))
      )
      (pin power_in line (at -12.7 26.67 0) (length 2.54)
        (name "3V3" (effects (font (size 1.27 1.27))))
        (number "2" (effects (font (size 1.27 1.27))))
      )
      (pin input line (at -12.7 22.86 0) (length 2.54)
        (name "EN" (effects (font (size 1.27 1.27))))
        (number "3" (effects (font (size 1.27 1.27))))
      )
      (pin bidirectional line (at -12.7 19.05 0) (length 2.54)
        (name "SENSOR_VP" (effects (font (size 1.27 1.27))))
        (number "4" (effects (font (size 1.27 1.27))))
      )
      (pin bidirectional line (at -12.7 16.51 0) (length 2.54)
        (name "SENSOR_VN" (effects (font (size 1.27 1.27))))
        (number "5" (effects (font (size 1.27 1.27))))
      )
      (pin bidirectional line (at 12.7 12.7 180) (length 2.54)
        (name "IO34" (effects (font (size 1.27 1.27))))
        (number "6" (effects (font (size 1.27 1.27))))
      )
      (pin bidirectional line (at 12.7 10.16 180) (length 2.54)
        (name "IO35" (effects (font (size 1.27 1.27))))
        (number "7" (effects (font (size 1.27 1.27))))
      )
      (pin bidirectional line (at 12.7 17.78 180) (length 2.54)
        (name "IO32" (effects (font (size 1.27 1.27))))
        (number "8" (effects (font (size 1.27 1.27))))
      )
      (pin bidirectional line (at 12.7 15.24 180) (length 2.54)
        (name "IO33" (effects (font (size 1.27 1.27))))
        (number "9" (effects (font (size 1.27 1.27))))
      )
      (pin bidirectional line (at 12.7 26.67 180) (length 2.54)
        (name "IO25" (effects (font (size 1.27 1.27))))
        (number "10" (effects (font (size 1.27 1.27))))
      )
      (pin bidirectional line (at 12.7 24.13 180) (length 2.54)
        (name "IO26" (effects (font (size 1.27 1.27))))
        (number "11" (effects (font (size 1.27 1.27))))
      )
      (pin bidirectional line (at 12.7 21.59 180) (length 2.54)
        (name "IO27" (effects (font (size 1.27 1.27))))
        (number "12" (effects (font (size 1.27 1.27))))
      )
      (pin bidirectional line (at -12.7 -3.81 0) (length 2.54)
        (name "IO14" (effects (font (size 1.27 1.27))))
        (number "13" (effects (font (size 1.27 1.27))))
      )
      (pin bidirectional line (at -12.7 1.27 0) (length 2.54)
        (name "IO12" (effects (font (size 1.27 1.27))))
        (number "14" (effects (font (size 1.27 1.27))))
      )
      (pin power_in line (at 12.7 -21.59 180) (length 2.54)
        (name "GND" (effects (font (size 1.27 1.27))))
        (number "15" (effects (font (size 1.27 1.27))))
      )
      (pin bidirectional line (at -12.7 -1.27 0) (length 2.54)
        (name "IO13" (effects (font (size 1.27 1.27))))
        (number "16" (effects (font (size 1.27 1.27))))
      )
      (pin unconnected line (at 12.7 0 180) (length 2.54)
        (name "NC" (effects (font (size 1.27 1.27))))
        (number "17" (effects (font (size 1.27 1.27))))
      )
      (pin unconnected line (at 12.7 -2.54 180) (length 2.54)
        (name "NC" (effects (font (size 1.27 1.27))))
        (number "18" (effects (font (size 1.27 1.27))))
      )
      (pin unconnected line (at 12.7 -5.08 180) (length 2.54)
        (name "NC" (effects (font (size 1.27 1.27))))
        (number "19" (effects (font (size 1.27 1.27))))
      )
      (pin unconnected line (at 12.7 -7.62 180) (length 2.54)
        (name "NC" (effects (font (size 1.27 1.27))))
        (number "20" (effects (font (size 1.27 1.27))))
      )
      (pin unconnected line (at 12.7 -10.16 180) (length 2.54)
        (name "NC" (effects (font (size 1.27 1.27))))
        (number "21" (effects (font (size 1.27 1.27))))
      )
      (pin unconnected line (at 12.7 -12.7 180) (length 2.54)
        (name "NC" (effects (font (size 1.27 1.27))))
        (number "22" (effects (font (size 1.27 1.27))))
      )
      (pin bidirectional line (at -12.7 -6.35 0) (length 2.54)
        (name "IO15" (effects (font (size 1.27 1.27))))
        (number "23" (effects (font (size 1.27 1.27))))
      )
      (pin bidirectional line (at -12.7 10.16 0) (length 2.54)
        (name "IO2" (effects (font (size 1.27 1.27))))
        (number "24" (effects (font (size 1.27 1.27))))
      )
      (pin bidirectional line (at -12.7 12.7 0) (length 2.54)
        (name "IO0" (effects (font (size 1.27 1.27))))
        (number "25" (effects (font (size 1.27 1.27))))
      )
      (pin bidirectional line (at -12.7 7.62 0) (length 2.54)
        (name "IO4" (effects (font (size 1.27 1.27))))
        (number "26" (effects (font (size 1.27 1.27))))
      )
      (pin bidirectional line (at -12.7 -10.16 0) (length 2.54)
        (name "IO16" (effects (font (size 1.27 1.27))))
        (number "27" (effects (font (size 1.27 1.27))))
      )
      (pin bidirectional line (at -12.7 -12.7 0) (length 2.54)
        (name "IO17" (effects (font (size 1.27 1.27))))
        (number "28" (effects (font (size 1.27 1.27))))
      )
      (pin bidirectional line (at -12.7 5.08 0) (length 2.54)
        (name "IO5" (effects (font (size 1.27 1.27))))
        (number "29" (effects (font (size 1.27 1.27))))
      )
      (pin bidirectional line (at -12.7 -15.24 0) (length 2.54)
        (name "IO18" (effects (font (size 1.27 1.27))))
        (number "30" (effects (font (size 1.27 1.27))))
      )
      (pin bidirectional line (at -12.7 -17.78 0) (length 2.54)
        (name "IO19" (effects (font (size 1.27 1.27))))
        (number "31" (effects (font (size 1.27 1.27))))
      )
      (pin unconnected line (at 12.7 -15.24 180) (length 2.54)
        (name "NC" (effects (font (size 1.27 1.27))))
        (number "32" (effects (font (size 1.27 1.27))))
      )
      (pin bidirectional line (at -12.7 -21.59 0) (length 2.54)
        (name "IO21" (effects (font (size 1.27 1.27))))
        (number "33" (effects (font (size 1.27 1.27))))
      )
      (pin input line (at 12.7 6.35 180) (length 2.54)
        (name "RXD0" (effects (font (size 1.27 1.27))))
        (number "34" (effects (font (size 1.27 1.27))))
      )
      (pin output line (at 12.7 3.81 180) (length 2.54)
        (name "TXD0" (effects (font (size 1.27 1.27))))
        (number "35" (effects (font (size 1.27 1.27))))
      )
      (pin bidirectional line (at -12.7 -24.13 0) (length 2.54)
        (name "IO22" (effects (font (size 1.27 1.27))))
        (number "36" (effects (font (size 1.27 1.27))))
      )
      (pin bidirectional line (at -12.7 -26.67 0) (length 2.54)
        (name "IO23" (effects (font (size 1.27 1.27))))
        (number "37" (effects (font (size 1.27 1.27))))
      )
      (pin power_in line (at 12.7 -24.13 180) (length 2.54)
        (name "GND" (effects (font (size 1.27 1.27))))
        (number "38" (effects (font (size 1.27 1.27))))
      )
      (pin power_in line (at 12.7 -27.94 180) (length 2.54)
        (name "EPAD" (effects (font (size 1.27 1.27))))
        (number "39" (effects (font (size 1.27 1.27))))
      )
    )
  )
)
