(kicad_symbol_lib (version 20201005) (generator kicad_symbol_editor)
  (symbol "lz-module-gsm:BG96" (in_bom yes) (on_board yes)
    (property "Reference" "MOD" (id 0) (at -10.16 73.66 0)
      (effects (font (size 1.27 1.27)))
    )
    (property "Value" "BG96" (id 1) (at 0 -72.39 0)
      (effects (font (size 1.27 1.27)))
    )
    (property "Footprint" "MODULE:QUECTEL_BG96" (id 2) (at -13.97 -34.29 0)
      (effects (font (size 1.27 1.27)) hide)
    )
    (property "Datasheet" "QUECTEL_BG96.pdf" (id 3) (at -13.97 -34.29 0)
      (effects (font (size 1.27 1.27)) hide)
    )
    (property "Vendor" "https://eu.mouser.com/ProductDetail/Quectel/BG96MA-128-SGN?qs=GedFDFLaBXFzI5%252BsB3d2EQ%3D%3D" (id 4) (at 0 0 0)
      (effects (font (size 1.27 1.27)) hide)
    )
    (property "Manufacturer" "Quectel" (id 5) (at 0 0 0)
      (effects (font (size 1.27 1.27)) hide)
    )
    (property "Part" "BG96MC-128-SGNS" (id 6) (at 0 0 0)
      (effects (font (size 1.27 1.27)) hide)
    )
    (property "Frequency" "850 MHz, 900 MHz, 1800 MHz, 1900 MHz" (id 7) (at 0 0 0)
      (effects (font (size 1.27 1.27)) hide)
    )
    (property "Output Power" "23 dBm" (id 8) (at 0 0 0)
      (effects (font (size 1.27 1.27)) hide)
    )
    (property "Operating Temperature" "-35/+75C" (id 9) (at 0 0 0)
      (effects (font (size 1.27 1.27)) hide)
    )
    (property "Operating Voltage" "3.8 V" (id 10) (at 0 0 0)
      (effects (font (size 1.27 1.27)) hide)
    )
    (property "Package" "LGA" (id 11) (at 0 0 0)
      (effects (font (size 1.27 1.27)) hide)
    )
    (property "ki_description" "LTE Cat M1/Cat NB1/EGPRS Module 850MHz/900MHz/1800MHz/1900MHz 3.8V 102-Pin LGA T/R" (id 12) (at 0 0 0)
      (effects (font (size 1.27 1.27)) hide)
    )
    (symbol "BG96_0_1"
      (rectangle (start -11.43 72.39) (end 11.43 -71.12)
        (stroke (width 0.001)) (fill (type background))
      )
    )
    (symbol "BG96_0_0"
      (pin output line (at -13.97 -17.78 0) (length 2.54)
        (name "PSM_IND" (effects (font (size 1.27 1.27))))
        (number "1" (effects (font (size 1.27 1.27))))
      )
      (pin input line (at -13.97 -36.83 0) (length 2.54)
        (name "ADC1" (effects (font (size 1.27 1.27))))
        (number "2" (effects (font (size 1.27 1.27))))
      )
      (pin power_in line (at 13.97 0 180) (length 2.54)
        (name "GND" (effects (font (size 1.27 1.27))))
        (number "3" (effects (font (size 1.27 1.27))))
      )
      (pin output line (at -13.97 0 0) (length 2.54)
        (name "PCM_CLK" (effects (font (size 1.27 1.27))))
        (number "4" (effects (font (size 1.27 1.27))))
      )
      (pin output line (at -13.97 -2.54 0) (length 2.54)
        (name "PCM_SYNC" (effects (font (size 1.27 1.27))))
        (number "5" (effects (font (size 1.27 1.27))))
      )
      (pin input line (at -13.97 -5.08 0) (length 2.54)
        (name "PCM_IN" (effects (font (size 1.27 1.27))))
        (number "6" (effects (font (size 1.27 1.27))))
      )
      (pin output line (at -13.97 -7.62 0) (length 2.54)
        (name "PCM_OUT" (effects (font (size 1.27 1.27))))
        (number "7" (effects (font (size 1.27 1.27))))
      )
      (pin power_in line (at -13.97 40.64 0) (length 2.54)
        (name "USB_VBUS" (effects (font (size 1.27 1.27))))
        (number "8" (effects (font (size 1.27 1.27))))
      )
      (pin bidirectional line (at -13.97 38.1 0) (length 2.54)
        (name "USB_DP" (effects (font (size 1.27 1.27))))
        (number "9" (effects (font (size 1.27 1.27))))
      )
      (pin bidirectional line (at -13.97 35.56 0) (length 2.54)
        (name "USB_DM" (effects (font (size 1.27 1.27))))
        (number "10" (effects (font (size 1.27 1.27))))
      )
      (pin unconnected line (at -13.97 -40.64 0) (length 2.54)
        (name "RSVD" (effects (font (size 1.27 1.27))))
        (number "11" (effects (font (size 1.27 1.27))))
      )
      (pin unconnected line (at -13.97 -43.18 0) (length 2.54)
        (name "RSVD" (effects (font (size 1.27 1.27))))
        (number "12" (effects (font (size 1.27 1.27))))
      )
      (pin unconnected line (at -13.97 -45.72 0) (length 2.54)
        (name "RSVD" (effects (font (size 1.27 1.27))))
        (number "13" (effects (font (size 1.27 1.27))))
      )
      (pin unconnected line (at -13.97 -48.26 0) (length 2.54)
        (name "RSVD" (effects (font (size 1.27 1.27))))
        (number "14" (effects (font (size 1.27 1.27))))
      )
      (pin input line (at -13.97 53.34 0) (length 2.54)
        (name "PWRKEY" (effects (font (size 1.27 1.27))))
        (number "15" (effects (font (size 1.27 1.27))))
      )
      (pin unconnected line (at -13.97 -50.8 0) (length 2.54)
        (name "RSVD" (effects (font (size 1.27 1.27))))
        (number "16" (effects (font (size 1.27 1.27))))
      )
      (pin input line (at -13.97 50.8 0) (length 2.54)
        (name "~RST" (effects (font (size 1.27 1.27))))
        (number "17" (effects (font (size 1.27 1.27))))
      )
      (pin input line (at -13.97 -20.32 0) (length 2.54)
        (name "~W_DISABLE" (effects (font (size 1.27 1.27))))
        (number "18" (effects (font (size 1.27 1.27))))
      )
      (pin input line (at -13.97 -22.86 0) (length 2.54)
        (name "AP_READY" (effects (font (size 1.27 1.27))))
        (number "19" (effects (font (size 1.27 1.27))))
      )
      (pin output line (at -13.97 46.99 0) (length 2.54)
        (name "STATUS" (effects (font (size 1.27 1.27))))
        (number "20" (effects (font (size 1.27 1.27))))
      )
      (pin output line (at -13.97 44.45 0) (length 2.54)
        (name "NETLIGHT" (effects (font (size 1.27 1.27))))
        (number "21" (effects (font (size 1.27 1.27))))
      )
      (pin input line (at -13.97 12.7 0) (length 2.54)
        (name "DBG_RXD" (effects (font (size 1.27 1.27))))
        (number "22" (effects (font (size 1.27 1.27))))
      )
      (pin output line (at -13.97 10.16 0) (length 2.54)
        (name "DBG_TXD" (effects (font (size 1.27 1.27))))
        (number "23" (effects (font (size 1.27 1.27))))
      )
      (pin input line (at -13.97 -34.29 0) (length 2.54)
        (name "ADC0" (effects (font (size 1.27 1.27))))
        (number "24" (effects (font (size 1.27 1.27))))
      )
      (pin unconnected line (at -13.97 -53.34 0) (length 2.54)
        (name "RSVD" (effects (font (size 1.27 1.27))))
        (number "25" (effects (font (size 1.27 1.27))))
      )
      (pin bidirectional line (at -13.97 -27.94 0) (length 2.54)
        (name "GPIO26" (effects (font (size 1.27 1.27))))
        (number "26" (effects (font (size 1.27 1.27))))
      )
      (pin output line (at -13.97 6.35 0) (length 2.54)
        (name "UART3_TXD" (effects (font (size 1.27 1.27))))
        (number "27" (effects (font (size 1.27 1.27))))
      )
      (pin input line (at -13.97 3.81 0) (length 2.54)
        (name "UART3_RXD" (effects (font (size 1.27 1.27))))
        (number "28" (effects (font (size 1.27 1.27))))
      )
      (pin power_in line (at -13.97 57.15 0) (length 2.54)
        (name "VDD_EXT" (effects (font (size 1.27 1.27))))
        (number "29" (effects (font (size 1.27 1.27))))
      )
      (pin input line (at -13.97 16.51 0) (length 2.54)
        (name "DTR" (effects (font (size 1.27 1.27))))
        (number "30" (effects (font (size 1.27 1.27))))
      )
      (pin power_in line (at 13.97 -2.54 180) (length 2.54)
        (name "GND" (effects (font (size 1.27 1.27))))
        (number "31" (effects (font (size 1.27 1.27))))
      )
      (pin power_in line (at -13.97 69.85 0) (length 2.54)
        (name "VBAT_BB" (effects (font (size 1.27 1.27))))
        (number "32" (effects (font (size 1.27 1.27))))
      )
      (pin power_in line (at -13.97 67.31 0) (length 2.54)
        (name "VBAT_BB" (effects (font (size 1.27 1.27))))
        (number "33" (effects (font (size 1.27 1.27))))
      )
      (pin input line (at -13.97 31.75 0) (length 2.54)
        (name "RXD" (effects (font (size 1.27 1.27))))
        (number "34" (effects (font (size 1.27 1.27))))
      )
      (pin output line (at -13.97 29.21 0) (length 2.54)
        (name "TXD" (effects (font (size 1.27 1.27))))
        (number "35" (effects (font (size 1.27 1.27))))
      )
      (pin output line (at -13.97 26.67 0) (length 2.54)
        (name "CTS" (effects (font (size 1.27 1.27))))
        (number "36" (effects (font (size 1.27 1.27))))
      )
      (pin input line (at -13.97 24.13 0) (length 2.54)
        (name "RTS" (effects (font (size 1.27 1.27))))
        (number "37" (effects (font (size 1.27 1.27))))
      )
      (pin output line (at -13.97 21.59 0) (length 2.54)
        (name "DCD" (effects (font (size 1.27 1.27))))
        (number "38" (effects (font (size 1.27 1.27))))
      )
      (pin output line (at -13.97 19.05 0) (length 2.54)
        (name "RI" (effects (font (size 1.27 1.27))))
        (number "39" (effects (font (size 1.27 1.27))))
      )
      (pin bidirectional line (at -13.97 -11.43 0) (length 2.54)
        (name "I2C_SCL" (effects (font (size 1.27 1.27))))
        (number "40" (effects (font (size 1.27 1.27))))
      )
      (pin bidirectional line (at -13.97 -13.97 0) (length 2.54)
        (name "I2C_SDA" (effects (font (size 1.27 1.27))))
        (number "41" (effects (font (size 1.27 1.27))))
      )
      (pin input line (at 13.97 63.5 180) (length 2.54)
        (name "USIM_PR" (effects (font (size 1.27 1.27))))
        (number "42" (effects (font (size 1.27 1.27))))
      )
      (pin power_out line (at 13.97 60.96 180) (length 2.54)
        (name "USIM_VDD" (effects (font (size 1.27 1.27))))
        (number "43" (effects (font (size 1.27 1.27))))
      )
      (pin output line (at 13.97 58.42 180) (length 2.54)
        (name "USIM_RST" (effects (font (size 1.27 1.27))))
        (number "44" (effects (font (size 1.27 1.27))))
      )
      (pin bidirectional line (at 13.97 55.88 180) (length 2.54)
        (name "USIM_DATA" (effects (font (size 1.27 1.27))))
        (number "45" (effects (font (size 1.27 1.27))))
      )
      (pin output line (at 13.97 53.34 180) (length 2.54)
        (name "USIM_CLK" (effects (font (size 1.27 1.27))))
        (number "46" (effects (font (size 1.27 1.27))))
      )
      (pin power_in line (at 13.97 50.8 180) (length 2.54)
        (name "USIM_GND" (effects (font (size 1.27 1.27))))
        (number "47" (effects (font (size 1.27 1.27))))
      )
      (pin power_in line (at 13.97 -5.08 180) (length 2.54)
        (name "GND" (effects (font (size 1.27 1.27))))
        (number "48" (effects (font (size 1.27 1.27))))
      )
      (pin output line (at 13.97 67.31 180) (length 2.54)
        (name "ANT_GNSS" (effects (font (size 1.27 1.27))))
        (number "49" (effects (font (size 1.27 1.27))))
      )
      (pin power_in line (at 13.97 -7.62 180) (length 2.54)
        (name "GND" (effects (font (size 1.27 1.27))))
        (number "50" (effects (font (size 1.27 1.27))))
      )
      (pin unconnected line (at -13.97 -55.88 0) (length 2.54)
        (name "RSVD" (effects (font (size 1.27 1.27))))
        (number "51" (effects (font (size 1.27 1.27))))
      )
      (pin power_in line (at -13.97 63.5 0) (length 2.54)
        (name "VBAT_RF" (effects (font (size 1.27 1.27))))
        (number "52" (effects (font (size 1.27 1.27))))
      )
      (pin power_in line (at -13.97 60.96 0) (length 2.54)
        (name "VBAT_RF" (effects (font (size 1.27 1.27))))
        (number "53" (effects (font (size 1.27 1.27))))
      )
      (pin power_in line (at 13.97 -10.16 180) (length 2.54)
        (name "GND" (effects (font (size 1.27 1.27))))
        (number "54" (effects (font (size 1.27 1.27))))
      )
      (pin power_in line (at 13.97 -12.7 180) (length 2.54)
        (name "GND" (effects (font (size 1.27 1.27))))
        (number "55" (effects (font (size 1.27 1.27))))
      )
      (pin unconnected line (at -13.97 -58.42 0) (length 2.54)
        (name "RSVD" (effects (font (size 1.27 1.27))))
        (number "56" (effects (font (size 1.27 1.27))))
      )
      (pin unconnected line (at -13.97 -60.96 0) (length 2.54)
        (name "RSVD" (effects (font (size 1.27 1.27))))
        (number "57" (effects (font (size 1.27 1.27))))
      )
      (pin power_in line (at 13.97 -15.24 180) (length 2.54)
        (name "GND" (effects (font (size 1.27 1.27))))
        (number "58" (effects (font (size 1.27 1.27))))
      )
      (pin power_in line (at 13.97 -17.78 180) (length 2.54)
        (name "GND" (effects (font (size 1.27 1.27))))
        (number "59" (effects (font (size 1.27 1.27))))
      )
      (pin output line (at 13.97 69.85 180) (length 2.54)
        (name "ANT_MAIN" (effects (font (size 1.27 1.27))))
        (number "60" (effects (font (size 1.27 1.27))))
      )
      (pin power_in line (at 13.97 -20.32 180) (length 2.54)
        (name "GND" (effects (font (size 1.27 1.27))))
        (number "61" (effects (font (size 1.27 1.27))))
      )
      (pin power_in line (at 13.97 -22.86 180) (length 2.54)
        (name "GND" (effects (font (size 1.27 1.27))))
        (number "62" (effects (font (size 1.27 1.27))))
      )
      (pin unconnected line (at -13.97 -63.5 0) (length 2.54)
        (name "RSVD" (effects (font (size 1.27 1.27))))
        (number "63" (effects (font (size 1.27 1.27))))
      )
      (pin bidirectional line (at -13.97 -30.48 0) (length 2.54)
        (name "GPIO64" (effects (font (size 1.27 1.27))))
        (number "64" (effects (font (size 1.27 1.27))))
      )
      (pin unconnected line (at -13.97 -66.04 0) (length 2.54)
        (name "RSVD" (effects (font (size 1.27 1.27))))
        (number "65" (effects (font (size 1.27 1.27))))
      )
      (pin unconnected line (at -13.97 -68.58 0) (length 2.54)
        (name "RSVD" (effects (font (size 1.27 1.27))))
        (number "66" (effects (font (size 1.27 1.27))))
      )
      (pin power_in line (at 13.97 -25.4 180) (length 2.54)
        (name "GND" (effects (font (size 1.27 1.27))))
        (number "67" (effects (font (size 1.27 1.27))))
      )
      (pin power_in line (at 13.97 -27.94 180) (length 2.54)
        (name "GND" (effects (font (size 1.27 1.27))))
        (number "68" (effects (font (size 1.27 1.27))))
      )
      (pin power_in line (at 13.97 -30.48 180) (length 2.54)
        (name "GND" (effects (font (size 1.27 1.27))))
        (number "69" (effects (font (size 1.27 1.27))))
      )
      (pin power_in line (at 13.97 -33.02 180) (length 2.54)
        (name "GND" (effects (font (size 1.27 1.27))))
        (number "70" (effects (font (size 1.27 1.27))))
      )
      (pin power_in line (at 13.97 -35.56 180) (length 2.54)
        (name "GND" (effects (font (size 1.27 1.27))))
        (number "71" (effects (font (size 1.27 1.27))))
      )
      (pin power_in line (at 13.97 -38.1 180) (length 2.54)
        (name "GND" (effects (font (size 1.27 1.27))))
        (number "72" (effects (font (size 1.27 1.27))))
      )
      (pin power_in line (at 13.97 -40.64 180) (length 2.54)
        (name "GND" (effects (font (size 1.27 1.27))))
        (number "73" (effects (font (size 1.27 1.27))))
      )
      (pin power_in line (at 13.97 -43.18 180) (length 2.54)
        (name "GND" (effects (font (size 1.27 1.27))))
        (number "74" (effects (font (size 1.27 1.27))))
      )
      (pin input line (at -13.97 -25.4 0) (length 2.54)
        (name "USB_BOOT" (effects (font (size 1.27 1.27))))
        (number "75" (effects (font (size 1.27 1.27))))
      )
      (pin unconnected line (at 13.97 46.99 180) (length 2.54)
        (name "RSVD" (effects (font (size 1.27 1.27))))
        (number "76" (effects (font (size 1.27 1.27))))
      )
      (pin unconnected line (at 13.97 44.45 180) (length 2.54)
        (name "RSVD" (effects (font (size 1.27 1.27))))
        (number "77" (effects (font (size 1.27 1.27))))
      )
      (pin unconnected line (at 13.97 41.91 180) (length 2.54)
        (name "RSVD" (effects (font (size 1.27 1.27))))
        (number "78" (effects (font (size 1.27 1.27))))
      )
      (pin power_in line (at 13.97 -45.72 180) (length 2.54)
        (name "GND" (effects (font (size 1.27 1.27))))
        (number "79" (effects (font (size 1.27 1.27))))
      )
      (pin power_in line (at 13.97 -48.26 180) (length 2.54)
        (name "GND" (effects (font (size 1.27 1.27))))
        (number "80" (effects (font (size 1.27 1.27))))
      )
      (pin power_in line (at 13.97 -50.8 180) (length 2.54)
        (name "GND" (effects (font (size 1.27 1.27))))
        (number "81" (effects (font (size 1.27 1.27))))
      )
      (pin power_in line (at 13.97 -53.34 180) (length 2.54)
        (name "GND" (effects (font (size 1.27 1.27))))
        (number "82" (effects (font (size 1.27 1.27))))
      )
      (pin unconnected line (at 13.97 39.37 180) (length 2.54)
        (name "RSVD" (effects (font (size 1.27 1.27))))
        (number "83" (effects (font (size 1.27 1.27))))
      )
      (pin unconnected line (at 13.97 36.83 180) (length 2.54)
        (name "RSVD" (effects (font (size 1.27 1.27))))
        (number "84" (effects (font (size 1.27 1.27))))
      )
      (pin unconnected line (at 13.97 34.29 180) (length 2.54)
        (name "RSVD" (effects (font (size 1.27 1.27))))
        (number "85" (effects (font (size 1.27 1.27))))
      )
      (pin unconnected line (at 13.97 31.75 180) (length 2.54)
        (name "RSVD" (effects (font (size 1.27 1.27))))
        (number "86" (effects (font (size 1.27 1.27))))
      )
      (pin unconnected line (at 13.97 29.21 180) (length 2.54)
        (name "RSVD" (effects (font (size 1.27 1.27))))
        (number "87" (effects (font (size 1.27 1.27))))
      )
      (pin unconnected line (at 13.97 26.67 180) (length 2.54)
        (name "RSVD" (effects (font (size 1.27 1.27))))
        (number "88" (effects (font (size 1.27 1.27))))
      )
      (pin power_in line (at 13.97 -55.88 180) (length 2.54)
        (name "GND" (effects (font (size 1.27 1.27))))
        (number "89" (effects (font (size 1.27 1.27))))
      )
      (pin power_in line (at 13.97 -58.42 180) (length 2.54)
        (name "GND" (effects (font (size 1.27 1.27))))
        (number "90" (effects (font (size 1.27 1.27))))
      )
      (pin power_in line (at 13.97 -60.96 180) (length 2.54)
        (name "GND" (effects (font (size 1.27 1.27))))
        (number "91" (effects (font (size 1.27 1.27))))
      )
      (pin unconnected line (at 13.97 24.13 180) (length 2.54)
        (name "RSVD" (effects (font (size 1.27 1.27))))
        (number "92" (effects (font (size 1.27 1.27))))
      )
      (pin unconnected line (at 13.97 21.59 180) (length 2.54)
        (name "RSVD" (effects (font (size 1.27 1.27))))
        (number "93" (effects (font (size 1.27 1.27))))
      )
      (pin unconnected line (at 13.97 19.05 180) (length 2.54)
        (name "RSVD" (effects (font (size 1.27 1.27))))
        (number "94" (effects (font (size 1.27 1.27))))
      )
      (pin unconnected line (at 13.97 16.51 180) (length 2.54)
        (name "RSVD" (effects (font (size 1.27 1.27))))
        (number "95" (effects (font (size 1.27 1.27))))
      )
      (pin unconnected line (at 13.97 13.97 180) (length 2.54)
        (name "RSVD" (effects (font (size 1.27 1.27))))
        (number "96" (effects (font (size 1.27 1.27))))
      )
      (pin unconnected line (at 13.97 11.43 180) (length 2.54)
        (name "RSVD" (effects (font (size 1.27 1.27))))
        (number "97" (effects (font (size 1.27 1.27))))
      )
      (pin unconnected line (at 13.97 8.89 180) (length 2.54)
        (name "RSVD" (effects (font (size 1.27 1.27))))
        (number "98" (effects (font (size 1.27 1.27))))
      )
      (pin unconnected line (at 13.97 6.35 180) (length 2.54)
        (name "RSVD" (effects (font (size 1.27 1.27))))
        (number "99" (effects (font (size 1.27 1.27))))
      )
      (pin power_in line (at 13.97 -63.5 180) (length 2.54)
        (name "GND" (effects (font (size 1.27 1.27))))
        (number "100" (effects (font (size 1.27 1.27))))
      )
      (pin power_in line (at 13.97 -66.04 180) (length 2.54)
        (name "GND" (effects (font (size 1.27 1.27))))
        (number "101" (effects (font (size 1.27 1.27))))
      )
      (pin power_in line (at 13.97 -68.58 180) (length 2.54)
        (name "GND" (effects (font (size 1.27 1.27))))
        (number "102" (effects (font (size 1.27 1.27))))
      )
    )
  )
)
