(kicad_symbol_lib (version 20201005) (generator kicad_symbol_editor)
  (symbol "lz-magnetics:H1102NL" (in_bom yes) (on_board yes)
    (property "Reference" "U" (id 0) (at -3.81 16.51 0)
      (effects (font (size 1.27 1.27)))
    )
    (property "Value" "H1102NL" (id 1) (at 0 -17.78 0)
      (effects (font (size 1.27 1.27)))
    )
    (property "Footprint" "SOP:SOIC16P127_1270X940X610L89X51N" (id 2) (at 0 -20.32 0)
      (effects (font (size 1.27 1.27)) hide)
    )
    (property "Datasheet" "pulse_H1102NL.pdf" (id 3) (at 0 -20.32 0)
      (effects (font (size 1.27 1.27)) hide)
    )
    (property "Inductance" "350 uH" (id 9) (at 0 -20.32 0)
      (effects (font (size 1.27 1.27)) hide)
    )
    (property "Frequency" "100 kHz to 100 MHz" (id 10) (at 0 -20.32 0)
      (effects (font (size 1.27 1.27)) hide)
    )
    (property "Isolation Voltage" "1.5 kV" (id 8) (at 0 -20.32 0)
      (effects (font (size 1.27 1.27)) hide)
    )
    (property "Operating Temperature" "0 to +70" (id 4) (at 0 -20.32 0)
      (effects (font (size 1.27 1.27)) hide)
    )
    (property "Manufacturer" "Pulse" (id 5) (at 0 -20.32 0)
      (effects (font (size 1.27 1.27)) hide)
    )
    (property "Part" "H1102NL" (id 6) (at 0 -20.32 0)
      (effects (font (size 1.27 1.27)) hide)
    )
    (property "Vendor" "https://eu.mouser.com/ProductDetail/?qs=EKu32SdDin%2FHU33L94JZxw%3D%3D" (id 7) (at 0 -20.32 0)
      (effects (font (size 1.27 1.27)) hide)
    )
    (symbol "H1102NL_0_1"
      (rectangle (start -6.35 15.24) (end 6.35 -15.24)
        (stroke (width 0.001)) (fill (type background))
      )
    )
    (symbol "H1102NL_0_0"
      (pin passive line (at -8.89 13.97 0) (length 2.54)
        (name "TD+" (effects (font (size 1.27 1.27))))
        (number "1" (effects (font (size 1.27 1.27))))
      )
      (pin passive line (at -8.89 10.16 0) (length 2.54)
        (name "CT" (effects (font (size 1.27 1.27))))
        (number "2" (effects (font (size 1.27 1.27))))
      )
      (pin passive line (at -8.89 6.35 0) (length 2.54)
        (name "TD-" (effects (font (size 1.27 1.27))))
        (number "3" (effects (font (size 1.27 1.27))))
      )
      (pin unconnected line (at -8.89 1.27 0) (length 2.54)
        (name "NC" (effects (font (size 1.27 1.27))))
        (number "4" (effects (font (size 1.27 1.27))))
      )
      (pin unconnected line (at -8.89 -1.27 0) (length 2.54)
        (name "NC" (effects (font (size 1.27 1.27))))
        (number "5" (effects (font (size 1.27 1.27))))
      )
      (pin passive line (at -8.89 -6.35 0) (length 2.54)
        (name "RD+" (effects (font (size 1.27 1.27))))
        (number "6" (effects (font (size 1.27 1.27))))
      )
      (pin passive line (at -8.89 -10.16 0) (length 2.54)
        (name "CT" (effects (font (size 1.27 1.27))))
        (number "7" (effects (font (size 1.27 1.27))))
      )
      (pin passive line (at -8.89 -13.97 0) (length 2.54)
        (name "RD-" (effects (font (size 1.27 1.27))))
        (number "8" (effects (font (size 1.27 1.27))))
      )
      (pin passive line (at 8.89 -13.97 180) (length 2.54)
        (name "RX-" (effects (font (size 1.27 1.27))))
        (number "9" (effects (font (size 1.27 1.27))))
      )
      (pin passive line (at 8.89 -10.16 180) (length 2.54)
        (name "CT" (effects (font (size 1.27 1.27))))
        (number "10" (effects (font (size 1.27 1.27))))
      )
      (pin passive line (at 8.89 -6.35 180) (length 2.54)
        (name "RX+" (effects (font (size 1.27 1.27))))
        (number "11" (effects (font (size 1.27 1.27))))
      )
      (pin unconnected line (at 8.89 -1.27 180) (length 2.54)
        (name "NC" (effects (font (size 1.27 1.27))))
        (number "12" (effects (font (size 1.27 1.27))))
      )
      (pin unconnected line (at 8.89 1.27 180) (length 2.54)
        (name "NC" (effects (font (size 1.27 1.27))))
        (number "13" (effects (font (size 1.27 1.27))))
      )
      (pin passive line (at 8.89 6.35 180) (length 2.54)
        (name "TX-" (effects (font (size 1.27 1.27))))
        (number "14" (effects (font (size 1.27 1.27))))
      )
      (pin passive line (at 8.89 10.16 180) (length 2.54)
        (name "CT" (effects (font (size 1.27 1.27))))
        (number "15" (effects (font (size 1.27 1.27))))
      )
      (pin passive line (at 8.89 13.97 180) (length 2.54)
        (name "TX+" (effects (font (size 1.27 1.27))))
        (number "16" (effects (font (size 1.27 1.27))))
      )
    )
  )
  (symbol "lz-magnetics:HX1198FNLT" (in_bom yes) (on_board yes)
    (property "Reference" "U" (id 0) (at -3.81 16.51 0)
      (effects (font (size 1.27 1.27)))
    )
    (property "Value" "HX1198FNLT" (id 1) (at 0 -17.78 0)
      (effects (font (size 1.27 1.27)))
    )
    (property "Footprint" "SOP:SOIC16P127_1270X965X612L100X30N" (id 2) (at 0 -20.32 0)
      (effects (font (size 1.27 1.27)) hide)
    )
    (property "Datasheet" "PULSE_HX1198.pdf" (id 3) (at 0 -20.32 0)
      (effects (font (size 1.27 1.27)) hide)
    )
    (property "Inductance" "350 uH" (id 9) (at 0 -20.32 0)
      (effects (font (size 1.27 1.27)) hide)
    )
    (property "Frequency" "1 MHz to 125 MHz" (id 10) (at 0 -20.32 0)
      (effects (font (size 1.27 1.27)) hide)
    )
    (property "Isolation Voltage" "1.5 kV" (id 8) (at 0 -20.32 0)
      (effects (font (size 1.27 1.27)) hide)
    )
    (property "Operating Temperature" "-40/+85" (id 4) (at 0 -20.32 0)
      (effects (font (size 1.27 1.27)) hide)
    )
    (property "Manufacturer" "Pulse" (id 5) (at 0 -20.32 0)
      (effects (font (size 1.27 1.27)) hide)
    )
    (property "Part" "HX1198FNLT" (id 6) (at 0 -20.32 0)
      (effects (font (size 1.27 1.27)) hide)
    )
    (property "Vendor" "https://eu.mouser.com/ProductDetail/Pulse-Electronics/HX1198FNLT?qs=tJ9riMc3cOdxYfOUFXg7qA%3D%3D" (id 7) (at 0 -20.32 0)
      (effects (font (size 1.27 1.27)) hide)
    )
    (property "ki_description" "Signal Transformers 100BaseTX SMD NonPoE 350uH 1-Port" (id 8) (at 0 0 0)
      (effects (font (size 1.27 1.27)) hide)
    )
    (symbol "HX1198FNLT_0_1"
      (rectangle (start -6.35 15.24) (end 6.35 -15.24)
        (stroke (width 0.001)) (fill (type background))
      )
    )
    (symbol "HX1198FNLT_0_0"
      (pin passive line (at -8.89 13.97 0) (length 2.54)
        (name "TD+" (effects (font (size 1.27 1.27))))
        (number "1" (effects (font (size 1.27 1.27))))
      )
      (pin passive line (at -8.89 10.16 0) (length 2.54)
        (name "CT" (effects (font (size 1.27 1.27))))
        (number "2" (effects (font (size 1.27 1.27))))
      )
      (pin passive line (at -8.89 6.35 0) (length 2.54)
        (name "TD-" (effects (font (size 1.27 1.27))))
        (number "3" (effects (font (size 1.27 1.27))))
      )
      (pin unconnected line (at -8.89 1.27 0) (length 2.54)
        (name "NC" (effects (font (size 1.27 1.27))))
        (number "4" (effects (font (size 1.27 1.27))))
      )
      (pin unconnected line (at -8.89 -1.27 0) (length 2.54)
        (name "NC" (effects (font (size 1.27 1.27))))
        (number "5" (effects (font (size 1.27 1.27))))
      )
      (pin passive line (at -8.89 -6.35 0) (length 2.54)
        (name "RD+" (effects (font (size 1.27 1.27))))
        (number "6" (effects (font (size 1.27 1.27))))
      )
      (pin passive line (at -8.89 -10.16 0) (length 2.54)
        (name "CT" (effects (font (size 1.27 1.27))))
        (number "7" (effects (font (size 1.27 1.27))))
      )
      (pin passive line (at -8.89 -13.97 0) (length 2.54)
        (name "RD-" (effects (font (size 1.27 1.27))))
        (number "8" (effects (font (size 1.27 1.27))))
      )
      (pin passive line (at 8.89 -13.97 180) (length 2.54)
        (name "RX-" (effects (font (size 1.27 1.27))))
        (number "9" (effects (font (size 1.27 1.27))))
      )
      (pin passive line (at 8.89 -10.16 180) (length 2.54)
        (name "CT" (effects (font (size 1.27 1.27))))
        (number "10" (effects (font (size 1.27 1.27))))
      )
      (pin passive line (at 8.89 -6.35 180) (length 2.54)
        (name "RX+" (effects (font (size 1.27 1.27))))
        (number "11" (effects (font (size 1.27 1.27))))
      )
      (pin unconnected line (at 8.89 -1.27 180) (length 2.54)
        (name "NC" (effects (font (size 1.27 1.27))))
        (number "12" (effects (font (size 1.27 1.27))))
      )
      (pin unconnected line (at 8.89 1.27 180) (length 2.54)
        (name "NC" (effects (font (size 1.27 1.27))))
        (number "13" (effects (font (size 1.27 1.27))))
      )
      (pin passive line (at 8.89 6.35 180) (length 2.54)
        (name "TX-" (effects (font (size 1.27 1.27))))
        (number "14" (effects (font (size 1.27 1.27))))
      )
      (pin passive line (at 8.89 10.16 180) (length 2.54)
        (name "CT" (effects (font (size 1.27 1.27))))
        (number "15" (effects (font (size 1.27 1.27))))
      )
      (pin passive line (at 8.89 13.97 180) (length 2.54)
        (name "TX+" (effects (font (size 1.27 1.27))))
        (number "16" (effects (font (size 1.27 1.27))))
      )
    )
  )
)
