(kicad_symbol_lib (version 20201005) (generator kicad_symbol_editor)
  (symbol "lz-res-ohmite-apc-0603-0.01p-5ppm:15K" (pin_numbers hide) (pin_names (offset 0)) (in_bom yes) (on_board yes)
    (property "Reference" "R" (id 0) (at -0.762 -3.556 90)
      (effects (font (size 1.27 1.27)))
    )
    (property "Value" "15K" (id 1) (at 2.54 0 90)
      (effects (font (size 1.27 1.27)))
    )
    (property "Footprint" "CHIP:RESC155X80X55L30N" (id 2) (at -1.778 0 90)
      (effects (font (size 0.762 0.762)) hide)
    )
    (property "Datasheet" "ohmite_apc.pdf" (id 3) (at 0 0 0)
      (effects (font (size 0.762 0.762)) hide)
    )
    (property "Voltage" "50 V	" (id 4) (at 0 0 0)
      (effects (font (size 1.27 1.27)) hide)
    )
    (property "Pakcage" "0603" (id 6) (at 0 0 0)
      (effects (font (size 1.27 1.27)) hide)
    )
    (property "Operating Temp" "-55/+155" (id 7) (at 0 0 0)
      (effects (font (size 1.27 1.27)) hide)
    )
    (property "Manufacturer" "Ohmite" (id 8) (at 0 0 0)
      (effects (font (size 1.27 1.27)) hide)
    )
    (property "Part" "APC0603T15K0Z" (id 9) (at 0 0 0)
      (effects (font (size 1.27 1.27)) hide)
    )
    (property "Vendor" "https://eu.mouser.com/ProductDetail/ARCOL-Ohmite/APC0603T15K0Z?qs=oCQe5Ii%2FOQhlIjNdohPZpA%3D%3D" (id 10) (at 0 0 0)
      (effects (font (size 1.27 1.27)) hide)
    )
    (property "PPM" "5" (id 11) (at 0 0 0)
      (effects (font (size 1.27 1.27)) hide)
    )
    (property "ki_description" "Thin Film Resistors - SMD 15KOhm 0.01% 0603 5 PPM" (id 12) (at 0 0 0)
      (effects (font (size 1.27 1.27)) hide)
    )
    (property "ki_fp_filters" "R_* Resistor_*" (id 13) (at 0 0 0)
      (effects (font (size 1.27 1.27)) hide)
    )
    (symbol "15K_0_1"
      (polyline
        (pts
          (xy 0 2.54)
          (xy -0.635 1.905)
          (xy 0.635 1.27)
          (xy -0.635 0.635)
          (xy 0.635 0)
          (xy -0.635 -0.635)
          (xy 0.635 -1.27)
          (xy -0.635 -1.905)
          (xy 0 -2.54)
        )
        (stroke (width 0.0006)) (fill (type none))
      )
    )
    (symbol "15K_1_1"
      (pin passive line (at 0 3.81 270) (length 1.27)
        (name "~" (effects (font (size 1.524 1.524))))
        (number "1" (effects (font (size 1.524 1.524))))
      )
      (pin passive line (at 0 -3.81 90) (length 1.27)
        (name "~" (effects (font (size 1.524 1.524))))
        (number "2" (effects (font (size 1.524 1.524))))
      )
    )
  )
  (symbol "lz-res-ohmite-apc-0603-0.01p-5ppm:4K99" (pin_numbers hide) (pin_names (offset 0)) (in_bom yes) (on_board yes)
    (property "Reference" "R" (id 0) (at -0.762 -3.556 90)
      (effects (font (size 1.27 1.27)))
    )
    (property "Value" "4K99" (id 1) (at 2.54 0 90)
      (effects (font (size 1.27 1.27)))
    )
    (property "Footprint" "CHIP:RESC155X80X55L30N" (id 2) (at -1.778 0 90)
      (effects (font (size 0.762 0.762)) hide)
    )
    (property "Datasheet" "ohmite_apc.pdf" (id 3) (at 0 0 0)
      (effects (font (size 0.762 0.762)) hide)
    )
    (property "Voltage" "50 V	" (id 4) (at 0 0 0)
      (effects (font (size 1.27 1.27)) hide)
    )
    (property "Pakcage" "0603" (id 6) (at 0 0 0)
      (effects (font (size 1.27 1.27)) hide)
    )
    (property "Operating Temp" "-55/+155" (id 7) (at 0 0 0)
      (effects (font (size 1.27 1.27)) hide)
    )
    (property "Manufacturer" "Ohmite" (id 8) (at 0 0 0)
      (effects (font (size 1.27 1.27)) hide)
    )
    (property "Part" "APC0603T4K99Z" (id 9) (at 0 0 0)
      (effects (font (size 1.27 1.27)) hide)
    )
    (property "Vendor" "https://eu.mouser.com/ProductDetail/ARCOL-Ohmite/APC0603T4K99Z?qs=oCQe5Ii%2FOQiEj9%252B9EUiL1Q%3D%3D" (id 10) (at 0 0 0)
      (effects (font (size 1.27 1.27)) hide)
    )
    (property "PPM" "5" (id 11) (at 0 0 0)
      (effects (font (size 1.27 1.27)) hide)
    )
    (property "ki_description" "Thin Film Resistors - SMD 4K99Ohm 0.01% 0603 5 PPM" (id 12) (at 0 0 0)
      (effects (font (size 1.27 1.27)) hide)
    )
    (property "ki_fp_filters" "R_* Resistor_*" (id 13) (at 0 0 0)
      (effects (font (size 1.27 1.27)) hide)
    )
    (symbol "4K99_0_1"
      (polyline
        (pts
          (xy 0 2.54)
          (xy -0.635 1.905)
          (xy 0.635 1.27)
          (xy -0.635 0.635)
          (xy 0.635 0)
          (xy -0.635 -0.635)
          (xy 0.635 -1.27)
          (xy -0.635 -1.905)
          (xy 0 -2.54)
        )
        (stroke (width 0.0006)) (fill (type none))
      )
    )
    (symbol "4K99_1_1"
      (pin passive line (at 0 3.81 270) (length 1.27)
        (name "~" (effects (font (size 1.524 1.524))))
        (number "1" (effects (font (size 1.524 1.524))))
      )
      (pin passive line (at 0 -3.81 90) (length 1.27)
        (name "~" (effects (font (size 1.524 1.524))))
        (number "2" (effects (font (size 1.524 1.524))))
      )
    )
  )
)
