(kicad_symbol_lib (version 20201005) (generator kicad_symbol_editor)
  (symbol "lz-res-ohmite-apc-1206-0.01p-5ppm:1K" (pin_numbers hide) (pin_names (offset 0)) (in_bom yes) (on_board yes)
    (property "Reference" "R" (id 0) (at -0.762 -3.556 90)
      (effects (font (size 1.27 1.27)))
    )
    (property "Value" "1K" (id 1) (at 2.54 0 90)
      (effects (font (size 1.27 1.27)))
    )
    (property "Footprint" "CHIP:RESC305X155X65L42N" (id 2) (at -1.778 0 90)
      (effects (font (size 0.762 0.762)) hide)
    )
    (property "Datasheet" "ohmite_apc.pdf" (id 3) (at 0 0 0)
      (effects (font (size 0.762 0.762)) hide)
    )
    (property "Voltage" "150 V	" (id 4) (at 0 0 0)
      (effects (font (size 1.27 1.27)) hide)
    )
    (property "Pakcage" "1206" (id 6) (at 0 0 0)
      (effects (font (size 1.27 1.27)) hide)
    )
    (property "Operating Temp" "-55/+155" (id 7) (at 0 0 0)
      (effects (font (size 1.27 1.27)) hide)
    )
    (property "Manufacturer" "Ohmite" (id 8) (at 0 0 0)
      (effects (font (size 1.27 1.27)) hide)
    )
    (property "Part" "APC1206T1K00Z" (id 9) (at 0 0 0)
      (effects (font (size 1.27 1.27)) hide)
    )
    (property "Vendor" "https://eu.mouser.com/ProductDetail/ARCOL-Ohmite/APC1206T1K00Z?qs=oCQe5Ii%2FOQjPUYoU1FQtbw%3D%3D" (id 10) (at 0 0 0)
      (effects (font (size 1.27 1.27)) hide)
    )
    (property "PPM" "5" (id 11) (at 0 0 0)
      (effects (font (size 1.27 1.27)) hide)
    )
    (property "ki_description" "Thin Film Resistors - SMD 1KOhm 0.01% 1206 5 PPM" (id 12) (at 0 0 0)
      (effects (font (size 1.27 1.27)) hide)
    )
    (property "ki_fp_filters" "R_* Resistor_*" (id 13) (at 0 0 0)
      (effects (font (size 1.27 1.27)) hide)
    )
    (symbol "1K_0_1"
      (polyline
        (pts
          (xy 0 2.54)
          (xy -0.635 1.905)
          (xy 0.635 1.27)
          (xy -0.635 0.635)
          (xy 0.635 0)
          (xy -0.635 -0.635)
          (xy 0.635 -1.27)
          (xy -0.635 -1.905)
          (xy 0 -2.54)
        )
        (stroke (width 0.0006)) (fill (type none))
      )
    )
    (symbol "1K_1_1"
      (pin passive line (at 0 3.81 270) (length 1.27)
        (name "~" (effects (font (size 1.524 1.524))))
        (number "1" (effects (font (size 1.524 1.524))))
      )
      (pin passive line (at 0 -3.81 90) (length 1.27)
        (name "~" (effects (font (size 1.524 1.524))))
        (number "2" (effects (font (size 1.524 1.524))))
      )
    )
  )
  (symbol "lz-res-ohmite-apc-1206-0.01p-5ppm:2K" (pin_numbers hide) (pin_names (offset 0)) (in_bom yes) (on_board yes)
    (property "Reference" "R" (id 0) (at -0.762 -3.556 90)
      (effects (font (size 1.27 1.27)))
    )
    (property "Value" "2K" (id 1) (at 2.54 0 90)
      (effects (font (size 1.27 1.27)))
    )
    (property "Footprint" "CHIP:RESC305X155X65L42N" (id 2) (at -1.778 0 90)
      (effects (font (size 0.762 0.762)) hide)
    )
    (property "Datasheet" "ohmite_apc.pdf" (id 3) (at 0 0 0)
      (effects (font (size 0.762 0.762)) hide)
    )
    (property "Voltage" "150 V	" (id 4) (at 0 0 0)
      (effects (font (size 1.27 1.27)) hide)
    )
    (property "Pakcage" "1206" (id 6) (at 0 0 0)
      (effects (font (size 1.27 1.27)) hide)
    )
    (property "Operating Temp" "-55/+155" (id 7) (at 0 0 0)
      (effects (font (size 1.27 1.27)) hide)
    )
    (property "Manufacturer" "Ohmite" (id 8) (at 0 0 0)
      (effects (font (size 1.27 1.27)) hide)
    )
    (property "Part" "APC1206T2K00Z" (id 9) (at 0 0 0)
      (effects (font (size 1.27 1.27)) hide)
    )
    (property "Vendor" "https://eu.mouser.com/ProductDetail/ARCOL-Ohmite/APC1206T2K00Z?qs=oCQe5Ii%2FOQi%2FJpnciC5pIQ%3D%3D" (id 10) (at 0 0 0)
      (effects (font (size 1.27 1.27)) hide)
    )
    (property "PPM" "5" (id 11) (at 0 0 0)
      (effects (font (size 1.27 1.27)) hide)
    )
    (property "ki_description" "Thin Film Resistors - SMD 1206 2KOhm 0.01% 1206 5 PPM" (id 12) (at 0 0 0)
      (effects (font (size 1.27 1.27)) hide)
    )
    (property "ki_fp_filters" "R_* Resistor_*" (id 13) (at 0 0 0)
      (effects (font (size 1.27 1.27)) hide)
    )
    (symbol "2K_0_1"
      (polyline
        (pts
          (xy 0 2.54)
          (xy -0.635 1.905)
          (xy 0.635 1.27)
          (xy -0.635 0.635)
          (xy 0.635 0)
          (xy -0.635 -0.635)
          (xy 0.635 -1.27)
          (xy -0.635 -1.905)
          (xy 0 -2.54)
        )
        (stroke (width 0.0006)) (fill (type none))
      )
    )
    (symbol "2K_1_1"
      (pin passive line (at 0 3.81 270) (length 1.27)
        (name "~" (effects (font (size 1.524 1.524))))
        (number "1" (effects (font (size 1.524 1.524))))
      )
      (pin passive line (at 0 -3.81 90) (length 1.27)
        (name "~" (effects (font (size 1.524 1.524))))
        (number "2" (effects (font (size 1.524 1.524))))
      )
    )
  )
  (symbol "lz-res-ohmite-apc-1206-0.01p-5ppm:49K9" (pin_numbers hide) (pin_names (offset 0)) (in_bom yes) (on_board yes)
    (property "Reference" "R" (id 0) (at -0.762 -3.556 90)
      (effects (font (size 1.27 1.27)))
    )
    (property "Value" "49K9" (id 1) (at 2.54 0 90)
      (effects (font (size 1.27 1.27)))
    )
    (property "Footprint" "CHIP:RESC305X155X65L42N" (id 2) (at -1.778 0 90)
      (effects (font (size 0.762 0.762)) hide)
    )
    (property "Datasheet" "ohmite_apc.pdf" (id 3) (at 0 0 0)
      (effects (font (size 0.762 0.762)) hide)
    )
    (property "Voltage" "150 V	" (id 4) (at 0 0 0)
      (effects (font (size 1.27 1.27)) hide)
    )
    (property "Pakcage" "1206" (id 6) (at 0 0 0)
      (effects (font (size 1.27 1.27)) hide)
    )
    (property "Operating Temp" "-55/+155" (id 7) (at 0 0 0)
      (effects (font (size 1.27 1.27)) hide)
    )
    (property "Manufacturer" "Ohmite" (id 8) (at 0 0 0)
      (effects (font (size 1.27 1.27)) hide)
    )
    (property "Part" "APC1206T49K9Z" (id 9) (at 0 0 0)
      (effects (font (size 1.27 1.27)) hide)
    )
    (property "Vendor" "https://eu.mouser.com/ProductDetail/ARCOL-Ohmite/APC1206T49K9Z?qs=oCQe5Ii%2FOQgdx1TqfKfOhQ%3D%3D" (id 10) (at 0 0 0)
      (effects (font (size 1.27 1.27)) hide)
    )
    (property "PPM" "5" (id 11) (at 0 0 0)
      (effects (font (size 1.27 1.27)) hide)
    )
    (property "ki_description" "Thin Film Resistors - SMD 1206 49K9Ohm 0.01% 1206 5 PPM" (id 12) (at 0 0 0)
      (effects (font (size 1.27 1.27)) hide)
    )
    (property "ki_fp_filters" "R_* Resistor_*" (id 13) (at 0 0 0)
      (effects (font (size 1.27 1.27)) hide)
    )
    (symbol "49K9_0_1"
      (polyline
        (pts
          (xy 0 2.54)
          (xy -0.635 1.905)
          (xy 0.635 1.27)
          (xy -0.635 0.635)
          (xy 0.635 0)
          (xy -0.635 -0.635)
          (xy 0.635 -1.27)
          (xy -0.635 -1.905)
          (xy 0 -2.54)
        )
        (stroke (width 0.0006)) (fill (type none))
      )
    )
    (symbol "49K9_1_1"
      (pin passive line (at 0 3.81 270) (length 1.27)
        (name "~" (effects (font (size 1.524 1.524))))
        (number "1" (effects (font (size 1.524 1.524))))
      )
      (pin passive line (at 0 -3.81 90) (length 1.27)
        (name "~" (effects (font (size 1.524 1.524))))
        (number "2" (effects (font (size 1.524 1.524))))
      )
    )
  )
)
