(kicad_symbol_lib (version 20201005) (generator kicad_symbol_editor)
  (symbol "lz-res-susumu-rg-1206-25ppm-0.1p:5M" (pin_numbers hide) (pin_names (offset 0)) (in_bom yes) (on_board yes)
    (property "Reference" "R" (id 0) (at -0.762 -3.556 90)
      (effects (font (size 1.27 1.27)))
    )
    (property "Value" "5M" (id 1) (at 2.54 0 90)
      (effects (font (size 1.27 1.27)))
    )
    (property "Footprint" "CHIP:RESC320X160X50L50N" (id 2) (at -1.778 0 90)
      (effects (font (size 0.762 0.762)) hide)
    )
    (property "Datasheet" "susumu_rg.pdf" (id 3) (at 0 0 0)
      (effects (font (size 0.762 0.762)) hide)
    )
    (property "Voltage" "200 V	" (id 4) (at 0 0 0)
      (effects (font (size 1.27 1.27)) hide)
    )
    (property "Pakcage" "1206" (id 6) (at 0 0 0)
      (effects (font (size 1.27 1.27)) hide)
    )
    (property "Operating Temp" "-55/+155" (id 7) (at 0 0 0)
      (effects (font (size 1.27 1.27)) hide)
    )
    (property "Manufacturer" "Susumu" (id 8) (at 0 0 0)
      (effects (font (size 1.27 1.27)) hide)
    )
    (property "Part" "RG3216P-5004-B-T1" (id 9) (at 0 0 0)
      (effects (font (size 1.27 1.27)) hide)
    )
    (property "Vendor" "https://eu.mouser.com/ProductDetail/Susumu/RG3216P-5004-B-T1?qs=sGAEpiMZZMvdGkrng054tz3%252BeNFGeSG0S6MWsO3nJw%2FqzhtO3lJQKw%3D%3D" (id 10) (at 0 0 0)
      (effects (font (size 1.27 1.27)) hide)
    )
    (property "PPM" "25" (id 11) (at 0 0 0)
      (effects (font (size 1.27 1.27)) hide)
    )
    (property "ki_description" "Thin Film Resistors 1/4W 5MOhm 0.1% AEC Q200 Qualified" (id 12) (at 0 0 0)
      (effects (font (size 1.27 1.27)) hide)
    )
    (property "ki_fp_filters" "R_* Resistor_*" (id 13) (at 0 0 0)
      (effects (font (size 1.27 1.27)) hide)
    )
    (symbol "5M_0_1"
      (polyline
        (pts
          (xy 0 2.54)
          (xy -0.635 1.905)
          (xy 0.635 1.27)
          (xy -0.635 0.635)
          (xy 0.635 0)
          (xy -0.635 -0.635)
          (xy 0.635 -1.27)
          (xy -0.635 -1.905)
          (xy 0 -2.54)
        )
        (stroke (width 0.0006)) (fill (type none))
      )
    )
    (symbol "5M_1_1"
      (pin passive line (at 0 3.81 270) (length 1.27)
        (name "~" (effects (font (size 1.524 1.524))))
        (number "1" (effects (font (size 1.524 1.524))))
      )
      (pin passive line (at 0 -3.81 90) (length 1.27)
        (name "~" (effects (font (size 1.524 1.524))))
        (number "2" (effects (font (size 1.524 1.524))))
      )
    )
  )
)
