(kicad_symbol_lib (version 20201005) (generator kicad_symbol_editor)
  (symbol "lz-xtal-epson-fc135:32.7680KHz" (pin_numbers hide) (pin_names hide) (in_bom yes) (on_board yes)
    (property "Reference" "X" (id 0) (at 0 0 0)
      (effects (font (size 1.27 1.27)))
    )
    (property "Value" "32.7680KHz" (id 1) (at 0 0 0)
      (effects (font (size 1.27 1.27)))
    )
    (property "Footprint" "DFN:XTALDFN2_320X150X90L75X150N" (id 2) (at 0 0 0)
      (effects (font (size 1.27 1.27)) hide)
    )
    (property "Datasheet" "EPSON_FC135.pdf" (id 3) (at 0 0 0)
      (effects (font (size 1.27 1.27)) hide)
    )
    (property "Package" "3.2 mm x 1.5 mm" (id 4) (at 0 0 0)
      (effects (font (size 1.27 1.27)) hide)
    )
    (property "Frequency" "32.768 kHz" (id 5) (at 0 0 0)
      (effects (font (size 1.27 1.27)) hide)
    )
    (property "Tolerance" "20 PPM" (id 6) (at 0 0 0)
      (effects (font (size 1.27 1.27)) hide)
    )
    (property "ESR" "65 K" (id 7) (at 0 0 0)
      (effects (font (size 1.27 1.27)) hide)
    )
    (property "CL" "9 pF" (id 8) (at 0 0 0)
      (effects (font (size 1.27 1.27)) hide)
    )
    (property "Manufacturer" "Epson" (id 9) (at 0 0 0)
      (effects (font (size 1.27 1.27)) hide)
    )
    (property "Part" "FC-135 32.7680KA-AC3" (id 10) (at 0 0 0)
      (effects (font (size 1.27 1.27)) hide)
    )
    (property "Vendor" "https://eu.mouser.com/ProductDetail/Epson-Timing/FC-135-327680KA-AC3?qs=l3LL3yk8ONbN5YeA8sBzJA%3D%3D" (id 11) (at 0 0 0)
      (effects (font (size 1.27 1.27)) hide)
    )
    (property "ki_description" "Crystals 32.768KHz 9pF 20ppm" (id 12) (at 0 0 0)
      (effects (font (size 1.27 1.27)) hide)
    )
    (symbol "32.7680KHz_0_1"
      (rectangle (start -1.27 2.54) (end 1.27 -2.54)
        (stroke (width 0.001)) (fill (type background))
      )
      (polyline
        (pts
          (xy -2.54 2.54)
          (xy -2.54 -2.54)
        )
        (stroke (width 0.0006)) (fill (type none))
      )
      (polyline
        (pts
          (xy 2.54 2.54)
          (xy 2.54 -2.54)
        )
        (stroke (width 0.0006)) (fill (type none))
      )
    )
    (symbol "32.7680KHz_1_1"
      (pin input line (at -5.08 0 0) (length 2.54)
        (name "1" (effects (font (size 1.27 1.27))))
        (number "1" (effects (font (size 1.27 1.27))))
      )
      (pin input line (at 5.08 0 180) (length 2.54)
        (name "2" (effects (font (size 1.27 1.27))))
        (number "2" (effects (font (size 1.27 1.27))))
      )
    )
  )
)
