(kicad_symbol_lib (version 20201005) (generator kicad_symbol_editor)
  (symbol "lz-xtal-cts-636L:25MHz" (in_bom yes) (on_board yes)
    (property "Reference" "X" (id 0) (at 0 0 0)
      (effects (font (size 1.27 1.27)))
    )
    (property "Value" "25MHz" (id 1) (at 0 0 0)
      (effects (font (size 1.27 1.27)))
    )
    (property "Footprint" "" (id 2) (at 0 0 0)
      (effects (font (size 1.27 1.27)) hide)
    )
    (property "Datasheet" "cts_636.pdf" (id 3) (at 0 0 0)
      (effects (font (size 1.27 1.27)) hide)
    )
    (property "Capacitance" "30pF" (id 4) (at 0 0 0)
      (effects (font (size 1.27 1.27)))
    )
    (property "PPM" "50" (id 5) (at 0 0 0)
      (effects (font (size 1.27 1.27)))
    )
    (property "Voltage" "3.3V" (id 6) (at 0 0 0)
      (effects (font (size 1.27 1.27)))
    )
    (property "Package" "5032" (id 7) (at 0 0 0)
      (effects (font (size 1.27 1.27)))
    )
    (property "Operating Temperature" "-20 ~ +70" (id 8) (at 0 0 0)
      (effects (font (size 1.27 1.27)))
    )
    (property "Manufacturer" "CTS" (id 9) (at 0 0 0)
      (effects (font (size 1.27 1.27)))
    )
    (property "Part" "636L3C025M00000" (id 10) (at 0 0 0)
      (effects (font (size 1.27 1.27)))
    )
    (property "Vendor" "https://eu.mouser.com/ProductDetail/CTS-Electronic-Components/636L3C025M00000?qs=Mr%252BgrRYddfq6Jl9Q%252BOhGvg%3D%3D" (id 11) (at 0 0 0)
      (effects (font (size 1.27 1.27)))
    )
    (property "ki_description" "Standard Clock Oscillators 25.00000 MHz" (id 12) (at 0 0 0)
      (effects (font (size 1.27 1.27)) hide)
    )
  )
)
