(module CAPC200X125X140L45N (layer F.Cu) (tedit 0)
  (descr "Capacitor, Chip; 2.00 mm L X 1.25 mm W X 1.40 mm H body")
  (attr smd)
  (fp_text user %R (at 0 0) (layer F.Fab)
    (effects (font (size 0.76 0.76) (thickness 0.08)))
  )
  (fp_text value VAL** (at 0 0) (layer F.Fab)
    (effects (font (size 1.2 1.2) (thickness 0.12)))
  )
  (fp_text reference REF** (at 0 0) (layer F.SilkS)
    (effects (font (size 1.2 1.2) (thickness 0.12)))
  )
  (fp_line (start -0.55 -0.625) (end -0.55 0.625) (layer Dwgs.User) (width 0.025))
  (fp_line (start -0.55 0.625) (end -1 0.625) (layer Dwgs.User) (width 0.025))
  (fp_line (start -1 0.625) (end -1 -0.625) (layer Dwgs.User) (width 0.025))
  (fp_line (start -1 -0.625) (end -0.55 -0.625) (layer Dwgs.User) (width 0.025))
  (fp_line (start 0.55 0.625) (end 0.55 -0.625) (layer Dwgs.User) (width 0.025))
  (fp_line (start 0.55 -0.625) (end 1 -0.625) (layer Dwgs.User) (width 0.025))
  (fp_line (start 1 -0.625) (end 1 0.625) (layer Dwgs.User) (width 0.025))
  (fp_line (start 1 0.625) (end 0.55 0.625) (layer Dwgs.User) (width 0.025))
  (fp_line (start -1 0.625) (end -1 -0.625) (layer Dwgs.User) (width 0.025))
  (fp_line (start -1 -0.625) (end 1 -0.625) (layer Dwgs.User) (width 0.025))
  (fp_line (start 1 -0.625) (end 1 0.625) (layer Dwgs.User) (width 0.025))
  (fp_line (start 1 0.625) (end -1 0.625) (layer Dwgs.User) (width 0.025))
  (fp_line (start -1.08 0.7) (end -1.08 -0.7) (layer F.Fab) (width 0.16))
  (fp_line (start -1.08 -0.7) (end 1.08 -0.7) (layer F.Fab) (width 0.16))
  (fp_line (start 1.08 -0.7) (end 1.08 0.7) (layer F.Fab) (width 0.16))
  (fp_line (start 1.08 0.7) (end -1.08 0.7) (layer F.Fab) (width 0.16))
  (fp_line (start -1.59 0.91) (end -1.59 -0.91) (layer F.CrtYd) (width 0.05))
  (fp_line (start -1.59 -0.91) (end 1.59 -0.91) (layer F.CrtYd) (width 0.05))
  (fp_line (start 1.59 -0.91) (end 1.59 0.91) (layer F.CrtYd) (width 0.05))
  (fp_line (start 1.59 0.91) (end -1.59 0.91) (layer F.CrtYd) (width 0.05))
  (fp_circle (center 0 0) (end 0 0.25) (layer F.CrtYd) (width 0.05))
  (fp_line (start 0.35 0) (end -0.35 0) (layer F.CrtYd) (width 0.05))
  (fp_line (start 0 -0.35) (end 0 0.35) (layer F.CrtYd) (width 0.05))
  (pad 1 smd roundrect (at -0.87 0) (size 1.03 1.42) (layers F.Cu F.Paste F.Mask) (roundrect_rratio 0.2427))
  (pad 2 smd roundrect (at 0.87 0) (size 1.03 1.42) (layers F.Cu F.Paste F.Mask) (roundrect_rratio 0.2427))
)
