(module INDC320X180X200L60N (layer F.Cu) (tedit 0)
  (descr "Inductor, Chip; 3.20 mm L X 1.80 mm W X 2.00 mm H body")
  (attr smd)
  (fp_text user %R (at 0 0) (layer F.Fab)
    (effects (font (size 1.36 1.36) (thickness 0.14)))
  )
  (fp_text value VAL** (at 0 0) (layer F.Fab)
    (effects (font (size 1.2 1.2) (thickness 0.12)))
  )
  (fp_text reference REF** (at 0 0) (layer F.SilkS)
    (effects (font (size 1.2 1.2) (thickness 0.12)))
  )
  (fp_line (start -1 -0.9) (end -1 0.9) (layer Dwgs.User) (width 0.025))
  (fp_line (start -1 0.9) (end -1.6 0.9) (layer Dwgs.User) (width 0.025))
  (fp_line (start -1.6 0.9) (end -1.6 -0.9) (layer Dwgs.User) (width 0.025))
  (fp_line (start -1.6 -0.9) (end -1 -0.9) (layer Dwgs.User) (width 0.025))
  (fp_line (start 1 0.9) (end 1 -0.9) (layer Dwgs.User) (width 0.025))
  (fp_line (start 1 -0.9) (end 1.6 -0.9) (layer Dwgs.User) (width 0.025))
  (fp_line (start 1.6 -0.9) (end 1.6 0.9) (layer Dwgs.User) (width 0.025))
  (fp_line (start 1.6 0.9) (end 1 0.9) (layer Dwgs.User) (width 0.025))
  (fp_line (start -1.6 0.9) (end -1.6 -0.9) (layer Dwgs.User) (width 0.025))
  (fp_line (start -1.6 -0.9) (end 1.6 -0.9) (layer Dwgs.User) (width 0.025))
  (fp_line (start 1.6 -0.9) (end 1.6 0.9) (layer Dwgs.User) (width 0.025))
  (fp_line (start 1.6 0.9) (end -1.6 0.9) (layer Dwgs.User) (width 0.025))
  (fp_line (start -1.7 1) (end -1.7 -1) (layer F.Fab) (width 0.16))
  (fp_line (start -1.7 -1) (end 1.7 -1) (layer F.Fab) (width 0.16))
  (fp_line (start 1.7 -1) (end 1.7 1) (layer F.Fab) (width 0.16))
  (fp_line (start 1.7 1) (end -1.7 1) (layer F.Fab) (width 0.16))
  (fp_line (start -0.58 -1) (end 0.58 -1) (layer F.SilkS) (width 0.16))
  (fp_line (start -0.58 1) (end 0.58 1) (layer F.SilkS) (width 0.16))
  (fp_line (start -2.26 1.21) (end -2.26 -1.21) (layer F.CrtYd) (width 0.05))
  (fp_line (start -2.26 -1.21) (end 2.26 -1.21) (layer F.CrtYd) (width 0.05))
  (fp_line (start 2.26 -1.21) (end 2.26 1.21) (layer F.CrtYd) (width 0.05))
  (fp_line (start 2.26 1.21) (end -2.26 1.21) (layer F.CrtYd) (width 0.05))
  (fp_circle (center 0 0) (end 0 0.25) (layer F.CrtYd) (width 0.05))
  (fp_line (start 0.35 0) (end -0.35 0) (layer F.CrtYd) (width 0.05))
  (fp_line (start 0 -0.35) (end 0 0.35) (layer F.CrtYd) (width 0.05))
  (pad 1 smd roundrect (at -1.44 0) (size 1.24 2.02) (layers F.Cu F.Paste F.Mask) (roundrect_rratio 0.2016))
  (pad 2 smd roundrect (at 1.44 0) (size 1.24 2.02) (layers F.Cu F.Paste F.Mask) (roundrect_rratio 0.2016))
)
