(module CFP10P80_580X510X490L105X32N (layer F.Cu) (tedit 0)
  (descr "Ceramic Flat Pack (CFP), 0.80 mm pitch; 10 pin, 5.80 mm L X 4.20 mm W X 4.90 mm H body")
  (attr smd)
  (fp_text user %R (at 0 0) (layer F.Fab)
    (effects (font (size 2 2) (thickness 0.2)))
  )
  (fp_text value VAL** (at 0 0) (layer F.Fab)
    (effects (font (size 1.2 1.2) (thickness 0.12)))
  )
  (fp_text reference REF** (at 0 0) (layer F.SilkS)
    (effects (font (size 1.2 1.2) (thickness 0.12)))
  )
  (fp_line (start -1.76 1.5) (end -1.44 1.5) (layer Dwgs.User) (width 0.025))
  (fp_line (start -1.44 1.5) (end -1.44 2.55) (layer Dwgs.User) (width 0.025))
  (fp_line (start -1.44 2.55) (end -1.76 2.55) (layer Dwgs.User) (width 0.025))
  (fp_line (start -1.76 2.55) (end -1.76 1.5) (layer Dwgs.User) (width 0.025))
  (fp_line (start -0.96 1.5) (end -0.64 1.5) (layer Dwgs.User) (width 0.025))
  (fp_line (start -0.64 1.5) (end -0.64 2.55) (layer Dwgs.User) (width 0.025))
  (fp_line (start -0.64 2.55) (end -0.96 2.55) (layer Dwgs.User) (width 0.025))
  (fp_line (start -0.96 2.55) (end -0.96 1.5) (layer Dwgs.User) (width 0.025))
  (fp_line (start -0.16 1.5) (end 0.16 1.5) (layer Dwgs.User) (width 0.025))
  (fp_line (start 0.16 1.5) (end 0.16 2.55) (layer Dwgs.User) (width 0.025))
  (fp_line (start 0.16 2.55) (end -0.16 2.55) (layer Dwgs.User) (width 0.025))
  (fp_line (start -0.16 2.55) (end -0.16 1.5) (layer Dwgs.User) (width 0.025))
  (fp_line (start 0.64 1.5) (end 0.96 1.5) (layer Dwgs.User) (width 0.025))
  (fp_line (start 0.96 1.5) (end 0.96 2.55) (layer Dwgs.User) (width 0.025))
  (fp_line (start 0.96 2.55) (end 0.64 2.55) (layer Dwgs.User) (width 0.025))
  (fp_line (start 0.64 2.55) (end 0.64 1.5) (layer Dwgs.User) (width 0.025))
  (fp_line (start 1.44 1.5) (end 1.76 1.5) (layer Dwgs.User) (width 0.025))
  (fp_line (start 1.76 1.5) (end 1.76 2.55) (layer Dwgs.User) (width 0.025))
  (fp_line (start 1.76 2.55) (end 1.44 2.55) (layer Dwgs.User) (width 0.025))
  (fp_line (start 1.44 2.55) (end 1.44 1.5) (layer Dwgs.User) (width 0.025))
  (fp_line (start 1.76 -1.5) (end 1.44 -1.5) (layer Dwgs.User) (width 0.025))
  (fp_line (start 1.44 -1.5) (end 1.44 -2.55) (layer Dwgs.User) (width 0.025))
  (fp_line (start 1.44 -2.55) (end 1.76 -2.55) (layer Dwgs.User) (width 0.025))
  (fp_line (start 1.76 -2.55) (end 1.76 -1.5) (layer Dwgs.User) (width 0.025))
  (fp_line (start 0.96 -1.5) (end 0.64 -1.5) (layer Dwgs.User) (width 0.025))
  (fp_line (start 0.64 -1.5) (end 0.64 -2.55) (layer Dwgs.User) (width 0.025))
  (fp_line (start 0.64 -2.55) (end 0.96 -2.55) (layer Dwgs.User) (width 0.025))
  (fp_line (start 0.96 -2.55) (end 0.96 -1.5) (layer Dwgs.User) (width 0.025))
  (fp_line (start 0.16 -1.5) (end -0.16 -1.5) (layer Dwgs.User) (width 0.025))
  (fp_line (start -0.16 -1.5) (end -0.16 -2.55) (layer Dwgs.User) (width 0.025))
  (fp_line (start -0.16 -2.55) (end 0.16 -2.55) (layer Dwgs.User) (width 0.025))
  (fp_line (start 0.16 -2.55) (end 0.16 -1.5) (layer Dwgs.User) (width 0.025))
  (fp_line (start -0.64 -1.5) (end -0.96 -1.5) (layer Dwgs.User) (width 0.025))
  (fp_line (start -0.96 -1.5) (end -0.96 -2.55) (layer Dwgs.User) (width 0.025))
  (fp_line (start -0.96 -2.55) (end -0.64 -2.55) (layer Dwgs.User) (width 0.025))
  (fp_line (start -0.64 -2.55) (end -0.64 -1.5) (layer Dwgs.User) (width 0.025))
  (fp_line (start -1.44 -1.5) (end -1.76 -1.5) (layer Dwgs.User) (width 0.025))
  (fp_line (start -1.76 -1.5) (end -1.76 -2.55) (layer Dwgs.User) (width 0.025))
  (fp_line (start -1.76 -2.55) (end -1.44 -2.55) (layer Dwgs.User) (width 0.025))
  (fp_line (start -1.44 -2.55) (end -1.44 -1.5) (layer Dwgs.User) (width 0.025))
  (fp_line (start -2.9 2.1) (end -2.9 -2.1) (layer Dwgs.User) (width 0.025))
  (fp_line (start -2.9 -2.1) (end 2.9 -2.1) (layer Dwgs.User) (width 0.025))
  (fp_line (start 2.9 -2.1) (end 2.9 2.1) (layer Dwgs.User) (width 0.025))
  (fp_line (start 2.9 2.1) (end -2.9 2.1) (layer Dwgs.User) (width 0.025))
  (fp_circle (center 0 0) (end 0 0.25) (layer F.CrtYd) (width 0.05))
  (fp_line (start 0 -0.35) (end 0 0.35) (layer F.CrtYd) (width 0.05))
  (fp_line (start -0.35 0) (end 0.35 0) (layer F.CrtYd) (width 0.05))
  (fp_line (start 3 2.2) (end -1.73 2.2) (layer F.Fab) (width 0.16))
  (fp_line (start -1.73 2.2) (end -3 0.93) (layer F.Fab) (width 0.16))
  (fp_line (start -3 0.93) (end -3 -2.2) (layer F.Fab) (width 0.16))
  (fp_line (start -3 -2.2) (end 3 -2.2) (layer F.Fab) (width 0.16))
  (fp_line (start 3 -2.2) (end 3 2.2) (layer F.Fab) (width 0.16))
  (fp_line (start 2.095 2.2) (end 3 2.2) (layer F.SilkS) (width 0.16))
  (fp_line (start 3 2.2) (end 3 -2.2) (layer F.SilkS) (width 0.16))
  (fp_line (start 3 -2.2) (end 2.095 -2.2) (layer F.SilkS) (width 0.16))
  (fp_line (start -2.095 2.2) (end -3 2.2) (layer F.SilkS) (width 0.16))
  (fp_line (start -3 2.2) (end -3 -2.2) (layer F.SilkS) (width 0.16))
  (fp_line (start -3 -2.2) (end -2.095 -2.2) (layer F.SilkS) (width 0.16))
  (fp_line (start -2.095 2.2) (end -2.095 2.88) (layer F.SilkS) (width 0.16))
  (fp_line (start 3.2 2.4) (end 3.2 -2.4) (layer F.CrtYd) (width 0.05))
  (fp_line (start 3.2 -2.4) (end 2.055 -2.4) (layer F.CrtYd) (width 0.05))
  (fp_line (start 2.055 -2.4) (end 2.055 -3.16) (layer F.CrtYd) (width 0.05))
  (fp_line (start 2.055 -3.16) (end -2.055 -3.16) (layer F.CrtYd) (width 0.05))
  (fp_line (start -2.055 -3.16) (end -2.055 -2.4) (layer F.CrtYd) (width 0.05))
  (fp_line (start -2.055 -2.4) (end -3.2 -2.4) (layer F.CrtYd) (width 0.05))
  (fp_line (start -3.2 -2.4) (end -3.2 2.4) (layer F.CrtYd) (width 0.05))
  (fp_line (start -3.2 2.4) (end -2.055 2.4) (layer F.CrtYd) (width 0.05))
  (fp_line (start -2.055 2.4) (end -2.055 3.16) (layer F.CrtYd) (width 0.05))
  (fp_line (start -2.055 3.16) (end 2.055 3.16) (layer F.CrtYd) (width 0.05))
  (fp_line (start 2.055 3.16) (end 2.055 2.4) (layer F.CrtYd) (width 0.05))
  (fp_line (start 2.055 2.4) (end 3.2 2.4) (layer F.CrtYd) (width 0.05))
  (pad 1 smd roundrect (at -1.6 2.08 90) (size 1.76 0.51) (layers F.Cu F.Paste F.Mask) (roundrect_rratio 0.2549))
  (pad 2 smd roundrect (at -0.8 2.08 90) (size 1.76 0.51) (layers F.Cu F.Paste F.Mask) (roundrect_rratio 0.2549))
  (pad 3 smd roundrect (at 0 2.08 90) (size 1.76 0.51) (layers F.Cu F.Paste F.Mask) (roundrect_rratio 0.2549))
  (pad 4 smd roundrect (at 0.8 2.08 90) (size 1.76 0.51) (layers F.Cu F.Paste F.Mask) (roundrect_rratio 0.2549))
  (pad 5 smd roundrect (at 1.6 2.08 90) (size 1.76 0.51) (layers F.Cu F.Paste F.Mask) (roundrect_rratio 0.2549))
  (pad 6 smd roundrect (at 1.6 -2.08 90) (size 1.76 0.51) (layers F.Cu F.Paste F.Mask) (roundrect_rratio 0.2549))
  (pad 7 smd roundrect (at 0.8 -2.08 90) (size 1.76 0.51) (layers F.Cu F.Paste F.Mask) (roundrect_rratio 0.2549))
  (pad 8 smd roundrect (at 0 -2.08 90) (size 1.76 0.51) (layers F.Cu F.Paste F.Mask) (roundrect_rratio 0.2549))
  (pad 9 smd roundrect (at -0.8 -2.08 90) (size 1.76 0.51) (layers F.Cu F.Paste F.Mask) (roundrect_rratio 0.2549))
  (pad 10 smd roundrect (at -1.6 -2.08 90) (size 1.76 0.51) (layers F.Cu F.Paste F.Mask) (roundrect_rratio 0.2549))
)
