(module QFN33P50_500X500X100L40X25T345N (layer F.Cu) (tedit 0)
  (descr "Quad Flat No-Lead (QFN with Tab), 0.50 mm pitch; square, 8 pin X 8 pin, 5.00 mm L X 5.00 mm W X 1.00 mm H body")
  (attr smd)
  (fp_text user %R (at 0 0) (layer F.Fab)
    (effects (font (size 2 2) (thickness 0.2)))
  )
  (fp_text value VAL** (at 0 0) (layer F.Fab)
    (effects (font (size 1.2 1.2) (thickness 0.12)))
  )
  (fp_text reference REF** (at 0 0) (layer F.SilkS)
    (effects (font (size 1.2 1.2) (thickness 0.12)))
  )
  (fp_line (start -1.625 2.5) (end -1.625 2.225) (layer Dwgs.User) (width 0.025))
  (fp_arc (start -1.75 2.225) (end -1.875 2.225) (angle 180) (layer Dwgs.User) (width 0.025))
  (fp_line (start -1.875 2.225) (end -1.875 2.5) (layer Dwgs.User) (width 0.025))
  (fp_line (start -1.875 2.5) (end -1.625 2.5) (layer Dwgs.User) (width 0.025))
  (fp_line (start -1.125 2.5) (end -1.125 2.225) (layer Dwgs.User) (width 0.025))
  (fp_arc (start -1.25 2.225) (end -1.375 2.225) (angle 180) (layer Dwgs.User) (width 0.025))
  (fp_line (start -1.375 2.225) (end -1.375 2.5) (layer Dwgs.User) (width 0.025))
  (fp_line (start -1.375 2.5) (end -1.125 2.5) (layer Dwgs.User) (width 0.025))
  (fp_line (start -0.625 2.5) (end -0.625 2.225) (layer Dwgs.User) (width 0.025))
  (fp_arc (start -0.75 2.225) (end -0.875 2.225) (angle 180) (layer Dwgs.User) (width 0.025))
  (fp_line (start -0.875 2.225) (end -0.875 2.5) (layer Dwgs.User) (width 0.025))
  (fp_line (start -0.875 2.5) (end -0.625 2.5) (layer Dwgs.User) (width 0.025))
  (fp_line (start -0.125 2.5) (end -0.125 2.225) (layer Dwgs.User) (width 0.025))
  (fp_arc (start -0.25 2.225) (end -0.375 2.225) (angle 180) (layer Dwgs.User) (width 0.025))
  (fp_line (start -0.375 2.225) (end -0.375 2.5) (layer Dwgs.User) (width 0.025))
  (fp_line (start -0.375 2.5) (end -0.125 2.5) (layer Dwgs.User) (width 0.025))
  (fp_line (start 0.375 2.5) (end 0.375 2.225) (layer Dwgs.User) (width 0.025))
  (fp_arc (start 0.25 2.225) (end 0.125 2.225) (angle 180) (layer Dwgs.User) (width 0.025))
  (fp_line (start 0.125 2.225) (end 0.125 2.5) (layer Dwgs.User) (width 0.025))
  (fp_line (start 0.125 2.5) (end 0.375 2.5) (layer Dwgs.User) (width 0.025))
  (fp_line (start 0.875 2.5) (end 0.875 2.225) (layer Dwgs.User) (width 0.025))
  (fp_arc (start 0.75 2.225) (end 0.625 2.225) (angle 180) (layer Dwgs.User) (width 0.025))
  (fp_line (start 0.625 2.225) (end 0.625 2.5) (layer Dwgs.User) (width 0.025))
  (fp_line (start 0.625 2.5) (end 0.875 2.5) (layer Dwgs.User) (width 0.025))
  (fp_line (start 1.375 2.5) (end 1.375 2.225) (layer Dwgs.User) (width 0.025))
  (fp_arc (start 1.25 2.225) (end 1.125 2.225) (angle 180) (layer Dwgs.User) (width 0.025))
  (fp_line (start 1.125 2.225) (end 1.125 2.5) (layer Dwgs.User) (width 0.025))
  (fp_line (start 1.125 2.5) (end 1.375 2.5) (layer Dwgs.User) (width 0.025))
  (fp_line (start 1.875 2.5) (end 1.875 2.225) (layer Dwgs.User) (width 0.025))
  (fp_arc (start 1.75 2.225) (end 1.625 2.225) (angle 180) (layer Dwgs.User) (width 0.025))
  (fp_line (start 1.625 2.225) (end 1.625 2.5) (layer Dwgs.User) (width 0.025))
  (fp_line (start 1.625 2.5) (end 1.875 2.5) (layer Dwgs.User) (width 0.025))
  (fp_line (start 2.5 1.625) (end 2.225 1.625) (layer Dwgs.User) (width 0.025))
  (fp_arc (start 2.225 1.75) (end 2.225 1.875) (angle 180) (layer Dwgs.User) (width 0.025))
  (fp_line (start 2.225 1.875) (end 2.5 1.875) (layer Dwgs.User) (width 0.025))
  (fp_line (start 2.5 1.875) (end 2.5 1.625) (layer Dwgs.User) (width 0.025))
  (fp_line (start 2.5 1.125) (end 2.225 1.125) (layer Dwgs.User) (width 0.025))
  (fp_arc (start 2.225 1.25) (end 2.225 1.375) (angle 180) (layer Dwgs.User) (width 0.025))
  (fp_line (start 2.225 1.375) (end 2.5 1.375) (layer Dwgs.User) (width 0.025))
  (fp_line (start 2.5 1.375) (end 2.5 1.125) (layer Dwgs.User) (width 0.025))
  (fp_line (start 2.5 0.625) (end 2.225 0.625) (layer Dwgs.User) (width 0.025))
  (fp_arc (start 2.225 0.75) (end 2.225 0.875) (angle 180) (layer Dwgs.User) (width 0.025))
  (fp_line (start 2.225 0.875) (end 2.5 0.875) (layer Dwgs.User) (width 0.025))
  (fp_line (start 2.5 0.875) (end 2.5 0.625) (layer Dwgs.User) (width 0.025))
  (fp_line (start 2.5 0.125) (end 2.225 0.125) (layer Dwgs.User) (width 0.025))
  (fp_arc (start 2.225 0.25) (end 2.225 0.375) (angle 180) (layer Dwgs.User) (width 0.025))
  (fp_line (start 2.225 0.375) (end 2.5 0.375) (layer Dwgs.User) (width 0.025))
  (fp_line (start 2.5 0.375) (end 2.5 0.125) (layer Dwgs.User) (width 0.025))
  (fp_line (start 2.5 -0.375) (end 2.225 -0.375) (layer Dwgs.User) (width 0.025))
  (fp_arc (start 2.225 -0.25) (end 2.225 -0.125) (angle 180) (layer Dwgs.User) (width 0.025))
  (fp_line (start 2.225 -0.125) (end 2.5 -0.125) (layer Dwgs.User) (width 0.025))
  (fp_line (start 2.5 -0.125) (end 2.5 -0.375) (layer Dwgs.User) (width 0.025))
  (fp_line (start 2.5 -0.875) (end 2.225 -0.875) (layer Dwgs.User) (width 0.025))
  (fp_arc (start 2.225 -0.75) (end 2.225 -0.625) (angle 180) (layer Dwgs.User) (width 0.025))
  (fp_line (start 2.225 -0.625) (end 2.5 -0.625) (layer Dwgs.User) (width 0.025))
  (fp_line (start 2.5 -0.625) (end 2.5 -0.875) (layer Dwgs.User) (width 0.025))
  (fp_line (start 2.5 -1.375) (end 2.225 -1.375) (layer Dwgs.User) (width 0.025))
  (fp_arc (start 2.225 -1.25) (end 2.225 -1.125) (angle 180) (layer Dwgs.User) (width 0.025))
  (fp_line (start 2.225 -1.125) (end 2.5 -1.125) (layer Dwgs.User) (width 0.025))
  (fp_line (start 2.5 -1.125) (end 2.5 -1.375) (layer Dwgs.User) (width 0.025))
  (fp_line (start 2.5 -1.875) (end 2.225 -1.875) (layer Dwgs.User) (width 0.025))
  (fp_arc (start 2.225 -1.75) (end 2.225 -1.625) (angle 180) (layer Dwgs.User) (width 0.025))
  (fp_line (start 2.225 -1.625) (end 2.5 -1.625) (layer Dwgs.User) (width 0.025))
  (fp_line (start 2.5 -1.625) (end 2.5 -1.875) (layer Dwgs.User) (width 0.025))
  (fp_line (start 1.625 -2.5) (end 1.625 -2.225) (layer Dwgs.User) (width 0.025))
  (fp_arc (start 1.75 -2.225) (end 1.875 -2.225) (angle 180) (layer Dwgs.User) (width 0.025))
  (fp_line (start 1.875 -2.225) (end 1.875 -2.5) (layer Dwgs.User) (width 0.025))
  (fp_line (start 1.875 -2.5) (end 1.625 -2.5) (layer Dwgs.User) (width 0.025))
  (fp_line (start 1.125 -2.5) (end 1.125 -2.225) (layer Dwgs.User) (width 0.025))
  (fp_arc (start 1.25 -2.225) (end 1.375 -2.225) (angle 180) (layer Dwgs.User) (width 0.025))
  (fp_line (start 1.375 -2.225) (end 1.375 -2.5) (layer Dwgs.User) (width 0.025))
  (fp_line (start 1.375 -2.5) (end 1.125 -2.5) (layer Dwgs.User) (width 0.025))
  (fp_line (start 0.625 -2.5) (end 0.625 -2.225) (layer Dwgs.User) (width 0.025))
  (fp_arc (start 0.75 -2.225) (end 0.875 -2.225) (angle 180) (layer Dwgs.User) (width 0.025))
  (fp_line (start 0.875 -2.225) (end 0.875 -2.5) (layer Dwgs.User) (width 0.025))
  (fp_line (start 0.875 -2.5) (end 0.625 -2.5) (layer Dwgs.User) (width 0.025))
  (fp_line (start 0.125 -2.5) (end 0.125 -2.225) (layer Dwgs.User) (width 0.025))
  (fp_arc (start 0.25 -2.225) (end 0.375 -2.225) (angle 180) (layer Dwgs.User) (width 0.025))
  (fp_line (start 0.375 -2.225) (end 0.375 -2.5) (layer Dwgs.User) (width 0.025))
  (fp_line (start 0.375 -2.5) (end 0.125 -2.5) (layer Dwgs.User) (width 0.025))
  (fp_line (start -0.375 -2.5) (end -0.375 -2.225) (layer Dwgs.User) (width 0.025))
  (fp_arc (start -0.25 -2.225) (end -0.125 -2.225) (angle 180) (layer Dwgs.User) (width 0.025))
  (fp_line (start -0.125 -2.225) (end -0.125 -2.5) (layer Dwgs.User) (width 0.025))
  (fp_line (start -0.125 -2.5) (end -0.375 -2.5) (layer Dwgs.User) (width 0.025))
  (fp_line (start -0.875 -2.5) (end -0.875 -2.225) (layer Dwgs.User) (width 0.025))
  (fp_arc (start -0.75 -2.225) (end -0.625 -2.225) (angle 180) (layer Dwgs.User) (width 0.025))
  (fp_line (start -0.625 -2.225) (end -0.625 -2.5) (layer Dwgs.User) (width 0.025))
  (fp_line (start -0.625 -2.5) (end -0.875 -2.5) (layer Dwgs.User) (width 0.025))
  (fp_line (start -1.375 -2.5) (end -1.375 -2.225) (layer Dwgs.User) (width 0.025))
  (fp_arc (start -1.25 -2.225) (end -1.125 -2.225) (angle 180) (layer Dwgs.User) (width 0.025))
  (fp_line (start -1.125 -2.225) (end -1.125 -2.5) (layer Dwgs.User) (width 0.025))
  (fp_line (start -1.125 -2.5) (end -1.375 -2.5) (layer Dwgs.User) (width 0.025))
  (fp_line (start -1.875 -2.5) (end -1.875 -2.225) (layer Dwgs.User) (width 0.025))
  (fp_arc (start -1.75 -2.225) (end -1.625 -2.225) (angle 180) (layer Dwgs.User) (width 0.025))
  (fp_line (start -1.625 -2.225) (end -1.625 -2.5) (layer Dwgs.User) (width 0.025))
  (fp_line (start -1.625 -2.5) (end -1.875 -2.5) (layer Dwgs.User) (width 0.025))
  (fp_line (start -2.5 -1.625) (end -2.225 -1.625) (layer Dwgs.User) (width 0.025))
  (fp_arc (start -2.225 -1.75) (end -2.225 -1.875) (angle 180) (layer Dwgs.User) (width 0.025))
  (fp_line (start -2.225 -1.875) (end -2.5 -1.875) (layer Dwgs.User) (width 0.025))
  (fp_line (start -2.5 -1.875) (end -2.5 -1.625) (layer Dwgs.User) (width 0.025))
  (fp_line (start -2.5 -1.125) (end -2.225 -1.125) (layer Dwgs.User) (width 0.025))
  (fp_arc (start -2.225 -1.25) (end -2.225 -1.375) (angle 180) (layer Dwgs.User) (width 0.025))
  (fp_line (start -2.225 -1.375) (end -2.5 -1.375) (layer Dwgs.User) (width 0.025))
  (fp_line (start -2.5 -1.375) (end -2.5 -1.125) (layer Dwgs.User) (width 0.025))
  (fp_line (start -2.5 -0.625) (end -2.225 -0.625) (layer Dwgs.User) (width 0.025))
  (fp_arc (start -2.225 -0.75) (end -2.225 -0.875) (angle 180) (layer Dwgs.User) (width 0.025))
  (fp_line (start -2.225 -0.875) (end -2.5 -0.875) (layer Dwgs.User) (width 0.025))
  (fp_line (start -2.5 -0.875) (end -2.5 -0.625) (layer Dwgs.User) (width 0.025))
  (fp_line (start -2.5 -0.125) (end -2.225 -0.125) (layer Dwgs.User) (width 0.025))
  (fp_arc (start -2.225 -0.25) (end -2.225 -0.375) (angle 180) (layer Dwgs.User) (width 0.025))
  (fp_line (start -2.225 -0.375) (end -2.5 -0.375) (layer Dwgs.User) (width 0.025))
  (fp_line (start -2.5 -0.375) (end -2.5 -0.125) (layer Dwgs.User) (width 0.025))
  (fp_line (start -2.5 0.375) (end -2.225 0.375) (layer Dwgs.User) (width 0.025))
  (fp_arc (start -2.225 0.25) (end -2.225 0.125) (angle 180) (layer Dwgs.User) (width 0.025))
  (fp_line (start -2.225 0.125) (end -2.5 0.125) (layer Dwgs.User) (width 0.025))
  (fp_line (start -2.5 0.125) (end -2.5 0.375) (layer Dwgs.User) (width 0.025))
  (fp_line (start -2.5 0.875) (end -2.225 0.875) (layer Dwgs.User) (width 0.025))
  (fp_arc (start -2.225 0.75) (end -2.225 0.625) (angle 180) (layer Dwgs.User) (width 0.025))
  (fp_line (start -2.225 0.625) (end -2.5 0.625) (layer Dwgs.User) (width 0.025))
  (fp_line (start -2.5 0.625) (end -2.5 0.875) (layer Dwgs.User) (width 0.025))
  (fp_line (start -2.5 1.375) (end -2.225 1.375) (layer Dwgs.User) (width 0.025))
  (fp_arc (start -2.225 1.25) (end -2.225 1.125) (angle 180) (layer Dwgs.User) (width 0.025))
  (fp_line (start -2.225 1.125) (end -2.5 1.125) (layer Dwgs.User) (width 0.025))
  (fp_line (start -2.5 1.125) (end -2.5 1.375) (layer Dwgs.User) (width 0.025))
  (fp_line (start -2.5 1.875) (end -2.225 1.875) (layer Dwgs.User) (width 0.025))
  (fp_arc (start -2.225 1.75) (end -2.225 1.625) (angle 180) (layer Dwgs.User) (width 0.025))
  (fp_line (start -2.225 1.625) (end -2.5 1.625) (layer Dwgs.User) (width 0.025))
  (fp_line (start -2.5 1.625) (end -2.5 1.875) (layer Dwgs.User) (width 0.025))
  (fp_line (start -1.425 1.725) (end 1.725 1.725) (layer Dwgs.User) (width 0.025))
  (fp_line (start 1.725 1.725) (end 1.725 -1.725) (layer Dwgs.User) (width 0.025))
  (fp_line (start 1.725 -1.725) (end -1.725 -1.725) (layer Dwgs.User) (width 0.025))
  (fp_line (start -1.725 -1.725) (end -1.725 1.425) (layer Dwgs.User) (width 0.025))
  (fp_line (start -1.725 1.425) (end -1.425 1.725) (layer Dwgs.User) (width 0.025))
  (fp_line (start -2.5 2.5) (end -2.5 -2.5) (layer Dwgs.User) (width 0.025))
  (fp_line (start -2.5 -2.5) (end 2.5 -2.5) (layer Dwgs.User) (width 0.025))
  (fp_line (start 2.5 -2.5) (end 2.5 2.5) (layer Dwgs.User) (width 0.025))
  (fp_line (start 2.5 2.5) (end -2.5 2.5) (layer Dwgs.User) (width 0.025))
  (fp_line (start -2.13 2.55) (end -2.13 2.605) (layer F.SilkS) (width 0.16))
  (fp_circle (center 0 0) (end 0 0.25) (layer F.CrtYd) (width 0.05))
  (fp_line (start 0 -0.35) (end 0 0.35) (layer F.CrtYd) (width 0.05))
  (fp_line (start -0.35 0) (end 0.35 0) (layer F.CrtYd) (width 0.05))
  (fp_line (start 2.55 2.55) (end -1.28 2.55) (layer F.Fab) (width 0.16))
  (fp_line (start -1.28 2.55) (end -2.55 1.28) (layer F.Fab) (width 0.16))
  (fp_line (start -2.55 1.28) (end -2.55 -2.55) (layer F.Fab) (width 0.16))
  (fp_line (start -2.55 -2.55) (end 2.55 -2.55) (layer F.Fab) (width 0.16))
  (fp_line (start 2.55 -2.55) (end 2.55 2.55) (layer F.Fab) (width 0.16))
  (fp_line (start -2.13 2.55) (end -2.55 2.55) (layer F.SilkS) (width 0.16))
  (fp_line (start -2.55 2.55) (end -2.55 2.13) (layer F.SilkS) (width 0.16))
  (fp_line (start 2.13 2.55) (end 2.55 2.55) (layer F.SilkS) (width 0.16))
  (fp_line (start 2.55 2.55) (end 2.55 2.13) (layer F.SilkS) (width 0.16))
  (fp_line (start 2.13 -2.55) (end 2.55 -2.55) (layer F.SilkS) (width 0.16))
  (fp_line (start 2.55 -2.55) (end 2.55 -2.13) (layer F.SilkS) (width 0.16))
  (fp_line (start -2.13 -2.55) (end -2.55 -2.55) (layer F.SilkS) (width 0.16))
  (fp_line (start -2.55 -2.55) (end -2.55 -2.13) (layer F.SilkS) (width 0.16))
  (fp_line (start 2.75 2.75) (end 2.75 2.085) (layer F.CrtYd) (width 0.05))
  (fp_line (start 2.75 2.085) (end 2.965 2.085) (layer F.CrtYd) (width 0.05))
  (fp_line (start 2.965 2.085) (end 2.965 -2.085) (layer F.CrtYd) (width 0.05))
  (fp_line (start 2.965 -2.085) (end 2.75 -2.085) (layer F.CrtYd) (width 0.05))
  (fp_line (start 2.75 -2.085) (end 2.75 -2.75) (layer F.CrtYd) (width 0.05))
  (fp_line (start 2.75 -2.75) (end 2.085 -2.75) (layer F.CrtYd) (width 0.05))
  (fp_line (start 2.085 -2.75) (end 2.085 -2.965) (layer F.CrtYd) (width 0.05))
  (fp_line (start 2.085 -2.965) (end -2.085 -2.965) (layer F.CrtYd) (width 0.05))
  (fp_line (start -2.085 -2.965) (end -2.085 -2.75) (layer F.CrtYd) (width 0.05))
  (fp_line (start -2.085 -2.75) (end -2.75 -2.75) (layer F.CrtYd) (width 0.05))
  (fp_line (start -2.75 -2.75) (end -2.75 -2.085) (layer F.CrtYd) (width 0.05))
  (fp_line (start -2.75 -2.085) (end -2.965 -2.085) (layer F.CrtYd) (width 0.05))
  (fp_line (start -2.965 -2.085) (end -2.965 2.085) (layer F.CrtYd) (width 0.05))
  (fp_line (start -2.965 2.085) (end -2.75 2.085) (layer F.CrtYd) (width 0.05))
  (fp_line (start -2.75 2.085) (end -2.75 2.75) (layer F.CrtYd) (width 0.05))
  (fp_line (start -2.75 2.75) (end -2.085 2.75) (layer F.CrtYd) (width 0.05))
  (fp_line (start -2.085 2.75) (end -2.085 2.965) (layer F.CrtYd) (width 0.05))
  (fp_line (start -2.085 2.965) (end 2.085 2.965) (layer F.CrtYd) (width 0.05))
  (fp_line (start 2.085 2.965) (end 2.085 2.75) (layer F.CrtYd) (width 0.05))
  (fp_line (start 2.085 2.75) (end 2.75 2.75) (layer F.CrtYd) (width 0.05))
  (pad 1 smd roundrect (at -1.75 2.385 90) (size 0.76 0.27) (layers F.Cu F.Paste F.Mask) (roundrect_rratio 0.2593))
  (pad 2 smd roundrect (at -1.25 2.385 90) (size 0.76 0.27) (layers F.Cu F.Paste F.Mask) (roundrect_rratio 0.2593))
  (pad 3 smd roundrect (at -0.75 2.385 90) (size 0.76 0.27) (layers F.Cu F.Paste F.Mask) (roundrect_rratio 0.2593))
  (pad 4 smd roundrect (at -0.25 2.385 90) (size 0.76 0.27) (layers F.Cu F.Paste F.Mask) (roundrect_rratio 0.2593))
  (pad 5 smd roundrect (at 0.25 2.385 90) (size 0.76 0.27) (layers F.Cu F.Paste F.Mask) (roundrect_rratio 0.2593))
  (pad 6 smd roundrect (at 0.75 2.385 90) (size 0.76 0.27) (layers F.Cu F.Paste F.Mask) (roundrect_rratio 0.2593))
  (pad 7 smd roundrect (at 1.25 2.385 90) (size 0.76 0.27) (layers F.Cu F.Paste F.Mask) (roundrect_rratio 0.2593))
  (pad 8 smd roundrect (at 1.75 2.385 90) (size 0.76 0.27) (layers F.Cu F.Paste F.Mask) (roundrect_rratio 0.2593))
  (pad 9 smd roundrect (at 2.385 1.75) (size 0.76 0.27) (layers F.Cu F.Paste F.Mask) (roundrect_rratio 0.2593))
  (pad 10 smd roundrect (at 2.385 1.25) (size 0.76 0.27) (layers F.Cu F.Paste F.Mask) (roundrect_rratio 0.2593))
  (pad 11 smd roundrect (at 2.385 0.75) (size 0.76 0.27) (layers F.Cu F.Paste F.Mask) (roundrect_rratio 0.2593))
  (pad 12 smd roundrect (at 2.385 0.25) (size 0.76 0.27) (layers F.Cu F.Paste F.Mask) (roundrect_rratio 0.2593))
  (pad 13 smd roundrect (at 2.385 -0.25) (size 0.76 0.27) (layers F.Cu F.Paste F.Mask) (roundrect_rratio 0.2593))
  (pad 14 smd roundrect (at 2.385 -0.75) (size 0.76 0.27) (layers F.Cu F.Paste F.Mask) (roundrect_rratio 0.2593))
  (pad 15 smd roundrect (at 2.385 -1.25) (size 0.76 0.27) (layers F.Cu F.Paste F.Mask) (roundrect_rratio 0.2593))
  (pad 16 smd roundrect (at 2.385 -1.75) (size 0.76 0.27) (layers F.Cu F.Paste F.Mask) (roundrect_rratio 0.2593))
  (pad 17 smd roundrect (at 1.75 -2.385 90) (size 0.76 0.27) (layers F.Cu F.Paste F.Mask) (roundrect_rratio 0.2593))
  (pad 18 smd roundrect (at 1.25 -2.385 90) (size 0.76 0.27) (layers F.Cu F.Paste F.Mask) (roundrect_rratio 0.2593))
  (pad 19 smd roundrect (at 0.75 -2.385 90) (size 0.76 0.27) (layers F.Cu F.Paste F.Mask) (roundrect_rratio 0.2593))
  (pad 20 smd roundrect (at 0.25 -2.385 90) (size 0.76 0.27) (layers F.Cu F.Paste F.Mask) (roundrect_rratio 0.2593))
  (pad 21 smd roundrect (at -0.25 -2.385 90) (size 0.76 0.27) (layers F.Cu F.Paste F.Mask) (roundrect_rratio 0.2593))
  (pad 22 smd roundrect (at -0.75 -2.385 90) (size 0.76 0.27) (layers F.Cu F.Paste F.Mask) (roundrect_rratio 0.2593))
  (pad 23 smd roundrect (at -1.25 -2.385 90) (size 0.76 0.27) (layers F.Cu F.Paste F.Mask) (roundrect_rratio 0.2593))
  (pad 24 smd roundrect (at -1.75 -2.385 90) (size 0.76 0.27) (layers F.Cu F.Paste F.Mask) (roundrect_rratio 0.2593))
  (pad 25 smd roundrect (at -2.385 -1.75) (size 0.76 0.27) (layers F.Cu F.Paste F.Mask) (roundrect_rratio 0.2593))
  (pad 26 smd roundrect (at -2.385 -1.25) (size 0.76 0.27) (layers F.Cu F.Paste F.Mask) (roundrect_rratio 0.2593))
  (pad 27 smd roundrect (at -2.385 -0.75) (size 0.76 0.27) (layers F.Cu F.Paste F.Mask) (roundrect_rratio 0.2593))
  (pad 28 smd roundrect (at -2.385 -0.25) (size 0.76 0.27) (layers F.Cu F.Paste F.Mask) (roundrect_rratio 0.2593))
  (pad 29 smd roundrect (at -2.385 0.25) (size 0.76 0.27) (layers F.Cu F.Paste F.Mask) (roundrect_rratio 0.2593))
  (pad 30 smd roundrect (at -2.385 0.75) (size 0.76 0.27) (layers F.Cu F.Paste F.Mask) (roundrect_rratio 0.2593))
  (pad 31 smd roundrect (at -2.385 1.25) (size 0.76 0.27) (layers F.Cu F.Paste F.Mask) (roundrect_rratio 0.2593))
  (pad 32 smd roundrect (at -2.385 1.75) (size 0.76 0.27) (layers F.Cu F.Paste F.Mask) (roundrect_rratio 0.2593))
  (pad 33 smd rect (at 0.865 0.865) (size 1.72 1.72) (layers F.Cu F.Paste F.Mask)
    (solder_paste_margin_ratio -0.29))
  (pad 33 smd rect (at 0.865 -0.865) (size 1.72 1.72) (layers F.Cu F.Paste F.Mask)
    (solder_paste_margin_ratio -0.29))
  (pad 33 smd rect (at -0.865 0.865) (size 1.72 1.72) (layers F.Cu F.Paste F.Mask)
    (solder_paste_margin_ratio -0.29))
  (pad 33 smd rect (at -0.865 -0.865) (size 1.72 1.72) (layers F.Cu F.Paste F.Mask)
    (solder_paste_margin_ratio -0.29))
  (pad "" smd rect (at 0.865 0.865 90) (size 1.22 1.22) (layers F.Paste))
  (pad "" smd rect (at 0.865 -0.865 90) (size 1.22 1.22) (layers F.Paste))
  (pad "" smd rect (at -0.865 0.865 90) (size 1.22 1.22) (layers F.Paste))
  (pad "" smd rect (at -0.865 -0.865 90) (size 1.22 1.22) (layers F.Paste))
)
