(module SOT23-6P95_280X145L45X35N (layer F.Cu) (tedit 0)
  (descr "Small Outline Transistor (SOT23), 0.95 mm pitch; 6 pin, 2.90 mm L X 1.60 mm W X 1.45 mm H body")
  (attr smd)
  (fp_text user %R (at 0 0) (layer F.Fab)
    (effects (font (size 0.96 0.96) (thickness 0.1)))
  )
  (fp_text value VAL** (at 0 0) (layer F.Fab)
    (effects (font (size 1.2 1.2) (thickness 0.12)))
  )
  (fp_text reference REF** (at 0 0) (layer F.SilkS)
    (effects (font (size 1.2 1.2) (thickness 0.12)))
  )
  (fp_line (start -1.1275 0.95) (end -0.7725 0.95) (layer Dwgs.User) (width 0.025))
  (fp_line (start -0.7725 0.95) (end -0.7725 1.4) (layer Dwgs.User) (width 0.025))
  (fp_line (start -0.7725 1.4) (end -1.1275 1.4) (layer Dwgs.User) (width 0.025))
  (fp_line (start -1.1275 1.4) (end -1.1275 0.95) (layer Dwgs.User) (width 0.025))
  (fp_line (start -0.1775 0.95) (end 0.1775 0.95) (layer Dwgs.User) (width 0.025))
  (fp_line (start 0.1775 0.95) (end 0.1775 1.4) (layer Dwgs.User) (width 0.025))
  (fp_line (start 0.1775 1.4) (end -0.1775 1.4) (layer Dwgs.User) (width 0.025))
  (fp_line (start -0.1775 1.4) (end -0.1775 0.95) (layer Dwgs.User) (width 0.025))
  (fp_line (start 0.7725 0.95) (end 1.1275 0.95) (layer Dwgs.User) (width 0.025))
  (fp_line (start 1.1275 0.95) (end 1.1275 1.4) (layer Dwgs.User) (width 0.025))
  (fp_line (start 1.1275 1.4) (end 0.7725 1.4) (layer Dwgs.User) (width 0.025))
  (fp_line (start 0.7725 1.4) (end 0.7725 0.95) (layer Dwgs.User) (width 0.025))
  (fp_line (start 1.1275 -0.95) (end 0.7725 -0.95) (layer Dwgs.User) (width 0.025))
  (fp_line (start 0.7725 -0.95) (end 0.7725 -1.4) (layer Dwgs.User) (width 0.025))
  (fp_line (start 0.7725 -1.4) (end 1.1275 -1.4) (layer Dwgs.User) (width 0.025))
  (fp_line (start 1.1275 -1.4) (end 1.1275 -0.95) (layer Dwgs.User) (width 0.025))
  (fp_line (start 0.1775 -0.95) (end -0.1775 -0.95) (layer Dwgs.User) (width 0.025))
  (fp_line (start -0.1775 -0.95) (end -0.1775 -1.4) (layer Dwgs.User) (width 0.025))
  (fp_line (start -0.1775 -1.4) (end 0.1775 -1.4) (layer Dwgs.User) (width 0.025))
  (fp_line (start 0.1775 -1.4) (end 0.1775 -0.95) (layer Dwgs.User) (width 0.025))
  (fp_line (start -0.7725 -0.95) (end -1.1275 -0.95) (layer Dwgs.User) (width 0.025))
  (fp_line (start -1.1275 -0.95) (end -1.1275 -1.4) (layer Dwgs.User) (width 0.025))
  (fp_line (start -1.1275 -1.4) (end -0.7725 -1.4) (layer Dwgs.User) (width 0.025))
  (fp_line (start -0.7725 -1.4) (end -0.7725 -0.95) (layer Dwgs.User) (width 0.025))
  (fp_line (start -1.45 0.8) (end -1.45 -0.8) (layer Dwgs.User) (width 0.025))
  (fp_line (start -1.45 -0.8) (end 1.45 -0.8) (layer Dwgs.User) (width 0.025))
  (fp_line (start 1.45 -0.8) (end 1.45 0.8) (layer Dwgs.User) (width 0.025))
  (fp_line (start 1.45 0.8) (end -1.45 0.8) (layer Dwgs.User) (width 0.025))
  (fp_circle (center 0 0) (end 0 0.25) (layer F.CrtYd) (width 0.05))
  (fp_line (start 0 -0.35) (end 0 0.35) (layer F.CrtYd) (width 0.05))
  (fp_line (start -0.35 0) (end 0.35 0) (layer F.CrtYd) (width 0.05))
  (fp_line (start 1.45 0.8) (end -0.91667 0.8) (layer F.Fab) (width 0.16))
  (fp_line (start -0.91667 0.8) (end -1.45 0.26667) (layer F.Fab) (width 0.16))
  (fp_line (start -1.45 0.26667) (end -1.45 -0.8) (layer F.Fab) (width 0.16))
  (fp_line (start -1.45 -0.8) (end 1.45 -0.8) (layer F.Fab) (width 0.16))
  (fp_line (start 1.45 -0.8) (end 1.45 0.8) (layer F.Fab) (width 0.16))
  (fp_line (start -1.495 0.8) (end -1.495 -0.8) (layer F.SilkS) (width 0.16))
  (fp_line (start 1.495 0.8) (end 1.495 -0.8) (layer F.SilkS) (width 0.16))
  (fp_line (start -1.495 0.8) (end -1.495 1.575) (layer F.SilkS) (width 0.16))
  (fp_line (start 1.65 1) (end 1.65 -1) (layer F.CrtYd) (width 0.05))
  (fp_line (start 1.65 -1) (end 1.455 -1) (layer F.CrtYd) (width 0.05))
  (fp_line (start 1.455 -1) (end 1.455 -1.855) (layer F.CrtYd) (width 0.05))
  (fp_line (start 1.455 -1.855) (end -1.455 -1.855) (layer F.CrtYd) (width 0.05))
  (fp_line (start -1.455 -1.855) (end -1.455 -1) (layer F.CrtYd) (width 0.05))
  (fp_line (start -1.455 -1) (end -1.65 -1) (layer F.CrtYd) (width 0.05))
  (fp_line (start -1.65 -1) (end -1.65 1) (layer F.CrtYd) (width 0.05))
  (fp_line (start -1.65 1) (end -1.455 1) (layer F.CrtYd) (width 0.05))
  (fp_line (start -1.455 1) (end -1.455 1.855) (layer F.CrtYd) (width 0.05))
  (fp_line (start -1.455 1.855) (end 1.455 1.855) (layer F.CrtYd) (width 0.05))
  (fp_line (start 1.455 1.855) (end 1.455 1) (layer F.CrtYd) (width 0.05))
  (fp_line (start 1.455 1) (end 1.65 1) (layer F.CrtYd) (width 0.05))
  (pad 1 smd roundrect (at -0.95 1.12 90) (size 1.07 0.61) (layers F.Cu F.Paste F.Mask) (roundrect_rratio 0.2459))
  (pad 2 smd roundrect (at 0 1.12 90) (size 1.07 0.61) (layers F.Cu F.Paste F.Mask) (roundrect_rratio 0.2459))
  (pad 3 smd roundrect (at 0.95 1.12 90) (size 1.07 0.61) (layers F.Cu F.Paste F.Mask) (roundrect_rratio 0.2459))
  (pad 4 smd roundrect (at 0.95 -1.12 90) (size 1.07 0.61) (layers F.Cu F.Paste F.Mask) (roundrect_rratio 0.2459))
  (pad 5 smd roundrect (at 0 -1.12 90) (size 1.07 0.61) (layers F.Cu F.Paste F.Mask) (roundrect_rratio 0.2459))
  (pad 6 smd roundrect (at -0.95 -1.12 90) (size 1.07 0.61) (layers F.Cu F.Paste F.Mask) (roundrect_rratio 0.2459))
)
