(module CFP20P100_1230X640X561L66X25N (layer F.Cu) (tedit 0)
  (descr "Ceramic Flat Pack (CFP), 1.00 mm pitch; 20 pin, 12.30 mm L X 6.09 mm W X 5.61 mm H body")
  (attr smd)
  (fp_text user %R (at 0 0) (layer F.Fab)
    (effects (font (size 2 2) (thickness 0.2)))
  )
  (fp_text value VAL** (at 0 0) (layer F.Fab)
    (effects (font (size 1.2 1.2) (thickness 0.12)))
  )
  (fp_text reference REF** (at 0 0) (layer F.SilkS)
    (effects (font (size 1.2 1.2) (thickness 0.12)))
  )
  (fp_line (start -4.625 2.54) (end -4.375 2.54) (layer Dwgs.User) (width 0.025))
  (fp_line (start -4.375 2.54) (end -4.375 3.2) (layer Dwgs.User) (width 0.025))
  (fp_line (start -4.375 3.2) (end -4.625 3.2) (layer Dwgs.User) (width 0.025))
  (fp_line (start -4.625 3.2) (end -4.625 2.54) (layer Dwgs.User) (width 0.025))
  (fp_line (start -3.625 2.54) (end -3.375 2.54) (layer Dwgs.User) (width 0.025))
  (fp_line (start -3.375 2.54) (end -3.375 3.2) (layer Dwgs.User) (width 0.025))
  (fp_line (start -3.375 3.2) (end -3.625 3.2) (layer Dwgs.User) (width 0.025))
  (fp_line (start -3.625 3.2) (end -3.625 2.54) (layer Dwgs.User) (width 0.025))
  (fp_line (start -2.625 2.54) (end -2.375 2.54) (layer Dwgs.User) (width 0.025))
  (fp_line (start -2.375 2.54) (end -2.375 3.2) (layer Dwgs.User) (width 0.025))
  (fp_line (start -2.375 3.2) (end -2.625 3.2) (layer Dwgs.User) (width 0.025))
  (fp_line (start -2.625 3.2) (end -2.625 2.54) (layer Dwgs.User) (width 0.025))
  (fp_line (start -1.625 2.54) (end -1.375 2.54) (layer Dwgs.User) (width 0.025))
  (fp_line (start -1.375 2.54) (end -1.375 3.2) (layer Dwgs.User) (width 0.025))
  (fp_line (start -1.375 3.2) (end -1.625 3.2) (layer Dwgs.User) (width 0.025))
  (fp_line (start -1.625 3.2) (end -1.625 2.54) (layer Dwgs.User) (width 0.025))
  (fp_line (start -0.625 2.54) (end -0.375 2.54) (layer Dwgs.User) (width 0.025))
  (fp_line (start -0.375 2.54) (end -0.375 3.2) (layer Dwgs.User) (width 0.025))
  (fp_line (start -0.375 3.2) (end -0.625 3.2) (layer Dwgs.User) (width 0.025))
  (fp_line (start -0.625 3.2) (end -0.625 2.54) (layer Dwgs.User) (width 0.025))
  (fp_line (start 0.375 2.54) (end 0.625 2.54) (layer Dwgs.User) (width 0.025))
  (fp_line (start 0.625 2.54) (end 0.625 3.2) (layer Dwgs.User) (width 0.025))
  (fp_line (start 0.625 3.2) (end 0.375 3.2) (layer Dwgs.User) (width 0.025))
  (fp_line (start 0.375 3.2) (end 0.375 2.54) (layer Dwgs.User) (width 0.025))
  (fp_line (start 1.375 2.54) (end 1.625 2.54) (layer Dwgs.User) (width 0.025))
  (fp_line (start 1.625 2.54) (end 1.625 3.2) (layer Dwgs.User) (width 0.025))
  (fp_line (start 1.625 3.2) (end 1.375 3.2) (layer Dwgs.User) (width 0.025))
  (fp_line (start 1.375 3.2) (end 1.375 2.54) (layer Dwgs.User) (width 0.025))
  (fp_line (start 2.375 2.54) (end 2.625 2.54) (layer Dwgs.User) (width 0.025))
  (fp_line (start 2.625 2.54) (end 2.625 3.2) (layer Dwgs.User) (width 0.025))
  (fp_line (start 2.625 3.2) (end 2.375 3.2) (layer Dwgs.User) (width 0.025))
  (fp_line (start 2.375 3.2) (end 2.375 2.54) (layer Dwgs.User) (width 0.025))
  (fp_line (start 3.375 2.54) (end 3.625 2.54) (layer Dwgs.User) (width 0.025))
  (fp_line (start 3.625 2.54) (end 3.625 3.2) (layer Dwgs.User) (width 0.025))
  (fp_line (start 3.625 3.2) (end 3.375 3.2) (layer Dwgs.User) (width 0.025))
  (fp_line (start 3.375 3.2) (end 3.375 2.54) (layer Dwgs.User) (width 0.025))
  (fp_line (start 4.375 2.54) (end 4.625 2.54) (layer Dwgs.User) (width 0.025))
  (fp_line (start 4.625 2.54) (end 4.625 3.2) (layer Dwgs.User) (width 0.025))
  (fp_line (start 4.625 3.2) (end 4.375 3.2) (layer Dwgs.User) (width 0.025))
  (fp_line (start 4.375 3.2) (end 4.375 2.54) (layer Dwgs.User) (width 0.025))
  (fp_line (start 4.625 -2.54) (end 4.375 -2.54) (layer Dwgs.User) (width 0.025))
  (fp_line (start 4.375 -2.54) (end 4.375 -3.2) (layer Dwgs.User) (width 0.025))
  (fp_line (start 4.375 -3.2) (end 4.625 -3.2) (layer Dwgs.User) (width 0.025))
  (fp_line (start 4.625 -3.2) (end 4.625 -2.54) (layer Dwgs.User) (width 0.025))
  (fp_line (start 3.625 -2.54) (end 3.375 -2.54) (layer Dwgs.User) (width 0.025))
  (fp_line (start 3.375 -2.54) (end 3.375 -3.2) (layer Dwgs.User) (width 0.025))
  (fp_line (start 3.375 -3.2) (end 3.625 -3.2) (layer Dwgs.User) (width 0.025))
  (fp_line (start 3.625 -3.2) (end 3.625 -2.54) (layer Dwgs.User) (width 0.025))
  (fp_line (start 2.625 -2.54) (end 2.375 -2.54) (layer Dwgs.User) (width 0.025))
  (fp_line (start 2.375 -2.54) (end 2.375 -3.2) (layer Dwgs.User) (width 0.025))
  (fp_line (start 2.375 -3.2) (end 2.625 -3.2) (layer Dwgs.User) (width 0.025))
  (fp_line (start 2.625 -3.2) (end 2.625 -2.54) (layer Dwgs.User) (width 0.025))
  (fp_line (start 1.625 -2.54) (end 1.375 -2.54) (layer Dwgs.User) (width 0.025))
  (fp_line (start 1.375 -2.54) (end 1.375 -3.2) (layer Dwgs.User) (width 0.025))
  (fp_line (start 1.375 -3.2) (end 1.625 -3.2) (layer Dwgs.User) (width 0.025))
  (fp_line (start 1.625 -3.2) (end 1.625 -2.54) (layer Dwgs.User) (width 0.025))
  (fp_line (start 0.625 -2.54) (end 0.375 -2.54) (layer Dwgs.User) (width 0.025))
  (fp_line (start 0.375 -2.54) (end 0.375 -3.2) (layer Dwgs.User) (width 0.025))
  (fp_line (start 0.375 -3.2) (end 0.625 -3.2) (layer Dwgs.User) (width 0.025))
  (fp_line (start 0.625 -3.2) (end 0.625 -2.54) (layer Dwgs.User) (width 0.025))
  (fp_line (start -0.375 -2.54) (end -0.625 -2.54) (layer Dwgs.User) (width 0.025))
  (fp_line (start -0.625 -2.54) (end -0.625 -3.2) (layer Dwgs.User) (width 0.025))
  (fp_line (start -0.625 -3.2) (end -0.375 -3.2) (layer Dwgs.User) (width 0.025))
  (fp_line (start -0.375 -3.2) (end -0.375 -2.54) (layer Dwgs.User) (width 0.025))
  (fp_line (start -1.375 -2.54) (end -1.625 -2.54) (layer Dwgs.User) (width 0.025))
  (fp_line (start -1.625 -2.54) (end -1.625 -3.2) (layer Dwgs.User) (width 0.025))
  (fp_line (start -1.625 -3.2) (end -1.375 -3.2) (layer Dwgs.User) (width 0.025))
  (fp_line (start -1.375 -3.2) (end -1.375 -2.54) (layer Dwgs.User) (width 0.025))
  (fp_line (start -2.375 -2.54) (end -2.625 -2.54) (layer Dwgs.User) (width 0.025))
  (fp_line (start -2.625 -2.54) (end -2.625 -3.2) (layer Dwgs.User) (width 0.025))
  (fp_line (start -2.625 -3.2) (end -2.375 -3.2) (layer Dwgs.User) (width 0.025))
  (fp_line (start -2.375 -3.2) (end -2.375 -2.54) (layer Dwgs.User) (width 0.025))
  (fp_line (start -3.375 -2.54) (end -3.625 -2.54) (layer Dwgs.User) (width 0.025))
  (fp_line (start -3.625 -2.54) (end -3.625 -3.2) (layer Dwgs.User) (width 0.025))
  (fp_line (start -3.625 -3.2) (end -3.375 -3.2) (layer Dwgs.User) (width 0.025))
  (fp_line (start -3.375 -3.2) (end -3.375 -2.54) (layer Dwgs.User) (width 0.025))
  (fp_line (start -4.375 -2.54) (end -4.625 -2.54) (layer Dwgs.User) (width 0.025))
  (fp_line (start -4.625 -2.54) (end -4.625 -3.2) (layer Dwgs.User) (width 0.025))
  (fp_line (start -4.625 -3.2) (end -4.375 -3.2) (layer Dwgs.User) (width 0.025))
  (fp_line (start -4.375 -3.2) (end -4.375 -2.54) (layer Dwgs.User) (width 0.025))
  (fp_line (start -6.15 3.045) (end -6.15 -3.045) (layer Dwgs.User) (width 0.025))
  (fp_line (start -6.15 -3.045) (end 6.15 -3.045) (layer Dwgs.User) (width 0.025))
  (fp_line (start 6.15 -3.045) (end 6.15 3.045) (layer Dwgs.User) (width 0.025))
  (fp_line (start 6.15 3.045) (end -6.15 3.045) (layer Dwgs.User) (width 0.025))
  (fp_circle (center 0 0) (end 0 0.25) (layer F.CrtYd) (width 0.05))
  (fp_line (start 0 -0.35) (end 0 0.35) (layer F.CrtYd) (width 0.05))
  (fp_line (start -0.35 0) (end 0.35 0) (layer F.CrtYd) (width 0.05))
  (fp_line (start 6.25 3.15) (end -4.98 3.15) (layer F.Fab) (width 0.16))
  (fp_line (start -4.98 3.15) (end -6.25 1.88) (layer F.Fab) (width 0.16))
  (fp_line (start -6.25 1.88) (end -6.25 -3.15) (layer F.Fab) (width 0.16))
  (fp_line (start -6.25 -3.15) (end 6.25 -3.15) (layer F.Fab) (width 0.16))
  (fp_line (start 6.25 -3.15) (end 6.25 3.15) (layer F.Fab) (width 0.16))
  (fp_line (start 4.97 3.15) (end 6.25 3.15) (layer F.SilkS) (width 0.16))
  (fp_line (start 6.25 3.15) (end 6.25 -3.15) (layer F.SilkS) (width 0.16))
  (fp_line (start 6.25 -3.15) (end 4.97 -3.15) (layer F.SilkS) (width 0.16))
  (fp_line (start -4.97 3.15) (end -6.25 3.15) (layer F.SilkS) (width 0.16))
  (fp_line (start -6.25 3.15) (end -6.25 -3.15) (layer F.SilkS) (width 0.16))
  (fp_line (start -6.25 -3.15) (end -4.97 -3.15) (layer F.SilkS) (width 0.16))
  (fp_line (start -4.97 3.15) (end -4.97 3.58) (layer F.SilkS) (width 0.16))
  (fp_line (start 6.45 3.35) (end 6.45 -3.35) (layer F.CrtYd) (width 0.05))
  (fp_line (start 6.45 -3.35) (end 4.93 -3.35) (layer F.CrtYd) (width 0.05))
  (fp_line (start 4.93 -3.35) (end 4.93 -3.86) (layer F.CrtYd) (width 0.05))
  (fp_line (start 4.93 -3.86) (end -4.93 -3.86) (layer F.CrtYd) (width 0.05))
  (fp_line (start -4.93 -3.86) (end -4.93 -3.35) (layer F.CrtYd) (width 0.05))
  (fp_line (start -4.93 -3.35) (end -6.45 -3.35) (layer F.CrtYd) (width 0.05))
  (fp_line (start -6.45 -3.35) (end -6.45 3.35) (layer F.CrtYd) (width 0.05))
  (fp_line (start -6.45 3.35) (end -4.93 3.35) (layer F.CrtYd) (width 0.05))
  (fp_line (start -4.93 3.35) (end -4.93 3.86) (layer F.CrtYd) (width 0.05))
  (fp_line (start -4.93 3.86) (end 4.93 3.86) (layer F.CrtYd) (width 0.05))
  (fp_line (start 4.93 3.86) (end 4.93 3.35) (layer F.CrtYd) (width 0.05))
  (fp_line (start 4.93 3.35) (end 6.45 3.35) (layer F.CrtYd) (width 0.05))
  (pad 1 smd roundrect (at -4.5 2.935 90) (size 1.45 0.46) (layers F.Cu F.Paste F.Mask) (roundrect_rratio 0.2609))
  (pad 2 smd roundrect (at -3.5 2.935 90) (size 1.45 0.46) (layers F.Cu F.Paste F.Mask) (roundrect_rratio 0.2609))
  (pad 3 smd roundrect (at -2.5 2.935 90) (size 1.45 0.46) (layers F.Cu F.Paste F.Mask) (roundrect_rratio 0.2609))
  (pad 4 smd roundrect (at -1.5 2.935 90) (size 1.45 0.46) (layers F.Cu F.Paste F.Mask) (roundrect_rratio 0.2609))
  (pad 5 smd roundrect (at -0.5 2.935 90) (size 1.45 0.46) (layers F.Cu F.Paste F.Mask) (roundrect_rratio 0.2609))
  (pad 6 smd roundrect (at 0.5 2.935 90) (size 1.45 0.46) (layers F.Cu F.Paste F.Mask) (roundrect_rratio 0.2609))
  (pad 7 smd roundrect (at 1.5 2.935 90) (size 1.45 0.46) (layers F.Cu F.Paste F.Mask) (roundrect_rratio 0.2609))
  (pad 8 smd roundrect (at 2.5 2.935 90) (size 1.45 0.46) (layers F.Cu F.Paste F.Mask) (roundrect_rratio 0.2609))
  (pad 9 smd roundrect (at 3.5 2.935 90) (size 1.45 0.46) (layers F.Cu F.Paste F.Mask) (roundrect_rratio 0.2609))
  (pad 10 smd roundrect (at 4.5 2.935 90) (size 1.45 0.46) (layers F.Cu F.Paste F.Mask) (roundrect_rratio 0.2609))
  (pad 11 smd roundrect (at 4.5 -2.935 90) (size 1.45 0.46) (layers F.Cu F.Paste F.Mask) (roundrect_rratio 0.2609))
  (pad 12 smd roundrect (at 3.5 -2.935 90) (size 1.45 0.46) (layers F.Cu F.Paste F.Mask) (roundrect_rratio 0.2609))
  (pad 13 smd roundrect (at 2.5 -2.935 90) (size 1.45 0.46) (layers F.Cu F.Paste F.Mask) (roundrect_rratio 0.2609))
  (pad 14 smd roundrect (at 1.5 -2.935 90) (size 1.45 0.46) (layers F.Cu F.Paste F.Mask) (roundrect_rratio 0.2609))
  (pad 15 smd roundrect (at 0.5 -2.935 90) (size 1.45 0.46) (layers F.Cu F.Paste F.Mask) (roundrect_rratio 0.2609))
  (pad 16 smd roundrect (at -0.5 -2.935 90) (size 1.45 0.46) (layers F.Cu F.Paste F.Mask) (roundrect_rratio 0.2609))
  (pad 17 smd roundrect (at -1.5 -2.935 90) (size 1.45 0.46) (layers F.Cu F.Paste F.Mask) (roundrect_rratio 0.2609))
  (pad 18 smd roundrect (at -2.5 -2.935 90) (size 1.45 0.46) (layers F.Cu F.Paste F.Mask) (roundrect_rratio 0.2609))
  (pad 19 smd roundrect (at -3.5 -2.935 90) (size 1.45 0.46) (layers F.Cu F.Paste F.Mask) (roundrect_rratio 0.2609))
  (pad 20 smd roundrect (at -4.5 -2.935 90) (size 1.45 0.46) (layers F.Cu F.Paste F.Mask) (roundrect_rratio 0.2609))
)
