(module SOP20P65_650X640X120L62X24N (layer F.Cu) (tedit 0)
  (descr "Small Outline Pkg (SOP), 0.65 mm pitch; 20 pin, 6.50 mm L X 4.40 mm W X 1.20 mm H body")
  (attr smd)
  (fp_text user %R (at 0 0) (layer F.Fab)
    (effects (font (size 2 2) (thickness 0.2)))
  )
  (fp_text value VAL** (at 0 0) (layer F.Fab)
    (effects (font (size 1.2 1.2) (thickness 0.12)))
  )
  (fp_text reference REF** (at 0 0) (layer F.SilkS)
    (effects (font (size 1.2 1.2) (thickness 0.12)))
  )
  (fp_line (start -3.0475 2.575) (end -2.8025 2.575) (layer Dwgs.User) (width 0.025))
  (fp_line (start -2.8025 2.575) (end -2.8025 3.2) (layer Dwgs.User) (width 0.025))
  (fp_line (start -2.8025 3.2) (end -3.0475 3.2) (layer Dwgs.User) (width 0.025))
  (fp_line (start -3.0475 3.2) (end -3.0475 2.575) (layer Dwgs.User) (width 0.025))
  (fp_line (start -2.3975 2.575) (end -2.1525 2.575) (layer Dwgs.User) (width 0.025))
  (fp_line (start -2.1525 2.575) (end -2.1525 3.2) (layer Dwgs.User) (width 0.025))
  (fp_line (start -2.1525 3.2) (end -2.3975 3.2) (layer Dwgs.User) (width 0.025))
  (fp_line (start -2.3975 3.2) (end -2.3975 2.575) (layer Dwgs.User) (width 0.025))
  (fp_line (start -1.7475 2.575) (end -1.5025 2.575) (layer Dwgs.User) (width 0.025))
  (fp_line (start -1.5025 2.575) (end -1.5025 3.2) (layer Dwgs.User) (width 0.025))
  (fp_line (start -1.5025 3.2) (end -1.7475 3.2) (layer Dwgs.User) (width 0.025))
  (fp_line (start -1.7475 3.2) (end -1.7475 2.575) (layer Dwgs.User) (width 0.025))
  (fp_line (start -1.0975 2.575) (end -0.8525 2.575) (layer Dwgs.User) (width 0.025))
  (fp_line (start -0.8525 2.575) (end -0.8525 3.2) (layer Dwgs.User) (width 0.025))
  (fp_line (start -0.8525 3.2) (end -1.0975 3.2) (layer Dwgs.User) (width 0.025))
  (fp_line (start -1.0975 3.2) (end -1.0975 2.575) (layer Dwgs.User) (width 0.025))
  (fp_line (start -0.4475 2.575) (end -0.2025 2.575) (layer Dwgs.User) (width 0.025))
  (fp_line (start -0.2025 2.575) (end -0.2025 3.2) (layer Dwgs.User) (width 0.025))
  (fp_line (start -0.2025 3.2) (end -0.4475 3.2) (layer Dwgs.User) (width 0.025))
  (fp_line (start -0.4475 3.2) (end -0.4475 2.575) (layer Dwgs.User) (width 0.025))
  (fp_line (start 0.2025 2.575) (end 0.4475 2.575) (layer Dwgs.User) (width 0.025))
  (fp_line (start 0.4475 2.575) (end 0.4475 3.2) (layer Dwgs.User) (width 0.025))
  (fp_line (start 0.4475 3.2) (end 0.2025 3.2) (layer Dwgs.User) (width 0.025))
  (fp_line (start 0.2025 3.2) (end 0.2025 2.575) (layer Dwgs.User) (width 0.025))
  (fp_line (start 0.8525 2.575) (end 1.0975 2.575) (layer Dwgs.User) (width 0.025))
  (fp_line (start 1.0975 2.575) (end 1.0975 3.2) (layer Dwgs.User) (width 0.025))
  (fp_line (start 1.0975 3.2) (end 0.8525 3.2) (layer Dwgs.User) (width 0.025))
  (fp_line (start 0.8525 3.2) (end 0.8525 2.575) (layer Dwgs.User) (width 0.025))
  (fp_line (start 1.5025 2.575) (end 1.7475 2.575) (layer Dwgs.User) (width 0.025))
  (fp_line (start 1.7475 2.575) (end 1.7475 3.2) (layer Dwgs.User) (width 0.025))
  (fp_line (start 1.7475 3.2) (end 1.5025 3.2) (layer Dwgs.User) (width 0.025))
  (fp_line (start 1.5025 3.2) (end 1.5025 2.575) (layer Dwgs.User) (width 0.025))
  (fp_line (start 2.1525 2.575) (end 2.3975 2.575) (layer Dwgs.User) (width 0.025))
  (fp_line (start 2.3975 2.575) (end 2.3975 3.2) (layer Dwgs.User) (width 0.025))
  (fp_line (start 2.3975 3.2) (end 2.1525 3.2) (layer Dwgs.User) (width 0.025))
  (fp_line (start 2.1525 3.2) (end 2.1525 2.575) (layer Dwgs.User) (width 0.025))
  (fp_line (start 2.8025 2.575) (end 3.0475 2.575) (layer Dwgs.User) (width 0.025))
  (fp_line (start 3.0475 2.575) (end 3.0475 3.2) (layer Dwgs.User) (width 0.025))
  (fp_line (start 3.0475 3.2) (end 2.8025 3.2) (layer Dwgs.User) (width 0.025))
  (fp_line (start 2.8025 3.2) (end 2.8025 2.575) (layer Dwgs.User) (width 0.025))
  (fp_line (start 3.0475 -2.575) (end 2.8025 -2.575) (layer Dwgs.User) (width 0.025))
  (fp_line (start 2.8025 -2.575) (end 2.8025 -3.2) (layer Dwgs.User) (width 0.025))
  (fp_line (start 2.8025 -3.2) (end 3.0475 -3.2) (layer Dwgs.User) (width 0.025))
  (fp_line (start 3.0475 -3.2) (end 3.0475 -2.575) (layer Dwgs.User) (width 0.025))
  (fp_line (start 2.3975 -2.575) (end 2.1525 -2.575) (layer Dwgs.User) (width 0.025))
  (fp_line (start 2.1525 -2.575) (end 2.1525 -3.2) (layer Dwgs.User) (width 0.025))
  (fp_line (start 2.1525 -3.2) (end 2.3975 -3.2) (layer Dwgs.User) (width 0.025))
  (fp_line (start 2.3975 -3.2) (end 2.3975 -2.575) (layer Dwgs.User) (width 0.025))
  (fp_line (start 1.7475 -2.575) (end 1.5025 -2.575) (layer Dwgs.User) (width 0.025))
  (fp_line (start 1.5025 -2.575) (end 1.5025 -3.2) (layer Dwgs.User) (width 0.025))
  (fp_line (start 1.5025 -3.2) (end 1.7475 -3.2) (layer Dwgs.User) (width 0.025))
  (fp_line (start 1.7475 -3.2) (end 1.7475 -2.575) (layer Dwgs.User) (width 0.025))
  (fp_line (start 1.0975 -2.575) (end 0.8525 -2.575) (layer Dwgs.User) (width 0.025))
  (fp_line (start 0.8525 -2.575) (end 0.8525 -3.2) (layer Dwgs.User) (width 0.025))
  (fp_line (start 0.8525 -3.2) (end 1.0975 -3.2) (layer Dwgs.User) (width 0.025))
  (fp_line (start 1.0975 -3.2) (end 1.0975 -2.575) (layer Dwgs.User) (width 0.025))
  (fp_line (start 0.4475 -2.575) (end 0.2025 -2.575) (layer Dwgs.User) (width 0.025))
  (fp_line (start 0.2025 -2.575) (end 0.2025 -3.2) (layer Dwgs.User) (width 0.025))
  (fp_line (start 0.2025 -3.2) (end 0.4475 -3.2) (layer Dwgs.User) (width 0.025))
  (fp_line (start 0.4475 -3.2) (end 0.4475 -2.575) (layer Dwgs.User) (width 0.025))
  (fp_line (start -0.2025 -2.575) (end -0.4475 -2.575) (layer Dwgs.User) (width 0.025))
  (fp_line (start -0.4475 -2.575) (end -0.4475 -3.2) (layer Dwgs.User) (width 0.025))
  (fp_line (start -0.4475 -3.2) (end -0.2025 -3.2) (layer Dwgs.User) (width 0.025))
  (fp_line (start -0.2025 -3.2) (end -0.2025 -2.575) (layer Dwgs.User) (width 0.025))
  (fp_line (start -0.8525 -2.575) (end -1.0975 -2.575) (layer Dwgs.User) (width 0.025))
  (fp_line (start -1.0975 -2.575) (end -1.0975 -3.2) (layer Dwgs.User) (width 0.025))
  (fp_line (start -1.0975 -3.2) (end -0.8525 -3.2) (layer Dwgs.User) (width 0.025))
  (fp_line (start -0.8525 -3.2) (end -0.8525 -2.575) (layer Dwgs.User) (width 0.025))
  (fp_line (start -1.5025 -2.575) (end -1.7475 -2.575) (layer Dwgs.User) (width 0.025))
  (fp_line (start -1.7475 -2.575) (end -1.7475 -3.2) (layer Dwgs.User) (width 0.025))
  (fp_line (start -1.7475 -3.2) (end -1.5025 -3.2) (layer Dwgs.User) (width 0.025))
  (fp_line (start -1.5025 -3.2) (end -1.5025 -2.575) (layer Dwgs.User) (width 0.025))
  (fp_line (start -2.1525 -2.575) (end -2.3975 -2.575) (layer Dwgs.User) (width 0.025))
  (fp_line (start -2.3975 -2.575) (end -2.3975 -3.2) (layer Dwgs.User) (width 0.025))
  (fp_line (start -2.3975 -3.2) (end -2.1525 -3.2) (layer Dwgs.User) (width 0.025))
  (fp_line (start -2.1525 -3.2) (end -2.1525 -2.575) (layer Dwgs.User) (width 0.025))
  (fp_line (start -2.8025 -2.575) (end -3.0475 -2.575) (layer Dwgs.User) (width 0.025))
  (fp_line (start -3.0475 -2.575) (end -3.0475 -3.2) (layer Dwgs.User) (width 0.025))
  (fp_line (start -3.0475 -3.2) (end -2.8025 -3.2) (layer Dwgs.User) (width 0.025))
  (fp_line (start -2.8025 -3.2) (end -2.8025 -2.575) (layer Dwgs.User) (width 0.025))
  (fp_line (start -3.25 2.2) (end -3.25 -2.2) (layer Dwgs.User) (width 0.025))
  (fp_line (start -3.25 -2.2) (end 3.25 -2.2) (layer Dwgs.User) (width 0.025))
  (fp_line (start 3.25 -2.2) (end 3.25 2.2) (layer Dwgs.User) (width 0.025))
  (fp_line (start 3.25 2.2) (end -3.25 2.2) (layer Dwgs.User) (width 0.025))
  (fp_circle (center 0 0) (end 0 0.25) (layer F.CrtYd) (width 0.05))
  (fp_line (start 0 -0.35) (end 0 0.35) (layer F.CrtYd) (width 0.05))
  (fp_line (start -0.35 0) (end 0.35 0) (layer F.CrtYd) (width 0.05))
  (fp_line (start 3.3 2.25) (end -2.03 2.25) (layer F.Fab) (width 0.16))
  (fp_line (start -2.03 2.25) (end -3.3 0.98) (layer F.Fab) (width 0.16))
  (fp_line (start -3.3 0.98) (end -3.3 -2.25) (layer F.Fab) (width 0.16))
  (fp_line (start -3.3 -2.25) (end 3.3 -2.25) (layer F.Fab) (width 0.16))
  (fp_line (start 3.3 -2.25) (end 3.3 2.25) (layer F.Fab) (width 0.16))
  (fp_line (start -3.36 2.25) (end -3.36 -2.25) (layer F.SilkS) (width 0.16))
  (fp_line (start 3.36 2.25) (end 3.36 -2.25) (layer F.SilkS) (width 0.16))
  (fp_line (start -3.36 2.25) (end -3.36 3.425) (layer F.SilkS) (width 0.16))
  (fp_line (start 3.5 2.45) (end 3.5 -2.45) (layer F.CrtYd) (width 0.05))
  (fp_line (start 3.5 -2.45) (end 3.32 -2.45) (layer F.CrtYd) (width 0.05))
  (fp_line (start 3.32 -2.45) (end 3.32 -3.705) (layer F.CrtYd) (width 0.05))
  (fp_line (start 3.32 -3.705) (end -3.32 -3.705) (layer F.CrtYd) (width 0.05))
  (fp_line (start -3.32 -3.705) (end -3.32 -2.45) (layer F.CrtYd) (width 0.05))
  (fp_line (start -3.32 -2.45) (end -3.5 -2.45) (layer F.CrtYd) (width 0.05))
  (fp_line (start -3.5 -2.45) (end -3.5 2.45) (layer F.CrtYd) (width 0.05))
  (fp_line (start -3.5 2.45) (end -3.32 2.45) (layer F.CrtYd) (width 0.05))
  (fp_line (start -3.32 2.45) (end -3.32 3.705) (layer F.CrtYd) (width 0.05))
  (fp_line (start -3.32 3.705) (end 3.32 3.705) (layer F.CrtYd) (width 0.05))
  (fp_line (start 3.32 3.705) (end 3.32 2.45) (layer F.CrtYd) (width 0.05))
  (fp_line (start 3.32 2.45) (end 3.5 2.45) (layer F.CrtYd) (width 0.05))
  (pad 1 smd roundrect (at -2.925 2.82 90) (size 1.37 0.39) (layers F.Cu F.Paste F.Mask) (roundrect_rratio 0.2564))
  (pad 2 smd roundrect (at -2.275 2.82 90) (size 1.37 0.39) (layers F.Cu F.Paste F.Mask) (roundrect_rratio 0.2564))
  (pad 3 smd roundrect (at -1.625 2.82 90) (size 1.37 0.39) (layers F.Cu F.Paste F.Mask) (roundrect_rratio 0.2564))
  (pad 4 smd roundrect (at -0.975 2.82 90) (size 1.37 0.39) (layers F.Cu F.Paste F.Mask) (roundrect_rratio 0.2564))
  (pad 5 smd roundrect (at -0.325 2.82 90) (size 1.37 0.39) (layers F.Cu F.Paste F.Mask) (roundrect_rratio 0.2564))
  (pad 6 smd roundrect (at 0.325 2.82 90) (size 1.37 0.39) (layers F.Cu F.Paste F.Mask) (roundrect_rratio 0.2564))
  (pad 7 smd roundrect (at 0.975 2.82 90) (size 1.37 0.39) (layers F.Cu F.Paste F.Mask) (roundrect_rratio 0.2564))
  (pad 8 smd roundrect (at 1.625 2.82 90) (size 1.37 0.39) (layers F.Cu F.Paste F.Mask) (roundrect_rratio 0.2564))
  (pad 9 smd roundrect (at 2.275 2.82 90) (size 1.37 0.39) (layers F.Cu F.Paste F.Mask) (roundrect_rratio 0.2564))
  (pad 10 smd roundrect (at 2.925 2.82 90) (size 1.37 0.39) (layers F.Cu F.Paste F.Mask) (roundrect_rratio 0.2564))
  (pad 11 smd roundrect (at 2.925 -2.82 90) (size 1.37 0.39) (layers F.Cu F.Paste F.Mask) (roundrect_rratio 0.2564))
  (pad 12 smd roundrect (at 2.275 -2.82 90) (size 1.37 0.39) (layers F.Cu F.Paste F.Mask) (roundrect_rratio 0.2564))
  (pad 13 smd roundrect (at 1.625 -2.82 90) (size 1.37 0.39) (layers F.Cu F.Paste F.Mask) (roundrect_rratio 0.2564))
  (pad 14 smd roundrect (at 0.975 -2.82 90) (size 1.37 0.39) (layers F.Cu F.Paste F.Mask) (roundrect_rratio 0.2564))
  (pad 15 smd roundrect (at 0.325 -2.82 90) (size 1.37 0.39) (layers F.Cu F.Paste F.Mask) (roundrect_rratio 0.2564))
  (pad 16 smd roundrect (at -0.325 -2.82 90) (size 1.37 0.39) (layers F.Cu F.Paste F.Mask) (roundrect_rratio 0.2564))
  (pad 17 smd roundrect (at -0.975 -2.82 90) (size 1.37 0.39) (layers F.Cu F.Paste F.Mask) (roundrect_rratio 0.2564))
  (pad 18 smd roundrect (at -1.625 -2.82 90) (size 1.37 0.39) (layers F.Cu F.Paste F.Mask) (roundrect_rratio 0.2564))
  (pad 19 smd roundrect (at -2.275 -2.82 90) (size 1.37 0.39) (layers F.Cu F.Paste F.Mask) (roundrect_rratio 0.2564))
  (pad 20 smd roundrect (at -2.925 -2.82 90) (size 1.37 0.39) (layers F.Cu F.Paste F.Mask) (roundrect_rratio 0.2564))
)
