(module "TE_2041126-1" (layer "F.Cu") (tedit 5FB3A341)
  (attr through_hole)
  (fp_text reference "REF**" (at -5.738235 -1.775001) (layer "F.SilkS")
    (effects (font (size 0.393923 0.393923) (thickness 0.015)))
    (tstamp 64ab33f6-cee3-4dbc-b007-ea90348b92fe)
  )
  (fp_text value "TE_2041126-1" (at -4.366784 14.357555) (layer "F.Fab")
    (effects (font (size 0.393772 0.393772) (thickness 0.015)))
    (tstamp 931b9e52-f01a-46fb-8301-1381593a4a86)
  )
  (fp_text user "PCB~EDGE" (at 8.25869 12.0704) (layer "F.Fab")
    (effects (font (size 0.393876 0.393876) (thickness 0.015)))
    (tstamp 73bdd0e0-f25b-4587-9688-5aaf1bd376f1)
  )
  (fp_text user "PCB~EDGE" (at -1.27229 3.81686) (layer "F.Fab")
    (effects (font (size 0.394409 0.394409) (thickness 0.015)))
    (tstamp 794b9a72-39d6-47f9-ac39-07f6a7bb8e54)
  )
  (fp_poly (pts (xy -9.7 7.8)
    (xy -9.175 7.8)
    (xy -9.174315 7.826168)
    (xy -9.172261 7.852264)
    (xy -9.168844 7.878217)
    (xy -9.164074 7.903956)
    (xy -9.157963 7.92941)
    (xy -9.150528 7.954508)
    (xy -9.14179 7.979184)
    (xy -9.131773 8.003368)
    (xy -9.120503 8.026995)
    (xy -9.108013 8.05)
    (xy -9.094335 8.07232)
    (xy -9.079508 8.093893)
    (xy -9.063573 8.11466)
    (xy -9.046572 8.134565)
    (xy -9.028553 8.153553)
    (xy -9.009565 8.171572)
    (xy -8.98966 8.188573)
    (xy -8.968893 8.204508)
    (xy -8.94732 8.219335)
    (xy -8.925 8.233013)
    (xy -8.901995 8.245503)
    (xy -8.878368 8.256773)
    (xy -8.854184 8.26679)
    (xy -8.829508 8.275528)
    (xy -8.80441 8.282963)
    (xy -8.778956 8.289074)
    (xy -8.753217 8.293844)
    (xy -8.727264 8.297261)
    (xy -8.701168 8.299315)
    (xy -8.675 8.3)
    (xy -8.648832 8.299315)
    (xy -8.622736 8.297261)
    (xy -8.596783 8.293844)
    (xy -8.571044 8.289074)
    (xy -8.54559 8.282963)
    (xy -8.520492 8.275528)
    (xy -8.495816 8.26679)
    (xy -8.471632 8.256773)
    (xy -8.448005 8.245503)
    (xy -8.425 8.233013)
    (xy -8.40268 8.219335)
    (xy -8.381107 8.204508)
    (xy -8.36034 8.188573)
    (xy -8.340435 8.171572)
    (xy -8.321447 8.153553)
    (xy -8.303428 8.134565)
    (xy -8.286427 8.11466)
    (xy -8.270492 8.093893)
    (xy -8.255665 8.07232)
    (xy -8.241987 8.05)
    (xy -8.229497 8.026995)
    (xy -8.218227 8.003368)
    (xy -8.20821 7.979184)
    (xy -8.199472 7.954508)
    (xy -8.192037 7.92941)
    (xy -8.185926 7.903956)
    (xy -8.181156 7.878217)
    (xy -8.177739 7.852264)
    (xy -8.175685 7.826168)
    (xy -8.175 7.8)
    (xy -8.175685 7.773832)
    (xy -8.177739 7.747736)
    (xy -8.181156 7.721783)
    (xy -8.185926 7.696044)
    (xy -8.192037 7.67059)
    (xy -8.199472 7.645492)
    (xy -8.20821 7.620816)
    (xy -8.218227 7.596632)
    (xy -8.229497 7.573005)
    (xy -8.241987 7.55)
    (xy -8.255665 7.52768)
    (xy -8.270492 7.506107)
    (xy -8.286427 7.48534)
    (xy -8.303428 7.465435)
    (xy -8.321447 7.446447)
    (xy -8.340435 7.428428)
    (xy -8.36034 7.411427)
    (xy -8.381107 7.395492)
    (xy -8.40268 7.380665)
    (xy -8.425 7.366987)
    (xy -8.448005 7.354497)
    (xy -8.471632 7.343227)
    (xy -8.495816 7.33321)
    (xy -8.520492 7.324472)
    (xy -8.54559 7.317037)
    (xy -8.571044 7.310926)
    (xy -8.596783 7.306156)
    (xy -8.622736 7.302739)
    (xy -8.648832 7.300685)
    (xy -8.675 7.3)
    (xy -8.701168 7.300685)
    (xy -8.727264 7.302739)
    (xy -8.753217 7.306156)
    (xy -8.778956 7.310926)
    (xy -8.80441 7.317037)
    (xy -8.829508 7.324472)
    (xy -8.854184 7.33321)
    (xy -8.878368 7.343227)
    (xy -8.901995 7.354497)
    (xy -8.925 7.366987)
    (xy -8.94732 7.380665)
    (xy -8.968893 7.395492)
    (xy -8.98966 7.411427)
    (xy -9.009565 7.428428)
    (xy -9.028553 7.446447)
    (xy -9.046572 7.465435)
    (xy -9.063573 7.48534)
    (xy -9.079508 7.506107)
    (xy -9.094335 7.52768)
    (xy -9.108013 7.55)
    (xy -9.120503 7.573005)
    (xy -9.131773 7.596632)
    (xy -9.14179 7.620816)
    (xy -9.150528 7.645492)
    (xy -9.157963 7.67059)
    (xy -9.164074 7.696044)
    (xy -9.168844 7.721783)
    (xy -9.172261 7.747736)
    (xy -9.174315 7.773832)
    (xy -9.175 7.8)
    (xy -9.7 7.8)
    (xy -9.7 5.65)
    (xy -6.65 5.65)
    (xy -6.65 9.95)
    (xy -9.7 9.95)
    (xy -9.7 7.8)) (layer "F.Cu") (width 0.0001) (tstamp 6a97b9e1-09ce-45b4-9015-01c8a74fc416))
  (fp_poly (pts (xy 9.7 7.8)
    (xy 9.175 7.8)
    (xy 9.174315 7.826168)
    (xy 9.172261 7.852264)
    (xy 9.168844 7.878217)
    (xy 9.164074 7.903956)
    (xy 9.157963 7.92941)
    (xy 9.150528 7.954508)
    (xy 9.14179 7.979184)
    (xy 9.131773 8.003368)
    (xy 9.120503 8.026995)
    (xy 9.108013 8.05)
    (xy 9.094335 8.07232)
    (xy 9.079508 8.093893)
    (xy 9.063573 8.11466)
    (xy 9.046572 8.134565)
    (xy 9.028553 8.153553)
    (xy 9.009565 8.171572)
    (xy 8.98966 8.188573)
    (xy 8.968893 8.204508)
    (xy 8.94732 8.219335)
    (xy 8.925 8.233013)
    (xy 8.901995 8.245503)
    (xy 8.878368 8.256773)
    (xy 8.854184 8.26679)
    (xy 8.829508 8.275528)
    (xy 8.80441 8.282963)
    (xy 8.778956 8.289074)
    (xy 8.753217 8.293844)
    (xy 8.727264 8.297261)
    (xy 8.701168 8.299315)
    (xy 8.675 8.3)
    (xy 8.648832 8.299315)
    (xy 8.622736 8.297261)
    (xy 8.596783 8.293844)
    (xy 8.571044 8.289074)
    (xy 8.54559 8.282963)
    (xy 8.520492 8.275528)
    (xy 8.495816 8.26679)
    (xy 8.471632 8.256773)
    (xy 8.448005 8.245503)
    (xy 8.425 8.233013)
    (xy 8.40268 8.219335)
    (xy 8.381107 8.204508)
    (xy 8.36034 8.188573)
    (xy 8.340435 8.171572)
    (xy 8.321447 8.153553)
    (xy 8.303428 8.134565)
    (xy 8.286427 8.11466)
    (xy 8.270492 8.093893)
    (xy 8.255665 8.07232)
    (xy 8.241987 8.05)
    (xy 8.229497 8.026995)
    (xy 8.218227 8.003368)
    (xy 8.20821 7.979184)
    (xy 8.199472 7.954508)
    (xy 8.192037 7.92941)
    (xy 8.185926 7.903956)
    (xy 8.181156 7.878217)
    (xy 8.177739 7.852264)
    (xy 8.175685 7.826168)
    (xy 8.175 7.8)
    (xy 8.175685 7.773832)
    (xy 8.177739 7.747736)
    (xy 8.181156 7.721783)
    (xy 8.185926 7.696044)
    (xy 8.192037 7.67059)
    (xy 8.199472 7.645492)
    (xy 8.20821 7.620816)
    (xy 8.218227 7.596632)
    (xy 8.229497 7.573005)
    (xy 8.241987 7.55)
    (xy 8.255665 7.52768)
    (xy 8.270492 7.506107)
    (xy 8.286427 7.48534)
    (xy 8.303428 7.465435)
    (xy 8.321447 7.446447)
    (xy 8.340435 7.428428)
    (xy 8.36034 7.411427)
    (xy 8.381107 7.395492)
    (xy 8.40268 7.380665)
    (xy 8.425 7.366987)
    (xy 8.448005 7.354497)
    (xy 8.471632 7.343227)
    (xy 8.495816 7.33321)
    (xy 8.520492 7.324472)
    (xy 8.54559 7.317037)
    (xy 8.571044 7.310926)
    (xy 8.596783 7.306156)
    (xy 8.622736 7.302739)
    (xy 8.648832 7.300685)
    (xy 8.675 7.3)
    (xy 8.701168 7.300685)
    (xy 8.727264 7.302739)
    (xy 8.753217 7.306156)
    (xy 8.778956 7.310926)
    (xy 8.80441 7.317037)
    (xy 8.829508 7.324472)
    (xy 8.854184 7.33321)
    (xy 8.878368 7.343227)
    (xy 8.901995 7.354497)
    (xy 8.925 7.366987)
    (xy 8.94732 7.380665)
    (xy 8.968893 7.395492)
    (xy 8.98966 7.411427)
    (xy 9.009565 7.428428)
    (xy 9.028553 7.446447)
    (xy 9.046572 7.465435)
    (xy 9.063573 7.48534)
    (xy 9.079508 7.506107)
    (xy 9.094335 7.52768)
    (xy 9.108013 7.55)
    (xy 9.120503 7.573005)
    (xy 9.131773 7.596632)
    (xy 9.14179 7.620816)
    (xy 9.150528 7.645492)
    (xy 9.157963 7.67059)
    (xy 9.164074 7.696044)
    (xy 9.168844 7.721783)
    (xy 9.172261 7.747736)
    (xy 9.174315 7.773832)
    (xy 9.175 7.8)
    (xy 9.7 7.8)
    (xy 9.7 5.65)
    (xy 6.65 5.65)
    (xy 6.65 9.95)
    (xy 9.7 9.95)
    (xy 9.7 7.8)) (layer "F.Cu") (width 0.0001) (tstamp e4be3016-05db-44a6-82b6-cbaf23effe20))
  (fp_poly (pts (xy 9.7 7.8)
    (xy 9.175 7.8)
    (xy 9.174315 7.826168)
    (xy 9.172261 7.852264)
    (xy 9.168844 7.878217)
    (xy 9.164074 7.903956)
    (xy 9.157963 7.92941)
    (xy 9.150528 7.954508)
    (xy 9.14179 7.979184)
    (xy 9.131773 8.003368)
    (xy 9.120503 8.026995)
    (xy 9.108013 8.05)
    (xy 9.094335 8.07232)
    (xy 9.079508 8.093893)
    (xy 9.063573 8.11466)
    (xy 9.046572 8.134565)
    (xy 9.028553 8.153553)
    (xy 9.009565 8.171572)
    (xy 8.98966 8.188573)
    (xy 8.968893 8.204508)
    (xy 8.94732 8.219335)
    (xy 8.925 8.233013)
    (xy 8.901995 8.245503)
    (xy 8.878368 8.256773)
    (xy 8.854184 8.26679)
    (xy 8.829508 8.275528)
    (xy 8.80441 8.282963)
    (xy 8.778956 8.289074)
    (xy 8.753217 8.293844)
    (xy 8.727264 8.297261)
    (xy 8.701168 8.299315)
    (xy 8.675 8.3)
    (xy 8.648832 8.299315)
    (xy 8.622736 8.297261)
    (xy 8.596783 8.293844)
    (xy 8.571044 8.289074)
    (xy 8.54559 8.282963)
    (xy 8.520492 8.275528)
    (xy 8.495816 8.26679)
    (xy 8.471632 8.256773)
    (xy 8.448005 8.245503)
    (xy 8.425 8.233013)
    (xy 8.40268 8.219335)
    (xy 8.381107 8.204508)
    (xy 8.36034 8.188573)
    (xy 8.340435 8.171572)
    (xy 8.321447 8.153553)
    (xy 8.303428 8.134565)
    (xy 8.286427 8.11466)
    (xy 8.270492 8.093893)
    (xy 8.255665 8.07232)
    (xy 8.241987 8.05)
    (xy 8.229497 8.026995)
    (xy 8.218227 8.003368)
    (xy 8.20821 7.979184)
    (xy 8.199472 7.954508)
    (xy 8.192037 7.92941)
    (xy 8.185926 7.903956)
    (xy 8.181156 7.878217)
    (xy 8.177739 7.852264)
    (xy 8.175685 7.826168)
    (xy 8.175 7.8)
    (xy 8.175685 7.773832)
    (xy 8.177739 7.747736)
    (xy 8.181156 7.721783)
    (xy 8.185926 7.696044)
    (xy 8.192037 7.67059)
    (xy 8.199472 7.645492)
    (xy 8.20821 7.620816)
    (xy 8.218227 7.596632)
    (xy 8.229497 7.573005)
    (xy 8.241987 7.55)
    (xy 8.255665 7.52768)
    (xy 8.270492 7.506107)
    (xy 8.286427 7.48534)
    (xy 8.303428 7.465435)
    (xy 8.321447 7.446447)
    (xy 8.340435 7.428428)
    (xy 8.36034 7.411427)
    (xy 8.381107 7.395492)
    (xy 8.40268 7.380665)
    (xy 8.425 7.366987)
    (xy 8.448005 7.354497)
    (xy 8.471632 7.343227)
    (xy 8.495816 7.33321)
    (xy 8.520492 7.324472)
    (xy 8.54559 7.317037)
    (xy 8.571044 7.310926)
    (xy 8.596783 7.306156)
    (xy 8.622736 7.302739)
    (xy 8.648832 7.300685)
    (xy 8.675 7.3)
    (xy 8.701168 7.300685)
    (xy 8.727264 7.302739)
    (xy 8.753217 7.306156)
    (xy 8.778956 7.310926)
    (xy 8.80441 7.317037)
    (xy 8.829508 7.324472)
    (xy 8.854184 7.33321)
    (xy 8.878368 7.343227)
    (xy 8.901995 7.354497)
    (xy 8.925 7.366987)
    (xy 8.94732 7.380665)
    (xy 8.968893 7.395492)
    (xy 8.98966 7.411427)
    (xy 9.009565 7.428428)
    (xy 9.028553 7.446447)
    (xy 9.046572 7.465435)
    (xy 9.063573 7.48534)
    (xy 9.079508 7.506107)
    (xy 9.094335 7.52768)
    (xy 9.108013 7.55)
    (xy 9.120503 7.573005)
    (xy 9.131773 7.596632)
    (xy 9.14179 7.620816)
    (xy 9.150528 7.645492)
    (xy 9.157963 7.67059)
    (xy 9.164074 7.696044)
    (xy 9.168844 7.721783)
    (xy 9.172261 7.747736)
    (xy 9.174315 7.773832)
    (xy 9.175 7.8)
    (xy 9.7 7.8)
    (xy 9.7 5.65)
    (xy 6.65 5.65)
    (xy 6.65 9.95)
    (xy 9.7 9.95)
    (xy 9.7 7.8)) (layer "B.Cu") (width 0.0001) (tstamp 03fa1aa4-279e-498a-b240-9e9adb3c79e0))
  (fp_poly (pts (xy -9.7 7.8)
    (xy -9.175 7.8)
    (xy -9.174315 7.826168)
    (xy -9.172261 7.852264)
    (xy -9.168844 7.878217)
    (xy -9.164074 7.903956)
    (xy -9.157963 7.92941)
    (xy -9.150528 7.954508)
    (xy -9.14179 7.979184)
    (xy -9.131773 8.003368)
    (xy -9.120503 8.026995)
    (xy -9.108013 8.05)
    (xy -9.094335 8.07232)
    (xy -9.079508 8.093893)
    (xy -9.063573 8.11466)
    (xy -9.046572 8.134565)
    (xy -9.028553 8.153553)
    (xy -9.009565 8.171572)
    (xy -8.98966 8.188573)
    (xy -8.968893 8.204508)
    (xy -8.94732 8.219335)
    (xy -8.925 8.233013)
    (xy -8.901995 8.245503)
    (xy -8.878368 8.256773)
    (xy -8.854184 8.26679)
    (xy -8.829508 8.275528)
    (xy -8.80441 8.282963)
    (xy -8.778956 8.289074)
    (xy -8.753217 8.293844)
    (xy -8.727264 8.297261)
    (xy -8.701168 8.299315)
    (xy -8.675 8.3)
    (xy -8.648832 8.299315)
    (xy -8.622736 8.297261)
    (xy -8.596783 8.293844)
    (xy -8.571044 8.289074)
    (xy -8.54559 8.282963)
    (xy -8.520492 8.275528)
    (xy -8.495816 8.26679)
    (xy -8.471632 8.256773)
    (xy -8.448005 8.245503)
    (xy -8.425 8.233013)
    (xy -8.40268 8.219335)
    (xy -8.381107 8.204508)
    (xy -8.36034 8.188573)
    (xy -8.340435 8.171572)
    (xy -8.321447 8.153553)
    (xy -8.303428 8.134565)
    (xy -8.286427 8.11466)
    (xy -8.270492 8.093893)
    (xy -8.255665 8.07232)
    (xy -8.241987 8.05)
    (xy -8.229497 8.026995)
    (xy -8.218227 8.003368)
    (xy -8.20821 7.979184)
    (xy -8.199472 7.954508)
    (xy -8.192037 7.92941)
    (xy -8.185926 7.903956)
    (xy -8.181156 7.878217)
    (xy -8.177739 7.852264)
    (xy -8.175685 7.826168)
    (xy -8.175 7.8)
    (xy -8.175685 7.773832)
    (xy -8.177739 7.747736)
    (xy -8.181156 7.721783)
    (xy -8.185926 7.696044)
    (xy -8.192037 7.67059)
    (xy -8.199472 7.645492)
    (xy -8.20821 7.620816)
    (xy -8.218227 7.596632)
    (xy -8.229497 7.573005)
    (xy -8.241987 7.55)
    (xy -8.255665 7.52768)
    (xy -8.270492 7.506107)
    (xy -8.286427 7.48534)
    (xy -8.303428 7.465435)
    (xy -8.321447 7.446447)
    (xy -8.340435 7.428428)
    (xy -8.36034 7.411427)
    (xy -8.381107 7.395492)
    (xy -8.40268 7.380665)
    (xy -8.425 7.366987)
    (xy -8.448005 7.354497)
    (xy -8.471632 7.343227)
    (xy -8.495816 7.33321)
    (xy -8.520492 7.324472)
    (xy -8.54559 7.317037)
    (xy -8.571044 7.310926)
    (xy -8.596783 7.306156)
    (xy -8.622736 7.302739)
    (xy -8.648832 7.300685)
    (xy -8.675 7.3)
    (xy -8.701168 7.300685)
    (xy -8.727264 7.302739)
    (xy -8.753217 7.306156)
    (xy -8.778956 7.310926)
    (xy -8.80441 7.317037)
    (xy -8.829508 7.324472)
    (xy -8.854184 7.33321)
    (xy -8.878368 7.343227)
    (xy -8.901995 7.354497)
    (xy -8.925 7.366987)
    (xy -8.94732 7.380665)
    (xy -8.968893 7.395492)
    (xy -8.98966 7.411427)
    (xy -9.009565 7.428428)
    (xy -9.028553 7.446447)
    (xy -9.046572 7.465435)
    (xy -9.063573 7.48534)
    (xy -9.079508 7.506107)
    (xy -9.094335 7.52768)
    (xy -9.108013 7.55)
    (xy -9.120503 7.573005)
    (xy -9.131773 7.596632)
    (xy -9.14179 7.620816)
    (xy -9.150528 7.645492)
    (xy -9.157963 7.67059)
    (xy -9.164074 7.696044)
    (xy -9.168844 7.721783)
    (xy -9.172261 7.747736)
    (xy -9.174315 7.773832)
    (xy -9.175 7.8)
    (xy -9.7 7.8)
    (xy -9.7 5.65)
    (xy -6.65 5.65)
    (xy -6.65 9.95)
    (xy -9.7 9.95)
    (xy -9.7 7.8)) (layer "B.Cu") (width 0.0001) (tstamp d37e0989-9d78-4be5-b19e-c44d00904e11))
  (fp_poly (pts (xy -9.7 7.8)
    (xy -9.175 7.8)
    (xy -9.174315 7.826168)
    (xy -9.172261 7.852264)
    (xy -9.168844 7.878217)
    (xy -9.164074 7.903956)
    (xy -9.157963 7.92941)
    (xy -9.150528 7.954508)
    (xy -9.14179 7.979184)
    (xy -9.131773 8.003368)
    (xy -9.120503 8.026995)
    (xy -9.108013 8.05)
    (xy -9.094335 8.07232)
    (xy -9.079508 8.093893)
    (xy -9.063573 8.11466)
    (xy -9.046572 8.134565)
    (xy -9.028553 8.153553)
    (xy -9.009565 8.171572)
    (xy -8.98966 8.188573)
    (xy -8.968893 8.204508)
    (xy -8.94732 8.219335)
    (xy -8.925 8.233013)
    (xy -8.901995 8.245503)
    (xy -8.878368 8.256773)
    (xy -8.854184 8.26679)
    (xy -8.829508 8.275528)
    (xy -8.80441 8.282963)
    (xy -8.778956 8.289074)
    (xy -8.753217 8.293844)
    (xy -8.727264 8.297261)
    (xy -8.701168 8.299315)
    (xy -8.675 8.3)
    (xy -8.648832 8.299315)
    (xy -8.622736 8.297261)
    (xy -8.596783 8.293844)
    (xy -8.571044 8.289074)
    (xy -8.54559 8.282963)
    (xy -8.520492 8.275528)
    (xy -8.495816 8.26679)
    (xy -8.471632 8.256773)
    (xy -8.448005 8.245503)
    (xy -8.425 8.233013)
    (xy -8.40268 8.219335)
    (xy -8.381107 8.204508)
    (xy -8.36034 8.188573)
    (xy -8.340435 8.171572)
    (xy -8.321447 8.153553)
    (xy -8.303428 8.134565)
    (xy -8.286427 8.11466)
    (xy -8.270492 8.093893)
    (xy -8.255665 8.07232)
    (xy -8.241987 8.05)
    (xy -8.229497 8.026995)
    (xy -8.218227 8.003368)
    (xy -8.20821 7.979184)
    (xy -8.199472 7.954508)
    (xy -8.192037 7.92941)
    (xy -8.185926 7.903956)
    (xy -8.181156 7.878217)
    (xy -8.177739 7.852264)
    (xy -8.175685 7.826168)
    (xy -8.175 7.8)
    (xy -8.175685 7.773832)
    (xy -8.177739 7.747736)
    (xy -8.181156 7.721783)
    (xy -8.185926 7.696044)
    (xy -8.192037 7.67059)
    (xy -8.199472 7.645492)
    (xy -8.20821 7.620816)
    (xy -8.218227 7.596632)
    (xy -8.229497 7.573005)
    (xy -8.241987 7.55)
    (xy -8.255665 7.52768)
    (xy -8.270492 7.506107)
    (xy -8.286427 7.48534)
    (xy -8.303428 7.465435)
    (xy -8.321447 7.446447)
    (xy -8.340435 7.428428)
    (xy -8.36034 7.411427)
    (xy -8.381107 7.395492)
    (xy -8.40268 7.380665)
    (xy -8.425 7.366987)
    (xy -8.448005 7.354497)
    (xy -8.471632 7.343227)
    (xy -8.495816 7.33321)
    (xy -8.520492 7.324472)
    (xy -8.54559 7.317037)
    (xy -8.571044 7.310926)
    (xy -8.596783 7.306156)
    (xy -8.622736 7.302739)
    (xy -8.648832 7.300685)
    (xy -8.675 7.3)
    (xy -8.701168 7.300685)
    (xy -8.727264 7.302739)
    (xy -8.753217 7.306156)
    (xy -8.778956 7.310926)
    (xy -8.80441 7.317037)
    (xy -8.829508 7.324472)
    (xy -8.854184 7.33321)
    (xy -8.878368 7.343227)
    (xy -8.901995 7.354497)
    (xy -8.925 7.366987)
    (xy -8.94732 7.380665)
    (xy -8.968893 7.395492)
    (xy -8.98966 7.411427)
    (xy -9.009565 7.428428)
    (xy -9.028553 7.446447)
    (xy -9.046572 7.465435)
    (xy -9.063573 7.48534)
    (xy -9.079508 7.506107)
    (xy -9.094335 7.52768)
    (xy -9.108013 7.55)
    (xy -9.120503 7.573005)
    (xy -9.131773 7.596632)
    (xy -9.14179 7.620816)
    (xy -9.150528 7.645492)
    (xy -9.157963 7.67059)
    (xy -9.164074 7.696044)
    (xy -9.168844 7.721783)
    (xy -9.172261 7.747736)
    (xy -9.174315 7.773832)
    (xy -9.175 7.8)
    (xy -9.7 7.8)
    (xy -9.7 5.65)
    (xy -6.65 5.65)
    (xy -6.65 9.95)
    (xy -9.7 9.95)
    (xy -9.7 7.8)) (layer "B.Paste") (width 0.0001) (tstamp c31f5e96-f509-4b15-a41a-21cca3bd271c))
  (fp_poly (pts (xy 9.7 7.8)
    (xy 9.175 7.8)
    (xy 9.174315 7.826168)
    (xy 9.172261 7.852264)
    (xy 9.168844 7.878217)
    (xy 9.164074 7.903956)
    (xy 9.157963 7.92941)
    (xy 9.150528 7.954508)
    (xy 9.14179 7.979184)
    (xy 9.131773 8.003368)
    (xy 9.120503 8.026995)
    (xy 9.108013 8.05)
    (xy 9.094335 8.07232)
    (xy 9.079508 8.093893)
    (xy 9.063573 8.11466)
    (xy 9.046572 8.134565)
    (xy 9.028553 8.153553)
    (xy 9.009565 8.171572)
    (xy 8.98966 8.188573)
    (xy 8.968893 8.204508)
    (xy 8.94732 8.219335)
    (xy 8.925 8.233013)
    (xy 8.901995 8.245503)
    (xy 8.878368 8.256773)
    (xy 8.854184 8.26679)
    (xy 8.829508 8.275528)
    (xy 8.80441 8.282963)
    (xy 8.778956 8.289074)
    (xy 8.753217 8.293844)
    (xy 8.727264 8.297261)
    (xy 8.701168 8.299315)
    (xy 8.675 8.3)
    (xy 8.648832 8.299315)
    (xy 8.622736 8.297261)
    (xy 8.596783 8.293844)
    (xy 8.571044 8.289074)
    (xy 8.54559 8.282963)
    (xy 8.520492 8.275528)
    (xy 8.495816 8.26679)
    (xy 8.471632 8.256773)
    (xy 8.448005 8.245503)
    (xy 8.425 8.233013)
    (xy 8.40268 8.219335)
    (xy 8.381107 8.204508)
    (xy 8.36034 8.188573)
    (xy 8.340435 8.171572)
    (xy 8.321447 8.153553)
    (xy 8.303428 8.134565)
    (xy 8.286427 8.11466)
    (xy 8.270492 8.093893)
    (xy 8.255665 8.07232)
    (xy 8.241987 8.05)
    (xy 8.229497 8.026995)
    (xy 8.218227 8.003368)
    (xy 8.20821 7.979184)
    (xy 8.199472 7.954508)
    (xy 8.192037 7.92941)
    (xy 8.185926 7.903956)
    (xy 8.181156 7.878217)
    (xy 8.177739 7.852264)
    (xy 8.175685 7.826168)
    (xy 8.175 7.8)
    (xy 8.175685 7.773832)
    (xy 8.177739 7.747736)
    (xy 8.181156 7.721783)
    (xy 8.185926 7.696044)
    (xy 8.192037 7.67059)
    (xy 8.199472 7.645492)
    (xy 8.20821 7.620816)
    (xy 8.218227 7.596632)
    (xy 8.229497 7.573005)
    (xy 8.241987 7.55)
    (xy 8.255665 7.52768)
    (xy 8.270492 7.506107)
    (xy 8.286427 7.48534)
    (xy 8.303428 7.465435)
    (xy 8.321447 7.446447)
    (xy 8.340435 7.428428)
    (xy 8.36034 7.411427)
    (xy 8.381107 7.395492)
    (xy 8.40268 7.380665)
    (xy 8.425 7.366987)
    (xy 8.448005 7.354497)
    (xy 8.471632 7.343227)
    (xy 8.495816 7.33321)
    (xy 8.520492 7.324472)
    (xy 8.54559 7.317037)
    (xy 8.571044 7.310926)
    (xy 8.596783 7.306156)
    (xy 8.622736 7.302739)
    (xy 8.648832 7.300685)
    (xy 8.675 7.3)
    (xy 8.701168 7.300685)
    (xy 8.727264 7.302739)
    (xy 8.753217 7.306156)
    (xy 8.778956 7.310926)
    (xy 8.80441 7.317037)
    (xy 8.829508 7.324472)
    (xy 8.854184 7.33321)
    (xy 8.878368 7.343227)
    (xy 8.901995 7.354497)
    (xy 8.925 7.366987)
    (xy 8.94732 7.380665)
    (xy 8.968893 7.395492)
    (xy 8.98966 7.411427)
    (xy 9.009565 7.428428)
    (xy 9.028553 7.446447)
    (xy 9.046572 7.465435)
    (xy 9.063573 7.48534)
    (xy 9.079508 7.506107)
    (xy 9.094335 7.52768)
    (xy 9.108013 7.55)
    (xy 9.120503 7.573005)
    (xy 9.131773 7.596632)
    (xy 9.14179 7.620816)
    (xy 9.150528 7.645492)
    (xy 9.157963 7.67059)
    (xy 9.164074 7.696044)
    (xy 9.168844 7.721783)
    (xy 9.172261 7.747736)
    (xy 9.174315 7.773832)
    (xy 9.175 7.8)
    (xy 9.7 7.8)
    (xy 9.7 5.65)
    (xy 6.65 5.65)
    (xy 6.65 9.95)
    (xy 9.7 9.95)
    (xy 9.7 7.8)) (layer "B.Paste") (width 0.0001) (tstamp e9eefb3b-b8a8-41b2-b18b-4d171cea1516))
  (fp_poly (pts (xy -9.7 7.8)
    (xy -9.175 7.8)
    (xy -9.174315 7.826168)
    (xy -9.172261 7.852264)
    (xy -9.168844 7.878217)
    (xy -9.164074 7.903956)
    (xy -9.157963 7.92941)
    (xy -9.150528 7.954508)
    (xy -9.14179 7.979184)
    (xy -9.131773 8.003368)
    (xy -9.120503 8.026995)
    (xy -9.108013 8.05)
    (xy -9.094335 8.07232)
    (xy -9.079508 8.093893)
    (xy -9.063573 8.11466)
    (xy -9.046572 8.134565)
    (xy -9.028553 8.153553)
    (xy -9.009565 8.171572)
    (xy -8.98966 8.188573)
    (xy -8.968893 8.204508)
    (xy -8.94732 8.219335)
    (xy -8.925 8.233013)
    (xy -8.901995 8.245503)
    (xy -8.878368 8.256773)
    (xy -8.854184 8.26679)
    (xy -8.829508 8.275528)
    (xy -8.80441 8.282963)
    (xy -8.778956 8.289074)
    (xy -8.753217 8.293844)
    (xy -8.727264 8.297261)
    (xy -8.701168 8.299315)
    (xy -8.675 8.3)
    (xy -8.648832 8.299315)
    (xy -8.622736 8.297261)
    (xy -8.596783 8.293844)
    (xy -8.571044 8.289074)
    (xy -8.54559 8.282963)
    (xy -8.520492 8.275528)
    (xy -8.495816 8.26679)
    (xy -8.471632 8.256773)
    (xy -8.448005 8.245503)
    (xy -8.425 8.233013)
    (xy -8.40268 8.219335)
    (xy -8.381107 8.204508)
    (xy -8.36034 8.188573)
    (xy -8.340435 8.171572)
    (xy -8.321447 8.153553)
    (xy -8.303428 8.134565)
    (xy -8.286427 8.11466)
    (xy -8.270492 8.093893)
    (xy -8.255665 8.07232)
    (xy -8.241987 8.05)
    (xy -8.229497 8.026995)
    (xy -8.218227 8.003368)
    (xy -8.20821 7.979184)
    (xy -8.199472 7.954508)
    (xy -8.192037 7.92941)
    (xy -8.185926 7.903956)
    (xy -8.181156 7.878217)
    (xy -8.177739 7.852264)
    (xy -8.175685 7.826168)
    (xy -8.175 7.8)
    (xy -8.175685 7.773832)
    (xy -8.177739 7.747736)
    (xy -8.181156 7.721783)
    (xy -8.185926 7.696044)
    (xy -8.192037 7.67059)
    (xy -8.199472 7.645492)
    (xy -8.20821 7.620816)
    (xy -8.218227 7.596632)
    (xy -8.229497 7.573005)
    (xy -8.241987 7.55)
    (xy -8.255665 7.52768)
    (xy -8.270492 7.506107)
    (xy -8.286427 7.48534)
    (xy -8.303428 7.465435)
    (xy -8.321447 7.446447)
    (xy -8.340435 7.428428)
    (xy -8.36034 7.411427)
    (xy -8.381107 7.395492)
    (xy -8.40268 7.380665)
    (xy -8.425 7.366987)
    (xy -8.448005 7.354497)
    (xy -8.471632 7.343227)
    (xy -8.495816 7.33321)
    (xy -8.520492 7.324472)
    (xy -8.54559 7.317037)
    (xy -8.571044 7.310926)
    (xy -8.596783 7.306156)
    (xy -8.622736 7.302739)
    (xy -8.648832 7.300685)
    (xy -8.675 7.3)
    (xy -8.701168 7.300685)
    (xy -8.727264 7.302739)
    (xy -8.753217 7.306156)
    (xy -8.778956 7.310926)
    (xy -8.80441 7.317037)
    (xy -8.829508 7.324472)
    (xy -8.854184 7.33321)
    (xy -8.878368 7.343227)
    (xy -8.901995 7.354497)
    (xy -8.925 7.366987)
    (xy -8.94732 7.380665)
    (xy -8.968893 7.395492)
    (xy -8.98966 7.411427)
    (xy -9.009565 7.428428)
    (xy -9.028553 7.446447)
    (xy -9.046572 7.465435)
    (xy -9.063573 7.48534)
    (xy -9.079508 7.506107)
    (xy -9.094335 7.52768)
    (xy -9.108013 7.55)
    (xy -9.120503 7.573005)
    (xy -9.131773 7.596632)
    (xy -9.14179 7.620816)
    (xy -9.150528 7.645492)
    (xy -9.157963 7.67059)
    (xy -9.164074 7.696044)
    (xy -9.168844 7.721783)
    (xy -9.172261 7.747736)
    (xy -9.174315 7.773832)
    (xy -9.175 7.8)
    (xy -9.7 7.8)
    (xy -9.7 5.65)
    (xy -6.65 5.65)
    (xy -6.65 9.95)
    (xy -9.7 9.95)
    (xy -9.7 7.8)) (layer "F.Paste") (width 0.0001) (tstamp 2f3fe953-6aa9-4e2a-904a-40552027ba83))
  (fp_poly (pts (xy 9.7 7.8)
    (xy 9.175 7.8)
    (xy 9.174315 7.826168)
    (xy 9.172261 7.852264)
    (xy 9.168844 7.878217)
    (xy 9.164074 7.903956)
    (xy 9.157963 7.92941)
    (xy 9.150528 7.954508)
    (xy 9.14179 7.979184)
    (xy 9.131773 8.003368)
    (xy 9.120503 8.026995)
    (xy 9.108013 8.05)
    (xy 9.094335 8.07232)
    (xy 9.079508 8.093893)
    (xy 9.063573 8.11466)
    (xy 9.046572 8.134565)
    (xy 9.028553 8.153553)
    (xy 9.009565 8.171572)
    (xy 8.98966 8.188573)
    (xy 8.968893 8.204508)
    (xy 8.94732 8.219335)
    (xy 8.925 8.233013)
    (xy 8.901995 8.245503)
    (xy 8.878368 8.256773)
    (xy 8.854184 8.26679)
    (xy 8.829508 8.275528)
    (xy 8.80441 8.282963)
    (xy 8.778956 8.289074)
    (xy 8.753217 8.293844)
    (xy 8.727264 8.297261)
    (xy 8.701168 8.299315)
    (xy 8.675 8.3)
    (xy 8.648832 8.299315)
    (xy 8.622736 8.297261)
    (xy 8.596783 8.293844)
    (xy 8.571044 8.289074)
    (xy 8.54559 8.282963)
    (xy 8.520492 8.275528)
    (xy 8.495816 8.26679)
    (xy 8.471632 8.256773)
    (xy 8.448005 8.245503)
    (xy 8.425 8.233013)
    (xy 8.40268 8.219335)
    (xy 8.381107 8.204508)
    (xy 8.36034 8.188573)
    (xy 8.340435 8.171572)
    (xy 8.321447 8.153553)
    (xy 8.303428 8.134565)
    (xy 8.286427 8.11466)
    (xy 8.270492 8.093893)
    (xy 8.255665 8.07232)
    (xy 8.241987 8.05)
    (xy 8.229497 8.026995)
    (xy 8.218227 8.003368)
    (xy 8.20821 7.979184)
    (xy 8.199472 7.954508)
    (xy 8.192037 7.92941)
    (xy 8.185926 7.903956)
    (xy 8.181156 7.878217)
    (xy 8.177739 7.852264)
    (xy 8.175685 7.826168)
    (xy 8.175 7.8)
    (xy 8.175685 7.773832)
    (xy 8.177739 7.747736)
    (xy 8.181156 7.721783)
    (xy 8.185926 7.696044)
    (xy 8.192037 7.67059)
    (xy 8.199472 7.645492)
    (xy 8.20821 7.620816)
    (xy 8.218227 7.596632)
    (xy 8.229497 7.573005)
    (xy 8.241987 7.55)
    (xy 8.255665 7.52768)
    (xy 8.270492 7.506107)
    (xy 8.286427 7.48534)
    (xy 8.303428 7.465435)
    (xy 8.321447 7.446447)
    (xy 8.340435 7.428428)
    (xy 8.36034 7.411427)
    (xy 8.381107 7.395492)
    (xy 8.40268 7.380665)
    (xy 8.425 7.366987)
    (xy 8.448005 7.354497)
    (xy 8.471632 7.343227)
    (xy 8.495816 7.33321)
    (xy 8.520492 7.324472)
    (xy 8.54559 7.317037)
    (xy 8.571044 7.310926)
    (xy 8.596783 7.306156)
    (xy 8.622736 7.302739)
    (xy 8.648832 7.300685)
    (xy 8.675 7.3)
    (xy 8.701168 7.300685)
    (xy 8.727264 7.302739)
    (xy 8.753217 7.306156)
    (xy 8.778956 7.310926)
    (xy 8.80441 7.317037)
    (xy 8.829508 7.324472)
    (xy 8.854184 7.33321)
    (xy 8.878368 7.343227)
    (xy 8.901995 7.354497)
    (xy 8.925 7.366987)
    (xy 8.94732 7.380665)
    (xy 8.968893 7.395492)
    (xy 8.98966 7.411427)
    (xy 9.009565 7.428428)
    (xy 9.028553 7.446447)
    (xy 9.046572 7.465435)
    (xy 9.063573 7.48534)
    (xy 9.079508 7.506107)
    (xy 9.094335 7.52768)
    (xy 9.108013 7.55)
    (xy 9.120503 7.573005)
    (xy 9.131773 7.596632)
    (xy 9.14179 7.620816)
    (xy 9.150528 7.645492)
    (xy 9.157963 7.67059)
    (xy 9.164074 7.696044)
    (xy 9.168844 7.721783)
    (xy 9.172261 7.747736)
    (xy 9.174315 7.773832)
    (xy 9.175 7.8)
    (xy 9.7 7.8)
    (xy 9.7 5.65)
    (xy 6.65 5.65)
    (xy 6.65 9.95)
    (xy 9.7 9.95)
    (xy 9.7 7.8)) (layer "F.Paste") (width 0.0001) (tstamp fee2ca37-7c49-4df3-b711-5019c30cfe98))
  (fp_line (start -7 2.75) (end 7 2.75) (layer "F.SilkS") (width 0.127) (tstamp 303c7a74-50af-40ba-8c73-adb3d0e57d2c))
  (fp_line (start -7 10.5) (end -7 13.65) (layer "F.SilkS") (width 0.127) (tstamp 3e7798fa-0e8e-4c87-b751-6bda43778ed6))
  (fp_line (start -7 13.65) (end 7 13.65) (layer "F.SilkS") (width 0.127) (tstamp 71f317f7-5ce9-4462-abff-358769724214))
  (fp_line (start 7 5.08) (end 7 2.75) (layer "F.SilkS") (width 0.127) (tstamp 9c2fc3bb-042c-44a8-88b5-2b35535fa320))
  (fp_line (start -7 5.08) (end -7 2.75) (layer "F.SilkS") (width 0.127) (tstamp c0bcb940-68c6-449b-b29d-8b19bf298cd9))
  (fp_line (start 7 13.65) (end 7 10.5) (layer "F.SilkS") (width 0.127) (tstamp fc65cf4e-25bb-49b5-a30e-13a323a7b9e4))
  (fp_circle (center -3.556 -2.032) (end -3.456 -2.032) (layer "F.SilkS") (width 0.2) (tstamp 8e674f00-004b-4262-83b3-61bfaa93aaab))
  (fp_poly (pts (xy -10.185 5.3)
    (xy -6.175 5.3)
    (xy -6.175 10.3101)
    (xy -10.185 10.3101)) (layer "B.Mask") (width 0.01) (tstamp 6e517d04-b863-44ac-a42d-a37f29146bc3))
  (fp_poly (pts (xy 6.17757 5.3)
    (xy 10.175 5.3)
    (xy 10.175 10.3043)
    (xy 6.17757 10.3043)) (layer "B.Mask") (width 0.01) (tstamp 9f2a2a25-bc6b-4179-937a-4fef11e3eeb6))
  (fp_poly (pts (xy -10.1806 5.3)
    (xy -6.175 5.3)
    (xy -6.175 10.3057)
    (xy -10.1806 10.3057)) (layer "F.Mask") (width 0.01) (tstamp 2a498c01-3320-4a16-8607-668b7e5a6d4f))
  (fp_poly (pts (xy 6.18318 5.3)
    (xy 10.175 5.3)
    (xy 10.175 10.3137)
    (xy 6.18318 10.3137)) (layer "F.Mask") (width 0.01) (tstamp de825ad1-4218-4412-b4d9-aaa468e15ed5))
  (fp_arc (start -8.675 7.8) (end -8.175 7.8) (angle 90) (layer "Edge.Cuts") (width 0.0001) (tstamp 209712cd-de58-412d-b505-a9723d5d9900))
  (fp_arc (start -8.675 7.8) (end -9.175 7.8) (angle 90) (layer "Edge.Cuts") (width 0.0001) (tstamp 23b8cc0d-62f8-4732-a7e7-babc2681d75a))
  (fp_arc (start 8.675 7.8) (end 8.675 8.3) (angle -90) (layer "Edge.Cuts") (width 0.0001) (tstamp 4e3d0c59-dedc-475c-9ec2-97b832b6db1e))
  (fp_arc (start 8.675 7.8) (end 8.175 7.8) (angle -90) (layer "Edge.Cuts") (width 0.0001) (tstamp 549917d5-7f3a-48e7-8478-bf0631739e21))
  (fp_arc (start -8.675 7.8) (end -8.675 8.3) (angle 90) (layer "Edge.Cuts") (width 0.0001) (tstamp 578c8630-b521-4144-9092-e7f884583766))
  (fp_arc (start 8.675 7.8) (end 8.675 7.3) (angle -90) (layer "Edge.Cuts") (width 0.0001) (tstamp 5a106863-13dc-4802-b2cd-335e81d524eb))
  (fp_arc (start -8.675 7.8) (end -8.675 7.3) (angle 90) (layer "Edge.Cuts") (width 0.0001) (tstamp 7aeed4af-5d3d-4a31-ab66-a586e5ce0dba))
  (fp_arc (start 8.675 7.8) (end 9.175 7.8) (angle -90) (layer "Edge.Cuts") (width 0.0001) (tstamp f2d1ab77-3794-41c8-a7c2-2e9a2aacaff3))
  (fp_line (start -7.25 2.5) (end -7.25 5.25) (layer "F.CrtYd") (width 0.05) (tstamp 024c32c8-6c0f-4e13-82fd-46f9dadf43cd))
  (fp_line (start -10.3 5.25) (end -10.3 10.35) (layer "F.CrtYd") (width 0.05) (tstamp 17d748a5-3158-4b2b-b4b5-9dbba2a959d6))
  (fp_line (start -10.3 10.35) (end -7.25 10.35) (layer "F.CrtYd") (width 0.05) (tstamp 1eb1f648-4f75-462b-9548-044a251b8c72))
  (fp_line (start 7 2.5) (end 7.25 2.5) (layer "F.CrtYd") (width 0.05) (tstamp 5005fe2b-7e1e-4e69-8ace-d49149998a0a))
  (fp_line (start -4.25 -1.25) (end -4.25 -1.75) (layer "F.CrtYd") (width 0.05) (tstamp 5fb9050c-87bd-4f6e-8bc1-23980c7ac9e9))
  (fp_line (start -7.25 2.5) (end -7 2.5) (layer "F.CrtYd") (width 0.05) (tstamp 627f614c-cea9-4b18-ab22-b918206b7b86))
  (fp_line (start 7.25 2.5) (end 7.25 5.25) (layer "F.CrtYd") (width 0.05) (tstamp 6ce97cc0-b1aa-4d9c-bf37-16efa6ee4220))
  (fp_line (start 4.25 -1.25) (end 7 -1.25) (layer "F.CrtYd") (width 0.05) (tstamp 74f1545d-df93-451b-86e1-4a60ea7c302a))
  (fp_line (start 10.25 10.35) (end 7.25 10.35) (layer "F.CrtYd") (width 0.05) (tstamp 7945593c-5a76-4170-a268-90166f0f3f4d))
  (fp_line (start -7 2.5) (end -7 -1.25) (layer "F.CrtYd") (width 0.05) (tstamp 79d3ed5b-237e-4fb9-8717-19fad2dcbcf1))
  (fp_line (start -4.25 -1.75) (end 4.25 -1.75) (layer "F.CrtYd") (width 0.05) (tstamp 84d3a4ca-6dc7-403d-95e3-c8566920adc6))
  (fp_line (start 7.25 14) (end -7.25 14) (layer "F.CrtYd") (width 0.05) (tstamp 8a0da339-a9af-4610-a599-b0ee74d82361))
  (fp_line (start -7.25 10.35) (end -7.25 14) (layer "F.CrtYd") (width 0.05) (tstamp 9510febc-cff0-488d-a53b-7e9d7cdcce5f))
  (fp_line (start -7.25 5.25) (end -10.3 5.25) (layer "F.CrtYd") (width 0.05) (tstamp 9d0353bd-a24a-4ec4-a9fe-313c93e4c700))
  (fp_line (start -7 -1.25) (end -4.25 -1.25) (layer "F.CrtYd") (width 0.05) (tstamp bbbe7d34-304b-4bb8-946f-2927e2052ce4))
  (fp_line (start 7 -1.25) (end 7 2.5) (layer "F.CrtYd") (width 0.05) (tstamp c3d3707b-9a50-4c66-b2d3-760d4b9dc22e))
  (fp_line (start 7.25 5.25) (end 10.25 5.25) (layer "F.CrtYd") (width 0.05) (tstamp c872dda8-fb34-4a16-b93b-c7a300581422))
  (fp_line (start 4.25 -1.75) (end 4.25 -1.25) (layer "F.CrtYd") (width 0.05) (tstamp d9af0525-0ec9-43c9-91a4-2f209dfb7b60))
  (fp_line (start 7.25 10.35) (end 7.25 14) (layer "F.CrtYd") (width 0.05) (tstamp dee5c93d-4e12-4c0f-b52d-a557bdd244b0))
  (fp_line (start 10.25 5.25) (end 10.25 10.35) (layer "F.CrtYd") (width 0.05) (tstamp fe1932e6-232a-4820-adca-fe1753c41566))
  (fp_line (start -7 2.75) (end 7 2.75) (layer "F.Fab") (width 0.127) (tstamp 041e671e-37e3-4dda-93f3-7db9c513ae02))
  (fp_line (start 7 13.65) (end 7 2.75) (layer "F.Fab") (width 0.127) (tstamp 1486c023-9926-4fb9-94c5-331ce49f5162))
  (fp_line (start -6.35 10.8) (end -11.4 10.8) (layer "F.Fab") (width 0.127) (tstamp 171365d6-300a-4ed5-a2e8-912a94f41ed6))
  (fp_line (start -6.35 3.8) (end 6.35 3.8) (layer "F.Fab") (width 0.127) (tstamp 258531ac-5694-4348-a528-abc70f79567f))
  (fp_line (start -6.35 3.8) (end -6.35 10.8) (layer "F.Fab") (width 0.127) (tstamp 2abe4c6f-b7ce-4c1e-84fd-e9ec6dd496d5))
  (fp_line (start -7 2.75) (end -7 13.65) (layer "F.Fab") (width 0.127) (tstamp 8648051c-a19d-463f-8f6e-895df0aa3557))
  (fp_line (start 6.35 3.8) (end 6.35 10.8) (layer "F.Fab") (width 0.127) (tstamp ab899486-ce9c-4f69-b334-290c6959ca0b))
  (fp_line (start -7 13.65) (end 7 13.65) (layer "F.Fab") (width 0.127) (tstamp b11c7961-b9d2-45c2-9f71-ae75bd38875b))
  (fp_line (start 6.35 10.8) (end 11.4 10.8) (layer "F.Fab") (width 0.127) (tstamp dcf03e06-42a1-4357-9ebf-9e99f5f0e4ed))
  (fp_poly (pts (xy 7.00674 7.5)
    (xy 8.75 7.5)
    (xy 8.75 8.0077)
    (xy 7.00674 8.0077)) (layer "F.Fab") (width 0.01) (tstamp 1cb9c95f-dab8-4993-82f7-a5852ee8d9f7))
  (fp_poly (pts (xy -8.76514 7.5)
    (xy -7 7.5)
    (xy -7 8.01384)
    (xy -8.76514 8.01384)) (layer "F.Fab") (width 0.01) (tstamp edcde49b-b575-4836-8e8a-b8a0fd418ae4))
  (pad "1" smd rect (at -3.57 0) (size 0.7 3) (layers "F.Cu" "F.Paste" "F.Mask") (tstamp 9d8f67ca-3ed3-47a5-899e-6872dd2af998))
  (pad "2" smd rect (at -2.55 0) (size 0.7 3) (layers "F.Cu" "F.Paste" "F.Mask") (tstamp bb6fc8f0-db48-48a2-b33a-0efd7690eff1))
  (pad "3" smd rect (at -1.53 0) (size 0.7 3) (layers "F.Cu" "F.Paste" "F.Mask") (tstamp 825715f1-06a8-41ad-b81d-ea428d003425))
  (pad "4" smd rect (at -0.51 0) (size 0.7 3) (layers "F.Cu" "F.Paste" "F.Mask") (tstamp 157a5fad-d8f1-48a1-a598-ae49ea157975))
  (pad "5" smd rect (at 0.51 0) (size 0.7 3) (layers "F.Cu" "F.Paste" "F.Mask") (tstamp 40fc6010-f455-412e-84e5-4b9cf9663d4b))
  (pad "6" smd rect (at 1.53 0) (size 0.7 3) (layers "F.Cu" "F.Paste" "F.Mask") (tstamp b7787033-008b-413f-8e7f-5442093c4a6c))
  (pad "7" smd rect (at 2.55 0) (size 0.7 3) (layers "F.Cu" "F.Paste" "F.Mask") (tstamp b9475e0d-f57e-457b-87c1-27f790235be1))
  (pad "8" smd rect (at 3.57 0) (size 0.7 3) (layers "F.Cu" "F.Paste" "F.Mask") (tstamp 1b253614-d080-43b1-b292-3c5fe587ad43))
  (pad "None" np_thru_hole circle (at -8.675 7.8) (size 1 1) (drill 1) (layers *.Cu *.Mask) (tstamp 01b0cf91-02f4-4121-a68a-5d4d4f272c64))
  (pad "None" np_thru_hole circle (at -5.75 0) (size 1.8 1.8) (drill 1.8) (layers *.Cu *.Mask) (tstamp 3f39a0f2-be1f-476b-80f1-241fd0d76033))
  (pad "None" np_thru_hole circle (at 8.675 7.8) (size 1 1) (drill 1) (layers *.Cu *.Mask) (tstamp 4f0704d2-0668-4eeb-b0ea-15a04c4d21fd))
  (pad "None" np_thru_hole circle (at 5.75 0) (size 1.8 1.8) (drill 1.8) (layers *.Cu *.Mask) (tstamp fe2e14d8-53f9-4502-92c9-496c1557acc5))
  (pad "S1" smd rect (at -6.925 7.8) (size 0.1 0.1) (layers "F.Cu") (tstamp adef0083-9952-4741-b008-33b3058a503e))
  (pad "S2" smd rect (at 6.925 7.8) (size 0.1 0.1) (layers "F.Cu") (tstamp 4f9d49d3-b50d-4501-86c4-2024689165a8))
  (model "${KISYS3DMOD}/c-2041126-1-a-3d.stp"
    (offset (xyz 0 -13.7 3.5))
    (scale (xyz 1 1 1))
    (rotate (xyz -90 0 0))
  )
)
