(module "UFL-TE-2337019-1" (layer "F.Cu") (tedit 5FB3A487)
  (attr through_hole)
  (fp_text reference "REF**" (at 0 -2.794) (layer "F.SilkS")
    (effects (font (size 0.762 0.762) (thickness 0.127)))
    (tstamp 5b3ddffb-46e5-4353-8417-88f8b93dd64f)
  )
  (fp_text value "UFL-TE-2337019-1" (at 0 3.556) (layer "F.Fab") hide
    (effects (font (size 1.5 1.5) (thickness 0.15)))
    (tstamp 18ad9f3f-8d69-4db9-903b-92d7e7525cb0)
  )
  (fp_line (start -1.427 1.3) (end -1.427 -1.3) (layer "F.SilkS") (width 0.16) (tstamp 4387604e-361b-45ac-a3ba-bfad45c20422))
  (fp_circle (center 2.032 -1.27) (end 2.159 -1.143) (layer "F.SilkS") (width 0.5) (tstamp 2c86e108-6e24-4094-bd71-56c64cd16777))
  (fp_line (start 0.9 -1.3) (end -0.9 -1.3) (layer "Dwgs.User") (width 0.1) (tstamp 14e791d9-26f3-4758-a6e8-3f22e0ee2bf1))
  (fp_line (start 1.3 0.3) (end 1.3 -0.3) (layer "Dwgs.User") (width 0.1) (tstamp 71d562c5-0b27-49c3-abfc-5ab05cf7f0fb))
  (fp_line (start -0.9 1.3) (end 0.9 1.3) (layer "Dwgs.User") (width 0.1) (tstamp e0b5f3d0-74a8-4617-a38f-321f4a69bd24))
  (fp_rect (start -1.778 -2.032) (end 2.159 2.032) (layer "F.CrtYd") (width 0.12) (tstamp d7554811-b686-4566-b494-3e2f391130a4))
  (fp_line (start -1.55 0.3) (end -1.55 -0.3) (layer "F.Fab") (width 0.1) (tstamp 0b35d394-a54c-4308-9519-5394977a33ad))
  (fp_line (start 0.9 1.5) (end -0.9 1.5) (layer "F.Fab") (width 0.1) (tstamp 16000a17-e065-4e5e-9c76-1842c43d60e6))
  (fp_line (start 0.9 1.3) (end 1.3 0.9) (layer "F.Fab") (width 0.1) (tstamp 2a119df1-b0b6-4d4b-a174-d6ca8dfafe25))
  (fp_line (start 0.9 1.3) (end -1.3 1.3) (layer "F.Fab") (width 0.1) (tstamp 36549ae2-3b2c-4532-99d2-a0152a370921))
  (fp_line (start 1.55 -0.3) (end 1.55 0.3) (layer "F.Fab") (width 0.1) (tstamp 6f0bde7b-a849-4280-999a-796218ab84a9))
  (fp_line (start 0.9 -1.5) (end 0.9 -1.3) (layer "F.Fab") (width 0.1) (tstamp 728a5640-25c2-46b4-b0b9-c3bb7c136447))
  (fp_line (start -1.3 -0.3) (end -1.55 -0.3) (layer "F.Fab") (width 0.1) (tstamp 733daa04-b136-4ebb-b5cb-d07dcaaf8b35))
  (fp_line (start 1.55 -0.3) (end 1.3 -0.3) (layer "F.Fab") (width 0.1) (tstamp 73fce6ba-3530-4f1a-ac6c-5181bf9fc3ac))
  (fp_line (start -1.3 1.3) (end -1.3 -1.3) (layer "F.Fab") (width 0.1) (tstamp 83e66349-713b-4b22-bd18-dd2842a71e15))
  (fp_line (start -1.3 0.3) (end -1.55 0.3) (layer "F.Fab") (width 0.1) (tstamp 8603cee5-5eed-45dd-96f1-4a8c8795958a))
  (fp_line (start -0.9 -1.3) (end -0.9 -1.5) (layer "F.Fab") (width 0.1) (tstamp 927dbccf-e16d-4b20-b52d-c1e4f1dd99a0))
  (fp_line (start -1.3 -1.3) (end 0.9 -1.3) (layer "F.Fab") (width 0.1) (tstamp 942e32da-40c2-4f68-8120-a39db2588ba3))
  (fp_line (start 1.3 -0.9) (end 1.3 0.9) (layer "F.Fab") (width 0.1) (tstamp a40f539e-98dc-4748-8c17-b1d374c530c9))
  (fp_line (start 0.9 1.3) (end 0.9 1.5) (layer "F.Fab") (width 0.1) (tstamp b7c43449-8e02-4d7e-8d3c-72561ed3305b))
  (fp_line (start 1.55 0.3) (end 1.3 0.3) (layer "F.Fab") (width 0.1) (tstamp bbbb2a82-6462-43ef-a708-89cd314ed3a1))
  (fp_line (start -0.9 1.5) (end -0.9 1.3) (layer "F.Fab") (width 0.1) (tstamp bf9aee88-2b53-4715-9435-1431fbb53367))
  (fp_line (start 0.9 -1.3) (end 1.3 -0.9) (layer "F.Fab") (width 0.1) (tstamp cf739f0c-7f18-486b-99f7-1751165ae897))
  (fp_line (start -0.9 -1.5) (end 0.9 -1.5) (layer "F.Fab") (width 0.1) (tstamp e7dc4bbc-8e65-480a-840e-f816124a0f83))
  (fp_circle (center -0.016 0) (end 0.984 0) (layer "F.Fab") (width 0.1) (tstamp fb7c1e3e-af64-4e20-9dcf-58cd53c0e621))
  (pad "1" smd rect (at 1.525 0) (size 1.05 1) (layers "F.Cu" "F.Paste" "F.Mask") (tstamp 0ce0d0c0-13e4-4947-ab8a-ddb39610143e))
  (pad "2" smd rect (at 0 -1.475) (size 2.2 1.05) (layers "F.Cu" "F.Paste" "F.Mask") (tstamp 3b7bbf34-3a90-4f54-9d57-a65f12893dad))
  (pad "3" smd rect (at 0 1.475) (size 2.2 1.05) (layers "F.Cu" "F.Paste" "F.Mask") (tstamp f83a3c5a-d195-41ef-8cc6-f4d1ee59609f))
  (model "${KISYS3DMOD}/c-2337019-1-a2-3d.STEP"
    (offset (xyz 0 0 1.2))
    (scale (xyz 1 1 1))
    (rotate (xyz 0 0 90))
  )
)
