(module SON9P127_500X600X80L60X41T430X340N (layer F.Cu) (tedit 0)
  (descr "Small Outline No-Lead (SON with Tab), 1.27 mm pitch; 8 pin, 5.00 mm L X 6.00 mm W X 0.80 mm H body")
  (attr smd)
  (fp_text user %R (at 0 0) (layer F.Fab)
    (effects (font (size 2 2) (thickness 0.2)))
  )
  (fp_text value VAL** (at 0 0) (layer F.Fab)
    (effects (font (size 1.2 1.2) (thickness 0.12)))
  )
  (fp_text reference REF** (at 0 0) (layer F.SilkS)
    (effects (font (size 1.2 1.2) (thickness 0.12)))
  )
  (fp_line (start -1.6975 3) (end -1.6975 2.6075) (layer Dwgs.User) (width 0.025))
  (fp_arc (start -1.905 2.6075) (end -2.1125 2.6075) (angle 180) (layer Dwgs.User) (width 0.025))
  (fp_line (start -2.1125 2.6075) (end -2.1125 3) (layer Dwgs.User) (width 0.025))
  (fp_line (start -2.1125 3) (end -1.6975 3) (layer Dwgs.User) (width 0.025))
  (fp_line (start -0.4275 3) (end -0.4275 2.6075) (layer Dwgs.User) (width 0.025))
  (fp_arc (start -0.635 2.6075) (end -0.8425 2.6075) (angle 180) (layer Dwgs.User) (width 0.025))
  (fp_line (start -0.8425 2.6075) (end -0.8425 3) (layer Dwgs.User) (width 0.025))
  (fp_line (start -0.8425 3) (end -0.4275 3) (layer Dwgs.User) (width 0.025))
  (fp_line (start 0.8425 3) (end 0.8425 2.6075) (layer Dwgs.User) (width 0.025))
  (fp_arc (start 0.635 2.6075) (end 0.4275 2.6075) (angle 180) (layer Dwgs.User) (width 0.025))
  (fp_line (start 0.4275 2.6075) (end 0.4275 3) (layer Dwgs.User) (width 0.025))
  (fp_line (start 0.4275 3) (end 0.8425 3) (layer Dwgs.User) (width 0.025))
  (fp_line (start 2.1125 3) (end 2.1125 2.6075) (layer Dwgs.User) (width 0.025))
  (fp_arc (start 1.905 2.6075) (end 1.6975 2.6075) (angle 180) (layer Dwgs.User) (width 0.025))
  (fp_line (start 1.6975 2.6075) (end 1.6975 3) (layer Dwgs.User) (width 0.025))
  (fp_line (start 1.6975 3) (end 2.1125 3) (layer Dwgs.User) (width 0.025))
  (fp_line (start 1.6975 -3) (end 1.6975 -2.6075) (layer Dwgs.User) (width 0.025))
  (fp_arc (start 1.905 -2.6075) (end 2.1125 -2.6075) (angle 180) (layer Dwgs.User) (width 0.025))
  (fp_line (start 2.1125 -2.6075) (end 2.1125 -3) (layer Dwgs.User) (width 0.025))
  (fp_line (start 2.1125 -3) (end 1.6975 -3) (layer Dwgs.User) (width 0.025))
  (fp_line (start 0.4275 -3) (end 0.4275 -2.6075) (layer Dwgs.User) (width 0.025))
  (fp_arc (start 0.635 -2.6075) (end 0.8425 -2.6075) (angle 180) (layer Dwgs.User) (width 0.025))
  (fp_line (start 0.8425 -2.6075) (end 0.8425 -3) (layer Dwgs.User) (width 0.025))
  (fp_line (start 0.8425 -3) (end 0.4275 -3) (layer Dwgs.User) (width 0.025))
  (fp_line (start -0.8425 -3) (end -0.8425 -2.6075) (layer Dwgs.User) (width 0.025))
  (fp_arc (start -0.635 -2.6075) (end -0.4275 -2.6075) (angle 180) (layer Dwgs.User) (width 0.025))
  (fp_line (start -0.4275 -2.6075) (end -0.4275 -3) (layer Dwgs.User) (width 0.025))
  (fp_line (start -0.4275 -3) (end -0.8425 -3) (layer Dwgs.User) (width 0.025))
  (fp_line (start -2.1125 -3) (end -2.1125 -2.6075) (layer Dwgs.User) (width 0.025))
  (fp_arc (start -1.905 -2.6075) (end -1.6975 -2.6075) (angle 180) (layer Dwgs.User) (width 0.025))
  (fp_line (start -1.6975 -2.6075) (end -1.6975 -3) (layer Dwgs.User) (width 0.025))
  (fp_line (start -1.6975 -3) (end -2.1125 -3) (layer Dwgs.User) (width 0.025))
  (fp_line (start -1.95 1.7) (end 2.15 1.7) (layer Dwgs.User) (width 0.025))
  (fp_line (start 2.15 1.7) (end 2.15 -1.7) (layer Dwgs.User) (width 0.025))
  (fp_line (start 2.15 -1.7) (end -2.15 -1.7) (layer Dwgs.User) (width 0.025))
  (fp_line (start -2.15 -1.7) (end -2.15 1.5) (layer Dwgs.User) (width 0.025))
  (fp_line (start -2.15 1.5) (end -1.95 1.7) (layer Dwgs.User) (width 0.025))
  (fp_line (start -2.5 3) (end -2.5 -3) (layer Dwgs.User) (width 0.025))
  (fp_line (start -2.5 -3) (end 2.5 -3) (layer Dwgs.User) (width 0.025))
  (fp_line (start 2.5 -3) (end 2.5 3) (layer Dwgs.User) (width 0.025))
  (fp_line (start 2.5 3) (end -2.5 3) (layer Dwgs.User) (width 0.025))
  (fp_circle (center 0 0) (end 0 0.25) (layer F.CrtYd) (width 0.05))
  (fp_line (start 0 -0.35) (end 0 0.35) (layer F.CrtYd) (width 0.05))
  (fp_line (start -0.35 0) (end 0.35 0) (layer F.CrtYd) (width 0.05))
  (fp_line (start 2.55 3.05) (end -1.28 3.05) (layer F.Fab) (width 0.16))
  (fp_line (start -1.28 3.05) (end -2.55 1.78) (layer F.Fab) (width 0.16))
  (fp_line (start -2.55 1.78) (end -2.55 -3.05) (layer F.Fab) (width 0.16))
  (fp_line (start -2.55 -3.05) (end 2.55 -3.05) (layer F.Fab) (width 0.16))
  (fp_line (start 2.55 -3.05) (end 2.55 3.05) (layer F.Fab) (width 0.16))
  (fp_line (start 2.365 3.05) (end 2.55 3.05) (layer F.SilkS) (width 0.16))
  (fp_line (start 2.55 3.05) (end 2.55 -3.05) (layer F.SilkS) (width 0.16))
  (fp_line (start 2.55 -3.05) (end 2.365 -3.05) (layer F.SilkS) (width 0.16))
  (fp_line (start -2.365 3.05) (end -2.55 3.05) (layer F.SilkS) (width 0.16))
  (fp_line (start -2.55 3.05) (end -2.55 -3.05) (layer F.SilkS) (width 0.16))
  (fp_line (start -2.55 -3.05) (end -2.365 -3.05) (layer F.SilkS) (width 0.16))
  (fp_line (start -2.365 3.05) (end -2.365 3.185) (layer F.SilkS) (width 0.16))
  (fp_line (start 2.75 3.25) (end 2.75 -3.25) (layer F.CrtYd) (width 0.05))
  (fp_line (start 2.75 -3.25) (end 2.325 -3.25) (layer F.CrtYd) (width 0.05))
  (fp_line (start 2.325 -3.25) (end 2.325 -3.465) (layer F.CrtYd) (width 0.05))
  (fp_line (start 2.325 -3.465) (end -2.325 -3.465) (layer F.CrtYd) (width 0.05))
  (fp_line (start -2.325 -3.465) (end -2.325 -3.25) (layer F.CrtYd) (width 0.05))
  (fp_line (start -2.325 -3.25) (end -2.75 -3.25) (layer F.CrtYd) (width 0.05))
  (fp_line (start -2.75 -3.25) (end -2.75 3.25) (layer F.CrtYd) (width 0.05))
  (fp_line (start -2.75 3.25) (end -2.325 3.25) (layer F.CrtYd) (width 0.05))
  (fp_line (start -2.325 3.25) (end -2.325 3.465) (layer F.CrtYd) (width 0.05))
  (fp_line (start -2.325 3.465) (end 2.325 3.465) (layer F.CrtYd) (width 0.05))
  (fp_line (start 2.325 3.465) (end 2.325 3.25) (layer F.CrtYd) (width 0.05))
  (fp_line (start 2.325 3.25) (end 2.75 3.25) (layer F.CrtYd) (width 0.05))
  (pad 1 smd roundrect (at -1.905 2.795 90) (size 0.94 0.44) (layers F.Cu F.Paste F.Mask) (roundrect_rratio 0.25))
  (pad 2 smd roundrect (at -0.635 2.795 90) (size 0.94 0.44) (layers F.Cu F.Paste F.Mask) (roundrect_rratio 0.25))
  (pad 3 smd roundrect (at 0.635 2.795 90) (size 0.94 0.44) (layers F.Cu F.Paste F.Mask) (roundrect_rratio 0.25))
  (pad 4 smd roundrect (at 1.905 2.795 90) (size 0.94 0.44) (layers F.Cu F.Paste F.Mask) (roundrect_rratio 0.25))
  (pad 5 smd roundrect (at 1.905 -2.795 90) (size 0.94 0.44) (layers F.Cu F.Paste F.Mask) (roundrect_rratio 0.25))
  (pad 6 smd roundrect (at 0.635 -2.795 90) (size 0.94 0.44) (layers F.Cu F.Paste F.Mask) (roundrect_rratio 0.25))
  (pad 7 smd roundrect (at -0.635 -2.795 90) (size 0.94 0.44) (layers F.Cu F.Paste F.Mask) (roundrect_rratio 0.25))
  (pad 8 smd roundrect (at -1.905 -2.795 90) (size 0.94 0.44) (layers F.Cu F.Paste F.Mask) (roundrect_rratio 0.25))
  (pad 9 smd rect (at 0 0 90) (size 3.4 4.3) (layers F.Cu F.Mask))
  (pad "" smd rect (at 1.075 0.85 90) (size 1.2 1.65) (layers F.Paste))
  (pad "" smd rect (at 1.075 -0.85 90) (size 1.2 1.65) (layers F.Paste))
  (pad "" smd rect (at -1.075 0.85 90) (size 1.2 1.65) (layers F.Paste))
  (pad "" smd rect (at -1.075 -0.85 90) (size 1.2 1.65) (layers F.Paste))
)
