(module RESC305X155X65L42N (layer F.Cu) (tedit 0)
  (descr "Resistor, Chip; 3.05 mm L X 1.55 mm W X 0.65 mm H body")
  (attr smd)
  (fp_text user %R (at 0 0) (layer F.Fab)
    (effects (font (size 1.22 1.22) (thickness 0.12)))
  )
  (fp_text value VAL** (at 0 0) (layer F.Fab)
    (effects (font (size 1.2 1.2) (thickness 0.12)))
  )
  (fp_text reference REF** (at 0 0) (layer F.SilkS)
    (effects (font (size 1.2 1.2) (thickness 0.12)))
  )
  (fp_line (start -1.105 -0.775) (end -1.105 0.775) (layer Dwgs.User) (width 0.025))
  (fp_line (start -1.105 0.775) (end -1.525 0.775) (layer Dwgs.User) (width 0.025))
  (fp_line (start -1.525 0.775) (end -1.525 -0.775) (layer Dwgs.User) (width 0.025))
  (fp_line (start -1.525 -0.775) (end -1.105 -0.775) (layer Dwgs.User) (width 0.025))
  (fp_line (start 1.105 0.775) (end 1.105 -0.775) (layer Dwgs.User) (width 0.025))
  (fp_line (start 1.105 -0.775) (end 1.525 -0.775) (layer Dwgs.User) (width 0.025))
  (fp_line (start 1.525 -0.775) (end 1.525 0.775) (layer Dwgs.User) (width 0.025))
  (fp_line (start 1.525 0.775) (end 1.105 0.775) (layer Dwgs.User) (width 0.025))
  (fp_line (start -1.525 0.775) (end -1.525 -0.775) (layer Dwgs.User) (width 0.025))
  (fp_line (start -1.525 -0.775) (end 1.525 -0.775) (layer Dwgs.User) (width 0.025))
  (fp_line (start 1.525 -0.775) (end 1.525 0.775) (layer Dwgs.User) (width 0.025))
  (fp_line (start 1.525 0.775) (end -1.525 0.775) (layer Dwgs.User) (width 0.025))
  (fp_line (start -1.6 0.85) (end -1.6 -0.85) (layer F.Fab) (width 0.12))
  (fp_line (start -1.6 -0.85) (end 1.6 -0.85) (layer F.Fab) (width 0.12))
  (fp_line (start 1.6 -0.85) (end 1.6 0.85) (layer F.Fab) (width 0.12))
  (fp_line (start 1.6 0.85) (end -1.6 0.85) (layer F.Fab) (width 0.12))
  (fp_line (start -0.76 -0.85) (end 0.76 -0.85) (layer F.SilkS) (width 0.12))
  (fp_line (start -0.76 0.85) (end 0.76 0.85) (layer F.SilkS) (width 0.12))
  (fp_line (start -2.16 1.06) (end -2.16 -1.06) (layer F.CrtYd) (width 0.05))
  (fp_line (start -2.16 -1.06) (end 2.16 -1.06) (layer F.CrtYd) (width 0.05))
  (fp_line (start 2.16 -1.06) (end 2.16 1.06) (layer F.CrtYd) (width 0.05))
  (fp_line (start 2.16 1.06) (end -2.16 1.06) (layer F.CrtYd) (width 0.05))
  (fp_circle (center 0 0) (end 0 0.25) (layer F.CrtYd) (width 0.05))
  (fp_line (start 0.35 0) (end -0.35 0) (layer F.CrtYd) (width 0.05))
  (fp_line (start 0 -0.35) (end 0 0.35) (layer F.CrtYd) (width 0.05))
  (pad 1 smd roundrect (at -1.45 0) (size 1.02 1.72) (layers F.Cu F.Paste F.Mask) (roundrect_rratio 0.2451))
  (pad 2 smd roundrect (at 1.45 0) (size 1.02 1.72) (layers F.Cu F.Paste F.Mask) (roundrect_rratio 0.2451))
)
