(module CAPPM350X280X210L80X220N (layer F.Cu) (tedit 0)
  (descr "Capacitor, Polarized, Molded Body; 3.40 mm L X 2.80 mm W X 2.10 mm H body")
  (attr smd)
  (fp_text user %R (at 0 0) (layer F.Fab)
    (effects (font (size 2 2) (thickness 0.2)))
  )
  (fp_text value VAL** (at 0 0) (layer F.Fab)
    (effects (font (size 1.2 1.2) (thickness 0.12)))
  )
  (fp_text reference REF** (at 0 0) (layer F.SilkS)
    (effects (font (size 1.2 1.2) (thickness 0.12)))
  )
  (fp_line (start -0.95 -1.1) (end -0.95 1.1) (layer Dwgs.User) (width 0.025))
  (fp_line (start -0.95 1.1) (end -1.75 1.1) (layer Dwgs.User) (width 0.025))
  (fp_line (start -1.75 1.1) (end -1.75 -1.1) (layer Dwgs.User) (width 0.025))
  (fp_line (start -1.75 -1.1) (end -0.95 -1.1) (layer Dwgs.User) (width 0.025))
  (fp_line (start 0.95 1.1) (end 0.95 -1.1) (layer Dwgs.User) (width 0.025))
  (fp_line (start 0.95 -1.1) (end 1.75 -1.1) (layer Dwgs.User) (width 0.025))
  (fp_line (start 1.75 -1.1) (end 1.75 1.1) (layer Dwgs.User) (width 0.025))
  (fp_line (start 1.75 1.1) (end 0.95 1.1) (layer Dwgs.User) (width 0.025))
  (fp_line (start -1.7 1.4) (end -1.7 -1.4) (layer Dwgs.User) (width 0.025))
  (fp_line (start -1.7 -1.4) (end 1.7 -1.4) (layer Dwgs.User) (width 0.025))
  (fp_line (start 1.7 -1.4) (end 1.7 1.4) (layer Dwgs.User) (width 0.025))
  (fp_line (start 1.7 1.4) (end -1.7 1.4) (layer Dwgs.User) (width 0.025))
  (fp_line (start 1.8 1.5) (end -1.8 1.5) (layer F.SilkS) (width 0.16))
  (fp_line (start -1.8 -1.5) (end 1.8 -1.5) (layer F.SilkS) (width 0.16))
  (fp_circle (center 0 0) (end 0 0.25) (layer F.CrtYd) (width 0.05))
  (fp_line (start 0.35 0) (end -0.35 0) (layer F.CrtYd) (width 0.05))
  (fp_line (start 0 -0.35) (end 0 0.35) (layer F.CrtYd) (width 0.05))
  (fp_line (start -1.8 1.5) (end -1.8 -0.5) (layer F.Fab) (width 0.16))
  (fp_line (start -1.8 -0.5) (end -0.8 -1.5) (layer F.Fab) (width 0.16))
  (fp_line (start -0.8 -1.5) (end 1.8 -1.5) (layer F.Fab) (width 0.16))
  (fp_line (start 1.8 -1.5) (end 1.8 1.5) (layer F.Fab) (width 0.16))
  (fp_line (start 1.8 1.5) (end -1.8 1.5) (layer F.Fab) (width 0.16))
  (fp_line (start -2.55 1.1) (end -2.55 -1.1) (layer F.SilkS) (width 0.16))
  (fp_line (start -2 1.7) (end 2 1.7) (layer F.CrtYd) (width 0.05))
  (fp_line (start 2 1.7) (end 2 1.365) (layer F.CrtYd) (width 0.05))
  (fp_line (start 2 1.365) (end 2.51 1.365) (layer F.CrtYd) (width 0.05))
  (fp_line (start 2.51 1.365) (end 2.51 -1.365) (layer F.CrtYd) (width 0.05))
  (fp_line (start 2.51 -1.365) (end 2 -1.365) (layer F.CrtYd) (width 0.05))
  (fp_line (start 2 -1.365) (end 2 -1.7) (layer F.CrtYd) (width 0.05))
  (fp_line (start 2 -1.7) (end -2 -1.7) (layer F.CrtYd) (width 0.05))
  (fp_line (start -2 -1.7) (end -2 -1.365) (layer F.CrtYd) (width 0.05))
  (fp_line (start -2 -1.365) (end -2.51 -1.365) (layer F.CrtYd) (width 0.05))
  (fp_line (start -2.51 -1.365) (end -2.51 1.365) (layer F.CrtYd) (width 0.05))
  (fp_line (start -2.51 1.365) (end -2 1.365) (layer F.CrtYd) (width 0.05))
  (fp_line (start -2 1.365) (end -2 1.7) (layer F.CrtYd) (width 0.05))
  (pad 1 smd roundrect (at -1.515 0) (size 1.59 2.33) (layers F.Cu F.Paste F.Mask) (roundrect_rratio 0.1572))
  (pad 2 smd roundrect (at 1.515 0) (size 1.59 2.33) (layers F.Cu F.Paste F.Mask) (roundrect_rratio 0.1572))
)
