(module "SOIC28P127_1790X1033X265L83X42N" (layer "F.Cu") (tedit 5FB280E8)
  (descr "Small Outline IC (SOIC), 1.27 mm pitch; 28 pin, 17.90 mm L X 7.50 mm W X 2.65 mm H body")
  (attr smd)
  (fp_text reference "REF**" (at 0 0) (layer "F.SilkS")
    (effects (font (size 1.2 1.2) (thickness 0.12)))
    (tstamp b017a86f-3ebc-4bed-a83b-e1f2edd2fa4b)
  )
  (fp_text value "VAL**" (at 0 0) (layer "F.Fab")
    (effects (font (size 1.2 1.2) (thickness 0.12)))
    (tstamp 8de6d12b-3ab4-4ab4-8d41-796054980fe8)
  )
  (fp_text user "${REFERENCE}" (at 0 0) (layer "F.Fab")
    (effects (font (size 2 2) (thickness 0.2)))
    (tstamp 4165fc6a-5851-41f9-b065-d03005a70935)
  )
  (fp_line (start -9.05 3.8) (end -9.05 -3.8) (layer "F.SilkS") (width 0.16) (tstamp 73ccb732-e4e6-4e7a-91ba-d93cc18591f4))
  (fp_line (start -8.825 3.8) (end -9.05 3.8) (layer "F.SilkS") (width 0.16) (tstamp 897db010-3d74-4a7e-a712-a3fcb9fc010b))
  (fp_line (start 8.825 3.8) (end 9.05 3.8) (layer "F.SilkS") (width 0.16) (tstamp a8672450-eb19-44b9-b6b0-0f8067bc49ed))
  (fp_line (start -8.825 3.8) (end -8.825 5.6) (layer "F.SilkS") (width 0.16) (tstamp c18d2925-7711-4016-be69-7bcaff5d9b49))
  (fp_line (start 9.05 3.8) (end 9.05 -3.8) (layer "F.SilkS") (width 0.16) (tstamp e156fdd0-f568-4f6d-a0a2-52f31683c3d5))
  (fp_line (start -9.05 -3.8) (end -8.825 -3.8) (layer "F.SilkS") (width 0.16) (tstamp e32b9758-9919-4a27-a36f-8627c0fc6777))
  (fp_line (start 9.05 -3.8) (end 8.825 -3.8) (layer "F.SilkS") (width 0.16) (tstamp e35f404a-694f-42f4-b938-4bb87df3c8a3))
  (fp_line (start -2.115 4.33) (end -1.695 4.33) (layer "Dwgs.User") (width 0.025) (tstamp 016d5f5b-84c1-41ba-8ca3-4aba2ac4622e))
  (fp_line (start 4.235 -4.33) (end 4.235 -5.165) (layer "Dwgs.User") (width 0.025) (tstamp 02e8141c-f50b-4863-a254-b04fd8537184))
  (fp_line (start 8.465 4.33) (end 8.465 5.165) (layer "Dwgs.User") (width 0.025) (tstamp 03ad8d21-4083-4955-a3e9-cc2d6a1051ca))
  (fp_line (start -5.505 5.165) (end -5.925 5.165) (layer "Dwgs.User") (width 0.025) (tstamp 04a7ef13-6137-452c-b4fd-7cbfc1320129))
  (fp_line (start 0.845 -4.33) (end 0.425 -4.33) (layer "Dwgs.User") (width 0.025) (tstamp 04f452c8-d4c3-427f-abba-3b0cb191e67b))
  (fp_line (start 0.845 5.165) (end 0.425 5.165) (layer "Dwgs.User") (width 0.025) (tstamp 0690127c-6af2-4ecc-9a2c-a5fc89fb92df))
  (fp_line (start -3.385 -4.33) (end -3.385 -5.165) (layer "Dwgs.User") (width 0.025) (tstamp 0b331391-3511-4fa1-a01d-50de9a2c07fb))
  (fp_line (start 4.655 -5.165) (end 4.655 -4.33) (layer "Dwgs.User") (width 0.025) (tstamp 0d2f5746-2cfa-4f13-be88-5d33ed1cb7c4))
  (fp_line (start -8.465 4.33) (end -8.045 4.33) (layer "Dwgs.User") (width 0.025) (tstamp 0dc9e735-2c49-46c8-9aad-77de42bc856e))
  (fp_line (start -0.425 -4.33) (end -0.845 -4.33) (layer "Dwgs.User") (width 0.025) (tstamp 0fd83eab-f9fa-4bdf-99eb-7bb29a1eaf49))
  (fp_line (start -6.775 4.33) (end -6.775 5.165) (layer "Dwgs.User") (width 0.025) (tstamp 10146aab-961a-45d7-83e6-2c0dcd151e95))
  (fp_line (start -6.775 5.165) (end -7.195 5.165) (layer "Dwgs.User") (width 0.025) (tstamp 10dda791-878a-4471-a71b-1981dbd9b004))
  (fp_line (start 4.235 4.33) (end 4.655 4.33) (layer "Dwgs.User") (width 0.025) (tstamp 125febd7-7a96-49d1-8dfd-bb510551a365))
  (fp_line (start -0.845 -4.33) (end -0.845 -5.165) (layer "Dwgs.User") (width 0.025) (tstamp 1280f579-01b8-403c-9317-cf3693738478))
  (fp_line (start -2.965 -4.33) (end -3.385 -4.33) (layer "Dwgs.User") (width 0.025) (tstamp 14c18647-0330-496b-911d-e2eb4a840824))
  (fp_line (start -3.385 4.33) (end -2.965 4.33) (layer "Dwgs.User") (width 0.025) (tstamp 1630b93e-7945-43db-8ef2-519e85ce070c))
  (fp_line (start -8.465 -4.33) (end -8.465 -5.165) (layer "Dwgs.User") (width 0.025) (tstamp 16d121ee-f948-48dc-a64a-577cc0200ab6))
  (fp_line (start 5.925 5.165) (end 5.505 5.165) (layer "Dwgs.User") (width 0.025) (tstamp 172dab96-e92f-4192-ae66-4abeb24179ab))
  (fp_line (start 3.385 5.165) (end 2.965 5.165) (layer "Dwgs.User") (width 0.025) (tstamp 1b9d2979-34a8-40ea-a708-0117cd1220e0))
  (fp_line (start -2.115 -4.33) (end -2.115 -5.165) (layer "Dwgs.User") (width 0.025) (tstamp 1e34edef-212c-477e-a9f3-2daa139a8b98))
  (fp_line (start 7.195 -4.33) (end 6.775 -4.33) (layer "Dwgs.User") (width 0.025) (tstamp 1ea1a6a2-82db-4f16-a80c-943274ba7965))
  (fp_line (start -4.235 4.33) (end -4.235 5.165) (layer "Dwgs.User") (width 0.025) (tstamp 1f44fb10-8ca4-4e9b-9868-e38c0d6d8d28))
  (fp_line (start -8.465 5.165) (end -8.465 4.33) (layer "Dwgs.User") (width 0.025) (tstamp 2566c57d-1756-4807-be09-8f896c8d3b36))
  (fp_line (start -0.425 4.33) (end -0.425 5.165) (layer "Dwgs.User") (width 0.025) (tstamp 28287211-2d5b-4817-9ea5-680a9d510c93))
  (fp_line (start -8.465 -5.165) (end -8.045 -5.165) (layer "Dwgs.User") (width 0.025) (tstamp 289a8989-db7f-4afd-8ea4-7dce428566c1))
  (fp_line (start 5.925 -5.165) (end 5.925 -4.33) (layer "Dwgs.User") (width 0.025) (tstamp 2d35ed46-484c-4700-b7bc-bc9d5f41a3ca))
  (fp_line (start -2.965 -5.165) (end -2.965 -4.33) (layer "Dwgs.User") (width 0.025) (tstamp 2e59c706-e17d-4c91-86e6-004ba4221aae))
  (fp_line (start -8.045 4.33) (end -8.045 5.165) (layer "Dwgs.User") (width 0.025) (tstamp 2ea76df7-5330-4f65-aa8c-cec18dedc14e))
  (fp_line (start 2.965 -5.165) (end 3.385 -5.165) (layer "Dwgs.User") (width 0.025) (tstamp 341be6de-06d7-434d-a78d-1fe9f6ee335f))
  (fp_line (start 8.95 3.75) (end -8.95 3.75) (layer "Dwgs.User") (width 0.025) (tstamp 346550a8-78d9-43a6-a3cf-c411cd1a7522))
  (fp_line (start -7.195 5.165) (end -7.195 4.33) (layer "Dwgs.User") (width 0.025) (tstamp 378f9a48-60cb-44aa-a9e9-9dfd5aecb618))
  (fp_line (start -2.115 5.165) (end -2.115 4.33) (layer "Dwgs.User") (width 0.025) (tstamp 37dad0b7-24b0-46ab-b0f3-75f2762b661d))
  (fp_line (start 7.195 4.33) (end 7.195 5.165) (layer "Dwgs.User") (width 0.025) (tstamp 3ae2592a-5500-4b1b-bea3-a4f19194af65))
  (fp_line (start -0.845 -5.165) (end -0.425 -5.165) (layer "Dwgs.User") (width 0.025) (tstamp 3bb0c246-c1dc-408f-986a-ccec2cfd81d2))
  (fp_line (start 8.465 5.165) (end 8.045 5.165) (layer "Dwgs.User") (width 0.025) (tstamp 40b8da67-8b67-4fd7-b8fd-adf40f85e5b5))
  (fp_line (start 2.115 -5.165) (end 2.115 -4.33) (layer "Dwgs.User") (width 0.025) (tstamp 437482db-af2e-48bc-aee7-62130d41f591))
  (fp_line (start 8.045 -5.165) (end 8.465 -5.165) (layer "Dwgs.User") (width 0.025) (tstamp 43fce93a-bceb-4508-b735-bb00292a09ca))
  (fp_line (start 3.385 -5.165) (end 3.385 -4.33) (layer "Dwgs.User") (width 0.025) (tstamp 461db955-69ab-48ec-a230-26f066b7b73f))
  (fp_line (start 4.655 -4.33) (end 4.235 -4.33) (layer "Dwgs.User") (width 0.025) (tstamp 47bc4bfc-2a7e-49ff-a7de-0847238465f8))
  (fp_line (start -8.95 -3.75) (end 8.95 -3.75) (layer "Dwgs.User") (width 0.025) (tstamp 4b804fa0-fc56-41be-9849-d109da8f9b0f))
  (fp_line (start -2.115 -5.165) (end -1.695 -5.165) (layer "Dwgs.User") (width 0.025) (tstamp 52005150-df65-4ade-bf97-c73d95ae4245))
  (fp_line (start -5.505 -4.33) (end -5.925 -4.33) (layer "Dwgs.User") (width 0.025) (tstamp 54dea87f-ecf7-466a-9959-1e9e9d08a7f6))
  (fp_line (start 2.965 4.33) (end 3.385 4.33) (layer "Dwgs.User") (width 0.025) (tstamp 55b7293e-dad9-4313-a9ac-520ea54d6f70))
  (fp_line (start -8.045 5.165) (end -8.465 5.165) (layer "Dwgs.User") (width 0.025) (tstamp 57b9894a-5a29-4e8e-b6f0-e149c4a4c531))
  (fp_line (start -5.505 4.33) (end -5.505 5.165) (layer "Dwgs.User") (width 0.025) (tstamp 5b8e4d01-96e8-4667-865b-b0839fbfc08d))
  (fp_line (start -4.655 4.33) (end -4.235 4.33) (layer "Dwgs.User") (width 0.025) (tstamp 5c4b0f7c-c598-4b31-9da3-c7a98fc4e73a))
  (fp_line (start 0.425 -4.33) (end 0.425 -5.165) (layer "Dwgs.User") (width 0.025) (tstamp 5c5371b8-ddb5-41bf-a379-ca0c482b3f8f))
  (fp_line (start -7.195 4.33) (end -6.775 4.33) (layer "Dwgs.User") (width 0.025) (tstamp 603feb9b-ab78-4437-93c0-fffd8093b75c))
  (fp_line (start 3.385 -4.33) (end 2.965 -4.33) (layer "Dwgs.User") (width 0.025) (tstamp 62725b5e-7ec1-487e-9c1b-75d568b879f5))
  (fp_line (start -2.965 5.165) (end -3.385 5.165) (layer "Dwgs.User") (width 0.025) (tstamp 633f5bba-7199-44bc-a64b-9e34968ccb0f))
  (fp_line (start 2.115 5.165) (end 1.695 5.165) (layer "Dwgs.User") (width 0.025) (tstamp 676f6e6c-c7cd-4072-a0ad-b1931570f8a0))
  (fp_line (start 0.845 -5.165) (end 0.845 -4.33) (layer "Dwgs.User") (width 0.025) (tstamp 6a6f7674-c41c-4f0a-856d-a62d9bf5e133))
  (fp_line (start 6.775 -4.33) (end 6.775 -5.165) (layer "Dwgs.User") (width 0.025) (tstamp 71a7b097-761a-4e07-b626-87285573f51b))
  (fp_line (start -4.235 5.165) (end -4.655 5.165) (layer "Dwgs.User") (width 0.025) (tstamp 71cb1fa0-cbb8-4484-a24f-eaac961a2e7a))
  (fp_line (start -5.925 4.33) (end -5.505 4.33) (layer "Dwgs.User") (width 0.025) (tstamp 742f1bde-7269-4e20-b186-48a2922d66b3))
  (fp_line (start 7.195 -5.165) (end 7.195 -4.33) (layer "Dwgs.User") (width 0.025) (tstamp 74d2c17e-7bd3-47d5-9dd1-b3e24d40865d))
  (fp_line (start 1.695 4.33) (end 2.115 4.33) (layer "Dwgs.User") (width 0.025) (tstamp 7663c9a5-92de-4c19-9d3b-af29cb6dcd25))
  (fp_line (start -6.775 -5.165) (end -6.775 -4.33) (layer "Dwgs.User") (width 0.025) (tstamp 767dd51b-095b-45d5-a57f-daeea6b2235c))
  (fp_line (start 5.505 -5.165) (end 5.925 -5.165) (layer "Dwgs.User") (width 0.025) (tstamp 7bef802e-f6b8-42fb-9da1-eff4ee486616))
  (fp_line (start 7.195 5.165) (end 6.775 5.165) (layer "Dwgs.User") (width 0.025) (tstamp 7c05157b-aae9-4e20-9ca6-d74c9504667a))
  (fp_line (start 2.115 -4.33) (end 1.695 -4.33) (layer "Dwgs.User") (width 0.025) (tstamp 7c184518-0714-4916-a026-be06e6da7afb))
  (fp_line (start -5.925 -4.33) (end -5.925 -5.165) (layer "Dwgs.User") (width 0.025) (tstamp 7c43fc63-1643-4943-8857-7edd7502c7e9))
  (fp_line (start 0.425 5.165) (end 0.425 4.33) (layer "Dwgs.User") (width 0.025) (tstamp 7cc7a68a-86e2-42a4-8210-a8ce15ca8b01))
  (fp_line (start -2.965 4.33) (end -2.965 5.165) (layer "Dwgs.User") (width 0.025) (tstamp 80aa1e9c-ddab-4ec5-9620-e08ccdcd921d))
  (fp_line (start 1.695 -5.165) (end 2.115 -5.165) (layer "Dwgs.User") (width 0.025) (tstamp 8137ee7d-82ed-48e6-8549-8732da1881d0))
  (fp_line (start -1.695 -4.33) (end -2.115 -4.33) (layer "Dwgs.User") (width 0.025) (tstamp 832a8b9c-d30b-4512-a9b9-8c10f6d67f2f))
  (fp_line (start -8.045 -5.165) (end -8.045 -4.33) (layer "Dwgs.User") (width 0.025) (tstamp 8379d24d-7295-4631-8f05-a27626891f68))
  (fp_line (start -7.195 -5.165) (end -6.775 -5.165) (layer "Dwgs.User") (width 0.025) (tstamp 87453b30-1787-489e-975b-bdc8d68a542f))
  (fp_line (start -1.695 -5.165) (end -1.695 -4.33) (layer "Dwgs.User") (width 0.025) (tstamp 8b0ee5ce-86ec-490b-b3af-da4f6722ef76))
  (fp_line (start -5.925 5.165) (end -5.925 4.33) (layer "Dwgs.User") (width 0.025) (tstamp 8e015c24-3b6d-421b-b428-13ba0b865e04))
  (fp_line (start -4.235 -5.165) (end -4.235 -4.33) (layer "Dwgs.User") (width 0.025) (tstamp 8e740466-e7d5-4ed3-b73a-4c7dad8a994a))
  (fp_line (start 0.425 -5.165) (end 0.845 -5.165) (layer "Dwgs.User") (width 0.025) (tstamp 9164c2c3-7854-401a-a5bb-a50e996a7570))
  (fp_line (start -7.195 -4.33) (end -7.195 -5.165) (layer "Dwgs.User") (width 0.025) (tstamp 941fcfe4-c4fd-400c-b3dc-e2172d0a0713))
  (fp_line (start 6.775 5.165) (end 6.775 4.33) (layer "Dwgs.User") (width 0.025) (tstamp 96e7d852-b876-4bc8-a260-844d535a7652))
  (fp_line (start -4.655 5.165) (end -4.655 4.33) (layer "Dwgs.User") (width 0.025) (tstamp 974ed615-0b11-420f-a44d-00ec8e1b38ce))
  (fp_line (start 0.845 4.33) (end 0.845 5.165) (layer "Dwgs.User") (width 0.025) (tstamp 999d169e-3ee4-41c6-a39b-11ac1c2496f3))
  (fp_line (start -4.655 -4.33) (end -4.655 -5.165) (layer "Dwgs.User") (width 0.025) (tstamp 9c1996c0-e7b6-493b-82f4-8d34067e215b))
  (fp_line (start 5.505 -4.33) (end 5.505 -5.165) (layer "Dwgs.User") (width 0.025) (tstamp a13e071f-f9df-447c-b473-debdd3e17041))
  (fp_line (start 5.925 4.33) (end 5.925 5.165) (layer "Dwgs.User") (width 0.025) (tstamp a238f39e-5fb8-4612-a6da-664dd1b4976c))
  (fp_line (start 4.655 4.33) (end 4.655 5.165) (layer "Dwgs.User") (width 0.025) (tstamp a26d427f-b006-4a84-bbde-03b418a31d1d))
  (fp_line (start 8.045 4.33) (end 8.465 4.33) (layer "Dwgs.User") (width 0.025) (tstamp a2f84c17-a82b-47c2-816d-7f25106621d1))
  (fp_line (start -8.95 3.75) (end -8.95 -3.75) (layer "Dwgs.User") (width 0.025) (tstamp a4bd7a17-259b-4be3-bd73-8557dc06e6d9))
  (fp_line (start -0.845 5.165) (end -0.845 4.33) (layer "Dwgs.User") (width 0.025) (tstamp a684f724-fd24-441b-891e-c5255b8ac0d4))
  (fp_line (start 8.045 5.165) (end 8.045 4.33) (layer "Dwgs.User") (width 0.025) (tstamp a81c35dc-0550-46ae-ae70-2b5686db6a42))
  (fp_line (start 4.235 -5.165) (end 4.655 -5.165) (layer "Dwgs.User") (width 0.025) (tstamp acc45593-cd5f-4219-8798-bd0f839271dc))
  (fp_line (start 1.695 5.165) (end 1.695 4.33) (layer "Dwgs.User") (width 0.025) (tstamp b08add61-96a9-4938-9211-de994eb09a6b))
  (fp_line (start -1.695 4.33) (end -1.695 5.165) (layer "Dwgs.User") (width 0.025) (tstamp bb74e70f-fd0f-40be-88b7-f30a66768ac5))
  (fp_line (start 6.775 4.33) (end 7.195 4.33) (layer "Dwgs.User") (width 0.025) (tstamp bbec39f7-49ae-4634-a545-62c360b6ef56))
  (fp_line (start -0.845 4.33) (end -0.425 4.33) (layer "Dwgs.User") (width 0.025) (tstamp c084d984-03d6-4fbe-aae6-a838a8e2ce46))
  (fp_line (start -0.425 -5.165) (end -0.425 -4.33) (layer "Dwgs.User") (width 0.025) (tstamp c1062fdb-08e9-44b5-9fb3-69caa28762a6))
  (fp_line (start 2.965 5.165) (end 2.965 4.33) (layer "Dwgs.User") (width 0.025) (tstamp c2780a3b-349f-4219-8f72-cecd3fc1d0c5))
  (fp_line (start 8.95 -3.75) (end 8.95 3.75) (layer "Dwgs.User") (width 0.025) (tstamp c75c4aa6-715e-45c4-a8cf-87a679b5b941))
  (fp_line (start 8.465 -5.165) (end 8.465 -4.33) (layer "Dwgs.User") (width 0.025) (tstamp cb249c3f-8ef2-4605-a4dc-60bdfef9d5e9))
  (fp_line (start -4.655 -5.165) (end -4.235 -5.165) (layer "Dwgs.User") (width 0.025) (tstamp d2d27939-e04f-43e0-b32e-8112070a88de))
  (fp_line (start -3.385 -5.165) (end -2.965 -5.165) (layer "Dwgs.User") (width 0.025) (tstamp d34d5394-ea0d-4f90-9721-fafb1bf8e0ec))
  (fp_line (start 8.465 -4.33) (end 8.045 -4.33) (layer "Dwgs.User") (width 0.025) (tstamp d93fd8d3-711f-47ef-a52c-138fc37a9348))
  (fp_line (start 5.925 -4.33) (end 5.505 -4.33) (layer "Dwgs.User") (width 0.025) (tstamp daf38240-e70f-47fa-9ddc-35b3b74940c7))
  (fp_line (start -1.695 5.165) (end -2.115 5.165) (layer "Dwgs.User") (width 0.025) (tstamp dd1995a0-b4fd-4d48-918e-5832c0399cf0))
  (fp_line (start 0.425 4.33) (end 0.845 4.33) (layer "Dwgs.User") (width 0.025) (tstamp ddcef77d-bb30-4713-a6ae-de0e8e0bccd2))
  (fp_line (start -5.925 -5.165) (end -5.505 -5.165) (layer "Dwgs.User") (width 0.025) (tstamp de351cac-6d0a-4f37-94f7-eed90bf7c422))
  (fp_line (start -4.235 -4.33) (end -4.655 -4.33) (layer "Dwgs.User") (width 0.025) (tstamp df7564f9-a397-4d1c-ac10-992c0fbad201))
  (fp_line (start 6.775 -5.165) (end 7.195 -5.165) (layer "Dwgs.User") (width 0.025) (tstamp e2fcda0d-30cf-478b-9911-72352dcd7003))
  (fp_line (start -8.045 -4.33) (end -8.465 -4.33) (layer "Dwgs.User") (width 0.025) (tstamp e364a99f-05a5-463e-b5fa-d25f266d4c64))
  (fp_line (start 8.045 -4.33) (end 8.045 -5.165) (layer "Dwgs.User") (width 0.025) (tstamp e6edc713-827b-49ed-bb6c-65f624e50db5))
  (fp_line (start 5.505 5.165) (end 5.505 4.33) (layer "Dwgs.User") (width 0.025) (tstamp e8280ec0-09c6-4647-979b-3b8b48718a77))
  (fp_line (start -6.775 -4.33) (end -7.195 -4.33) (layer "Dwgs.User") (width 0.025) (tstamp e8c4adcd-cf9d-4925-892a-5437979564e1))
  (fp_line (start 4.655 5.165) (end 4.235 5.165) (layer "Dwgs.User") (width 0.025) (tstamp ea4dafaa-f659-4d26-be22-187917c6fac6))
  (fp_line (start 2.965 -4.33) (end 2.965 -5.165) (layer "Dwgs.User") (width 0.025) (tstamp ebf2e63f-a3f2-4735-927d-44e4578d798a))
  (fp_line (start 2.115 4.33) (end 2.115 5.165) (layer "Dwgs.User") (width 0.025) (tstamp ef83558b-0929-424a-9806-acd69278c582))
  (fp_line (start 5.505 4.33) (end 5.925 4.33) (layer "Dwgs.User") (width 0.025) (tstamp f084f4df-eb2c-44d4-9013-5815ac7de994))
  (fp_line (start -0.425 5.165) (end -0.845 5.165) (layer "Dwgs.User") (width 0.025) (tstamp f58b3d9d-389a-4f3c-a8cd-75aa6e193359))
  (fp_line (start 1.695 -4.33) (end 1.695 -5.165) (layer "Dwgs.User") (width 0.025) (tstamp f9483d4d-2fe9-42ed-9418-70a00de6bab2))
  (fp_line (start 3.385 4.33) (end 3.385 5.165) (layer "Dwgs.User") (width 0.025) (tstamp f9da8aa7-def6-463d-b845-1ee716648147))
  (fp_line (start -3.385 5.165) (end -3.385 4.33) (layer "Dwgs.User") (width 0.025) (tstamp fb7f25f3-60a4-4ed2-9ab6-66652992eae7))
  (fp_line (start -5.505 -5.165) (end -5.505 -4.33) (layer "Dwgs.User") (width 0.025) (tstamp fbbf224c-4e92-4a5f-b0f0-ef1a71e48f78))
  (fp_line (start 4.235 5.165) (end 4.235 4.33) (layer "Dwgs.User") (width 0.025) (tstamp fdb2b09e-2e68-4ba9-9f02-218772fbf2d9))
  (fp_line (start -8.785 -4) (end -9.25 -4) (layer "F.CrtYd") (width 0.05) (tstamp 04c6c83f-395c-4645-9fc8-9f96bd8a2985))
  (fp_line (start -9.25 -4) (end -9.25 4) (layer "F.CrtYd") (width 0.05) (tstamp 0a1a9746-1507-4fad-9961-58e00f557ad3))
  (fp_line (start 8.785 -5.88) (end -8.785 -5.88) (layer "F.CrtYd") (width 0.05) (tstamp 4760a9c0-bab2-48a8-a820-a7fdf8031c83))
  (fp_line (start 8.785 -4) (end 8.785 -5.88) (layer "F.CrtYd") (width 0.05) (tstamp 595880b0-7f33-4be7-8865-23f497bea6ad))
  (fp_line (start -8.785 -5.88) (end -8.785 -4) (layer "F.CrtYd") (width 0.05) (tstamp 6a3cf2b1-d057-4626-aaa9-a2539f7c33f3))
  (fp_line (start 9.25 4) (end 9.25 -4) (layer "F.CrtYd") (width 0.05) (tstamp 7fc5470c-6789-4af5-b398-0af9d30d5ccc))
  (fp_line (start -8.785 4) (end -8.785 5.88) (layer "F.CrtYd") (width 0.05) (tstamp 8e443f54-225e-4ef1-bebe-28c08b0bf8f7))
  (fp_line (start 8.785 4) (end 9.25 4) (layer "F.CrtYd") (width 0.05) (tstamp 8ec9fda6-c714-4ae8-afab-95b4ad842883))
  (fp_line (start 8.785 5.88) (end 8.785 4) (layer "F.CrtYd") (width 0.05) (tstamp 916db76d-7c6c-4512-90ae-7fcfb82752d6))
  (fp_line (start -8.785 5.88) (end 8.785 5.88) (layer "F.CrtYd") (width 0.05) (tstamp 9826729e-0089-46f6-990b-60b976b04b72))
  (fp_line (start -9.25 4) (end -8.785 4) (layer "F.CrtYd") (width 0.05) (tstamp de6c3fba-1595-4ed8-9a66-1afa77b87dc2))
  (fp_line (start 9.25 -4) (end 8.785 -4) (layer "F.CrtYd") (width 0.05) (tstamp e54f3a4e-851b-4a1e-a977-a08b3db41e84))
  (fp_line (start 0.00213 -0.348935) (end 0.00213 0.351065) (layer "F.Fab") (width 0.05) (tstamp 085058f1-4234-4032-8195-7c847977d299))
  (fp_line (start -7.78 3.8) (end -9.05 2.53) (layer "F.Fab") (width 0.16) (tstamp 38039918-0eb4-468e-b043-0fed11a7df26))
  (fp_line (start 9.05 3.8) (end -7.78 3.8) (layer "F.Fab") (width 0.16) (tstamp 3ab4731c-0fd5-4f98-b836-652dd5432279))
  (fp_line (start -9.05 -3.8) (end 9.05 -3.8) (layer "F.Fab") (width 0.16) (tstamp 9202b7b7-37bf-474e-a378-4f00ffaec9a1))
  (fp_line (start 9.05 -3.8) (end 9.05 3.8) (layer "F.Fab") (width 0.16) (tstamp ad01b62a-4b68-485a-95e1-37d6362afa80))
  (fp_line (start -0.34787 0.001065) (end 0.35213 0.001065) (layer "F.Fab") (width 0.05) (tstamp f59b775b-6d41-4a1a-a0cb-45766f5e4310))
  (fp_line (start -9.05 2.53) (end -9.05 -3.8) (layer "F.Fab") (width 0.16) (tstamp fc1fdbe6-a096-4288-8a2b-18069258321c))
  (fp_circle (center 0.00213 0.001065) (end 0.25213 0.001065) (layer "F.Fab") (width 0.05) (tstamp 2a863c2d-3f32-435c-9def-3badcb5d34f2))
  (pad "1" smd roundrect (at -8.255 4.605 90) (size 2.15 0.66) (layers "F.Cu" "F.Paste" "F.Mask") (roundrect_rratio 0.2576) (tstamp 1f6c66b6-c4ef-4b05-9316-8b41afef7964))
  (pad "2" smd roundrect (at -6.985 4.605 90) (size 2.15 0.66) (layers "F.Cu" "F.Paste" "F.Mask") (roundrect_rratio 0.2576) (tstamp fe4eaf0d-95a0-4883-b6df-c3e8f849b41d))
  (pad "3" smd roundrect (at -5.715 4.605 90) (size 2.15 0.66) (layers "F.Cu" "F.Paste" "F.Mask") (roundrect_rratio 0.2576) (tstamp d7dfd314-d519-4958-8587-b7aad9f91803))
  (pad "4" smd roundrect (at -4.445 4.605 90) (size 2.15 0.66) (layers "F.Cu" "F.Paste" "F.Mask") (roundrect_rratio 0.2576) (tstamp 3fa0a570-63c7-4680-ae6f-32d238283e29))
  (pad "5" smd roundrect (at -3.175 4.605 90) (size 2.15 0.66) (layers "F.Cu" "F.Paste" "F.Mask") (roundrect_rratio 0.2576) (tstamp 8e8f6247-bcd3-46f2-b8cc-091aba28dfb0))
  (pad "6" smd roundrect (at -1.905 4.605 90) (size 2.15 0.66) (layers "F.Cu" "F.Paste" "F.Mask") (roundrect_rratio 0.2576) (tstamp b53b31fd-a3cc-460f-b553-a8049c82fbdf))
  (pad "7" smd roundrect (at -0.635 4.605 90) (size 2.15 0.66) (layers "F.Cu" "F.Paste" "F.Mask") (roundrect_rratio 0.2576) (tstamp f5f1bab3-10a3-45f4-80f4-f208d5445ae4))
  (pad "8" smd roundrect (at 0.635 4.605 90) (size 2.15 0.66) (layers "F.Cu" "F.Paste" "F.Mask") (roundrect_rratio 0.2576) (tstamp 74f66f71-067e-4c60-93c2-94b1b9e159cc))
  (pad "9" smd roundrect (at 1.905 4.605 90) (size 2.15 0.66) (layers "F.Cu" "F.Paste" "F.Mask") (roundrect_rratio 0.2576) (tstamp fa7a9c37-d1e2-4f73-9d05-ef7d134ac7e0))
  (pad "10" smd roundrect (at 3.175 4.605 90) (size 2.15 0.66) (layers "F.Cu" "F.Paste" "F.Mask") (roundrect_rratio 0.2576) (tstamp a0ae3761-dbb3-43d3-a11f-f4c16bd914a8))
  (pad "11" smd roundrect (at 4.445 4.605 90) (size 2.15 0.66) (layers "F.Cu" "F.Paste" "F.Mask") (roundrect_rratio 0.2576) (tstamp 297470aa-6589-46a4-8af5-a9e110293556))
  (pad "12" smd roundrect (at 5.715 4.605 90) (size 2.15 0.66) (layers "F.Cu" "F.Paste" "F.Mask") (roundrect_rratio 0.2576) (tstamp bff9ea63-4191-4657-87df-debe58673311))
  (pad "13" smd roundrect (at 6.985 4.605 90) (size 2.15 0.66) (layers "F.Cu" "F.Paste" "F.Mask") (roundrect_rratio 0.2576) (tstamp ecdb3970-5c65-429f-be30-3da95203308f))
  (pad "14" smd roundrect (at 8.255 4.605 90) (size 2.15 0.66) (layers "F.Cu" "F.Paste" "F.Mask") (roundrect_rratio 0.2576) (tstamp 029e413a-70f9-42dd-841d-34cca39b8ad5))
  (pad "15" smd roundrect (at 8.255 -4.605 90) (size 2.15 0.66) (layers "F.Cu" "F.Paste" "F.Mask") (roundrect_rratio 0.2576) (tstamp 69883eab-5a92-4c78-a024-aeb040fb96d4))
  (pad "16" smd roundrect (at 6.985 -4.605 90) (size 2.15 0.66) (layers "F.Cu" "F.Paste" "F.Mask") (roundrect_rratio 0.2576) (tstamp cf7a63a6-71ca-4156-9977-dee18b42cdf1))
  (pad "17" smd roundrect (at 5.715 -4.605 90) (size 2.15 0.66) (layers "F.Cu" "F.Paste" "F.Mask") (roundrect_rratio 0.2576) (tstamp 01f6c3d4-dba8-49a5-904c-1eef09c5c136))
  (pad "18" smd roundrect (at 4.445 -4.605 90) (size 2.15 0.66) (layers "F.Cu" "F.Paste" "F.Mask") (roundrect_rratio 0.2576) (tstamp 9b759c90-f5f4-47e6-b817-c87f1e6a3a57))
  (pad "19" smd roundrect (at 3.175 -4.605 90) (size 2.15 0.66) (layers "F.Cu" "F.Paste" "F.Mask") (roundrect_rratio 0.2576) (tstamp 4b556ae9-545d-42df-a03d-a70f1644a106))
  (pad "20" smd roundrect (at 1.905 -4.605 90) (size 2.15 0.66) (layers "F.Cu" "F.Paste" "F.Mask") (roundrect_rratio 0.2576) (tstamp 3aa32655-5dff-4890-9fd9-5a6f588c6430))
  (pad "21" smd roundrect (at 0.635 -4.605 90) (size 2.15 0.66) (layers "F.Cu" "F.Paste" "F.Mask") (roundrect_rratio 0.2576) (tstamp 3621178d-a822-4bdd-ae63-9f7ea3da6894))
  (pad "22" smd roundrect (at -0.635 -4.605 90) (size 2.15 0.66) (layers "F.Cu" "F.Paste" "F.Mask") (roundrect_rratio 0.2576) (tstamp b7a4a7e5-eefb-4139-9bf5-4525b6740b44))
  (pad "23" smd roundrect (at -1.905 -4.605 90) (size 2.15 0.66) (layers "F.Cu" "F.Paste" "F.Mask") (roundrect_rratio 0.2576) (tstamp 037d1563-982b-402c-8a51-417b3ab74993))
  (pad "24" smd roundrect (at -3.175 -4.605 90) (size 2.15 0.66) (layers "F.Cu" "F.Paste" "F.Mask") (roundrect_rratio 0.2576) (tstamp 3db6ea96-0321-4f93-9990-a97f355ad4a8))
  (pad "25" smd roundrect (at -4.445 -4.605 90) (size 2.15 0.66) (layers "F.Cu" "F.Paste" "F.Mask") (roundrect_rratio 0.2576) (tstamp 12882c0e-da50-452d-ac36-99ed5c1e8a0c))
  (pad "26" smd roundrect (at -5.715 -4.605 90) (size 2.15 0.66) (layers "F.Cu" "F.Paste" "F.Mask") (roundrect_rratio 0.2576) (tstamp 715354c0-4acc-401a-a775-7118ebd004b6))
  (pad "27" smd roundrect (at -6.985 -4.605 90) (size 2.15 0.66) (layers "F.Cu" "F.Paste" "F.Mask") (roundrect_rratio 0.2576) (tstamp c5310fe6-d720-4a94-80ca-fe022223391e))
  (pad "28" smd roundrect (at -8.255 -4.605 90) (size 2.15 0.66) (layers "F.Cu" "F.Paste" "F.Mask") (roundrect_rratio 0.2576) (tstamp d8d4fd99-eb6c-4f8e-bbdd-00b18b3d1dff))
)
