(module "SOIC8P127_528X800X215L63X42N" (layer "F.Cu") (tedit 5FB28063)
  (descr "Small Outline IC (SOIC), 1.27 mm pitch; 8 pin, 5.283 mm L X 5.283 mm W X 2.159 mm H body")
  (attr smd)
  (fp_text reference "REF**" (at 0 0) (layer "F.SilkS")
    (effects (font (size 1.2 1.2) (thickness 0.12)))
    (tstamp a7a94169-85d7-4623-a404-2fb2587466d5)
  )
  (fp_text value "Val**" (at 0 0) (layer "F.SilkS")
    (effects (font (size 1.524 1.524) (thickness 0.15)))
    (tstamp f7593456-2c87-40dd-b233-ed3d74feb91a)
  )
  (fp_line (start -2.64 -2.64) (end -2.38 -2.64) (layer "F.SilkS") (width 0.12) (tstamp 2a7e1852-3c69-43d5-ad37-2fe085fd2a74))
  (fp_line (start -2.4 2.6) (end -2.4 4.6) (layer "F.SilkS") (width 0.127) (tstamp 2c17ecd6-4657-4c99-b30e-2dba0668a4d8))
  (fp_line (start 2.38 2.64) (end 2.64 2.64) (layer "F.SilkS") (width 0.12) (tstamp 3be980b3-2351-49ca-8d2a-5059d49bac62))
  (fp_line (start -2.64 2.64) (end -2.64 -2.64) (layer "F.SilkS") (width 0.12) (tstamp 682a5d78-f76a-487e-a61d-a7f8ce7ff959))
  (fp_line (start -2.38 2.64) (end -2.64 2.64) (layer "F.SilkS") (width 0.12) (tstamp 810fcd30-e784-4dc7-a2fb-c130daf7ff58))
  (fp_line (start 2.64 -2.64) (end 2.38 -2.64) (layer "F.SilkS") (width 0.12) (tstamp 8dabb2de-741b-4ef4-9b8a-8f1aebb7c4a6))
  (fp_line (start 2.64 2.64) (end 2.64 -2.64) (layer "F.SilkS") (width 0.12) (tstamp a01706bc-5c29-4043-88d7-6128ca8aa3ed))
  (fp_line (start -2.9 -2.9) (end -2.9 2.9) (layer "F.CrtYd") (width 0.05) (tstamp 13988a2d-9b60-49e4-b690-96abfa9a5cd8))
  (fp_line (start 2.45 -2.9) (end 2.45 -4.66) (layer "F.CrtYd") (width 0.05) (tstamp 14ff2362-c090-46f1-a793-5a1b839084e6))
  (fp_line (start 2.45 4.66) (end 2.45 2.9) (layer "F.CrtYd") (width 0.05) (tstamp 1e294505-4e9e-4a2e-82b0-6755faa731d4))
  (fp_line (start -2.9 2.9) (end -2.45 2.9) (layer "F.CrtYd") (width 0.05) (tstamp 564d3e2e-2fdf-4055-bed3-34d5559f0bbc))
  (fp_line (start 2.9 -2.9) (end 2.45 -2.9) (layer "F.CrtYd") (width 0.05) (tstamp 7f57e289-37bd-4372-8eb7-dfe6c10d8a7c))
  (fp_line (start 2.9 2.9) (end 2.9 -2.9) (layer "F.CrtYd") (width 0.05) (tstamp 89bee0e2-8319-429f-b0eb-36fa142cd93e))
  (fp_line (start 2.45 -4.66) (end -2.45 -4.66) (layer "F.CrtYd") (width 0.05) (tstamp a0f70627-1527-48c5-8981-c7b99e9589a8))
  (fp_line (start 2.45 2.9) (end 2.9 2.9) (layer "F.CrtYd") (width 0.05) (tstamp a75b8557-376e-4d10-a36b-055127e4ecd4))
  (fp_line (start -2.45 -2.9) (end -2.9 -2.9) (layer "F.CrtYd") (width 0.05) (tstamp af34263c-fbfa-4509-8e5c-f1cdfa4715a7))
  (fp_line (start -2.45 4.66) (end 2.45 4.66) (layer "F.CrtYd") (width 0.05) (tstamp c0143d5f-abcd-495f-be8c-c7d5b57f41b5))
  (fp_line (start -2.45 -4.66) (end -2.45 -2.9) (layer "F.CrtYd") (width 0.05) (tstamp c25d030b-9684-4a97-9d84-67023dd55887))
  (fp_line (start -2.45 2.9) (end -2.45 4.66) (layer "F.CrtYd") (width 0.05) (tstamp e9031fd0-5cfc-4962-97e8-47008845a113))
  (fp_line (start 0.00213 -0.348935) (end 0.00213 0.351065) (layer "F.Fab") (width 0.05) (tstamp 1f77fa43-66e6-426b-b01f-5d489157494e))
  (fp_line (start 2.64 2.64) (end -2.64 2.64) (layer "F.Fab") (width 0.12) (tstamp 32473d2b-7a3b-4948-9d8e-18851554b473))
  (fp_line (start 2.64 -2.64) (end 2.64 2.64) (layer "F.Fab") (width 0.12) (tstamp a95078b7-ca7b-49c3-80b9-f7be48b04248))
  (fp_line (start -0.34787 0.001065) (end 0.35213 0.001065) (layer "F.Fab") (width 0.05) (tstamp b0099e60-4d5b-4307-bc42-48e5c27f3818))
  (fp_line (start -2.64 2.64) (end -2.64 -2.64) (layer "F.Fab") (width 0.12) (tstamp ccb479c0-b6de-45f6-bb68-edada1723160))
  (fp_line (start -2.64 -2.64) (end 2.64 -2.64) (layer "F.Fab") (width 0.12) (tstamp e95f73f4-7a41-4a94-b18e-064ddfeb51ee))
  (fp_circle (center 0.00213 0.001065) (end 0.25213 0.001065) (layer "F.Fab") (width 0.05) (tstamp 5de20469-33dd-4471-8ed7-05a637a571f8))
  (pad "1" smd rect (at -1.905 3.66 90) (size 1.49 0.59) (layers "F.Cu" "F.Paste" "F.Mask") (tstamp 9492f00e-3d51-4be5-b83e-56bb20717ea6))
  (pad "2" smd rect (at -0.635 3.66 90) (size 1.49 0.59) (layers "F.Cu" "F.Paste" "F.Mask") (tstamp fb545ef5-af5f-49fc-b8f4-b584f453451c))
  (pad "3" smd rect (at 0.635 3.66 90) (size 1.49 0.59) (layers "F.Cu" "F.Paste" "F.Mask") (tstamp 8bdc41fa-0e37-4965-9181-3f06bce94499))
  (pad "4" smd rect (at 1.905 3.66 90) (size 1.49 0.59) (layers "F.Cu" "F.Paste" "F.Mask") (tstamp 36b743d7-6e9d-494e-9cbc-d192b53ea5cb))
  (pad "5" smd rect (at 1.905 -3.66 90) (size 1.49 0.59) (layers "F.Cu" "F.Paste" "F.Mask") (tstamp 4f31699b-5ee8-4915-ae3c-2cce3ee716cb))
  (pad "6" smd rect (at 0.635 -3.66 90) (size 1.49 0.59) (layers "F.Cu" "F.Paste" "F.Mask") (tstamp 89479f1f-e6b5-49aa-9e19-e4c35a4a6c5d))
  (pad "7" smd rect (at -0.635 -3.66 90) (size 1.49 0.59) (layers "F.Cu" "F.Paste" "F.Mask") (tstamp 3b86e5e7-eb53-48f2-9049-3a987348fd64))
  (pad "8" smd rect (at -1.905 -3.66 90) (size 1.49 0.59) (layers "F.Cu" "F.Paste" "F.Mask") (tstamp d88b44e2-c3e0-4836-91c8-b29733509fa5))
)
