(module "SOIC8P127_490X600X175L83X38N" (layer "F.Cu") (tedit 5FB28054)
  (descr "Small Outline IC (SOIC), 1.27 mm pitch; 8 pin, 4.90 mm L X 3.90 mm W X 1.75 mm H body")
  (attr smd)
  (fp_text reference "REF**" (at 0 0) (layer "F.SilkS")
    (effects (font (size 1.2 1.2) (thickness 0.12)))
    (tstamp 1a9f0392-9be3-4d2b-9d5c-4d106f3d51f5)
  )
  (fp_text value "Val**" (at 0 0) (layer "F.SilkS")
    (effects (font (size 1.524 1.524) (thickness 0.15)))
    (tstamp 9163c629-40a1-463f-85ef-03aa9e001bef)
  )
  (fp_line (start 2.5 -2) (end 2.37 -2) (layer "F.SilkS") (width 0.12) (tstamp 1d1ffc4d-d139-4d10-a9db-5bc03f70d5d8))
  (fp_line (start -2.37 2) (end -2.5 2) (layer "F.SilkS") (width 0.12) (tstamp 2b99c7c6-a356-4f70-909c-ecd8dac5db65))
  (fp_line (start -2.5 2) (end -2.5 -2) (layer "F.SilkS") (width 0.12) (tstamp 4ebabbf6-c056-497b-81d3-521648a4f212))
  (fp_line (start -2.5 -2) (end -2.37 -2) (layer "F.SilkS") (width 0.12) (tstamp 6909c09f-952a-46c4-8edd-2cc4d10fe6b8))
  (fp_line (start 2.37 2) (end 2.5 2) (layer "F.SilkS") (width 0.12) (tstamp a5c5e1c1-1aca-4df7-9ef6-47149ce6f19f))
  (fp_line (start 2.5 2) (end 2.5 -2) (layer "F.SilkS") (width 0.12) (tstamp b6e7b34f-0b03-4b65-97db-4f71a512c605))
  (fp_line (start -2.4 2) (end -2.4 3.5) (layer "F.SilkS") (width 0.127) (tstamp fddaaf13-df26-4268-8d7f-80946ecec436))
  (fp_line (start -2.75 2.25) (end -2.44 2.25) (layer "F.CrtYd") (width 0.05) (tstamp 04b8c6e9-c0a5-4b84-bd86-d018fb0e819e))
  (fp_line (start -2.44 2.25) (end -2.44 3.71) (layer "F.CrtYd") (width 0.05) (tstamp 0726d647-8ad2-4386-a0d3-64ef9a83de3c))
  (fp_line (start 2.75 2.25) (end 2.75 -2.25) (layer "F.CrtYd") (width 0.05) (tstamp 2636325b-3a4b-44f2-b395-f1172ca8bb89))
  (fp_line (start -2.44 -3.71) (end -2.44 -2.25) (layer "F.CrtYd") (width 0.05) (tstamp 3aae43fc-a242-48c5-8209-d02cbfa44cf7))
  (fp_line (start 2.44 2.25) (end 2.75 2.25) (layer "F.CrtYd") (width 0.05) (tstamp 47008986-a40f-40be-8b21-4b9b6b9d7d70))
  (fp_line (start -2.44 -2.25) (end -2.75 -2.25) (layer "F.CrtYd") (width 0.05) (tstamp 51257c75-8c8a-440c-b42b-b2d7210771f8))
  (fp_line (start 2.44 -3.71) (end -2.44 -3.71) (layer "F.CrtYd") (width 0.05) (tstamp 5cefb0f8-5b31-4639-afeb-50d7bb690b68))
  (fp_line (start 2.75 -2.25) (end 2.44 -2.25) (layer "F.CrtYd") (width 0.05) (tstamp 60b8b46a-d016-40d0-8fe0-bc9de0417e15))
  (fp_line (start -2.75 -2.25) (end -2.75 2.25) (layer "F.CrtYd") (width 0.05) (tstamp 60c3a036-e5c7-432e-b829-7093b3446c67))
  (fp_line (start 2.44 -2.25) (end 2.44 -3.71) (layer "F.CrtYd") (width 0.05) (tstamp 60e8a7b0-c226-4dee-a6bb-ebd0e697aa43))
  (fp_line (start 2.44 3.71) (end 2.44 2.25) (layer "F.CrtYd") (width 0.05) (tstamp 8c0700a9-f395-43fd-acf8-f91419418a5b))
  (fp_line (start -2.44 3.71) (end 2.44 3.71) (layer "F.CrtYd") (width 0.05) (tstamp d50e3fd8-1c34-45ec-99a4-26404e91a72d))
  (fp_line (start -0.34787 0.001065) (end 0.35213 0.001065) (layer "F.Fab") (width 0.05) (tstamp 182bdc12-a379-457e-b54c-7055b0bc057d))
  (fp_line (start 2.5 2) (end -2.5 2) (layer "F.Fab") (width 0.12) (tstamp 1b6e6efb-b020-4af0-88a8-5a37d569bf68))
  (fp_line (start 0.00213 -0.348935) (end 0.00213 0.351065) (layer "F.Fab") (width 0.05) (tstamp 860c3709-9bb2-4aed-afbf-b899f5199ed3))
  (fp_line (start -2.5 -2) (end 2.5 -2) (layer "F.Fab") (width 0.12) (tstamp 95a1a697-ff03-4c22-bc3f-8b745b9e5903))
  (fp_line (start -2.5 2) (end -2.5 -2) (layer "F.Fab") (width 0.12) (tstamp ac0669e1-8df3-450d-9452-5c99f1452df5))
  (fp_line (start 2.5 -2) (end 2.5 2) (layer "F.Fab") (width 0.12) (tstamp e3c30276-bb8c-44e5-bbad-fa40152ddba2))
  (fp_circle (center 0.00213 0.001065) (end 0.25213 0.001065) (layer "F.Fab") (width 0.05) (tstamp c881f5c0-9501-45e5-9271-72bdbc70187b))
  (pad "1" smd rect (at -1.905 2.475 90) (size 1.97 0.57) (layers "F.Cu" "F.Paste" "F.Mask") (tstamp 009fcae8-ba17-4627-88a5-30656d82951a))
  (pad "2" smd rect (at -0.635 2.475 90) (size 1.97 0.57) (layers "F.Cu" "F.Paste" "F.Mask") (tstamp e59128a8-389c-4267-88ba-cfabbc8005db))
  (pad "3" smd rect (at 0.635 2.475 90) (size 1.97 0.57) (layers "F.Cu" "F.Paste" "F.Mask") (tstamp 94f467b5-0a03-4d61-821f-2bd945d4f9ad))
  (pad "4" smd rect (at 1.905 2.475 90) (size 1.97 0.57) (layers "F.Cu" "F.Paste" "F.Mask") (tstamp 04343e53-fcdf-43b8-9c70-32011b72636d))
  (pad "5" smd rect (at 1.905 -2.475 90) (size 1.97 0.57) (layers "F.Cu" "F.Paste" "F.Mask") (tstamp 9f65efbe-ce67-4662-897d-875625f085c5))
  (pad "6" smd rect (at 0.635 -2.475 90) (size 1.97 0.57) (layers "F.Cu" "F.Paste" "F.Mask") (tstamp bb0fd61c-6b92-4428-96ca-d28eadfb497b))
  (pad "7" smd rect (at -0.635 -2.475 90) (size 1.97 0.57) (layers "F.Cu" "F.Paste" "F.Mask") (tstamp 5ff371ed-6c3c-4f97-b513-10d0370d1287))
  (pad "8" smd rect (at -1.905 -2.475 90) (size 1.97 0.57) (layers "F.Cu" "F.Paste" "F.Mask") (tstamp a187517d-5a3a-4510-8383-46f337f86415))
)
