(module "SOIC8P127_490X600X175L83X41N" (layer "F.Cu") (tedit 5FB2805C)
  (descr "Small Outline IC (SOIC), 1.27 mm pitch; 8 pin, 4.90 mm L X 3.90 mm W X 1.75 mm H body")
  (attr smd)
  (fp_text reference "REF**" (at 0 0) (layer "F.SilkS")
    (effects (font (size 1.2 1.2) (thickness 0.12)))
    (tstamp 8c65ed83-79c8-46d1-b625-bfe872b93afe)
  )
  (fp_text value "Val**" (at 0 0) (layer "F.SilkS")
    (effects (font (size 1.524 1.524) (thickness 0.15)))
    (tstamp 9d3a595b-55ea-43ed-a777-4972e6c45cc5)
  )
  (fp_line (start -2.5 3.5) (end -2.5 -2) (layer "F.SilkS") (width 0.12) (tstamp c24b6917-7226-4df0-9092-b62c414eb133))
  (fp_line (start 2.45 1.95) (end 2.45 -1.95) (layer "F.SilkS") (width 0.12) (tstamp cc278ff2-5afa-43d2-ba30-4698ca1a070f))
  (fp_line (start -2.46 -3.66) (end -2.46 -2.2) (layer "F.CrtYd") (width 0.05) (tstamp 016a2f61-6d6c-4d97-8f9c-d7f7ab843125))
  (fp_line (start -2.7 -2.2) (end -2.7 2.2) (layer "F.CrtYd") (width 0.05) (tstamp 43dbd956-2f00-43fa-94f7-df9be9446fe8))
  (fp_line (start -2.46 2.2) (end -2.46 3.66) (layer "F.CrtYd") (width 0.05) (tstamp 5d7c9e3d-2403-4e39-a935-4046f7ae78eb))
  (fp_line (start -2.46 -2.2) (end -2.7 -2.2) (layer "F.CrtYd") (width 0.05) (tstamp 68ca3ef5-776e-4ac9-8952-e0b9b1d6ac8c))
  (fp_line (start 2.46 -2.2) (end 2.46 -3.66) (layer "F.CrtYd") (width 0.05) (tstamp 7585fce1-ba04-4be9-b20c-31ff46f6b964))
  (fp_line (start 2.7 -2.2) (end 2.46 -2.2) (layer "F.CrtYd") (width 0.05) (tstamp 80e06563-ca39-4482-96e9-f1d9547dd54e))
  (fp_line (start 2.46 3.66) (end 2.46 2.2) (layer "F.CrtYd") (width 0.05) (tstamp 94d11961-4ae4-4f28-8684-81ad05bad091))
  (fp_line (start 2.46 -3.66) (end -2.46 -3.66) (layer "F.CrtYd") (width 0.05) (tstamp 94dc5825-7e14-4e8b-ab7a-3bbc482cb68e))
  (fp_line (start -2.7 2.2) (end -2.46 2.2) (layer "F.CrtYd") (width 0.05) (tstamp c70b975f-2146-49ff-b0c3-2db2bd9f770e))
  (fp_line (start 2.46 2.2) (end 2.7 2.2) (layer "F.CrtYd") (width 0.05) (tstamp d222af7a-b8be-40aa-a2d1-9b5a64ac1c8b))
  (fp_line (start -2.46 3.66) (end 2.46 3.66) (layer "F.CrtYd") (width 0.05) (tstamp ed71bb18-8517-4545-a7ac-367a289f43ec))
  (fp_line (start 2.7 2.2) (end 2.7 -2.2) (layer "F.CrtYd") (width 0.05) (tstamp fb33ef7e-c6e8-44a5-9ebe-af7244f2234b))
  (fp_line (start 2.45 -1.95) (end 2.45 1.95) (layer "F.Fab") (width 0.12) (tstamp 23cd8b18-4201-4528-b79c-aa1d3f0afc2c))
  (fp_line (start -2.45 1.95) (end -2.45 -1.95) (layer "F.Fab") (width 0.12) (tstamp 535565a9-88fe-4732-bbc8-da0a8bbf2715))
  (fp_line (start 2.45 1.95) (end -2.45 1.95) (layer "F.Fab") (width 0.12) (tstamp 5f9b0540-11ef-4079-970a-c08e734f32d1))
  (fp_line (start -2.45 -1.95) (end 2.45 -1.95) (layer "F.Fab") (width 0.12) (tstamp b9d5deaa-3a0f-4da2-848e-578c6dc03066))
  (fp_line (start -0.34787 0.001065) (end 0.35213 0.001065) (layer "F.Fab") (width 0.05) (tstamp bf162224-4d36-4ff1-b8ac-8aadd2f4e60a))
  (fp_line (start 0.00213 -0.348935) (end 0.00213 0.351065) (layer "F.Fab") (width 0.05) (tstamp d0b1899f-4d77-44dd-bd09-37bd4ea32101))
  (fp_circle (center 0.00213 0.001065) (end 0.25213 0.001065) (layer "F.Fab") (width 0.05) (tstamp 1f510f06-fbdf-4dd4-82b4-083a1b2b397a))
  (pad "1" smd rect (at -1.905 2.455 90) (size 1.9 0.6) (layers "F.Cu" "F.Paste" "F.Mask") (tstamp 45add2f7-37a3-4ac7-9aed-8a793c4a24e3))
  (pad "2" smd rect (at -0.635 2.455 90) (size 1.9 0.6) (layers "F.Cu" "F.Paste" "F.Mask") (tstamp 3b1882b2-135f-496d-8064-f2437aba5c91))
  (pad "3" smd rect (at 0.635 2.455 90) (size 1.9 0.6) (layers "F.Cu" "F.Paste" "F.Mask") (tstamp 2f7e18f7-e088-43d8-a8ce-899dd3b4dda6))
  (pad "4" smd rect (at 1.905 2.455 90) (size 1.9 0.6) (layers "F.Cu" "F.Paste" "F.Mask") (tstamp 005e89df-b220-4f92-a4f2-6ff83cec9c1a))
  (pad "5" smd rect (at 1.905 -2.455 90) (size 1.9 0.6) (layers "F.Cu" "F.Paste" "F.Mask") (tstamp fbbf8344-9eda-4756-b178-5a6630b9d9bc))
  (pad "6" smd rect (at 0.635 -2.455 90) (size 1.9 0.6) (layers "F.Cu" "F.Paste" "F.Mask") (tstamp 6abe1eef-61c4-4f70-86e5-5f6d63dce99c))
  (pad "7" smd rect (at -0.635 -2.455 90) (size 1.9 0.6) (layers "F.Cu" "F.Paste" "F.Mask") (tstamp 42a03e3e-467f-4347-9d77-450252d050d2))
  (pad "8" smd rect (at -1.905 -2.455 90) (size 1.9 0.6) (layers "F.Cu" "F.Paste" "F.Mask") (tstamp 4162ee20-1efb-4f17-bdc7-35414838ca08))
)
