(module "SOIC16P254_1984X1016X435L100X120N" (layer "F.Cu") (tedit 5FB28097)
  (descr "Small Outline IC (SOIC), 2.54 mm pitch; 16 pin, 19.84 mm L X 6.50 mm W X 4.35 mm H body")
  (attr smd)
  (fp_text reference "REF**" (at 0 0) (layer "F.SilkS")
    (effects (font (size 1.016 1.016) (thickness 0.1524)))
    (tstamp 40de0adb-53fd-4a94-b58f-a1d0e39c5a91)
  )
  (fp_text value "Val**" (at 0 0) (layer "F.SilkS") hide
    (effects (font (size 1.524 1.524) (thickness 0.15)))
    (tstamp 8ee09996-6a85-4335-be87-2fd5604869e1)
  )
  (fp_line (start 9.765 3.5) (end 10.17 3.5) (layer "F.SilkS") (width 0.12) (tstamp 0a2affba-d30b-452a-94c4-bf0199466778))
  (fp_line (start -9.8 3.5) (end -9.8 5.8) (layer "F.SilkS") (width 0.127) (tstamp 4cbb40e1-f887-40b8-b4d1-c671060c9c7f))
  (fp_line (start 10.17 3.5) (end 10.17 -3.5) (layer "F.SilkS") (width 0.12) (tstamp 5a2818e1-1133-45dc-83af-241ba008c4d4))
  (fp_line (start -9.765 3.5) (end -10.17 3.5) (layer "F.SilkS") (width 0.12) (tstamp 60332d6d-248f-4658-b3cb-f3c380ab0bab))
  (fp_line (start -10.17 3.5) (end -10.17 -3.5) (layer "F.SilkS") (width 0.12) (tstamp 71790764-4bc3-4f53-a1d0-c6d2cd78fed2))
  (fp_line (start 10.17 -3.5) (end 9.765 -3.5) (layer "F.SilkS") (width 0.12) (tstamp c622df65-19bb-4cab-8e8f-0a8bc7a30250))
  (fp_line (start -10.17 -3.5) (end -9.765 -3.5) (layer "F.SilkS") (width 0.12) (tstamp ccaaf7b6-610a-4eee-a39e-41b3002204dc))
  (fp_line (start 10.42 -3.75) (end 9.84 -3.75) (layer "F.CrtYd") (width 0.05) (tstamp 12a637e0-bb21-4b61-8844-eda859d26885))
  (fp_line (start 10.42 3.75) (end 10.42 -3.75) (layer "F.CrtYd") (width 0.05) (tstamp 3317ea65-35dd-479f-b8cf-3c1c3d994666))
  (fp_line (start 9.84 3.75) (end 10.42 3.75) (layer "F.CrtYd") (width 0.05) (tstamp 39739fad-bdb8-4d11-aa88-abf5851f5122))
  (fp_line (start -9.84 5.84) (end 9.84 5.84) (layer "F.CrtYd") (width 0.05) (tstamp 3c97937f-0525-4409-9b1d-35adafea790c))
  (fp_line (start -9.84 3.75) (end -9.84 5.84) (layer "F.CrtYd") (width 0.05) (tstamp 4a87d0e8-3148-4ebe-9535-48dedf7796ae))
  (fp_line (start -10.42 -3.75) (end -10.42 3.75) (layer "F.CrtYd") (width 0.05) (tstamp 6a9285e7-2d53-4d36-91c3-18cf89cd7a14))
  (fp_line (start 9.84 -5.84) (end -9.84 -5.84) (layer "F.CrtYd") (width 0.05) (tstamp 702f929a-cf01-47fd-80f0-e3c222705fad))
  (fp_line (start -9.84 -5.84) (end -9.84 -3.75) (layer "F.CrtYd") (width 0.05) (tstamp 8c68bbbc-b2ba-48f1-b6ea-00b1be54433a))
  (fp_line (start -10.42 3.75) (end -9.84 3.75) (layer "F.CrtYd") (width 0.05) (tstamp 970f86da-38b6-4010-9f28-be8c1eeb14a9))
  (fp_line (start 9.84 5.84) (end 9.84 3.75) (layer "F.CrtYd") (width 0.05) (tstamp a1eb4110-94d6-41e4-80c4-2e237a8f0d99))
  (fp_line (start -9.84 -3.75) (end -10.42 -3.75) (layer "F.CrtYd") (width 0.05) (tstamp ca503e07-6732-42b2-b7b8-52d9b8b40675))
  (fp_line (start 9.84 -3.75) (end 9.84 -5.84) (layer "F.CrtYd") (width 0.05) (tstamp fcbe5bc4-93c3-4f0a-b876-0f6ee991903e))
  (fp_line (start 0.00213 -0.348935) (end 0.00213 0.351065) (layer "F.Fab") (width 0.05) (tstamp 4282e092-6124-4c3a-9512-f8b8cce3ac1d))
  (fp_line (start -0.34787 0.001065) (end 0.35213 0.001065) (layer "F.Fab") (width 0.05) (tstamp 8e31a9d5-cf9f-4bc6-b371-b90a8361658a))
  (fp_line (start -10.17 -3.5) (end 10.17 -3.5) (layer "F.Fab") (width 0.12) (tstamp 8ffbccac-d511-4c7d-9f18-6242fdaeeb5e))
  (fp_line (start 10.17 3.5) (end -10.17 3.5) (layer "F.Fab") (width 0.12) (tstamp 966b5f99-4e72-4079-b3c8-44d182b5397e))
  (fp_line (start 10.17 -3.5) (end 10.17 3.5) (layer "F.Fab") (width 0.12) (tstamp 9c8f235e-62f0-48e0-89d5-43218725865c))
  (fp_line (start -10.17 3.5) (end -10.17 -3.5) (layer "F.Fab") (width 0.12) (tstamp e27feff2-7be7-4e63-8d95-39e21ecc2573))
  (fp_circle (center 0.00213 0.001065) (end 0.25213 0.001065) (layer "F.Fab") (width 0.05) (tstamp a708e6d5-80a3-415d-8fab-04e6d6e2cf9b))
  (pad "1" smd rect (at -8.89 4.54 90) (size 2.09 1.39) (layers "F.Cu" "F.Paste" "F.Mask") (tstamp 4793f7fd-70cc-4a43-b73f-3a046b4f62b1))
  (pad "2" smd rect (at -6.35 4.54 90) (size 2.09 1.39) (layers "F.Cu" "F.Paste" "F.Mask") (tstamp 40fef41c-c33f-475f-8866-a27439d78752))
  (pad "3" smd rect (at -3.81 4.54 90) (size 2.09 1.39) (layers "F.Cu" "F.Paste" "F.Mask") (tstamp 511ccf85-5946-4bdd-b3d5-a29f78d61627))
  (pad "4" smd rect (at -1.27 4.54 90) (size 2.09 1.39) (layers "F.Cu" "F.Paste" "F.Mask") (tstamp f7973df6-7485-4eec-9bef-1eb8919c7f0e))
  (pad "5" smd rect (at 1.27 4.54 90) (size 2.09 1.39) (layers "F.Cu" "F.Paste" "F.Mask") (tstamp 08c96aaf-0878-4fc5-b3e4-6f3a85d7ce00))
  (pad "6" smd rect (at 3.81 4.54 90) (size 2.09 1.39) (layers "F.Cu" "F.Paste" "F.Mask") (tstamp 04d0f373-c4c5-482d-a3b4-96dd5de8a867))
  (pad "7" smd rect (at 6.35 4.54 90) (size 2.09 1.39) (layers "F.Cu" "F.Paste" "F.Mask") (tstamp 536d1a2b-f7a2-4add-b4f1-3409657976af))
  (pad "8" smd rect (at 8.89 4.54 90) (size 2.09 1.39) (layers "F.Cu" "F.Paste" "F.Mask") (tstamp 1e6c4d7f-b1a3-4010-91de-a6aad5e33884))
  (pad "9" smd rect (at 8.89 -4.54 90) (size 2.09 1.39) (layers "F.Cu" "F.Paste" "F.Mask") (tstamp e3f90d54-e9ec-4878-bfaa-3c3451275418))
  (pad "10" smd rect (at 6.35 -4.54 90) (size 2.09 1.39) (layers "F.Cu" "F.Paste" "F.Mask") (tstamp f5876e61-1e1f-440c-af97-eebe93e76766))
  (pad "11" smd rect (at 3.81 -4.54 90) (size 2.09 1.39) (layers "F.Cu" "F.Paste" "F.Mask") (tstamp cab54ec3-831f-49d3-9f7f-6a7057547d63))
  (pad "12" smd rect (at 1.27 -4.54 90) (size 2.09 1.39) (layers "F.Cu" "F.Paste" "F.Mask") (tstamp ea627ec3-3f38-4c00-84e4-92f1b076622b))
  (pad "13" smd rect (at -1.27 -4.54 90) (size 2.09 1.39) (layers "F.Cu" "F.Paste" "F.Mask") (tstamp 1c4a474f-23c0-4f26-935a-638130af11ae))
  (pad "14" smd rect (at -3.81 -4.54 90) (size 2.09 1.39) (layers "F.Cu" "F.Paste" "F.Mask") (tstamp e2a48b1c-0daa-4a6a-9651-bbe4a099ba05))
  (pad "15" smd rect (at -6.35 -4.54 90) (size 2.09 1.39) (layers "F.Cu" "F.Paste" "F.Mask") (tstamp 5b6fc958-f135-45a9-9a78-6d79c828bbbf))
  (pad "16" smd rect (at -8.89 -4.54 90) (size 2.09 1.39) (layers "F.Cu" "F.Paste" "F.Mask") (tstamp 887446f0-9d37-44fb-996c-2a777458f4fe))
)
