(module "SOP14P65_500X640X120L62X24N" (layer "F.Cu") (tedit 5FB3CA96)
  (descr "Small Outline Pkg (SOP), 0.65 mm pitch; 14 pin, 5.00 mm L X 4.40 mm W X 1.20 mm H body")
  (attr smd)
  (fp_text reference "REF**" (at 0 0) (layer "F.SilkS")
    (effects (font (size 1.2 1.2) (thickness 0.12)))
    (tstamp 32104d9e-f2d5-4427-b57f-63649551826d)
  )
  (fp_text value "VAL**" (at 0 0) (layer "F.Fab")
    (effects (font (size 1.2 1.2) (thickness 0.12)))
    (tstamp 88e6b7f2-a6d9-4ecc-ac6c-d11e5f8f43a8)
  )
  (fp_text user "${REFERENCE}" (at 0 0) (layer "F.Fab")
    (effects (font (size 2 2) (thickness 0.2)))
    (tstamp 5b546b62-8e8d-4395-9907-d2372e9b09c0)
  )
  (fp_line (start 2.385 2.25) (end 2.55 2.25) (layer "F.SilkS") (width 0.16) (tstamp 493602de-4674-43ab-8847-13b2861cb93b))
  (fp_line (start 2.55 -2.25) (end 2.385 -2.25) (layer "F.SilkS") (width 0.16) (tstamp 54168feb-b54c-4103-9b4c-2cc5c33674f9))
  (fp_line (start -2.385 2.25) (end -2.55 2.25) (layer "F.SilkS") (width 0.16) (tstamp 7ed6c1c0-bb2c-4b5b-9b5d-ef966991b087))
  (fp_line (start -2.55 -2.25) (end -2.385 -2.25) (layer "F.SilkS") (width 0.16) (tstamp b73b53ec-3974-48bc-b0c8-78cec0f5398d))
  (fp_line (start -2.55 2.25) (end -2.55 -2.25) (layer "F.SilkS") (width 0.16) (tstamp dadfc6f7-3457-4c2e-836a-8bcc40fec61f))
  (fp_line (start 2.55 2.25) (end 2.55 -2.25) (layer "F.SilkS") (width 0.16) (tstamp ed43c174-d76b-445b-9f31-eb14de65d422))
  (fp_line (start -2.385 2.25) (end -2.385 3.425) (layer "F.SilkS") (width 0.16) (tstamp f5acf0bd-2fb5-40e6-83e0-7e3f17431092))
  (fp_line (start 1.4225 2.575) (end 1.4225 3.2) (layer "Dwgs.User") (width 0.025) (tstamp 00160605-0efa-417e-b45b-93edb6414ce7))
  (fp_line (start 2.5 2.2) (end -2.5 2.2) (layer "Dwgs.User") (width 0.025) (tstamp 05278261-d7e9-43b8-8fd3-f4b129446c64))
  (fp_line (start -2.0725 -3.2) (end -1.8275 -3.2) (layer "Dwgs.User") (width 0.025) (tstamp 076f86ff-c0a9-4e40-a7ab-19e74d579523))
  (fp_line (start -0.7725 -2.575) (end -0.7725 -3.2) (layer "Dwgs.User") (width 0.025) (tstamp 089fe495-5b92-4654-ba9e-82b90ece306b))
  (fp_line (start -0.7725 3.2) (end -0.7725 2.575) (layer "Dwgs.User") (width 0.025) (tstamp 08b46a25-cd93-4254-9139-4dd2c0d17c85))
  (fp_line (start 0.7725 -3.2) (end 0.7725 -2.575) (layer "Dwgs.User") (width 0.025) (tstamp 1222ae53-3738-452d-a2ab-671645c9a07e))
  (fp_line (start 1.4225 3.2) (end 1.1775 3.2) (layer "Dwgs.User") (width 0.025) (tstamp 12b3cb54-244a-4df9-bcf3-b045fe51bde8))
  (fp_line (start 0.7725 3.2) (end 0.5275 3.2) (layer "Dwgs.User") (width 0.025) (tstamp 1855f38a-b99e-4b0d-8f4e-c950b0a9f13a))
  (fp_line (start -0.7725 2.575) (end -0.5275 2.575) (layer "Dwgs.User") (width 0.025) (tstamp 18da2fca-04fe-4cf1-b10b-fd77a894264f))
  (fp_line (start -1.4225 2.575) (end -1.1775 2.575) (layer "Dwgs.User") (width 0.025) (tstamp 1a6a2d04-796c-488d-8445-9b5caf6c4571))
  (fp_line (start 1.1775 3.2) (end 1.1775 2.575) (layer "Dwgs.User") (width 0.025) (tstamp 1c2303f3-9fa4-4878-ba9e-cdd0c91bf2c6))
  (fp_line (start 0.7725 -2.575) (end 0.5275 -2.575) (layer "Dwgs.User") (width 0.025) (tstamp 1c2eb6d8-a225-4642-bd40-a6ee9fd585f3))
  (fp_line (start 0.1225 -2.575) (end -0.1225 -2.575) (layer "Dwgs.User") (width 0.025) (tstamp 1e16d1ff-d42c-4747-98f4-6a9c1911cfaf))
  (fp_line (start -2.5 2.2) (end -2.5 -2.2) (layer "Dwgs.User") (width 0.025) (tstamp 1f93ff26-9b24-4f51-8abb-0700ca0c6499))
  (fp_line (start -0.5275 -3.2) (end -0.5275 -2.575) (layer "Dwgs.User") (width 0.025) (tstamp 235ed11a-d8bd-434c-89a6-d95a8002d6e0))
  (fp_line (start 2.0725 2.575) (end 2.0725 3.2) (layer "Dwgs.User") (width 0.025) (tstamp 237ebe1b-b156-4500-aa96-4145cf671690))
  (fp_line (start 1.4225 -3.2) (end 1.4225 -2.575) (layer "Dwgs.User") (width 0.025) (tstamp 2505b86a-e591-4ffe-ba0c-645a84cdfea6))
  (fp_line (start -2.0725 -2.575) (end -2.0725 -3.2) (layer "Dwgs.User") (width 0.025) (tstamp 268353d8-d047-4a2b-ae14-1f6c0c56262d))
  (fp_line (start -0.7725 -3.2) (end -0.5275 -3.2) (layer "Dwgs.User") (width 0.025) (tstamp 2bef59e1-8c63-457d-98b9-a4f9f785d56a))
  (fp_line (start -1.4225 3.2) (end -1.4225 2.575) (layer "Dwgs.User") (width 0.025) (tstamp 35d637a6-ad4e-42ae-bf23-7545ac4ff214))
  (fp_line (start 2.0725 -3.2) (end 2.0725 -2.575) (layer "Dwgs.User") (width 0.025) (tstamp 4c440ad2-eb16-4df1-889e-e4704b50e758))
  (fp_line (start 0.5275 2.575) (end 0.7725 2.575) (layer "Dwgs.User") (width 0.025) (tstamp 4e33207f-9f1b-411f-b93b-9e9d7d62bd5e))
  (fp_line (start -1.8275 2.575) (end -1.8275 3.2) (layer "Dwgs.User") (width 0.025) (tstamp 51e876ed-e039-4069-bc3b-8cf41ab5dfe6))
  (fp_line (start 1.1775 -3.2) (end 1.4225 -3.2) (layer "Dwgs.User") (width 0.025) (tstamp 523d1935-27b7-4e45-b4e4-45dfe813da1d))
  (fp_line (start 1.8275 3.2) (end 1.8275 2.575) (layer "Dwgs.User") (width 0.025) (tstamp 542ef2f3-c1aa-4ab8-af14-38fc806969f4))
  (fp_line (start 0.5275 -3.2) (end 0.7725 -3.2) (layer "Dwgs.User") (width 0.025) (tstamp 5dc64ec5-1bd2-4707-9fe8-a2f73f6f50cd))
  (fp_line (start -0.5275 -2.575) (end -0.7725 -2.575) (layer "Dwgs.User") (width 0.025) (tstamp 6627f64b-5753-431f-a171-468ba69451f0))
  (fp_line (start 0.5275 3.2) (end 0.5275 2.575) (layer "Dwgs.User") (width 0.025) (tstamp 6cfa4688-cbd3-417a-b470-e2d1b646c8e9))
  (fp_line (start 1.1775 2.575) (end 1.4225 2.575) (layer "Dwgs.User") (width 0.025) (tstamp 7261b64d-e4bd-410f-93c3-5bed80e3eeb9))
  (fp_line (start -1.1775 2.575) (end -1.1775 3.2) (layer "Dwgs.User") (width 0.025) (tstamp 777a78de-a830-445c-94fe-0b470560d66a))
  (fp_line (start 0.1225 -3.2) (end 0.1225 -2.575) (layer "Dwgs.User") (width 0.025) (tstamp 7ff5cf1a-c356-494d-9de7-cd2953a1f9eb))
  (fp_line (start 0.1225 2.575) (end 0.1225 3.2) (layer "Dwgs.User") (width 0.025) (tstamp 80d3fafb-3344-4e18-9798-b239cc0bff24))
  (fp_line (start -2.0725 2.575) (end -1.8275 2.575) (layer "Dwgs.User") (width 0.025) (tstamp 83004115-b599-411d-bd3f-bdd9ffefc485))
  (fp_line (start 2.0725 -2.575) (end 1.8275 -2.575) (layer "Dwgs.User") (width 0.025) (tstamp 85efd0c9-3992-4541-8efe-caf9598fd124))
  (fp_line (start -0.1225 2.575) (end 0.1225 2.575) (layer "Dwgs.User") (width 0.025) (tstamp 8a1e7a53-6036-41b6-84e9-8685e591412c))
  (fp_line (start -2.5 -2.2) (end 2.5 -2.2) (layer "Dwgs.User") (width 0.025) (tstamp 8c6707e5-6475-4bef-9b18-0af1a4185d18))
  (fp_line (start -1.8275 3.2) (end -2.0725 3.2) (layer "Dwgs.User") (width 0.025) (tstamp 8c73d709-ea87-4128-95a9-57cfa1c6d044))
  (fp_line (start -1.8275 -3.2) (end -1.8275 -2.575) (layer "Dwgs.User") (width 0.025) (tstamp 8d0042bf-4cdb-403f-97c4-7904f16e9511))
  (fp_line (start -1.4225 -3.2) (end -1.1775 -3.2) (layer "Dwgs.User") (width 0.025) (tstamp 9512b9e4-ac37-4eec-8b87-3b93ab58396f))
  (fp_line (start -1.4225 -2.575) (end -1.4225 -3.2) (layer "Dwgs.User") (width 0.025) (tstamp a5308a4c-d055-4cfa-ad43-4ecb96c606ee))
  (fp_line (start -0.1225 3.2) (end -0.1225 2.575) (layer "Dwgs.User") (width 0.025) (tstamp ad60e7cb-ca1f-423f-8bab-1f54c1f1c2e2))
  (fp_line (start -1.8275 -2.575) (end -2.0725 -2.575) (layer "Dwgs.User") (width 0.025) (tstamp af941ce7-8668-4ff8-b2f1-8b0bfb2ba7be))
  (fp_line (start -1.1775 3.2) (end -1.4225 3.2) (layer "Dwgs.User") (width 0.025) (tstamp b536c753-9f31-4712-b1b4-38cb1bf11795))
  (fp_line (start -0.1225 -2.575) (end -0.1225 -3.2) (layer "Dwgs.User") (width 0.025) (tstamp b64ed4b1-5f92-4ecb-9bd1-18d1a21a13ce))
  (fp_line (start 1.1775 -2.575) (end 1.1775 -3.2) (layer "Dwgs.User") (width 0.025) (tstamp b66abbd4-404a-4d8e-acc8-aee92325769e))
  (fp_line (start 1.8275 -2.575) (end 1.8275 -3.2) (layer "Dwgs.User") (width 0.025) (tstamp b9f092c6-ecba-4257-a7b7-b2015b8e266c))
  (fp_line (start -1.1775 -3.2) (end -1.1775 -2.575) (layer "Dwgs.User") (width 0.025) (tstamp bbf9a588-6d32-461c-b0c4-7ecce406114d))
  (fp_line (start 1.8275 -3.2) (end 2.0725 -3.2) (layer "Dwgs.User") (width 0.025) (tstamp c567aa2c-d616-40b8-8b2a-80bac61da6fc))
  (fp_line (start 1.4225 -2.575) (end 1.1775 -2.575) (layer "Dwgs.User") (width 0.025) (tstamp cb7859ec-d6f1-4a4f-a96f-befd61e9195d))
  (fp_line (start -1.1775 -2.575) (end -1.4225 -2.575) (layer "Dwgs.User") (width 0.025) (tstamp d16843de-efb1-43b0-a8f3-1fa8fcc9a330))
  (fp_line (start -2.0725 3.2) (end -2.0725 2.575) (layer "Dwgs.User") (width 0.025) (tstamp d564c33d-77df-43d2-97b8-1c0a759c838e))
  (fp_line (start -0.5275 3.2) (end -0.7725 3.2) (layer "Dwgs.User") (width 0.025) (tstamp dd9ab6f4-12b3-4f2f-b410-ed1f7e609852))
  (fp_line (start -0.5275 2.575) (end -0.5275 3.2) (layer "Dwgs.User") (width 0.025) (tstamp ec6cd895-8b77-4318-ab7b-033dc115c1f2))
  (fp_line (start 2.5 -2.2) (end 2.5 2.2) (layer "Dwgs.User") (width 0.025) (tstamp ed0891cd-8819-40a5-b90f-96b54fdbdd32))
  (fp_line (start 2.0725 3.2) (end 1.8275 3.2) (layer "Dwgs.User") (width 0.025) (tstamp ee0eef5c-3285-4b6b-83c7-eb2c554a4c00))
  (fp_line (start 1.8275 2.575) (end 2.0725 2.575) (layer "Dwgs.User") (width 0.025) (tstamp f216431a-1c70-4f8f-a402-3fac65c0830e))
  (fp_line (start 0.7725 2.575) (end 0.7725 3.2) (layer "Dwgs.User") (width 0.025) (tstamp f44c2d23-45cd-49b8-9e0a-9d017033d3a0))
  (fp_line (start -0.1225 -3.2) (end 0.1225 -3.2) (layer "Dwgs.User") (width 0.025) (tstamp fa987388-7fbf-4f1c-9fba-8618ca46f448))
  (fp_line (start 0.1225 3.2) (end -0.1225 3.2) (layer "Dwgs.User") (width 0.025) (tstamp fe313844-9742-4d7e-ab2c-096d3492bf4c))
  (fp_line (start 0.5275 -2.575) (end 0.5275 -3.2) (layer "Dwgs.User") (width 0.025) (tstamp fecf4cfd-0cb1-4a62-be2e-7b7c150460ef))
  (fp_line (start 2.345 3.705) (end 2.345 2.45) (layer "F.CrtYd") (width 0.05) (tstamp 0e60b05e-4a21-47dd-84ee-c34d19b178bc))
  (fp_line (start 2.75 -2.45) (end 2.345 -2.45) (layer "F.CrtYd") (width 0.05) (tstamp 545a6619-59b0-4a21-b017-096034977339))
  (fp_line (start -2.345 3.705) (end 2.345 3.705) (layer "F.CrtYd") (width 0.05) (tstamp 54efe533-8e88-41d1-90c5-bc1ff8ac6ce7))
  (fp_line (start 2.345 -3.705) (end -2.345 -3.705) (layer "F.CrtYd") (width 0.05) (tstamp 66e8723c-ae4b-4afc-a8cc-b1c09d9201d3))
  (fp_line (start -2.345 2.45) (end -2.345 3.705) (layer "F.CrtYd") (width 0.05) (tstamp 78ecb8c3-2bc6-4112-9256-adc7ac9fbb86))
  (fp_line (start 2.345 2.45) (end 2.75 2.45) (layer "F.CrtYd") (width 0.05) (tstamp 8b221dd9-211c-406f-b077-7ea5e3947d8f))
  (fp_line (start -2.345 -2.45) (end -2.75 -2.45) (layer "F.CrtYd") (width 0.05) (tstamp a5310716-8c1a-477e-ac3a-a27196c005ab))
  (fp_line (start -2.75 -2.45) (end -2.75 2.45) (layer "F.CrtYd") (width 0.05) (tstamp b1b8660d-ae57-44c8-963b-870a70c505ad))
  (fp_line (start -2.75 2.45) (end -2.345 2.45) (layer "F.CrtYd") (width 0.05) (tstamp c7cb0a7a-80a4-42fb-9edd-1c24a00f5df9))
  (fp_line (start 2.345 -2.45) (end 2.345 -3.705) (layer "F.CrtYd") (width 0.05) (tstamp d79046e2-5faf-4a7b-93fb-4c030561aeaa))
  (fp_line (start -2.345 -3.705) (end -2.345 -2.45) (layer "F.CrtYd") (width 0.05) (tstamp ea8e6349-47fe-48de-a5c2-d47be3835b94))
  (fp_line (start 2.75 2.45) (end 2.75 -2.45) (layer "F.CrtYd") (width 0.05) (tstamp ff4a5bdd-8670-4b50-beec-1e2252b6b45e))
  (fp_line (start -2.55 0.98) (end -2.55 -2.25) (layer "F.Fab") (width 0.16) (tstamp 4602c613-7f29-4699-9049-6b0479ea3e5f))
  (fp_line (start 2.55 -2.25) (end 2.55 2.25) (layer "F.Fab") (width 0.16) (tstamp 7a8a4609-f4c3-4dec-a863-d51290969b01))
  (fp_line (start -1.28 2.25) (end -2.55 0.98) (layer "F.Fab") (width 0.16) (tstamp 877c2da6-c833-429e-8094-9b33d9a74f24))
  (fp_line (start -2.55 -2.25) (end 2.55 -2.25) (layer "F.Fab") (width 0.16) (tstamp 9908ffb3-19fa-4882-8906-e2ee15cbbef1))
  (fp_line (start 0.00213 -0.348935) (end 0.00213 0.351065) (layer "F.Fab") (width 0.05) (tstamp bcf50cc7-7404-41bb-8a71-7c65d5ecb891))
  (fp_line (start -0.34787 0.001065) (end 0.35213 0.001065) (layer "F.Fab") (width 0.05) (tstamp c13f2e40-66d3-479a-a25d-959e02d63ee7))
  (fp_line (start 2.55 2.25) (end -1.28 2.25) (layer "F.Fab") (width 0.16) (tstamp eb3de7e9-ba64-45a8-a047-f65a038d7483))
  (fp_circle (center 0.00213 0.001065) (end 0.25213 0.001065) (layer "F.Fab") (width 0.05) (tstamp 29ade42c-3754-428e-8dd6-88ca628cdba8))
  (pad "1" smd roundrect (at -1.95 2.82 90) (size 1.37 0.39) (layers "F.Cu" "F.Paste" "F.Mask") (roundrect_rratio 0.2564) (tstamp e6c761d0-c1a1-4dd4-bb09-ce6be2320443))
  (pad "2" smd roundrect (at -1.3 2.82 90) (size 1.37 0.39) (layers "F.Cu" "F.Paste" "F.Mask") (roundrect_rratio 0.2564) (tstamp 5262983a-716f-4957-9e41-c9d1c742e9dc))
  (pad "3" smd roundrect (at -0.65 2.82 90) (size 1.37 0.39) (layers "F.Cu" "F.Paste" "F.Mask") (roundrect_rratio 0.2564) (tstamp 3ee236b0-c0b2-4ce1-85d9-eb0c0073b55e))
  (pad "4" smd roundrect (at 0 2.82 90) (size 1.37 0.39) (layers "F.Cu" "F.Paste" "F.Mask") (roundrect_rratio 0.2564) (tstamp c16c629f-2e81-4ae2-a5d8-c8ba9c805ef8))
  (pad "5" smd roundrect (at 0.65 2.82 90) (size 1.37 0.39) (layers "F.Cu" "F.Paste" "F.Mask") (roundrect_rratio 0.2564) (tstamp d947d10c-3c98-4084-80cf-2d66e021cce6))
  (pad "6" smd roundrect (at 1.3 2.82 90) (size 1.37 0.39) (layers "F.Cu" "F.Paste" "F.Mask") (roundrect_rratio 0.2564) (tstamp d5873376-e687-481e-8314-7d89bf1033dd))
  (pad "7" smd roundrect (at 1.95 2.82 90) (size 1.37 0.39) (layers "F.Cu" "F.Paste" "F.Mask") (roundrect_rratio 0.2564) (tstamp 5a29bdd4-e74c-4059-9fe5-ba0551741951))
  (pad "8" smd roundrect (at 1.95 -2.82 90) (size 1.37 0.39) (layers "F.Cu" "F.Paste" "F.Mask") (roundrect_rratio 0.2564) (tstamp 0c1261ba-e1d9-49de-aaee-62628bd0335c))
  (pad "9" smd roundrect (at 1.3 -2.82 90) (size 1.37 0.39) (layers "F.Cu" "F.Paste" "F.Mask") (roundrect_rratio 0.2564) (tstamp e88f7e78-22d0-4f55-96a4-9d46a6db3304))
  (pad "10" smd roundrect (at 0.65 -2.82 90) (size 1.37 0.39) (layers "F.Cu" "F.Paste" "F.Mask") (roundrect_rratio 0.2564) (tstamp 90312cd5-94ce-49f8-b0c3-8ff992713022))
  (pad "11" smd roundrect (at 0 -2.82 90) (size 1.37 0.39) (layers "F.Cu" "F.Paste" "F.Mask") (roundrect_rratio 0.2564) (tstamp adca1fc0-634c-4177-8e6b-bf656f4fd663))
  (pad "12" smd roundrect (at -0.65 -2.82 90) (size 1.37 0.39) (layers "F.Cu" "F.Paste" "F.Mask") (roundrect_rratio 0.2564) (tstamp fb768764-d47f-429d-973d-f06c6fe56777))
  (pad "13" smd roundrect (at -1.3 -2.82 90) (size 1.37 0.39) (layers "F.Cu" "F.Paste" "F.Mask") (roundrect_rratio 0.2564) (tstamp 1160e79d-49fb-4947-8545-3debe5551930))
  (pad "14" smd roundrect (at -1.95 -2.82 90) (size 1.37 0.39) (layers "F.Cu" "F.Paste" "F.Mask") (roundrect_rratio 0.2564) (tstamp f8cb1897-0774-408d-a1fe-7dd33734e244))
  (model "${KISYS3DMOD}/TMUX6104PWR.STEP"
    (offset (xyz 0 0 0))
    (scale (xyz 1 1 1))
    (rotate (xyz -90 0 -90))
  )
)
