(module "SOP16P65_500X640X120L62X24N" (layer "F.Cu") (tedit 5FB3CB6F)
  (descr "Small Outline Pkg (SOP), 0.65 mm pitch; 16 pin, 5.00 mm L X 4.40 mm W X 1.20 mm H body")
  (attr smd)
  (fp_text reference "REF**" (at 0 0) (layer "F.SilkS")
    (effects (font (size 1.2 1.2) (thickness 0.12)))
    (tstamp a71a28d2-9fc2-4a37-8830-faf9d8c2e6ff)
  )
  (fp_text value "VAL**" (at 0 0) (layer "F.Fab")
    (effects (font (size 1.2 1.2) (thickness 0.12)))
    (tstamp fa92cd46-e244-4d78-a095-114f6679f45b)
  )
  (fp_text user "${REFERENCE}" (at 0 0) (layer "F.Fab")
    (effects (font (size 2 2) (thickness 0.2)))
    (tstamp be8ffe3a-90a3-4230-9dcd-2dca48bbaff0)
  )
  (fp_line (start -2.71 2.25) (end -2.71 -2.25) (layer "F.SilkS") (width 0.16) (tstamp 00df3ac2-7897-432a-940e-937b758b2948))
  (fp_line (start -2.71 2.25) (end -2.71 3.425) (layer "F.SilkS") (width 0.16) (tstamp 28a5ba84-f52b-4359-99c8-330b5ed24b92))
  (fp_line (start 2.71 2.25) (end 2.71 -2.25) (layer "F.SilkS") (width 0.16) (tstamp ddbfc25b-5c18-4679-b373-64d4fbb2d444))
  (fp_line (start -0.8525 -2.575) (end -1.0975 -2.575) (layer "Dwgs.User") (width 0.025) (tstamp 00d3eddb-98a5-492b-a655-81a3a66fd2e7))
  (fp_line (start -2.3975 -2.575) (end -2.3975 -3.2) (layer "Dwgs.User") (width 0.025) (tstamp 00ffd4c9-96f1-402e-b2fb-a8ec29cb8275))
  (fp_line (start -2.3975 -3.2) (end -2.1525 -3.2) (layer "Dwgs.User") (width 0.025) (tstamp 05eb4f2e-eee5-4095-a159-c82851b80f36))
  (fp_line (start -0.8525 3.2) (end -1.0975 3.2) (layer "Dwgs.User") (width 0.025) (tstamp 072ee3bf-125b-4c60-91e7-30f5d90581d3))
  (fp_line (start -1.5025 3.2) (end -1.7475 3.2) (layer "Dwgs.User") (width 0.025) (tstamp 0836b29b-28ef-4733-b365-399b0b7a3287))
  (fp_line (start -0.2025 -2.575) (end -0.4475 -2.575) (layer "Dwgs.User") (width 0.025) (tstamp 1d4fdd30-4261-47fc-b692-0a5cedf8fab9))
  (fp_line (start -0.2025 -3.2) (end -0.2025 -2.575) (layer "Dwgs.User") (width 0.025) (tstamp 1f2f1ec4-90b3-461f-8362-43c78404b57d))
  (fp_line (start -0.4475 -3.2) (end -0.2025 -3.2) (layer "Dwgs.User") (width 0.025) (tstamp 1faaaef2-032a-4731-a43f-6d7114d949f3))
  (fp_line (start 0.2025 3.2) (end 0.2025 2.575) (layer "Dwgs.User") (width 0.025) (tstamp 209badbd-fb2c-42e4-a020-df02c9f0a47d))
  (fp_line (start 1.7475 3.2) (end 1.5025 3.2) (layer "Dwgs.User") (width 0.025) (tstamp 20b20997-b884-4cf6-b2f3-5ae72910b623))
  (fp_line (start -2.3975 3.2) (end -2.3975 2.575) (layer "Dwgs.User") (width 0.025) (tstamp 26dab03b-219d-4a8a-a1f6-e8aa47fcbab4))
  (fp_line (start -2.1525 3.2) (end -2.3975 3.2) (layer "Dwgs.User") (width 0.025) (tstamp 2c0f9dba-82fe-4696-ae67-72185fb0dd31))
  (fp_line (start 2.1525 3.2) (end 2.1525 2.575) (layer "Dwgs.User") (width 0.025) (tstamp 2d312368-9242-46fb-bbed-3161e5efc4b4))
  (fp_line (start 1.7475 -3.2) (end 1.7475 -2.575) (layer "Dwgs.User") (width 0.025) (tstamp 3073a161-ed27-4cc1-b306-a73ae39943fa))
  (fp_line (start 2.3975 -3.2) (end 2.3975 -2.575) (layer "Dwgs.User") (width 0.025) (tstamp 31409ad6-f839-45a4-a2fe-756f9c8e0aba))
  (fp_line (start -1.5025 -3.2) (end -1.5025 -2.575) (layer "Dwgs.User") (width 0.025) (tstamp 35c7214c-584a-4255-93d0-f8b29532d396))
  (fp_line (start -2.1525 -3.2) (end -2.1525 -2.575) (layer "Dwgs.User") (width 0.025) (tstamp 368f71d4-b6e5-4670-bdde-1124ddf529a1))
  (fp_line (start 2.5 2.2) (end -2.5 2.2) (layer "Dwgs.User") (width 0.025) (tstamp 3742d8d7-2547-4de3-8790-4775496d7218))
  (fp_line (start -2.1525 2.575) (end -2.1525 3.2) (layer "Dwgs.User") (width 0.025) (tstamp 3870df06-bd4a-400c-b559-ad6db2c047ab))
  (fp_line (start -0.8525 -3.2) (end -0.8525 -2.575) (layer "Dwgs.User") (width 0.025) (tstamp 3b3f7519-eee0-4341-bb79-d1cd10159b52))
  (fp_line (start 1.5025 2.575) (end 1.7475 2.575) (layer "Dwgs.User") (width 0.025) (tstamp 406c019c-1824-48b6-b789-d13edb911d33))
  (fp_line (start 0.4475 -2.575) (end 0.2025 -2.575) (layer "Dwgs.User") (width 0.025) (tstamp 42764729-9d15-4c4f-bcba-d028bbbbac86))
  (fp_line (start 1.5025 -3.2) (end 1.7475 -3.2) (layer "Dwgs.User") (width 0.025) (tstamp 4420a15e-9536-4ec8-904f-2277729fdc40))
  (fp_line (start -1.7475 -3.2) (end -1.5025 -3.2) (layer "Dwgs.User") (width 0.025) (tstamp 456de97d-c1a9-4cbd-9751-d71286c3dd7c))
  (fp_line (start 2.3975 2.575) (end 2.3975 3.2) (layer "Dwgs.User") (width 0.025) (tstamp 46b8541f-f5bd-4771-9ff0-b7a49aff0c63))
  (fp_line (start -1.0975 2.575) (end -0.8525 2.575) (layer "Dwgs.User") (width 0.025) (tstamp 46d572c4-48c2-4cd0-9e6b-88d531e6f354))
  (fp_line (start 0.8525 2.575) (end 1.0975 2.575) (layer "Dwgs.User") (width 0.025) (tstamp 535020e2-0525-4cd4-b962-74e3b4202143))
  (fp_line (start 0.4475 2.575) (end 0.4475 3.2) (layer "Dwgs.User") (width 0.025) (tstamp 5a706077-424e-4077-9a72-ab233c4f39fd))
  (fp_line (start 2.3975 3.2) (end 2.1525 3.2) (layer "Dwgs.User") (width 0.025) (tstamp 622c0e30-417e-4e5d-90d7-b869f45185e6))
  (fp_line (start 2.1525 -3.2) (end 2.3975 -3.2) (layer "Dwgs.User") (width 0.025) (tstamp 658c9c60-aae3-4131-9ae1-c13f24c35813))
  (fp_line (start -1.0975 3.2) (end -1.0975 2.575) (layer "Dwgs.User") (width 0.025) (tstamp 667eac03-4ee5-4220-afe8-42d3cf80556b))
  (fp_line (start -1.5025 2.575) (end -1.5025 3.2) (layer "Dwgs.User") (width 0.025) (tstamp 69319713-9ddf-4f95-9878-0b36ecc77dfa))
  (fp_line (start -2.3975 2.575) (end -2.1525 2.575) (layer "Dwgs.User") (width 0.025) (tstamp 6951746c-d8db-4a6d-92fd-5038f499f55a))
  (fp_line (start -1.0975 -3.2) (end -0.8525 -3.2) (layer "Dwgs.User") (width 0.025) (tstamp 73b9e271-0615-4f5b-9837-1afb0975a089))
  (fp_line (start 2.1525 2.575) (end 2.3975 2.575) (layer "Dwgs.User") (width 0.025) (tstamp 7615425c-78fc-45f7-a770-ac7edcc09ac0))
  (fp_line (start -1.7475 -2.575) (end -1.7475 -3.2) (layer "Dwgs.User") (width 0.025) (tstamp 7f3a5b6d-1aa2-494b-80c9-446974767f18))
  (fp_line (start 0.4475 -3.2) (end 0.4475 -2.575) (layer "Dwgs.User") (width 0.025) (tstamp 81955211-9a50-4fb8-9d69-5493948419b4))
  (fp_line (start -2.1525 -2.575) (end -2.3975 -2.575) (layer "Dwgs.User") (width 0.025) (tstamp 8823844c-f1d1-441d-be03-3c7fdee76518))
  (fp_line (start 0.8525 3.2) (end 0.8525 2.575) (layer "Dwgs.User") (width 0.025) (tstamp 9017d5db-fea3-4799-bf50-cbce68660276))
  (fp_line (start 1.0975 -3.2) (end 1.0975 -2.575) (layer "Dwgs.User") (width 0.025) (tstamp 9493e8c5-467f-4426-8972-56e6de050d9a))
  (fp_line (start -1.7475 3.2) (end -1.7475 2.575) (layer "Dwgs.User") (width 0.025) (tstamp 981d5f81-34f4-4ee5-82e4-62293fe1c0d1))
  (fp_line (start 0.2025 -2.575) (end 0.2025 -3.2) (layer "Dwgs.User") (width 0.025) (tstamp a008e8a4-22f7-480a-9cac-361b80e58177))
  (fp_line (start -0.2025 3.2) (end -0.4475 3.2) (layer "Dwgs.User") (width 0.025) (tstamp a2c0f86c-90ce-4568-a8cc-080b7b1708c3))
  (fp_line (start 1.7475 2.575) (end 1.7475 3.2) (layer "Dwgs.User") (width 0.025) (tstamp a7d80e55-26f8-4799-a031-997327dadd7e))
  (fp_line (start -2.5 2.2) (end -2.5 -2.2) (layer "Dwgs.User") (width 0.025) (tstamp a809efce-7160-477b-9ec5-f7326e9b1c94))
  (fp_line (start -1.7475 2.575) (end -1.5025 2.575) (layer "Dwgs.User") (width 0.025) (tstamp aa7484ca-7fe3-405e-9c26-ee77ead97192))
  (fp_line (start -1.0975 -2.575) (end -1.0975 -3.2) (layer "Dwgs.User") (width 0.025) (tstamp ab7e2ff5-8438-4df5-a7bd-da200fd387ec))
  (fp_line (start -1.5025 -2.575) (end -1.7475 -2.575) (layer "Dwgs.User") (width 0.025) (tstamp ac469ff4-c50b-44e1-b014-7c9d1f7185c0))
  (fp_line (start 1.5025 -2.575) (end 1.5025 -3.2) (layer "Dwgs.User") (width 0.025) (tstamp b1b1c3c1-1705-4d03-acd2-12160e1d4200))
  (fp_line (start 0.2025 -3.2) (end 0.4475 -3.2) (layer "Dwgs.User") (width 0.025) (tstamp b2c3de04-3c51-4705-ba7e-0406bef48762))
  (fp_line (start 1.0975 3.2) (end 0.8525 3.2) (layer "Dwgs.User") (width 0.025) (tstamp b686b0bc-4110-463e-8b10-2a40a429bee9))
  (fp_line (start -0.8525 2.575) (end -0.8525 3.2) (layer "Dwgs.User") (width 0.025) (tstamp bc5049c9-420d-4879-8649-c1fd98c35164))
  (fp_line (start 0.2025 2.575) (end 0.4475 2.575) (layer "Dwgs.User") (width 0.025) (tstamp be6f01c0-8fea-4f04-8a54-92a24fac46fd))
  (fp_line (start -2.5 -2.2) (end 2.5 -2.2) (layer "Dwgs.User") (width 0.025) (tstamp c1a70fea-aaf4-40d6-a5d8-d6fbd889fd9e))
  (fp_line (start 1.0975 2.575) (end 1.0975 3.2) (layer "Dwgs.User") (width 0.025) (tstamp c45b499a-85be-4187-a8ae-2f4f8630cfe5))
  (fp_line (start -0.4475 -2.575) (end -0.4475 -3.2) (layer "Dwgs.User") (width 0.025) (tstamp ce2cf6f5-6d06-4bd6-a4e2-17b3c598da8d))
  (fp_line (start -0.4475 2.575) (end -0.2025 2.575) (layer "Dwgs.User") (width 0.025) (tstamp cf88a4cd-b365-4e7d-ad20-283cf5e2f3a8))
  (fp_line (start 1.0975 -2.575) (end 0.8525 -2.575) (layer "Dwgs.User") (width 0.025) (tstamp d28de832-74a8-4fa4-81c8-7e72772f9c78))
  (fp_line (start 0.4475 3.2) (end 0.2025 3.2) (layer "Dwgs.User") (width 0.025) (tstamp dcf54138-82a5-4fa8-9372-5938d474e845))
  (fp_line (start -0.2025 2.575) (end -0.2025 3.2) (layer "Dwgs.User") (width 0.025) (tstamp df289460-bd58-474e-9b99-874878e6e076))
  (fp_line (start 1.7475 -2.575) (end 1.5025 -2.575) (layer "Dwgs.User") (width 0.025) (tstamp ef3ea695-468c-49f1-853f-6d2c33eddd04))
  (fp_line (start 0.8525 -2.575) (end 0.8525 -3.2) (layer "Dwgs.User") (width 0.025) (tstamp f19ef1d5-7603-41bf-9f3c-e2cb2e3aae87))
  (fp_line (start 1.5025 3.2) (end 1.5025 2.575) (layer "Dwgs.User") (width 0.025) (tstamp f73a30c0-5399-47c5-b7ca-a400ffc0048b))
  (fp_line (start 2.3975 -2.575) (end 2.1525 -2.575) (layer "Dwgs.User") (width 0.025) (tstamp f7b2ac05-c3db-4208-a0bb-d3fe8a175688))
  (fp_line (start -0.4475 3.2) (end -0.4475 2.575) (layer "Dwgs.User") (width 0.025) (tstamp fa0d5cc6-d8e2-4b4a-a29e-0a474fd845b1))
  (fp_line (start 0.8525 -3.2) (end 1.0975 -3.2) (layer "Dwgs.User") (width 0.025) (tstamp fcc9618e-e987-4ff8-867f-03706fd942f3))
  (fp_line (start 2.1525 -2.575) (end 2.1525 -3.2) (layer "Dwgs.User") (width 0.025) (tstamp fd15bd42-b3d0-4836-a6f5-869234813065))
  (fp_line (start 2.5 -2.2) (end 2.5 2.2) (layer "Dwgs.User") (width 0.025) (tstamp fdb130e9-129a-4faf-a14c-76c3789556b0))
  (fp_line (start -2.67 3.705) (end 2.67 3.705) (layer "F.CrtYd") (width 0.05) (tstamp 4540d880-9600-4cb6-af9e-555ff804d68d))
  (fp_line (start -2.67 -2.45) (end -2.75 -2.45) (layer "F.CrtYd") (width 0.05) (tstamp 4734e33e-e117-4a18-90e3-65ca14441336))
  (fp_line (start -2.75 -2.45) (end -2.75 2.45) (layer "F.CrtYd") (width 0.05) (tstamp 64e1bb2a-f1f3-4595-8dd4-1982ea071a98))
  (fp_line (start 2.67 2.45) (end 2.75 2.45) (layer "F.CrtYd") (width 0.05) (tstamp 681c88fe-6a7f-4873-beec-98495f7416b7))
  (fp_line (start 2.67 3.705) (end 2.67 2.45) (layer "F.CrtYd") (width 0.05) (tstamp 6967454d-55dc-4dfa-802c-5141ecd452d9))
  (fp_line (start -2.67 2.45) (end -2.67 3.705) (layer "F.CrtYd") (width 0.05) (tstamp 988219e4-1955-4a27-b023-06b6f722126f))
  (fp_line (start 2.67 -2.45) (end 2.67 -3.705) (layer "F.CrtYd") (width 0.05) (tstamp bf038441-add2-4f52-80e9-55424d8d817c))
  (fp_line (start 2.67 -3.705) (end -2.67 -3.705) (layer "F.CrtYd") (width 0.05) (tstamp cd3a4839-bfce-4c01-97bd-ed70d6da728d))
  (fp_line (start 2.75 -2.45) (end 2.67 -2.45) (layer "F.CrtYd") (width 0.05) (tstamp d6be6083-f815-4552-8db7-197989d166d8))
  (fp_line (start -2.75 2.45) (end -2.67 2.45) (layer "F.CrtYd") (width 0.05) (tstamp e0bf2ba8-406a-4dfb-b687-2944cbf67307))
  (fp_line (start -2.67 -3.705) (end -2.67 -2.45) (layer "F.CrtYd") (width 0.05) (tstamp f424fdf1-bd93-4866-aba0-2e94b2227f24))
  (fp_line (start 2.75 2.45) (end 2.75 -2.45) (layer "F.CrtYd") (width 0.05) (tstamp fea4cc67-0ce8-48a8-8edc-1eb4874c60fe))
  (fp_line (start 0.00213 -0.348935) (end 0.00213 0.351065) (layer "F.Fab") (width 0.05) (tstamp 4c31a719-79be-4ef9-96da-7825ba020cad))
  (fp_line (start -2.55 0.98) (end -2.55 -2.25) (layer "F.Fab") (width 0.16) (tstamp 7fa15870-f7e9-4dea-810d-67125dab5279))
  (fp_line (start -0.34787 0.001065) (end 0.35213 0.001065) (layer "F.Fab") (width 0.05) (tstamp 9047fb77-5451-4749-b4ef-3a854c56af23))
  (fp_line (start 2.55 2.25) (end -1.28 2.25) (layer "F.Fab") (width 0.16) (tstamp a6bce612-559c-4a32-b01c-b96490b1f680))
  (fp_line (start 2.55 -2.25) (end 2.55 2.25) (layer "F.Fab") (width 0.16) (tstamp aa584f5d-308c-4b95-84d3-68246610ed9e))
  (fp_line (start -1.28 2.25) (end -2.55 0.98) (layer "F.Fab") (width 0.16) (tstamp aa6680e7-c654-4327-bd9b-ce02d882a24e))
  (fp_line (start -2.55 -2.25) (end 2.55 -2.25) (layer "F.Fab") (width 0.16) (tstamp c731074d-caa9-4249-b0bb-08ab2267211b))
  (fp_circle (center 0.00213 0.001065) (end 0.25213 0.001065) (layer "F.Fab") (width 0.05) (tstamp 5086ca99-dc9b-4de5-b634-ebb563472600))
  (pad "1" smd roundrect (at -2.275 2.82 90) (size 1.37 0.39) (layers "F.Cu" "F.Paste" "F.Mask") (roundrect_rratio 0.2564) (tstamp 24e36303-288f-4525-a5a2-3a651b76cbd5))
  (pad "2" smd roundrect (at -1.625 2.82 90) (size 1.37 0.39) (layers "F.Cu" "F.Paste" "F.Mask") (roundrect_rratio 0.2564) (tstamp 2b1156a6-f3c1-415a-a46c-f0fbc5c3d21f))
  (pad "3" smd roundrect (at -0.975 2.82 90) (size 1.37 0.39) (layers "F.Cu" "F.Paste" "F.Mask") (roundrect_rratio 0.2564) (tstamp 9f7bbc89-f511-4f0a-a8e3-e80559bbcaa0))
  (pad "4" smd roundrect (at -0.325 2.82 90) (size 1.37 0.39) (layers "F.Cu" "F.Paste" "F.Mask") (roundrect_rratio 0.2564) (tstamp 8b1bf822-75db-4ffe-b2fc-14459075b271))
  (pad "5" smd roundrect (at 0.325 2.82 90) (size 1.37 0.39) (layers "F.Cu" "F.Paste" "F.Mask") (roundrect_rratio 0.2564) (tstamp f9d9b1be-2115-42b1-8024-a1f83afcd1a7))
  (pad "6" smd roundrect (at 0.975 2.82 90) (size 1.37 0.39) (layers "F.Cu" "F.Paste" "F.Mask") (roundrect_rratio 0.2564) (tstamp 849632b6-6651-495d-bac6-4242b19b9f15))
  (pad "7" smd roundrect (at 1.625 2.82 90) (size 1.37 0.39) (layers "F.Cu" "F.Paste" "F.Mask") (roundrect_rratio 0.2564) (tstamp 9e31a6a7-2c4e-4220-ac19-e9d2208e5198))
  (pad "8" smd roundrect (at 2.275 2.82 90) (size 1.37 0.39) (layers "F.Cu" "F.Paste" "F.Mask") (roundrect_rratio 0.2564) (tstamp 8c9ff11c-94be-4535-b76e-7fba02eaa3a9))
  (pad "9" smd roundrect (at 2.275 -2.82 90) (size 1.37 0.39) (layers "F.Cu" "F.Paste" "F.Mask") (roundrect_rratio 0.2564) (tstamp d0fe9c8c-a144-47b4-9c9d-bd8a7873eef3))
  (pad "10" smd roundrect (at 1.625 -2.82 90) (size 1.37 0.39) (layers "F.Cu" "F.Paste" "F.Mask") (roundrect_rratio 0.2564) (tstamp 49c32408-1771-40c5-aa42-a24c513a80c7))
  (pad "11" smd roundrect (at 0.975 -2.82 90) (size 1.37 0.39) (layers "F.Cu" "F.Paste" "F.Mask") (roundrect_rratio 0.2564) (tstamp 407c197f-9cab-49f1-97f7-661c883105e0))
  (pad "12" smd roundrect (at 0.325 -2.82 90) (size 1.37 0.39) (layers "F.Cu" "F.Paste" "F.Mask") (roundrect_rratio 0.2564) (tstamp bc3c3ce6-4397-42be-95cb-7d232f866bd8))
  (pad "13" smd roundrect (at -0.325 -2.82 90) (size 1.37 0.39) (layers "F.Cu" "F.Paste" "F.Mask") (roundrect_rratio 0.2564) (tstamp 7fac4df4-84e8-4320-b2d9-fc0de52c8316))
  (pad "14" smd roundrect (at -0.975 -2.82 90) (size 1.37 0.39) (layers "F.Cu" "F.Paste" "F.Mask") (roundrect_rratio 0.2564) (tstamp aa700c0f-c97f-48ae-9417-9ca51b8b90d8))
  (pad "15" smd roundrect (at -1.625 -2.82 90) (size 1.37 0.39) (layers "F.Cu" "F.Paste" "F.Mask") (roundrect_rratio 0.2564) (tstamp de142df3-b204-4ccc-ba91-db955cf9dcd5))
  (pad "16" smd roundrect (at -2.275 -2.82 90) (size 1.37 0.39) (layers "F.Cu" "F.Paste" "F.Mask") (roundrect_rratio 0.2564) (tstamp 38c1bdbd-2e70-4a6c-b4e9-653c6bbed79d))
  (model "${KISYS3DMOD}/TMUX1574PWR.STEP"
    (offset (xyz 0 0 0))
    (scale (xyz 1 1 1))
    (rotate (xyz -90 0 -90))
  )
)
