(module "SOP6P50_160X160X60L30X21N" (layer "F.Cu") (tedit 5FB3E7D9)
  (descr "Small Outline Pkg (SOP), 0.50 mm pitch; 6 pin, 1.60 mm L X 1.20 mm W X 0.60 mm H body")
  (attr smd)
  (fp_text reference "REF**" (at 0 0) (layer "F.SilkS")
    (effects (font (size 1.2 1.2) (thickness 0.12)))
    (tstamp a77625ca-ca40-44c2-80fa-bee35c1dc6b5)
  )
  (fp_text value "VAL**" (at 0 0) (layer "F.Fab")
    (effects (font (size 1.2 1.2) (thickness 0.12)))
    (tstamp 4c1561a2-fc1d-47ee-8558-7e195701a5b3)
  )
  (fp_text user "${REFERENCE}" (at 0 0) (layer "F.Fab")
    (effects (font (size 0.66 0.66) (thickness 0.07)))
    (tstamp 26b52149-8b4d-4f50-a7b1-6912f07c791f)
  )
  (fp_line (start -0.885 0.65) (end -0.885 -0.65) (layer "F.SilkS") (width 0.16) (tstamp 80c736d3-aed9-46ef-a06e-216d84c0a89c))
  (fp_line (start -0.885 0.65) (end -0.885 0.985) (layer "F.SilkS") (width 0.16) (tstamp b9a2da65-f9dd-4e22-8e70-db995ef0d30e))
  (fp_line (start 0.885 0.65) (end 0.885 -0.65) (layer "F.SilkS") (width 0.16) (tstamp d3884ba7-ce36-483b-a9db-f28c1d0034f0))
  (fp_line (start -0.105 -0.8) (end 0.105 -0.8) (layer "Dwgs.User") (width 0.025) (tstamp 0d5e107d-b07f-4a27-85ac-c450cbd564b1))
  (fp_line (start 0.105 0.5) (end 0.105 0.8) (layer "Dwgs.User") (width 0.025) (tstamp 0d7053f9-d67e-41a1-8502-7d27944b62d1))
  (fp_line (start 0.395 0.5) (end 0.605 0.5) (layer "Dwgs.User") (width 0.025) (tstamp 20ea3645-2739-401a-8bd9-2ae7e16fef9f))
  (fp_line (start -0.105 -0.5) (end -0.105 -0.8) (layer "Dwgs.User") (width 0.025) (tstamp 2475cd38-4ad6-443a-90ab-43824a1a22c9))
  (fp_line (start 0.105 -0.8) (end 0.105 -0.5) (layer "Dwgs.User") (width 0.025) (tstamp 386e1476-bbaa-476e-93d9-903d0415c7cd))
  (fp_line (start -0.8 0.6) (end -0.8 -0.6) (layer "Dwgs.User") (width 0.025) (tstamp 3c3a3a76-5b94-4795-8e20-077e41cbdfcd))
  (fp_line (start 0.395 0.8) (end 0.395 0.5) (layer "Dwgs.User") (width 0.025) (tstamp 435a2053-6b32-4df6-bd57-e6100cbcbf77))
  (fp_line (start 0.8 -0.6) (end 0.8 0.6) (layer "Dwgs.User") (width 0.025) (tstamp 597f6eba-c20d-48a9-ba81-0713ce40be4e))
  (fp_line (start 0.8 0.6) (end -0.8 0.6) (layer "Dwgs.User") (width 0.025) (tstamp 61927876-c4b1-4da7-ae83-0ae3ab1c0553))
  (fp_line (start 0.105 0.8) (end -0.105 0.8) (layer "Dwgs.User") (width 0.025) (tstamp 6251c56f-cce6-47d2-b65e-6f051b6ab442))
  (fp_line (start -0.395 -0.8) (end -0.395 -0.5) (layer "Dwgs.User") (width 0.025) (tstamp 7b29b393-3e0d-4320-b24a-09e356ce6dfc))
  (fp_line (start 0.605 -0.8) (end 0.605 -0.5) (layer "Dwgs.User") (width 0.025) (tstamp 7d9b8bd0-b6df-40c7-af84-a775daef4b9b))
  (fp_line (start -0.105 0.8) (end -0.105 0.5) (layer "Dwgs.User") (width 0.025) (tstamp 7f2f4197-121e-46b1-af83-6a0d8a1ae6d8))
  (fp_line (start -0.395 0.8) (end -0.605 0.8) (layer "Dwgs.User") (width 0.025) (tstamp 7f789897-8f62-4e96-b385-5c120454d5ab))
  (fp_line (start 0.395 -0.8) (end 0.605 -0.8) (layer "Dwgs.User") (width 0.025) (tstamp 94b9a69c-14a7-4f53-bdf6-2eac0e6b3c25))
  (fp_line (start 0.605 -0.5) (end 0.395 -0.5) (layer "Dwgs.User") (width 0.025) (tstamp a6687eac-0a87-436e-9552-7e66a1fd7929))
  (fp_line (start -0.8 -0.6) (end 0.8 -0.6) (layer "Dwgs.User") (width 0.025) (tstamp c2de435f-a329-430d-b32b-d3b52eabc0c5))
  (fp_line (start -0.105 0.5) (end 0.105 0.5) (layer "Dwgs.User") (width 0.025) (tstamp caf903ec-5686-4a8e-88c7-62f1cce244e8))
  (fp_line (start -0.605 -0.8) (end -0.395 -0.8) (layer "Dwgs.User") (width 0.025) (tstamp d3b762ad-da89-4511-93f7-f89b71c5133d))
  (fp_line (start -0.605 -0.5) (end -0.605 -0.8) (layer "Dwgs.User") (width 0.025) (tstamp d74f71fc-46e1-4286-9bf4-daea152549f2))
  (fp_line (start -0.605 0.5) (end -0.395 0.5) (layer "Dwgs.User") (width 0.025) (tstamp d861026b-651f-4c95-874c-e7f13e60e3d6))
  (fp_line (start 0.605 0.8) (end 0.395 0.8) (layer "Dwgs.User") (width 0.025) (tstamp e31ca143-8468-47a1-bd44-170ade269ae0))
  (fp_line (start -0.395 0.5) (end -0.395 0.8) (layer "Dwgs.User") (width 0.025) (tstamp e3804a67-e373-440e-804b-0b537a43bd02))
  (fp_line (start -0.605 0.8) (end -0.605 0.5) (layer "Dwgs.User") (width 0.025) (tstamp e6cefffd-3adb-4066-a8ad-91792fdd3cbc))
  (fp_line (start 0.605 0.5) (end 0.605 0.8) (layer "Dwgs.User") (width 0.025) (tstamp ec309dfa-1164-417a-96f6-69d7cbccca44))
  (fp_line (start 0.105 -0.5) (end -0.105 -0.5) (layer "Dwgs.User") (width 0.025) (tstamp f48ca122-c5dd-40f5-b73a-03a44e143e8f))
  (fp_line (start 0.395 -0.5) (end 0.395 -0.8) (layer "Dwgs.User") (width 0.025) (tstamp f753cb13-27de-4681-92db-7922f564fd6b))
  (fp_line (start -0.395 -0.5) (end -0.605 -0.5) (layer "Dwgs.User") (width 0.025) (tstamp f80b5f5b-268c-4264-8080-7bc9ca26a640))
  (fp_line (start 0.845 0.85) (end 1.05 0.85) (layer "F.CrtYd") (width 0.05) (tstamp 27d534cb-fe52-4d3d-a4ba-2f11ca6ff4d7))
  (fp_line (start 0.845 -1.265) (end -0.845 -1.265) (layer "F.CrtYd") (width 0.05) (tstamp 36a21719-f037-4898-b3e2-7796abe14b0e))
  (fp_line (start -0.845 -1.265) (end -0.845 -0.85) (layer "F.CrtYd") (width 0.05) (tstamp 3a3622b7-662b-4f72-b941-ab681114ecaf))
  (fp_line (start 0.845 1.265) (end 0.845 0.85) (layer "F.CrtYd") (width 0.05) (tstamp 46dbfc68-b29b-43ee-83ca-7a2561971fa9))
  (fp_line (start 1.05 0.85) (end 1.05 -0.85) (layer "F.CrtYd") (width 0.05) (tstamp 57b25857-b504-4766-9f00-642519641a0b))
  (fp_line (start 1.05 -0.85) (end 0.845 -0.85) (layer "F.CrtYd") (width 0.05) (tstamp 88e0b159-5f42-4bcb-b94f-6099992d83e2))
  (fp_line (start -0.845 0.85) (end -0.845 1.265) (layer "F.CrtYd") (width 0.05) (tstamp a254fadf-d2c7-4484-8e3b-ce3655858323))
  (fp_line (start -0.845 1.265) (end 0.845 1.265) (layer "F.CrtYd") (width 0.05) (tstamp c83d3063-923f-4521-9f41-7d68ac925f3f))
  (fp_line (start -0.845 -0.85) (end -1.05 -0.85) (layer "F.CrtYd") (width 0.05) (tstamp cec7b034-d253-46cd-9a7f-1ed821f52da9))
  (fp_line (start -1.05 0.85) (end -0.845 0.85) (layer "F.CrtYd") (width 0.05) (tstamp d9679cdf-07a9-4ea4-bcb4-03042f6d9cdd))
  (fp_line (start 0.845 -0.85) (end 0.845 -1.265) (layer "F.CrtYd") (width 0.05) (tstamp dbd9668a-8ecc-4a0d-82ce-627047385a95))
  (fp_line (start -1.05 -0.85) (end -1.05 0.85) (layer "F.CrtYd") (width 0.05) (tstamp f3646ba2-2873-4e8a-bbc3-b7d90be31e1f))
  (fp_line (start -0.85 -0.65) (end 0.85 -0.65) (layer "F.Fab") (width 0.16) (tstamp 3c4d2884-8d13-4a39-81dd-925d3d0d9cb2))
  (fp_line (start -0.41667 0.65) (end -0.85 0.21667) (layer "F.Fab") (width 0.16) (tstamp 62180bae-cf0f-454f-9e1f-9244d91fc8ba))
  (fp_line (start -0.85 0.21667) (end -0.85 -0.65) (layer "F.Fab") (width 0.16) (tstamp 6f849095-5cee-4512-ad04-46f5e05a576d))
  (fp_line (start 0.85 0.65) (end -0.41667 0.65) (layer "F.Fab") (width 0.16) (tstamp 954d37ca-6c8b-4b52-8327-3b6d18fae440))
  (fp_line (start -0.34787 0.001065) (end 0.35213 0.001065) (layer "F.Fab") (width 0.05) (tstamp c16790fd-1b61-4193-939f-0148836301c1))
  (fp_line (start 0.85 -0.65) (end 0.85 0.65) (layer "F.Fab") (width 0.16) (tstamp c6694ba4-50cd-462c-929e-c55b86bb97c0))
  (fp_line (start 0.00213 -0.348935) (end 0.00213 0.351065) (layer "F.Fab") (width 0.05) (tstamp eeb31ed0-cb1f-4f78-91cf-d7486c037eee))
  (fp_circle (center 0.00213 0.001065) (end 0.25213 0.001065) (layer "F.Fab") (width 0.05) (tstamp 1aeeb150-b14f-4ec3-849b-c9eae2a594a1))
  (pad "1" smd roundrect (at -0.5 0.66 90) (size 0.81 0.29) (layers "F.Cu" "F.Paste" "F.Mask") (roundrect_rratio 0.2414) (tstamp 68f87e99-e67d-4edf-808f-51799c19d986))
  (pad "2" smd roundrect (at 0 0.66 90) (size 0.81 0.29) (layers "F.Cu" "F.Paste" "F.Mask") (roundrect_rratio 0.2414) (tstamp 51377c7e-9540-4d15-8bf8-103264518071))
  (pad "3" smd roundrect (at 0.5 0.66 90) (size 0.81 0.29) (layers "F.Cu" "F.Paste" "F.Mask") (roundrect_rratio 0.2414) (tstamp 0068e931-6427-4b8c-bc66-752b37b05eca))
  (pad "4" smd roundrect (at 0.5 -0.66 90) (size 0.81 0.29) (layers "F.Cu" "F.Paste" "F.Mask") (roundrect_rratio 0.2414) (tstamp 8766cd64-66e3-42a3-b07e-959fc1106cf3))
  (pad "5" smd roundrect (at 0 -0.66 90) (size 0.81 0.29) (layers "F.Cu" "F.Paste" "F.Mask") (roundrect_rratio 0.2414) (tstamp 074cf349-3ec9-4995-b418-82aa6dd3c341))
  (pad "6" smd roundrect (at -0.5 -0.66 90) (size 0.81 0.29) (layers "F.Cu" "F.Paste" "F.Mask") (roundrect_rratio 0.2414) (tstamp f567bb2e-8b77-4f35-a736-9654f0a1a4ae))
  (model "${KISYS3DMOD}/TPS562202DRLR.stp"
    (offset (xyz 0 0 0))
    (scale (xyz 1 1 1))
    (rotate (xyz 0 0 -90))
  )
)
