(module "SOP8P50_300X490X110L55X22N" (layer "F.Cu") (tedit 5FB28111)
  (descr "Small Outline Pkg (SOP), 0.50 mm pitch; 8 pin, 3.00 mm L X 3.00 mm W X 1.10 mm H body")
  (attr smd)
  (fp_text reference "REF**" (at 0 0) (layer "F.SilkS")
    (effects (font (size 1.2 1.2) (thickness 0.12)))
    (tstamp 22cb8fd5-4c48-4c17-82bf-2478b14de7da)
  )
  (fp_text value "VAL**" (at 0 0) (layer "F.Fab")
    (effects (font (size 1.2 1.2) (thickness 0.12)))
    (tstamp d134e504-a156-4365-a557-ad06d70424d2)
  )
  (fp_text user "${REFERENCE}" (at 0 0) (layer "F.Fab")
    (effects (font (size 2 2) (thickness 0.2)))
    (tstamp 36652afc-e5d5-48e0-90b2-810ab9bab966)
  )
  (fp_line (start -1.55 1.55) (end -1.55 -1.55) (layer "F.SilkS") (width 0.16) (tstamp 0452dbb2-7e0a-4429-bb92-94e9ba52dd93))
  (fp_line (start 1.55 -1.55) (end 1.14 -1.55) (layer "F.SilkS") (width 0.16) (tstamp 327df4a1-092b-4539-85d4-8839a3a9b1e8))
  (fp_line (start 1.14 1.55) (end 1.55 1.55) (layer "F.SilkS") (width 0.16) (tstamp 47b06ec7-3f79-4b71-9717-abcf81c4e3bf))
  (fp_line (start -1.14 1.55) (end -1.55 1.55) (layer "F.SilkS") (width 0.16) (tstamp 8011c61c-b48c-47d6-9d3c-faa0696d274f))
  (fp_line (start 1.55 1.55) (end 1.55 -1.55) (layer "F.SilkS") (width 0.16) (tstamp 9b7da678-e517-4b51-a8c9-c68c715d5979))
  (fp_line (start -1.14 1.55) (end -1.14 2.605) (layer "F.SilkS") (width 0.16) (tstamp b7d9dad2-8f96-40b3-bf80-89ef08432dd3))
  (fp_line (start -1.55 -1.55) (end -1.14 -1.55) (layer "F.SilkS") (width 0.16) (tstamp bc15caca-370a-4c20-acf6-7f2919b4ff7e))
  (fp_line (start -0.36 -1.9) (end -0.36 -2.45) (layer "Dwgs.User") (width 0.025) (tstamp 0352cdf7-945e-42a0-9789-8cbdcfa92f34))
  (fp_line (start 0.14 1.9) (end 0.36 1.9) (layer "Dwgs.User") (width 0.025) (tstamp 052f6478-fd28-46a3-b7da-bc8ec4db0ed8))
  (fp_line (start -0.36 -2.45) (end -0.14 -2.45) (layer "Dwgs.User") (width 0.025) (tstamp 0b1e256a-b26b-4085-bb03-fdd64bb14524))
  (fp_line (start -0.36 2.45) (end -0.36 1.9) (layer "Dwgs.User") (width 0.025) (tstamp 0b4d8b06-d4e1-47ea-82f3-fc01cc007798))
  (fp_line (start 0.86 -1.9) (end 0.64 -1.9) (layer "Dwgs.User") (width 0.025) (tstamp 12dc3f1a-d2d7-4386-a7d1-7eedcb6d45f4))
  (fp_line (start 0.14 -1.9) (end 0.14 -2.45) (layer "Dwgs.User") (width 0.025) (tstamp 138ec8ea-6248-483b-b7b3-30140d62fc90))
  (fp_line (start -0.86 1.9) (end -0.64 1.9) (layer "Dwgs.User") (width 0.025) (tstamp 173281d3-d84d-4bc1-b093-d9feb6723514))
  (fp_line (start 1.5 -1.5) (end 1.5 1.5) (layer "Dwgs.User") (width 0.025) (tstamp 2639aac6-e194-4166-8a51-5e3b5eddd279))
  (fp_line (start -0.14 1.9) (end -0.14 2.45) (layer "Dwgs.User") (width 0.025) (tstamp 2a6c5a1b-322c-4caf-a856-1fe3efb37ca4))
  (fp_line (start 0.36 2.45) (end 0.14 2.45) (layer "Dwgs.User") (width 0.025) (tstamp 3766c117-db87-4ba4-be4d-ce888ed7bb7e))
  (fp_line (start -0.14 -1.9) (end -0.36 -1.9) (layer "Dwgs.User") (width 0.025) (tstamp 393e0838-efc0-455a-8a11-3d3870a028ba))
  (fp_line (start -0.36 1.9) (end -0.14 1.9) (layer "Dwgs.User") (width 0.025) (tstamp 39befbb3-ac54-492f-8957-4e55f3c26db7))
  (fp_line (start -0.86 2.45) (end -0.86 1.9) (layer "Dwgs.User") (width 0.025) (tstamp 46819ec3-fc76-427a-9450-dddfefdd9755))
  (fp_line (start -0.86 -1.9) (end -0.86 -2.45) (layer "Dwgs.User") (width 0.025) (tstamp 4d0af28a-b3ba-4c44-affe-5e89f7afd690))
  (fp_line (start -0.64 1.9) (end -0.64 2.45) (layer "Dwgs.User") (width 0.025) (tstamp 55c81840-a841-47ba-8715-8ae431cfdfdb))
  (fp_line (start 0.86 2.45) (end 0.64 2.45) (layer "Dwgs.User") (width 0.025) (tstamp 67a0b180-d636-48c9-8428-e787b5df4d24))
  (fp_line (start 1.5 1.5) (end -1.5 1.5) (layer "Dwgs.User") (width 0.025) (tstamp 7419f287-06e9-40d2-a79e-a933b1a6b532))
  (fp_line (start 0.64 -1.9) (end 0.64 -2.45) (layer "Dwgs.User") (width 0.025) (tstamp 75bc1f46-5f5d-4065-9714-2fd6e46f2bb9))
  (fp_line (start 0.36 -2.45) (end 0.36 -1.9) (layer "Dwgs.User") (width 0.025) (tstamp 7a6883fd-971e-4bc7-8c8e-ebd045cb6dcb))
  (fp_line (start 0.64 -2.45) (end 0.86 -2.45) (layer "Dwgs.User") (width 0.025) (tstamp 7e8c3024-93f9-4726-8f78-4ddbb0a6709a))
  (fp_line (start -0.64 2.45) (end -0.86 2.45) (layer "Dwgs.User") (width 0.025) (tstamp 86462d9d-4e21-429a-8f05-470eb37919db))
  (fp_line (start 0.64 1.9) (end 0.86 1.9) (layer "Dwgs.User") (width 0.025) (tstamp 8811d47e-aca1-4cf3-acac-7b06233bc6c0))
  (fp_line (start -1.5 -1.5) (end 1.5 -1.5) (layer "Dwgs.User") (width 0.025) (tstamp 9097a23d-913b-4fe8-8b24-cd3d94e0ef85))
  (fp_line (start 0.86 -2.45) (end 0.86 -1.9) (layer "Dwgs.User") (width 0.025) (tstamp 992a74e7-61c1-4144-b587-4c429374fb00))
  (fp_line (start 0.86 1.9) (end 0.86 2.45) (layer "Dwgs.User") (width 0.025) (tstamp 99ce3a2b-01d7-4a74-846b-974020f28717))
  (fp_line (start 0.14 2.45) (end 0.14 1.9) (layer "Dwgs.User") (width 0.025) (tstamp ac235286-0144-4862-87d1-793a488e36e9))
  (fp_line (start -0.86 -2.45) (end -0.64 -2.45) (layer "Dwgs.User") (width 0.025) (tstamp b8840f93-0da2-413d-a4cf-8035ab6f2c19))
  (fp_line (start -0.64 -1.9) (end -0.86 -1.9) (layer "Dwgs.User") (width 0.025) (tstamp c1291b12-fb63-47d4-a6bc-64eedace6242))
  (fp_line (start 0.14 -2.45) (end 0.36 -2.45) (layer "Dwgs.User") (width 0.025) (tstamp c8e9b854-731d-451e-9655-f9ba4d74fb96))
  (fp_line (start 0.36 1.9) (end 0.36 2.45) (layer "Dwgs.User") (width 0.025) (tstamp cd927be5-cdfe-4166-a89e-8ba3d94e60d3))
  (fp_line (start -0.64 -2.45) (end -0.64 -1.9) (layer "Dwgs.User") (width 0.025) (tstamp ce4f733b-8da4-4e47-8c7f-5ee205b87b86))
  (fp_line (start -0.14 2.45) (end -0.36 2.45) (layer "Dwgs.User") (width 0.025) (tstamp d2697a90-5006-44ee-8d30-9adb67984b55))
  (fp_line (start 0.36 -1.9) (end 0.14 -1.9) (layer "Dwgs.User") (width 0.025) (tstamp d415d971-5c9f-49d0-873e-1fb40b8cb50d))
  (fp_line (start 0.64 2.45) (end 0.64 1.9) (layer "Dwgs.User") (width 0.025) (tstamp e8caca3f-99db-42f5-a236-bb4f3c92b587))
  (fp_line (start -0.14 -2.45) (end -0.14 -1.9) (layer "Dwgs.User") (width 0.025) (tstamp f5ddcdd1-2d3e-496f-9a3c-e84ee1e2dbb6))
  (fp_line (start -1.5 1.5) (end -1.5 -1.5) (layer "Dwgs.User") (width 0.025) (tstamp fb9f6143-e802-4a00-a26e-3aca90927130))
  (fp_line (start -1.1 -2.885) (end -1.1 -1.75) (layer "F.CrtYd") (width 0.05) (tstamp 03ebd125-6775-4abd-b702-eb4a301b81b0))
  (fp_line (start 1.75 -1.75) (end 1.1 -1.75) (layer "F.CrtYd") (width 0.05) (tstamp 49b33091-6407-442d-88bb-67702caf91eb))
  (fp_line (start -1.1 1.75) (end -1.1 2.885) (layer "F.CrtYd") (width 0.05) (tstamp 53a1dc73-415c-49ff-af44-a29f109d8a20))
  (fp_line (start 1.1 1.75) (end 1.75 1.75) (layer "F.CrtYd") (width 0.05) (tstamp 5b07855b-e8d2-4f14-ae80-97e51cd9ebd7))
  (fp_line (start -1.75 1.75) (end -1.1 1.75) (layer "F.CrtYd") (width 0.05) (tstamp 71c7ef16-7e16-498c-bcb5-3f53d3d7fde0))
  (fp_line (start -1.75 -1.75) (end -1.75 1.75) (layer "F.CrtYd") (width 0.05) (tstamp b6c8e5b4-1b3e-43df-8f4c-a66805b1a913))
  (fp_line (start -1.1 -1.75) (end -1.75 -1.75) (layer "F.CrtYd") (width 0.05) (tstamp d80798b9-3c2e-43ac-905e-a47e02887340))
  (fp_line (start 1.1 -1.75) (end 1.1 -2.885) (layer "F.CrtYd") (width 0.05) (tstamp de0e3def-7a1c-4d9e-a6c1-af86df9fae3d))
  (fp_line (start 1.75 1.75) (end 1.75 -1.75) (layer "F.CrtYd") (width 0.05) (tstamp f14266a0-c6e0-420b-ae33-af2d8ac08546))
  (fp_line (start 1.1 2.885) (end 1.1 1.75) (layer "F.CrtYd") (width 0.05) (tstamp f219786f-4308-44c0-9684-0437ac09a97a))
  (fp_line (start 1.1 -2.885) (end -1.1 -2.885) (layer "F.CrtYd") (width 0.05) (tstamp f40a7e59-911d-475b-8d96-b74cec80111b))
  (fp_line (start -1.1 2.885) (end 1.1 2.885) (layer "F.CrtYd") (width 0.05) (tstamp fad3b007-c754-48aa-ba91-06b784f06a79))
  (fp_line (start -0.51667 1.55) (end -1.55 0.51667) (layer "F.Fab") (width 0.16) (tstamp 195d86ef-8a46-4278-83c7-f8246706f6ac))
  (fp_line (start -1.55 0.51667) (end -1.55 -1.55) (layer "F.Fab") (width 0.16) (tstamp 19fb9301-828a-4a0a-b0e6-8d0252f5c707))
  (fp_line (start 0.00213 -0.348935) (end 0.00213 0.351065) (layer "F.Fab") (width 0.05) (tstamp 35aaa283-bc8e-4a28-979e-719babf687a5))
  (fp_line (start 1.55 -1.55) (end 1.55 1.55) (layer "F.Fab") (width 0.16) (tstamp 3754f8e3-e7b7-4f9a-a14f-6c72812ff4dc))
  (fp_line (start -1.55 -1.55) (end 1.55 -1.55) (layer "F.Fab") (width 0.16) (tstamp 44063808-1630-4216-b207-134fe5068073))
  (fp_line (start -0.34787 0.001065) (end 0.35213 0.001065) (layer "F.Fab") (width 0.05) (tstamp 4d420cba-af8a-4196-be18-f5ffccb7545f))
  (fp_line (start 1.55 1.55) (end -0.51667 1.55) (layer "F.Fab") (width 0.16) (tstamp fed0087a-4bee-4920-b3c4-018c2adfa9d7))
  (fp_circle (center 0.00213 0.001065) (end 0.25213 0.001065) (layer "F.Fab") (width 0.05) (tstamp 52c1eaf6-91f9-4ead-b124-0e236844b5b0))
  (pad "1" smd roundrect (at -0.75 2.1 90) (size 1.17 0.3) (layers "F.Cu" "F.Paste" "F.Mask") (roundrect_rratio 0.2667) (tstamp cc8d82d0-66cf-44fc-b1a2-8ace9b462d5a))
  (pad "2" smd roundrect (at -0.25 2.1 90) (size 1.17 0.3) (layers "F.Cu" "F.Paste" "F.Mask") (roundrect_rratio 0.2667) (tstamp 700e4627-6adf-4103-a11e-7d3bd69bf099))
  (pad "3" smd roundrect (at 0.25 2.1 90) (size 1.17 0.3) (layers "F.Cu" "F.Paste" "F.Mask") (roundrect_rratio 0.2667) (tstamp 54ab37c1-a9ca-4b7a-8de6-da0657d56266))
  (pad "4" smd roundrect (at 0.75 2.1 90) (size 1.17 0.3) (layers "F.Cu" "F.Paste" "F.Mask") (roundrect_rratio 0.2667) (tstamp cfb367b9-c013-4ea6-8606-a860caa38d66))
  (pad "5" smd roundrect (at 0.75 -2.1 90) (size 1.17 0.3) (layers "F.Cu" "F.Paste" "F.Mask") (roundrect_rratio 0.2667) (tstamp f479b6fb-c1a9-482e-977e-c56f3b6a281a))
  (pad "6" smd roundrect (at 0.25 -2.1 90) (size 1.17 0.3) (layers "F.Cu" "F.Paste" "F.Mask") (roundrect_rratio 0.2667) (tstamp c7de73a4-7270-4e34-97e0-7e6e1ea21a4b))
  (pad "7" smd roundrect (at -0.25 -2.1 90) (size 1.17 0.3) (layers "F.Cu" "F.Paste" "F.Mask") (roundrect_rratio 0.2667) (tstamp 64412d7d-9f07-4729-a156-97441461fb0f))
  (pad "8" smd roundrect (at -0.75 -2.1 90) (size 1.17 0.3) (layers "F.Cu" "F.Paste" "F.Mask") (roundrect_rratio 0.2667) (tstamp 2e35def3-9be3-4370-aa6c-8f45a06423f4))
)
