(module SOIC24P127_1540X1030X265L83X41N (layer F.Cu) (tedit 0)
  (descr "Small Outline IC (SOIC), 1.27 mm pitch; 24 pin, 15.40 mm L X 7.50 mm W X 2.65 mm H body")
  (attr smd)
  (fp_text user %R (at 0 0) (layer F.Fab)
    (effects (font (size 2 2) (thickness 0.2)))
  )
  (fp_text value VAL** (at 0 0) (layer F.Fab)
    (effects (font (size 1.2 1.2) (thickness 0.12)))
  )
  (fp_text reference REF** (at 0 0) (layer F.SilkS)
    (effects (font (size 1.2 1.2) (thickness 0.12)))
  )
  (fp_line (start -7.19 4.315) (end -6.78 4.315) (layer Dwgs.User) (width 0.025))
  (fp_line (start -6.78 4.315) (end -6.78 5.15) (layer Dwgs.User) (width 0.025))
  (fp_line (start -6.78 5.15) (end -7.19 5.15) (layer Dwgs.User) (width 0.025))
  (fp_line (start -7.19 5.15) (end -7.19 4.315) (layer Dwgs.User) (width 0.025))
  (fp_line (start -5.92 4.315) (end -5.51 4.315) (layer Dwgs.User) (width 0.025))
  (fp_line (start -5.51 4.315) (end -5.51 5.15) (layer Dwgs.User) (width 0.025))
  (fp_line (start -5.51 5.15) (end -5.92 5.15) (layer Dwgs.User) (width 0.025))
  (fp_line (start -5.92 5.15) (end -5.92 4.315) (layer Dwgs.User) (width 0.025))
  (fp_line (start -4.65 4.315) (end -4.24 4.315) (layer Dwgs.User) (width 0.025))
  (fp_line (start -4.24 4.315) (end -4.24 5.15) (layer Dwgs.User) (width 0.025))
  (fp_line (start -4.24 5.15) (end -4.65 5.15) (layer Dwgs.User) (width 0.025))
  (fp_line (start -4.65 5.15) (end -4.65 4.315) (layer Dwgs.User) (width 0.025))
  (fp_line (start -3.38 4.315) (end -2.97 4.315) (layer Dwgs.User) (width 0.025))
  (fp_line (start -2.97 4.315) (end -2.97 5.15) (layer Dwgs.User) (width 0.025))
  (fp_line (start -2.97 5.15) (end -3.38 5.15) (layer Dwgs.User) (width 0.025))
  (fp_line (start -3.38 5.15) (end -3.38 4.315) (layer Dwgs.User) (width 0.025))
  (fp_line (start -2.11 4.315) (end -1.7 4.315) (layer Dwgs.User) (width 0.025))
  (fp_line (start -1.7 4.315) (end -1.7 5.15) (layer Dwgs.User) (width 0.025))
  (fp_line (start -1.7 5.15) (end -2.11 5.15) (layer Dwgs.User) (width 0.025))
  (fp_line (start -2.11 5.15) (end -2.11 4.315) (layer Dwgs.User) (width 0.025))
  (fp_line (start -0.84 4.315) (end -0.43 4.315) (layer Dwgs.User) (width 0.025))
  (fp_line (start -0.43 4.315) (end -0.43 5.15) (layer Dwgs.User) (width 0.025))
  (fp_line (start -0.43 5.15) (end -0.84 5.15) (layer Dwgs.User) (width 0.025))
  (fp_line (start -0.84 5.15) (end -0.84 4.315) (layer Dwgs.User) (width 0.025))
  (fp_line (start 0.43 4.315) (end 0.84 4.315) (layer Dwgs.User) (width 0.025))
  (fp_line (start 0.84 4.315) (end 0.84 5.15) (layer Dwgs.User) (width 0.025))
  (fp_line (start 0.84 5.15) (end 0.43 5.15) (layer Dwgs.User) (width 0.025))
  (fp_line (start 0.43 5.15) (end 0.43 4.315) (layer Dwgs.User) (width 0.025))
  (fp_line (start 1.7 4.315) (end 2.11 4.315) (layer Dwgs.User) (width 0.025))
  (fp_line (start 2.11 4.315) (end 2.11 5.15) (layer Dwgs.User) (width 0.025))
  (fp_line (start 2.11 5.15) (end 1.7 5.15) (layer Dwgs.User) (width 0.025))
  (fp_line (start 1.7 5.15) (end 1.7 4.315) (layer Dwgs.User) (width 0.025))
  (fp_line (start 2.97 4.315) (end 3.38 4.315) (layer Dwgs.User) (width 0.025))
  (fp_line (start 3.38 4.315) (end 3.38 5.15) (layer Dwgs.User) (width 0.025))
  (fp_line (start 3.38 5.15) (end 2.97 5.15) (layer Dwgs.User) (width 0.025))
  (fp_line (start 2.97 5.15) (end 2.97 4.315) (layer Dwgs.User) (width 0.025))
  (fp_line (start 4.24 4.315) (end 4.65 4.315) (layer Dwgs.User) (width 0.025))
  (fp_line (start 4.65 4.315) (end 4.65 5.15) (layer Dwgs.User) (width 0.025))
  (fp_line (start 4.65 5.15) (end 4.24 5.15) (layer Dwgs.User) (width 0.025))
  (fp_line (start 4.24 5.15) (end 4.24 4.315) (layer Dwgs.User) (width 0.025))
  (fp_line (start 5.51 4.315) (end 5.92 4.315) (layer Dwgs.User) (width 0.025))
  (fp_line (start 5.92 4.315) (end 5.92 5.15) (layer Dwgs.User) (width 0.025))
  (fp_line (start 5.92 5.15) (end 5.51 5.15) (layer Dwgs.User) (width 0.025))
  (fp_line (start 5.51 5.15) (end 5.51 4.315) (layer Dwgs.User) (width 0.025))
  (fp_line (start 6.78 4.315) (end 7.19 4.315) (layer Dwgs.User) (width 0.025))
  (fp_line (start 7.19 4.315) (end 7.19 5.15) (layer Dwgs.User) (width 0.025))
  (fp_line (start 7.19 5.15) (end 6.78 5.15) (layer Dwgs.User) (width 0.025))
  (fp_line (start 6.78 5.15) (end 6.78 4.315) (layer Dwgs.User) (width 0.025))
  (fp_line (start 7.19 -4.315) (end 6.78 -4.315) (layer Dwgs.User) (width 0.025))
  (fp_line (start 6.78 -4.315) (end 6.78 -5.15) (layer Dwgs.User) (width 0.025))
  (fp_line (start 6.78 -5.15) (end 7.19 -5.15) (layer Dwgs.User) (width 0.025))
  (fp_line (start 7.19 -5.15) (end 7.19 -4.315) (layer Dwgs.User) (width 0.025))
  (fp_line (start 5.92 -4.315) (end 5.51 -4.315) (layer Dwgs.User) (width 0.025))
  (fp_line (start 5.51 -4.315) (end 5.51 -5.15) (layer Dwgs.User) (width 0.025))
  (fp_line (start 5.51 -5.15) (end 5.92 -5.15) (layer Dwgs.User) (width 0.025))
  (fp_line (start 5.92 -5.15) (end 5.92 -4.315) (layer Dwgs.User) (width 0.025))
  (fp_line (start 4.65 -4.315) (end 4.24 -4.315) (layer Dwgs.User) (width 0.025))
  (fp_line (start 4.24 -4.315) (end 4.24 -5.15) (layer Dwgs.User) (width 0.025))
  (fp_line (start 4.24 -5.15) (end 4.65 -5.15) (layer Dwgs.User) (width 0.025))
  (fp_line (start 4.65 -5.15) (end 4.65 -4.315) (layer Dwgs.User) (width 0.025))
  (fp_line (start 3.38 -4.315) (end 2.97 -4.315) (layer Dwgs.User) (width 0.025))
  (fp_line (start 2.97 -4.315) (end 2.97 -5.15) (layer Dwgs.User) (width 0.025))
  (fp_line (start 2.97 -5.15) (end 3.38 -5.15) (layer Dwgs.User) (width 0.025))
  (fp_line (start 3.38 -5.15) (end 3.38 -4.315) (layer Dwgs.User) (width 0.025))
  (fp_line (start 2.11 -4.315) (end 1.7 -4.315) (layer Dwgs.User) (width 0.025))
  (fp_line (start 1.7 -4.315) (end 1.7 -5.15) (layer Dwgs.User) (width 0.025))
  (fp_line (start 1.7 -5.15) (end 2.11 -5.15) (layer Dwgs.User) (width 0.025))
  (fp_line (start 2.11 -5.15) (end 2.11 -4.315) (layer Dwgs.User) (width 0.025))
  (fp_line (start 0.84 -4.315) (end 0.43 -4.315) (layer Dwgs.User) (width 0.025))
  (fp_line (start 0.43 -4.315) (end 0.43 -5.15) (layer Dwgs.User) (width 0.025))
  (fp_line (start 0.43 -5.15) (end 0.84 -5.15) (layer Dwgs.User) (width 0.025))
  (fp_line (start 0.84 -5.15) (end 0.84 -4.315) (layer Dwgs.User) (width 0.025))
  (fp_line (start -0.43 -4.315) (end -0.84 -4.315) (layer Dwgs.User) (width 0.025))
  (fp_line (start -0.84 -4.315) (end -0.84 -5.15) (layer Dwgs.User) (width 0.025))
  (fp_line (start -0.84 -5.15) (end -0.43 -5.15) (layer Dwgs.User) (width 0.025))
  (fp_line (start -0.43 -5.15) (end -0.43 -4.315) (layer Dwgs.User) (width 0.025))
  (fp_line (start -1.7 -4.315) (end -2.11 -4.315) (layer Dwgs.User) (width 0.025))
  (fp_line (start -2.11 -4.315) (end -2.11 -5.15) (layer Dwgs.User) (width 0.025))
  (fp_line (start -2.11 -5.15) (end -1.7 -5.15) (layer Dwgs.User) (width 0.025))
  (fp_line (start -1.7 -5.15) (end -1.7 -4.315) (layer Dwgs.User) (width 0.025))
  (fp_line (start -2.97 -4.315) (end -3.38 -4.315) (layer Dwgs.User) (width 0.025))
  (fp_line (start -3.38 -4.315) (end -3.38 -5.15) (layer Dwgs.User) (width 0.025))
  (fp_line (start -3.38 -5.15) (end -2.97 -5.15) (layer Dwgs.User) (width 0.025))
  (fp_line (start -2.97 -5.15) (end -2.97 -4.315) (layer Dwgs.User) (width 0.025))
  (fp_line (start -4.24 -4.315) (end -4.65 -4.315) (layer Dwgs.User) (width 0.025))
  (fp_line (start -4.65 -4.315) (end -4.65 -5.15) (layer Dwgs.User) (width 0.025))
  (fp_line (start -4.65 -5.15) (end -4.24 -5.15) (layer Dwgs.User) (width 0.025))
  (fp_line (start -4.24 -5.15) (end -4.24 -4.315) (layer Dwgs.User) (width 0.025))
  (fp_line (start -5.51 -4.315) (end -5.92 -4.315) (layer Dwgs.User) (width 0.025))
  (fp_line (start -5.92 -4.315) (end -5.92 -5.15) (layer Dwgs.User) (width 0.025))
  (fp_line (start -5.92 -5.15) (end -5.51 -5.15) (layer Dwgs.User) (width 0.025))
  (fp_line (start -5.51 -5.15) (end -5.51 -4.315) (layer Dwgs.User) (width 0.025))
  (fp_line (start -6.78 -4.315) (end -7.19 -4.315) (layer Dwgs.User) (width 0.025))
  (fp_line (start -7.19 -4.315) (end -7.19 -5.15) (layer Dwgs.User) (width 0.025))
  (fp_line (start -7.19 -5.15) (end -6.78 -5.15) (layer Dwgs.User) (width 0.025))
  (fp_line (start -6.78 -5.15) (end -6.78 -4.315) (layer Dwgs.User) (width 0.025))
  (fp_line (start -7.7 3.75) (end -7.7 -3.75) (layer Dwgs.User) (width 0.025))
  (fp_line (start -7.7 -3.75) (end 7.7 -3.75) (layer Dwgs.User) (width 0.025))
  (fp_line (start 7.7 -3.75) (end 7.7 3.75) (layer Dwgs.User) (width 0.025))
  (fp_line (start 7.7 3.75) (end -7.7 3.75) (layer Dwgs.User) (width 0.025))
  (fp_circle (center 0 0) (end 0 0.25) (layer F.CrtYd) (width 0.05))
  (fp_line (start 0 -0.35) (end 0 0.35) (layer F.CrtYd) (width 0.05))
  (fp_line (start -0.35 0) (end 0.35 0) (layer F.CrtYd) (width 0.05))
  (fp_line (start 7.8 3.8) (end -6.53 3.8) (layer F.Fab) (width 0.16))
  (fp_line (start -6.53 3.8) (end -7.8 2.53) (layer F.Fab) (width 0.16))
  (fp_line (start -7.8 2.53) (end -7.8 -3.8) (layer F.Fab) (width 0.16))
  (fp_line (start -7.8 -3.8) (end 7.8 -3.8) (layer F.Fab) (width 0.16))
  (fp_line (start 7.8 -3.8) (end 7.8 3.8) (layer F.Fab) (width 0.16))
  (fp_line (start 7.555 3.8) (end 7.8 3.8) (layer F.SilkS) (width 0.16))
  (fp_line (start 7.8 3.8) (end 7.8 -3.8) (layer F.SilkS) (width 0.16))
  (fp_line (start 7.8 -3.8) (end 7.555 -3.8) (layer F.SilkS) (width 0.16))
  (fp_line (start -7.555 3.8) (end -7.8 3.8) (layer F.SilkS) (width 0.16))
  (fp_line (start -7.8 3.8) (end -7.8 -3.8) (layer F.SilkS) (width 0.16))
  (fp_line (start -7.8 -3.8) (end -7.555 -3.8) (layer F.SilkS) (width 0.16))
  (fp_line (start -7.555 3.8) (end -7.555 5.59) (layer F.SilkS) (width 0.16))
  (fp_line (start 8 4) (end 8 -4) (layer F.CrtYd) (width 0.05))
  (fp_line (start 8 -4) (end 7.515 -4) (layer F.CrtYd) (width 0.05))
  (fp_line (start 7.515 -4) (end 7.515 -5.87) (layer F.CrtYd) (width 0.05))
  (fp_line (start 7.515 -5.87) (end -7.515 -5.87) (layer F.CrtYd) (width 0.05))
  (fp_line (start -7.515 -5.87) (end -7.515 -4) (layer F.CrtYd) (width 0.05))
  (fp_line (start -7.515 -4) (end -8 -4) (layer F.CrtYd) (width 0.05))
  (fp_line (start -8 -4) (end -8 4) (layer F.CrtYd) (width 0.05))
  (fp_line (start -8 4) (end -7.515 4) (layer F.CrtYd) (width 0.05))
  (fp_line (start -7.515 4) (end -7.515 5.87) (layer F.CrtYd) (width 0.05))
  (fp_line (start -7.515 5.87) (end 7.515 5.87) (layer F.CrtYd) (width 0.05))
  (fp_line (start 7.515 5.87) (end 7.515 4) (layer F.CrtYd) (width 0.05))
  (fp_line (start 7.515 4) (end 8 4) (layer F.CrtYd) (width 0.05))
  (pad 1 smd roundrect (at -6.985 4.59 90) (size 2.16 0.66) (layers F.Cu F.Paste F.Mask) (roundrect_rratio 0.2576))
  (pad 2 smd roundrect (at -5.715 4.59 90) (size 2.16 0.66) (layers F.Cu F.Paste F.Mask) (roundrect_rratio 0.2576))
  (pad 3 smd roundrect (at -4.445 4.59 90) (size 2.16 0.66) (layers F.Cu F.Paste F.Mask) (roundrect_rratio 0.2576))
  (pad 4 smd roundrect (at -3.175 4.59 90) (size 2.16 0.66) (layers F.Cu F.Paste F.Mask) (roundrect_rratio 0.2576))
  (pad 5 smd roundrect (at -1.905 4.59 90) (size 2.16 0.66) (layers F.Cu F.Paste F.Mask) (roundrect_rratio 0.2576))
  (pad 6 smd roundrect (at -0.635 4.59 90) (size 2.16 0.66) (layers F.Cu F.Paste F.Mask) (roundrect_rratio 0.2576))
  (pad 7 smd roundrect (at 0.635 4.59 90) (size 2.16 0.66) (layers F.Cu F.Paste F.Mask) (roundrect_rratio 0.2576))
  (pad 8 smd roundrect (at 1.905 4.59 90) (size 2.16 0.66) (layers F.Cu F.Paste F.Mask) (roundrect_rratio 0.2576))
  (pad 9 smd roundrect (at 3.175 4.59 90) (size 2.16 0.66) (layers F.Cu F.Paste F.Mask) (roundrect_rratio 0.2576))
  (pad 10 smd roundrect (at 4.445 4.59 90) (size 2.16 0.66) (layers F.Cu F.Paste F.Mask) (roundrect_rratio 0.2576))
  (pad 11 smd roundrect (at 5.715 4.59 90) (size 2.16 0.66) (layers F.Cu F.Paste F.Mask) (roundrect_rratio 0.2576))
  (pad 12 smd roundrect (at 6.985 4.59 90) (size 2.16 0.66) (layers F.Cu F.Paste F.Mask) (roundrect_rratio 0.2576))
  (pad 13 smd roundrect (at 6.985 -4.59 90) (size 2.16 0.66) (layers F.Cu F.Paste F.Mask) (roundrect_rratio 0.2576))
  (pad 14 smd roundrect (at 5.715 -4.59 90) (size 2.16 0.66) (layers F.Cu F.Paste F.Mask) (roundrect_rratio 0.2576))
  (pad 15 smd roundrect (at 4.445 -4.59 90) (size 2.16 0.66) (layers F.Cu F.Paste F.Mask) (roundrect_rratio 0.2576))
  (pad 16 smd roundrect (at 3.175 -4.59 90) (size 2.16 0.66) (layers F.Cu F.Paste F.Mask) (roundrect_rratio 0.2576))
  (pad 17 smd roundrect (at 1.905 -4.59 90) (size 2.16 0.66) (layers F.Cu F.Paste F.Mask) (roundrect_rratio 0.2576))
  (pad 18 smd roundrect (at 0.635 -4.59 90) (size 2.16 0.66) (layers F.Cu F.Paste F.Mask) (roundrect_rratio 0.2576))
  (pad 19 smd roundrect (at -0.635 -4.59 90) (size 2.16 0.66) (layers F.Cu F.Paste F.Mask) (roundrect_rratio 0.2576))
  (pad 20 smd roundrect (at -1.905 -4.59 90) (size 2.16 0.66) (layers F.Cu F.Paste F.Mask) (roundrect_rratio 0.2576))
  (pad 21 smd roundrect (at -3.175 -4.59 90) (size 2.16 0.66) (layers F.Cu F.Paste F.Mask) (roundrect_rratio 0.2576))
  (pad 22 smd roundrect (at -4.445 -4.59 90) (size 2.16 0.66) (layers F.Cu F.Paste F.Mask) (roundrect_rratio 0.2576))
  (pad 23 smd roundrect (at -5.715 -4.59 90) (size 2.16 0.66) (layers F.Cu F.Paste F.Mask) (roundrect_rratio 0.2576))
  (pad 24 smd roundrect (at -6.985 -4.59 90) (size 2.16 0.66) (layers F.Cu F.Paste F.Mask) (roundrect_rratio 0.2576))
)
