(module INDM320X250X240L55X190N (layer F.Cu) (tedit 0)
  (descr "Inductor, Molded Body; 3.10 mm L X 2.50 mm W X 2.40 mm H body")
  (attr smd)
  (fp_text user %R (at 0 0) (layer F.Fab)
    (effects (font (size 2 2) (thickness 0.2)))
  )
  (fp_text value VAL** (at 0 0) (layer F.Fab)
    (effects (font (size 1.2 1.2) (thickness 0.12)))
  )
  (fp_text reference REF** (at 0 0) (layer F.SilkS)
    (effects (font (size 1.2 1.2) (thickness 0.12)))
  )
  (fp_line (start -1.05 -0.95) (end -1.05 0.95) (layer Dwgs.User) (width 0.025))
  (fp_line (start -1.05 0.95) (end -1.6 0.95) (layer Dwgs.User) (width 0.025))
  (fp_line (start -1.6 0.95) (end -1.6 -0.95) (layer Dwgs.User) (width 0.025))
  (fp_line (start -1.6 -0.95) (end -1.05 -0.95) (layer Dwgs.User) (width 0.025))
  (fp_line (start 1.05 0.95) (end 1.05 -0.95) (layer Dwgs.User) (width 0.025))
  (fp_line (start 1.05 -0.95) (end 1.6 -0.95) (layer Dwgs.User) (width 0.025))
  (fp_line (start 1.6 -0.95) (end 1.6 0.95) (layer Dwgs.User) (width 0.025))
  (fp_line (start 1.6 0.95) (end 1.05 0.95) (layer Dwgs.User) (width 0.025))
  (fp_line (start -1.55 1.25) (end -1.55 -1.25) (layer Dwgs.User) (width 0.025))
  (fp_line (start -1.55 -1.25) (end 1.55 -1.25) (layer Dwgs.User) (width 0.025))
  (fp_line (start 1.55 -1.25) (end 1.55 1.25) (layer Dwgs.User) (width 0.025))
  (fp_line (start 1.55 1.25) (end -1.55 1.25) (layer Dwgs.User) (width 0.025))
  (fp_line (start -1.6 1.35) (end -1.6 -1.35) (layer F.Fab) (width 0.16))
  (fp_line (start -1.6 -1.35) (end 1.6 -1.35) (layer F.Fab) (width 0.16))
  (fp_line (start 1.6 -1.35) (end 1.6 1.35) (layer F.Fab) (width 0.16))
  (fp_line (start 1.6 1.35) (end -1.6 1.35) (layer F.Fab) (width 0.16))
  (fp_line (start 1.6 1.35) (end -1.6 1.35) (layer F.SilkS) (width 0.16))
  (fp_line (start -1.6 -1.35) (end 1.6 -1.35) (layer F.SilkS) (width 0.16))
  (fp_circle (center 0 0) (end 0 0.25) (layer F.CrtYd) (width 0.05))
  (fp_line (start 0.35 0) (end -0.35 0) (layer F.CrtYd) (width 0.05))
  (fp_line (start 0 -0.35) (end 0 0.35) (layer F.CrtYd) (width 0.05))
  (fp_line (start -1.8 1.55) (end 1.8 1.55) (layer F.CrtYd) (width 0.05))
  (fp_line (start 1.8 1.55) (end 1.8 1.215) (layer F.CrtYd) (width 0.05))
  (fp_line (start 1.8 1.215) (end 2.405 1.215) (layer F.CrtYd) (width 0.05))
  (fp_line (start 2.405 1.215) (end 2.405 -1.215) (layer F.CrtYd) (width 0.05))
  (fp_line (start 2.405 -1.215) (end 1.8 -1.215) (layer F.CrtYd) (width 0.05))
  (fp_line (start 1.8 -1.215) (end 1.8 -1.55) (layer F.CrtYd) (width 0.05))
  (fp_line (start 1.8 -1.55) (end -1.8 -1.55) (layer F.CrtYd) (width 0.05))
  (fp_line (start -1.8 -1.55) (end -1.8 -1.215) (layer F.CrtYd) (width 0.05))
  (fp_line (start -1.8 -1.215) (end -2.405 -1.215) (layer F.CrtYd) (width 0.05))
  (fp_line (start -2.405 -1.215) (end -2.405 1.215) (layer F.CrtYd) (width 0.05))
  (fp_line (start -2.405 1.215) (end -1.8 1.215) (layer F.CrtYd) (width 0.05))
  (fp_line (start -1.8 1.215) (end -1.8 1.55) (layer F.CrtYd) (width 0.05))
  (pad 1 smd roundrect (at -1.52 0) (size 1.37 2.03) (layers F.Cu F.Paste F.Mask) (roundrect_rratio 0.1825))
  (pad 2 smd roundrect (at 1.52 0) (size 1.37 2.03) (layers F.Cu F.Paste F.Mask) (roundrect_rratio 0.1825))
)
