(module "SIM808" (layer "F.Cu") (tedit 5FB3A6D6)
  (attr through_hole)
  (fp_text reference "REF**" (at -6.604 -14.732) (layer "F.SilkS")
    (effects (font (size 1.016 1.016) (thickness 0.1524)))
    (tstamp 571c6730-79f9-4e91-8275-20051eb7ec76)
  )
  (fp_text value "SIM808" (at 0 -0.75) (layer "F.Fab")
    (effects (font (size 1.5 1.5) (thickness 0.15)))
    (tstamp 6ed7f89c-83be-4d01-a683-da232f2b2b17)
  )
  (fp_line (start -8.57 -12) (end -12 -12) (layer "F.SilkS") (width 0.1) (tstamp 340d181a-441d-4c2b-b89b-5121924ab9c4))
  (fp_line (start -8.57 12) (end -12 12) (layer "F.SilkS") (width 0.1) (tstamp 40e7e4cf-ba2b-470d-8524-c77d4ca631df))
  (fp_line (start 12 12) (end 12 8.57) (layer "F.SilkS") (width 0.1) (tstamp 4a346430-1fea-4a33-8d85-e76d5bc1cf4c))
  (fp_line (start -12 -12) (end -12 -8.57) (layer "F.SilkS") (width 0.1) (tstamp 546077fe-764d-4fd4-ad60-8d0729e63e22))
  (fp_line (start -12 -8.57) (end -13.5 -8.57) (layer "F.SilkS") (width 0.1) (tstamp 5af782f5-ec39-48af-a779-e03580a50263))
  (fp_line (start 8.57 -12) (end 12 -12) (layer "F.SilkS") (width 0.1) (tstamp 5c6f22ab-5350-4396-a1a0-df038344dbb1))
  (fp_line (start 12 -12) (end 12 -8.57) (layer "F.SilkS") (width 0.1) (tstamp 9eea8d36-d2eb-438f-adcf-cb25004cac76))
  (fp_line (start 8.57 12) (end 12 12) (layer "F.SilkS") (width 0.1) (tstamp b992f732-4dd2-4dd1-b9fc-3be715583663))
  (fp_line (start -12 12) (end -12 8.57) (layer "F.SilkS") (width 0.1) (tstamp cd2cd98f-30fa-41ee-9353-5eadf9d40daa))
  (fp_circle (center -12.796 -9.206) (end -12.796 -9.46) (layer "F.SilkS") (width 0.4) (tstamp 878dbe44-8a5d-4c74-bbac-e5891a189fc5))
  (fp_line (start 9.5 -12.5) (end 12.5 -12.5) (layer "F.CrtYd") (width 0.1) (tstamp 158d7038-d3ec-4eb3-a1c1-c6615ef03799))
  (fp_line (start 12.5 -12.5) (end 12.5 -9.5) (layer "F.CrtYd") (width 0.1) (tstamp 201c405e-69b0-4079-b6d0-095466d4a160))
  (fp_line (start 12.5 9.5) (end 12.5 12.5) (layer "F.CrtYd") (width 0.1) (tstamp 27eed608-010c-4436-9f49-ae0c755e08e7))
  (fp_line (start 13.5 -9.5) (end 13.5 9.5) (layer "F.CrtYd") (width 0.1) (tstamp 2b7f73de-6134-41c8-b14b-6dc53e328d1a))
  (fp_line (start -13.5 9.5) (end -13.5 -9.5) (layer "F.CrtYd") (width 0.1) (tstamp 2d2c0c79-5e4e-45a9-9514-1182b8175484))
  (fp_line (start -12.5 12.5) (end -12.5 9.5) (layer "F.CrtYd") (width 0.1) (tstamp 2d4618e3-7307-4bda-b296-55522f398529))
  (fp_line (start -9.5 -13.5) (end 9.5 -13.5) (layer "F.CrtYd") (width 0.1) (tstamp 452704a9-3140-404f-925e-de6af4211d4f))
  (fp_line (start -9.5 13.5) (end -9.5 12.5) (layer "F.CrtYd") (width 0.1) (tstamp 48d50b27-87e1-426f-a828-1d8631a28ddf))
  (fp_line (start -9.5 -12.5) (end -9.5 -13.5) (layer "F.CrtYd") (width 0.1) (tstamp 5277f71b-f7bc-49c1-9fd1-3456dcfd0dbe))
  (fp_line (start 12.5 -9.5) (end 13.5 -9.5) (layer "F.CrtYd") (width 0.1) (tstamp 5339b5fa-bc3a-4e48-a095-0ad42d3c3810))
  (fp_line (start -12.5 -12.5) (end -9.5 -12.5) (layer "F.CrtYd") (width 0.1) (tstamp 5a751269-73fe-4002-a47d-33d412e73bcd))
  (fp_line (start -9.5 12.5) (end -12.5 12.5) (layer "F.CrtYd") (width 0.1) (tstamp 60098f41-0275-4851-8877-2202d3723d27))
  (fp_line (start 13.5 9.5) (end 12.5 9.5) (layer "F.CrtYd") (width 0.1) (tstamp 8695e66d-8426-4628-89ff-e30a532fc3e9))
  (fp_line (start 12.5 12.5) (end 9.5 12.5) (layer "F.CrtYd") (width 0.1) (tstamp 88171da0-a36d-48c0-bdc9-21586fb11763))
  (fp_line (start 9.5 13.5) (end -9.5 13.5) (layer "F.CrtYd") (width 0.1) (tstamp a3f12417-e6c8-4c9a-b599-2e8530d74201))
  (fp_line (start -13.5 -9.5) (end -12.5 -9.5) (layer "F.CrtYd") (width 0.1) (tstamp d5f4386d-eeda-4f69-821a-dc14d596a889))
  (fp_line (start -12.5 9.5) (end -13.5 9.5) (layer "F.CrtYd") (width 0.1) (tstamp d8b3a194-1ca7-4546-a99b-3a6af93c32b8))
  (fp_line (start 9.5 -13.5) (end 9.5 -12.5) (layer "F.CrtYd") (width 0.1) (tstamp fcc045dd-e847-4bf1-9417-2089e9f26c64))
  (fp_line (start -12.5 -9.5) (end -12.5 -12.5) (layer "F.CrtYd") (width 0.1) (tstamp fd47a756-ec5c-4d6f-8728-172e980cef4e))
  (fp_line (start 9.5 12.5) (end 9.5 13.5) (layer "F.CrtYd") (width 0.1) (tstamp ff9a9747-0fe0-42ca-a6d1-5276a90f53fd))
  (fp_line (start -0.027161 -0.360672) (end -0.027161 0.339328) (layer "F.Fab") (width 0.05) (tstamp 2666c546-5547-4bf4-b67e-e7657b5a3f8e))
  (fp_line (start -11.904 -11.938) (end 12.096 -11.938) (layer "F.Fab") (width 0.1) (tstamp 40ec6ea3-3317-4f90-a242-87c120e9da9e))
  (fp_line (start -11.904 12.062) (end -11.904 -11.938) (layer "F.Fab") (width 0.1) (tstamp 57f4d533-561e-4983-8a11-bd20d64f26e4))
  (fp_line (start 12.096 12.062) (end -11.904 12.062) (layer "F.Fab") (width 0.1) (tstamp 62a865cd-50c2-4432-94ae-57970c396d0f))
  (fp_line (start 0.322839 -0.010672) (end -0.377161 -0.010672) (layer "F.Fab") (width 0.05) (tstamp 69ef4aed-6af9-4c15-9c4b-35fb8488fe8c))
  (fp_line (start 12.096 -11.938) (end 12.096 12.062) (layer "F.Fab") (width 0.1) (tstamp 98f4448e-84c1-4962-a482-c9606de62a3f))
  (fp_circle (center -0.027161 -0.010672) (end 0.222839 -0.010672) (layer "F.Fab") (width 0.05) (tstamp 1109d20c-bd56-4974-953e-ce857eae1601))
  (pad "1" smd oval (at -12 -8) (size 1.6 0.6) (layers "F.Cu" "F.Paste" "F.Mask") (tstamp 1ee30be4-94ed-490a-b6ff-443dca9a68e3))
  (pad "2" smd oval (at -12 -7) (size 1.6 0.6) (layers "F.Cu" "F.Paste" "F.Mask") (tstamp 2d70e746-85db-45bc-b9f8-2e780b5d4a29))
  (pad "3" smd oval (at -12 -6) (size 1.6 0.6) (layers "F.Cu" "F.Paste" "F.Mask") (tstamp e76f58d1-24f7-49a6-843d-a6bb89311eec))
  (pad "4" smd oval (at -12 -5) (size 1.6 0.6) (layers "F.Cu" "F.Paste" "F.Mask") (tstamp 30e66c53-a1ff-42a7-abe5-35e0261ef43c))
  (pad "5" smd oval (at -12 -4) (size 1.6 0.6) (layers "F.Cu" "F.Paste" "F.Mask") (tstamp 88faf184-f9d6-417d-bdfe-52b0e0495c8d))
  (pad "6" smd oval (at -12 -3) (size 1.6 0.6) (layers "F.Cu" "F.Paste" "F.Mask") (tstamp 3b16c59c-44c1-4f15-b0cb-13695949420b))
  (pad "7" smd oval (at -12 -2) (size 1.6 0.6) (layers "F.Cu" "F.Paste" "F.Mask") (tstamp 0096a0c2-75ed-4368-80a2-0b3c5c9efa40))
  (pad "8" smd oval (at -12 -1) (size 1.6 0.6) (layers "F.Cu" "F.Paste" "F.Mask") (tstamp f660e9cd-0489-4a16-a649-f01f42b52205))
  (pad "9" smd oval (at -12 0) (size 1.6 0.6) (layers "F.Cu" "F.Paste" "F.Mask") (tstamp cca511c6-6b5c-464f-b724-d373a21bc1d1))
  (pad "10" smd oval (at -12 1) (size 1.6 0.6) (layers "F.Cu" "F.Paste" "F.Mask") (tstamp f81147e3-28a1-46d7-8a55-9d19d52482f3))
  (pad "11" smd oval (at -12 2) (size 1.6 0.6) (layers "F.Cu" "F.Paste" "F.Mask") (tstamp ee47e14a-9cda-48c6-8ef3-a26f2e040816))
  (pad "12" smd oval (at -12 3) (size 1.6 0.6) (layers "F.Cu" "F.Paste" "F.Mask") (tstamp cae1feb9-6ed2-4a1d-a790-9a5e5810274f))
  (pad "13" smd oval (at -12 4) (size 1.6 0.6) (layers "F.Cu" "F.Paste" "F.Mask") (tstamp d85bbc66-a6ba-4756-80eb-1c8b10b9d009))
  (pad "14" smd oval (at -12 5) (size 1.6 0.6) (layers "F.Cu" "F.Paste" "F.Mask") (tstamp 3c9b6445-dea6-4674-a74f-6d31a345a7ee))
  (pad "15" smd oval (at -12 6) (size 1.6 0.6) (layers "F.Cu" "F.Paste" "F.Mask") (tstamp 4c5b22ce-908f-4d77-b8cf-c1858b4200b2))
  (pad "16" smd oval (at -12 7) (size 1.6 0.6) (layers "F.Cu" "F.Paste" "F.Mask") (tstamp fd40b3c0-aeda-4a16-89be-caeccb412324))
  (pad "17" smd oval (at -12 8) (size 1.6 0.6) (layers "F.Cu" "F.Paste" "F.Mask") (tstamp 290d52de-c6b7-451c-b448-2a01a0a8cc5e))
  (pad "18" smd oval (at -8 12 90) (size 1.6 0.6) (layers "F.Cu" "F.Paste" "F.Mask") (tstamp c26ead5d-9111-47cc-8d40-ce8d82df8b02))
  (pad "19" smd oval (at -7 12 90) (size 1.6 0.6) (layers "F.Cu" "F.Paste" "F.Mask") (tstamp 3a0fea95-b735-4313-b8bd-a2a50f0669cf))
  (pad "20" smd oval (at -6 12 90) (size 1.6 0.6) (layers "F.Cu" "F.Paste" "F.Mask") (tstamp bfffab62-f088-47ff-a3ff-10a909ba99fc))
  (pad "21" smd oval (at -5 12 90) (size 1.6 0.6) (layers "F.Cu" "F.Paste" "F.Mask") (tstamp aa9519d5-2b44-4008-8d6b-6438168989c3))
  (pad "22" smd oval (at -4 12 90) (size 1.6 0.6) (layers "F.Cu" "F.Paste" "F.Mask") (tstamp d1ce3e73-57aa-4877-bb35-a64d6549ffe1))
  (pad "23" smd oval (at -3 12 90) (size 1.6 0.6) (layers "F.Cu" "F.Paste" "F.Mask") (tstamp c0683932-59a8-4db1-909c-6858ee2e39b5))
  (pad "24" smd oval (at -2 12 90) (size 1.6 0.6) (layers "F.Cu" "F.Paste" "F.Mask") (tstamp c5498d13-1784-4f7e-9a60-07c6addd9cf2))
  (pad "25" smd oval (at -1 12 90) (size 1.6 0.6) (layers "F.Cu" "F.Paste" "F.Mask") (tstamp dad6cd3f-60a3-4724-a378-0a0b8d1e2c23))
  (pad "26" smd oval (at 0 12 90) (size 1.6 0.6) (layers "F.Cu" "F.Paste" "F.Mask") (tstamp e31626e1-1ea5-4d53-a1ee-0ed53dc4ae2f))
  (pad "27" smd oval (at 1 12 90) (size 1.6 0.6) (layers "F.Cu" "F.Paste" "F.Mask") (tstamp 6b05e640-f89d-41b3-b49c-2a14d3ec6773))
  (pad "28" smd oval (at 2 12 90) (size 1.6 0.6) (layers "F.Cu" "F.Paste" "F.Mask") (tstamp 7c1ddb3f-ed59-424f-aa88-ac450f94705a))
  (pad "29" smd oval (at 3 12 90) (size 1.6 0.6) (layers "F.Cu" "F.Paste" "F.Mask") (tstamp 47568343-4dcd-4842-bc8f-5f21b240fd63))
  (pad "30" smd oval (at 4 12 90) (size 1.6 0.6) (layers "F.Cu" "F.Paste" "F.Mask") (tstamp f14e946d-2fdf-43ec-b6ed-8538988812f0))
  (pad "31" smd oval (at 5 12 90) (size 1.6 0.6) (layers "F.Cu" "F.Paste" "F.Mask") (tstamp a292dda9-85dc-45b6-84d0-a8763b0a7059))
  (pad "32" smd oval (at 6 12 90) (size 1.6 0.6) (layers "F.Cu" "F.Paste" "F.Mask") (tstamp 2ed2d5c3-7338-4066-bba1-6cc4d1b875b8))
  (pad "33" smd oval (at 7 12 90) (size 1.6 0.6) (layers "F.Cu" "F.Paste" "F.Mask") (tstamp 1659a72e-79b2-443a-8fe9-34b801bd7fa9))
  (pad "34" smd oval (at 8 12 90) (size 1.6 0.6) (layers "F.Cu" "F.Paste" "F.Mask") (tstamp 89f3b8ef-c5e4-4c6f-a4b8-4631de8f3e95))
  (pad "35" smd oval (at 12 8) (size 1.6 0.6) (layers "F.Cu" "F.Paste" "F.Mask") (tstamp 29bdd2bd-c0f3-4c7f-87c7-3a39a85f6fc7))
  (pad "36" smd oval (at 12 7) (size 1.6 0.6) (layers "F.Cu" "F.Paste" "F.Mask") (tstamp 0da0f62d-2681-468d-a407-037550caceda))
  (pad "37" smd oval (at 12 6) (size 1.6 0.6) (layers "F.Cu" "F.Paste" "F.Mask") (tstamp 7aeda39e-64f3-4427-a805-174173c2783a))
  (pad "38" smd oval (at 12 5) (size 1.6 0.6) (layers "F.Cu" "F.Paste" "F.Mask") (tstamp e4d82ea0-dc55-4849-98c3-d39b87acbb48))
  (pad "39" smd oval (at 12 4) (size 1.6 0.6) (layers "F.Cu" "F.Paste" "F.Mask") (tstamp df4bff43-a2f1-4219-be4d-d6ae367a8bdb))
  (pad "40" smd oval (at 12 3) (size 1.6 0.6) (layers "F.Cu" "F.Paste" "F.Mask") (tstamp 3dff8e15-db22-483e-b413-00e2a4f52e93))
  (pad "41" smd oval (at 12 2) (size 1.6 0.6) (layers "F.Cu" "F.Paste" "F.Mask") (tstamp d79120cd-5ab1-4e7e-8664-d1f3b27ef514))
  (pad "42" smd oval (at 12 1) (size 1.6 0.6) (layers "F.Cu" "F.Paste" "F.Mask") (tstamp 145eb365-ff49-4c1b-bf7f-6616b4841de3))
  (pad "43" smd oval (at 12 0) (size 1.6 0.6) (layers "F.Cu" "F.Paste" "F.Mask") (tstamp 4ed326a6-cb97-49d6-a22a-748b825200f1))
  (pad "44" smd oval (at 12 -1) (size 1.6 0.6) (layers "F.Cu" "F.Paste" "F.Mask") (tstamp 5f995baf-b4cf-4181-934e-e1f448a4ca83))
  (pad "45" smd oval (at 12 -2) (size 1.6 0.6) (layers "F.Cu" "F.Paste" "F.Mask") (tstamp 193b9f07-46d5-4efd-a037-66da0310f8b3))
  (pad "46" smd oval (at 12 -3) (size 1.6 0.6) (layers "F.Cu" "F.Paste" "F.Mask") (tstamp 6bc2c34e-a1a7-4ca6-8837-0601bfc5de90))
  (pad "47" smd oval (at 12 -4) (size 1.6 0.6) (layers "F.Cu" "F.Paste" "F.Mask") (tstamp 50c70452-37d1-45ff-b6d1-af21c9e4a2a4))
  (pad "48" smd oval (at 12 -5) (size 1.6 0.6) (layers "F.Cu" "F.Paste" "F.Mask") (tstamp f26afbd1-92b4-482d-992f-56be8adf1057))
  (pad "49" smd oval (at 12 -6) (size 1.6 0.6) (layers "F.Cu" "F.Paste" "F.Mask") (tstamp c70638cf-9606-4ba8-a528-55f49d5d23d2))
  (pad "50" smd oval (at 12 -7) (size 1.6 0.6) (layers "F.Cu" "F.Paste" "F.Mask") (tstamp 7ed6dbdc-3731-413e-a946-2c935cff3f52))
  (pad "51" smd oval (at 12 -8) (size 1.6 0.6) (layers "F.Cu" "F.Paste" "F.Mask") (tstamp 068cdaed-feda-49f3-b3ab-dda2cfe9ee07))
  (pad "52" smd oval (at 8 -12 90) (size 1.6 0.6) (layers "F.Cu" "F.Paste" "F.Mask") (tstamp 68ce492e-93fc-4bd1-9707-d87e415ff748))
  (pad "53" smd oval (at 7 -12 90) (size 1.6 0.6) (layers "F.Cu" "F.Paste" "F.Mask") (tstamp 2293be3c-4b9f-48c8-9445-0235940ad9e4))
  (pad "54" smd oval (at 6 -12 90) (size 1.6 0.6) (layers "F.Cu" "F.Paste" "F.Mask") (tstamp 82dd9aae-dea5-41c8-86ce-cad4dc7c8552))
  (pad "55" smd oval (at 5 -12 90) (size 1.6 0.6) (layers "F.Cu" "F.Paste" "F.Mask") (tstamp 8fc3b848-bfec-40da-afe3-fc70f07836bd))
  (pad "56" smd oval (at 4 -12 90) (size 1.6 0.6) (layers "F.Cu" "F.Paste" "F.Mask") (tstamp 784fc638-41e1-436f-b5d2-19863d66e160))
  (pad "57" smd oval (at 3 -12 90) (size 1.6 0.6) (layers "F.Cu" "F.Paste" "F.Mask") (tstamp c1d8933e-4dcc-42f2-975b-db8cc19151b0))
  (pad "58" smd oval (at 2 -12 90) (size 1.6 0.6) (layers "F.Cu" "F.Paste" "F.Mask") (tstamp 3821a332-6125-4a05-8c19-2a9815d3ae47))
  (pad "59" smd oval (at 1 -12 90) (size 1.6 0.6) (layers "F.Cu" "F.Paste" "F.Mask") (tstamp b5882d02-5797-4f6a-bd62-222eaf2d7fc4))
  (pad "60" smd oval (at 0 -12 90) (size 1.6 0.6) (layers "F.Cu" "F.Paste" "F.Mask") (tstamp 8759d16b-0039-4e7c-bfe6-559d2291dfb0))
  (pad "61" smd oval (at -1 -12 90) (size 1.6 0.6) (layers "F.Cu" "F.Paste" "F.Mask") (tstamp 39061a2e-d86e-4c0b-a0a9-88a829b6b528))
  (pad "62" smd oval (at -2 -12 90) (size 1.6 0.6) (layers "F.Cu" "F.Paste" "F.Mask") (tstamp b2957871-54d8-4a61-b3d0-31f925b57faa))
  (pad "63" smd oval (at -3 -12 90) (size 1.6 0.6) (layers "F.Cu" "F.Paste" "F.Mask") (tstamp 1b056fdb-ae80-48a2-9bf9-fc331cf8bb71))
  (pad "64" smd oval (at -4 -12 90) (size 1.6 0.6) (layers "F.Cu" "F.Paste" "F.Mask") (tstamp 75b2d1b0-e0ba-405c-a389-b81c7ed0a27d))
  (pad "65" smd oval (at -5 -12 90) (size 1.6 0.6) (layers "F.Cu" "F.Paste" "F.Mask") (tstamp 45cd11dc-d1ae-4c61-82f3-d0d01669efbf))
  (pad "66" smd oval (at -6 -12 90) (size 1.6 0.6) (layers "F.Cu" "F.Paste" "F.Mask") (tstamp f4b14676-0582-4b2c-9cbd-7d0cb2a1f680))
  (pad "67" smd oval (at -7 -12 90) (size 1.6 0.6) (layers "F.Cu" "F.Paste" "F.Mask") (tstamp 563d8995-9121-4637-b2c2-abcaf0f89b08))
  (pad "68" smd oval (at -8 -12 90) (size 1.6 0.6) (layers "F.Cu" "F.Paste" "F.Mask") (tstamp 3bb873e6-837c-4f07-9928-0c73f67cf2c3))
  (model "${KISYS3DMOD}/SIM808.STEP"
    (offset (xyz 0 0 0))
    (scale (xyz 1 1 1))
    (rotate (xyz 0 0 0))
  )
)
